Edges,C1Spect,C2Spect,Edges_old,C1Spect_old,C2Spect_old
-2.22044604925031e-16,2,35,-2.22044604925031e-16,0,5
40,1,32,40,3,10
80,1,33,80,1,8
120,2,24,120,0,10
160,0,27,160,0,11
200,0,29,200,0,12
240,1,21,240,0,10
280,3,22,280,0,16
320,2,22,320,0,12
360,0,21,360,0,8
400,0,22,400,0,9
440,1,18,440,1,11
480,0,27,480,0,16
520,0,20,520,0,13
560,0,23,560,1,9
600,0,29,600,0,18
640,0,32,640,0,13
680,0,27,680,1,15
720,1,17,720,0,17
760,0,27,760,0,8
800,1,24,800,0,10
840,1,35,840,0,5
880,0,27,880,0,12
920,1,27,920,0,17
960,1,19,960,0,17
1000,0,20,1000,0,13
1040,0,24,1040,0,14
1080,1,24,1080,0,10
1120,1,26,1120,0,8
1160,0,14,1160,0,18
1200,3,28,1200,0,12
1240,0,26,1240,0,7
1280,1,19,1280,0,10
1320,1,23,1320,0,8
1360,0,29,1360,0,10
1400,0,19,1400,0,13
1440,0,25,1440,0,12
1480,1,35,1480,0,15
1520,1,24,1520,0,8
1560,3,32,1560,0,11
1600,3,25,1600,0,14
1640,0,20,1640,0,9
1680,1,28,1680,1,15
1720,2,33,1720,0,11
1760,1,24,1760,0,10
1800,2,18,1800,0,9
1840,1,26,1840,2,14
1880,3,34,1880,0,15
1920,1,29,1920,0,9
1960,1,17,1960,0,9
2000,0,22,2000,0,14
2040,0,27,2040,1,13
2080,2,17,2080,0,15
2120,1,26,2120,0,12
2160,0,33,2160,0,14
2200,2,33,2200,0,16
2240,1,26,2240,0,15
2280,0,27,2280,0,8
2320,2,28,2320,0,7
2360,1,21,2360,0,8
2400,2,17,2400,0,7
2440,1,14,2440,0,10
2480,1,22,2480,0,7
2520,2,28,2520,1,10
2560,0,12,2560,0,14
2600,1,22,2600,1,12
2640,1,23,2640,0,13
2680,1,21,2680,1,7
2720,0,22,2720,0,5
2760,1,21,2760,0,15
2800,4,26,2800,0,10
2840,1,18,2840,1,11
2880,1,25,2880,0,9
2920,4,18,2920,0,12
2960,1,16,2960,1,9
3000,0,19,3000,0,7
3040,1,22,3040,0,6
3080,1,17,3080,0,12
3120,1,30,3120,0,9
3160,0,14,3160,0,6
3200,1,21,3200,0,8
3240,0,32,3240,0,11
3280,3,18,3280,0,9
3320,2,41,3320,1,14
3360,0,106,3360,0,37
3400,2,3680,3400,1,1560
3440,3,5864,3440,0,2566
3480,2,446,3480,1,225
3520,3,64,3520,0,28
3560,3,31,3560,0,9
3600,2,19,3600,0,13
3640,1,16,3640,0,12
3680,5,18,3680,2,11
3720,5,27,3720,1,10
3760,1,19,3760,1,11
3800,4,23,3800,4,11
3840,9,21,3840,4,6
3880,6,22,3880,3,11
3920,5,21,3920,4,14
3960,10,21,3960,1,5
4000,5,24,4000,4,13
4040,5,26,4040,4,6
4080,14,18,4080,2,12
4120,9,21,4120,4,6
4160,11,19,4160,8,6
4200,9,21,4200,5,10
4240,17,17,4240,6,12
4280,11,25,4280,4,10
4320,7,16,4320,4,5
4360,6,21,4360,2,10
4400,7,16,4400,5,7
4440,9,14,4440,2,8
4480,10,21,4480,6,11
4520,4,30,4520,2,6
4560,7,27,4560,5,11
4600,4,16,4600,2,11
4640,7,31,4640,2,10
4680,5,26,4680,6,8
4720,4,18,4720,0,7
4760,6,12,4760,2,8
4800,6,23,4800,1,5
4840,1,14,4840,0,13
4880,4,18,4880,1,6
4920,7,23,4920,1,4
4960,5,25,4960,1,5
5000,3,19,5000,3,10
5040,6,11,5040,1,8
5080,3,14,5080,1,9
5120,1,23,5120,0,10
5160,4,11,5160,0,3
5200,1,16,5200,1,9
5240,2,18,5240,0,7
5280,2,11,5280,1,5
5320,2,27,5320,3,10
5360,1,18,5360,1,8
5400,2,19,5400,2,6
5440,1,27,5440,1,10
5480,3,17,5480,2,10
5520,2,11,5520,1,5
5560,1,23,5560,1,3
5600,1,18,5600,0,11
5640,1,14,5640,1,2
5680,0,25,5680,0,7
5720,2,15,5720,0,2
5760,0,15,5760,2,8
5800,1,13,5800,3,8
5840,1,8,5840,0,8
5880,2,17,5880,2,4
5920,1,17,5920,1,9
5960,1,19,5960,1,8
6000,4,17,6000,1,7
6040,2,14,6040,1,9
6080,2,13,6080,0,3
6120,5,17,6120,0,4
6160,4,15,6160,1,8
6200,6,12,6200,0,7
6240,5,15,6240,3,3
6280,6,27,6280,1,11
6320,3,18,6320,1,11
6360,8,15,6360,6,7
6400,7,14,6400,5,5
6440,8,19,6440,7,7
6480,8,22,6480,1,3
6520,3,19,6520,2,9
6560,5,19,6560,1,6
6600,3,16,6600,1,8
6640,5,13,6640,0,8
6680,3,15,6680,0,6
6720,5,18,6720,1,9
6760,8,12,6760,0,7
6800,6,17,6800,3,7
6840,9,11,6840,2,9
6880,7,22,6880,1,7
6920,12,24,6920,3,6
6960,12,17,6960,0,5
7000,25,17,7000,3,9
7040,31,16,7040,11,6
7080,34,11,7080,11,3
7120,48,14,7120,11,13
7160,77,17,7160,20,3
7200,82,17,7200,27,7
7240,146,13,7240,31,7
7280,196,18,7280,36,9
7320,263,13,7320,49,7
7360,345,19,7360,65,5
7400,470,12,7400,80,7
7440,638,16,7440,79,6
7480,845,5,7480,113,11
7520,1026,28,7520,147,6
7560,1300,12,7560,245,7
7600,1416,17,7600,837,11
7640,1615,13,7640,2867,10
7680,1523,13,7680,1236,6
7720,1500,10,7720,301,7
7760,1142,14,7760,137,9
7800,940,20,7800,91,5
7840,579,16,7840,76,5
7880,448,10,7880,61,6
7920,269,9,7920,46,7
7960,140,17,7960,31,8
8000,107,16,8000,29,9
8040,83,26,8040,13,6
8080,52,15,8080,15,8
8120,34,20,8120,21,6
8160,22,12,8160,12,3
8200,16,19,8200,7,9
8240,5,12,8240,9,6
8280,11,16,8280,8,1
8320,6,14,8320,7,6
8360,4,16,8360,11,7
8400,4,14,8400,7,4
8440,4,11,8440,8,8
8480,0,18,8480,3,5
8520,5,18,8520,1,4
8560,4,17,8560,0,7
8600,0,5,8600,0,6
8640,4,9,8640,0,4
8680,1,19,8680,1,4
8720,2,17,8720,0,14
8760,0,11,8760,0,9
8800,0,10,8800,0,8
8840,2,12,8840,0,6
8880,1,11,8880,1,3
8920,1,15,8920,0,6
8960,1,12,8960,0,5
9000,1,7,9000,0,4
9040,1,12,9040,0,6
9080,3,13,9080,1,10
9120,0,19,9120,1,5
9160,0,15,9160,0,3
9200,0,12,9200,1,5
9240,1,12,9240,0,8
9280,0,9,9280,0,8
9320,1,11,9320,1,1
9360,2,8,9360,0,8
9400,1,12,9400,1,5
9440,1,15,9440,1,7
9480,0,19,9480,1,3
9520,0,13,9520,0,5
9560,1,17,9560,1,6
9600,0,18,9600,0,7
9640,1,18,9640,0,4
9680,1,21,9680,0,9
9720,1,16,9720,0,7
9760,1,27,9760,0,5
9800,0,19,9800,0,6
9840,0,15,9840,0,4
9880,0,17,9880,0,3
9920,2,9,9920,0,8
9960,2,22,9960,0,4
10000,1,17,10000,0,5
10040,0,16,10040,1,8
10080,0,9,10080,0,8
10120,0,11,10120,0,12
10160,0,11,10160,0,3
10200,0,17,10200,0,9
10240,1,18,10240,1,5
10280,1,16,10280,0,4
10320,0,11,10320,1,5
10360,0,22,10360,0,4
10400,1,15,10400,0,7
10440,0,15,10440,0,4
10480,0,4,10480,0,2
10520,1,12,10520,0,4
10560,1,17,10560,0,3
10600,0,38,10600,0,21
10640,2,25,10640,0,11
10680,2,18,10680,0,7
10720,0,18,10720,0,5
10760,0,9,10760,1,5
10800,1,17,10800,0,6
10840,1,8,10840,0,4
10880,0,13,10880,0,5
10920,0,14,10920,0,10
10960,0,14,10960,1,3
11000,0,17,11000,0,3
11040,0,10,11040,0,7
11080,2,14,11080,0,5
11120,0,12,11120,1,8
11160,3,14,11160,0,7
11200,3,12,11200,0,4
11240,2,17,11240,0,5
11280,2,25,11280,0,7
11320,1,10,11320,0,3
11360,1,8,11360,0,6
11400,2,20,11400,0,6
11440,1,15,11440,1,7
11480,1,22,11480,0,6
11520,0,17,11520,0,8
11560,1,20,11560,0,12
11600,3,24,11600,0,19
11640,1,29,11640,0,6
11680,0,22,11680,0,7
11720,0,19,11720,0,8
11760,3,16,11760,0,5
11800,1,15,11800,2,11
11840,1,20,11840,1,8
11880,1,20,11880,0,12
11920,1,21,11920,1,8
11960,1,19,11960,0,8
12000,0,24,12000,0,11
12040,1,18,12040,0,8
12080,0,18,12080,0,5
12120,0,29,12120,0,14
12160,0,25,12160,1,15
12200,3,23,12200,0,8
12240,1,25,12240,1,14
12280,0,23,12280,1,14
12320,0,30,12320,0,9
12360,1,35,12360,0,6
12400,0,24,12400,0,15
12440,1,26,12440,2,7
12480,0,13,12480,0,6
