%!PS-Adobe-3.0 EPSF-3.0
%%Creator: (MATLAB, The Mathworks, Inc. Version 9.2.0.538062 \(R2017a\). Operating System: Windows 7)
%%Title: D:/MichalM/Spektrometr/D?ugosc_impulsu.eps
%%CreationDate: 2017-12-03T20:30:03
%%Pages: (atend)
%%BoundingBox: 0 0 900 563
%%LanguageLevel: 3
%%EndComments
%%BeginProlog
%%BeginResource: procset (Apache XML Graphics Std ProcSet) 1.2 0
%%Version: 1.2 0
%%Copyright: (Copyright 2001-2003,2010 The Apache Software Foundation. License terms: http://www.apache.org/licenses/LICENSE-2.0)
/bd{bind def}bind def
/ld{load def}bd
/GR/grestore ld
/M/moveto ld
/LJ/setlinejoin ld
/C/curveto ld
/f/fill ld
/LW/setlinewidth ld
/GC/setgray ld
/t/show ld
/N/newpath ld
/CT/concat ld
/cp/closepath ld
/S/stroke ld
/L/lineto ld
/CC/setcmykcolor ld
/A/ashow ld
/GS/gsave ld
/RC/setrgbcolor ld
/RM/rmoveto ld
/ML/setmiterlimit ld
/re {4 2 roll M
1 index 0 rlineto
0 exch rlineto
neg 0 rlineto
cp } bd
/_ctm matrix def
/_tm matrix def
/BT { _ctm currentmatrix pop matrix _tm copy pop 0 0 moveto } bd
/ET { _ctm setmatrix } bd
/iTm { _ctm setmatrix _tm concat } bd
/Tm { _tm astore pop iTm 0 0 moveto } bd
/ux 0.0 def
/uy 0.0 def
/F {
  /Tp exch def
  /Tf exch def
  Tf findfont Tp scalefont setfont
  /cf Tf def  /cs Tp def
} bd
/ULS {currentpoint /uy exch def /ux exch def} bd
/ULE {
  /Tcx currentpoint pop def
  gsave
  newpath
  cf findfont cs scalefont dup
  /FontMatrix get 0 get /Ts exch def /FontInfo get dup
  /UnderlinePosition get Ts mul /To exch def
  /UnderlineThickness get Ts mul /Tt exch def
  ux uy To add moveto  Tcx uy To add lineto
  Tt setlinewidth stroke
  grestore
} bd
/OLE {
  /Tcx currentpoint pop def
  gsave
  newpath
  cf findfont cs scalefont dup
  /FontMatrix get 0 get /Ts exch def /FontInfo get dup
  /UnderlinePosition get Ts mul /To exch def
  /UnderlineThickness get Ts mul /Tt exch def
  ux uy To add cs add moveto Tcx uy To add cs add lineto
  Tt setlinewidth stroke
  grestore
} bd
/SOE {
  /Tcx currentpoint pop def
  gsave
  newpath
  cf findfont cs scalefont dup
  /FontMatrix get 0 get /Ts exch def /FontInfo get dup
  /UnderlinePosition get Ts mul /To exch def
  /UnderlineThickness get Ts mul /Tt exch def
  ux uy To add cs 10 mul 26 idiv add moveto Tcx uy To add cs 10 mul 26 idiv add lineto
  Tt setlinewidth stroke
  grestore
} bd
/QT {
/Y22 exch store
/X22 exch store
/Y21 exch store
/X21 exch store
currentpoint
/Y21 load 2 mul add 3 div exch
/X21 load 2 mul add 3 div exch
/X21 load 2 mul /X22 load add 3 div
/Y21 load 2 mul /Y22 load add 3 div
/X22 load /Y22 load curveto
} bd
/SSPD {
dup length /d exch dict def
{
/v exch def
/k exch def
currentpagedevice k known {
/cpdv currentpagedevice k get def
v cpdv ne {
/upd false def
/nullv v type /nulltype eq def
/nullcpdv cpdv type /nulltype eq def
nullv nullcpdv or
{
/upd true def
} {
/sametype v type cpdv type eq def
sametype {
v type /arraytype eq {
/vlen v length def
/cpdvlen cpdv length def
vlen cpdvlen eq {
0 1 vlen 1 sub {
/i exch def
/obj v i get def
/cpdobj cpdv i get def
obj cpdobj ne {
/upd true def
exit
} if
} for
} {
/upd true def
} ifelse
} {
v type /dicttype eq {
v {
/dv exch def
/dk exch def
/cpddv cpdv dk get def
dv cpddv ne {
/upd true def
exit
} if
} forall
} {
/upd true def
} ifelse
} ifelse
} if
} ifelse
upd true eq {
d k v put
} if
} if
} if
} forall
d length 0 gt {
d setpagedevice
} if
} bd
/RE { % /NewFontName [NewEncodingArray] /FontName RE -
  findfont dup length dict begin
  {
    1 index /FID ne
    {def} {pop pop} ifelse
  } forall
  /Encoding exch def
  /FontName 1 index def
  currentdict definefont pop
  end
} bind def
%%EndResource
%%BeginResource: procset (Apache XML Graphics EPS ProcSet) 1.0 0
%%Version: 1.0 0
%%Copyright: (Copyright 2002-2003 The Apache Software Foundation. License terms: http://www.apache.org/licenses/LICENSE-2.0)
/BeginEPSF { %def
/b4_Inc_state save def         % Save state for cleanup
/dict_count countdictstack def % Count objects on dict stack
/op_count count 1 sub def      % Count objects on operand stack
userdict begin                 % Push userdict on dict stack
/showpage { } def              % Redefine showpage, { } = null proc
0 setgray 0 setlinecap         % Prepare graphics state
1 setlinewidth 0 setlinejoin
10 setmiterlimit [ ] 0 setdash newpath
/languagelevel where           % If level not equal to 1 then
{pop languagelevel             % set strokeadjust and
1 ne                           % overprint to their defaults.
{false setstrokeadjust false setoverprint
} if
} if
} bd
/EndEPSF { %def
count op_count sub {pop} repeat            % Clean up stacks
countdictstack dict_count sub {end} repeat
b4_Inc_state restore
} bd
%%EndResource
%FOPBeginFontDict
%%IncludeResource: font Courier-Bold
%%IncludeResource: font Helvetica
%%IncludeResource: font Courier-BoldOblique
%%IncludeResource: font Courier-Oblique
%%IncludeResource: font Times-Roman
%%IncludeResource: font Helvetica-BoldOblique
%%IncludeResource: font Helvetica-Bold
%%IncludeResource: font Helvetica-Oblique
%%IncludeResource: font Times-BoldItalic
%%IncludeResource: font Courier
%%IncludeResource: font Times-Italic
%%IncludeResource: font Times-Bold
%%IncludeResource: font Symbol
%%IncludeResource: font ZapfDingbats
%FOPEndFontDict
%%BeginResource: encoding WinAnsiEncoding
/WinAnsiEncoding [
/.notdef /.notdef /.notdef /.notdef /.notdef
/.notdef /.notdef /.notdef /.notdef /.notdef
/.notdef /.notdef /.notdef /.notdef /.notdef
/.notdef /.notdef /.notdef /.notdef /.notdef
/.notdef /.notdef /.notdef /.notdef /.notdef
/.notdef /.notdef /.notdef /.notdef /.notdef
/.notdef /.notdef /space /exclam /quotedbl
/numbersign /dollar /percent /ampersand /quotesingle
/parenleft /parenright /asterisk /plus /comma
/hyphen /period /slash /zero /one
/two /three /four /five /six
/seven /eight /nine /colon /semicolon
/less /equal /greater /question /at
/A /B /C /D /E
/F /G /H /I /J
/K /L /M /N /O
/P /Q /R /S /T
/U /V /W /X /Y
/Z /bracketleft /backslash /bracketright /asciicircum
/underscore /quoteleft /a /b /c
/d /e /f /g /h
/i /j /k /l /m
/n /o /p /q /r
/s /t /u /v /w
/x /y /z /braceleft /bar
/braceright /asciitilde /bullet /Euro /bullet
/quotesinglbase /florin /quotedblbase /ellipsis /dagger
/daggerdbl /circumflex /perthousand /Scaron /guilsinglleft
/OE /bullet /Zcaron /bullet /bullet
/quoteleft /quoteright /quotedblleft /quotedblright /bullet
/endash /emdash /asciitilde /trademark /scaron
/guilsinglright /oe /bullet /zcaron /Ydieresis
/space /exclamdown /cent /sterling /currency
/yen /brokenbar /section /dieresis /copyright
/ordfeminine /guillemotleft /logicalnot /sfthyphen /registered
/macron /degree /plusminus /twosuperior /threesuperior
/acute /mu /paragraph /middot /cedilla
/onesuperior /ordmasculine /guillemotright /onequarter /onehalf
/threequarters /questiondown /Agrave /Aacute /Acircumflex
/Atilde /Adieresis /Aring /AE /Ccedilla
/Egrave /Eacute /Ecircumflex /Edieresis /Igrave
/Iacute /Icircumflex /Idieresis /Eth /Ntilde
/Ograve /Oacute /Ocircumflex /Otilde /Odieresis
/multiply /Oslash /Ugrave /Uacute /Ucircumflex
/Udieresis /Yacute /Thorn /germandbls /agrave
/aacute /acircumflex /atilde /adieresis /aring
/ae /ccedilla /egrave /eacute /ecircumflex
/edieresis /igrave /iacute /icircumflex /idieresis
/eth /ntilde /ograve /oacute /ocircumflex
/otilde /odieresis /divide /oslash /ugrave
/uacute /ucircumflex /udieresis /yacute /thorn
/ydieresis
] def
%%EndResource
%FOPBeginFontReencode
/Courier-Bold findfont
dup length dict begin
  {1 index /FID ne {def} {pop pop} ifelse} forall
  /Encoding WinAnsiEncoding def
  currentdict
end
/Courier-Bold exch definefont pop
/Helvetica findfont
dup length dict begin
  {1 index /FID ne {def} {pop pop} ifelse} forall
  /Encoding WinAnsiEncoding def
  currentdict
end
/Helvetica exch definefont pop
/Courier-BoldOblique findfont
dup length dict begin
  {1 index /FID ne {def} {pop pop} ifelse} forall
  /Encoding WinAnsiEncoding def
  currentdict
end
/Courier-BoldOblique exch definefont pop
/Courier-Oblique findfont
dup length dict begin
  {1 index /FID ne {def} {pop pop} ifelse} forall
  /Encoding WinAnsiEncoding def
  currentdict
end
/Courier-Oblique exch definefont pop
/Times-Roman findfont
dup length dict begin
  {1 index /FID ne {def} {pop pop} ifelse} forall
  /Encoding WinAnsiEncoding def
  currentdict
end
/Times-Roman exch definefont pop
/Helvetica-BoldOblique findfont
dup length dict begin
  {1 index /FID ne {def} {pop pop} ifelse} forall
  /Encoding WinAnsiEncoding def
  currentdict
end
/Helvetica-BoldOblique exch definefont pop
/Helvetica-Bold findfont
dup length dict begin
  {1 index /FID ne {def} {pop pop} ifelse} forall
  /Encoding WinAnsiEncoding def
  currentdict
end
/Helvetica-Bold exch definefont pop
/Helvetica-Oblique findfont
dup length dict begin
  {1 index /FID ne {def} {pop pop} ifelse} forall
  /Encoding WinAnsiEncoding def
  currentdict
end
/Helvetica-Oblique exch definefont pop
/Times-BoldItalic findfont
dup length dict begin
  {1 index /FID ne {def} {pop pop} ifelse} forall
  /Encoding WinAnsiEncoding def
  currentdict
end
/Times-BoldItalic exch definefont pop
/Courier findfont
dup length dict begin
  {1 index /FID ne {def} {pop pop} ifelse} forall
  /Encoding WinAnsiEncoding def
  currentdict
end
/Courier exch definefont pop
/Times-Italic findfont
dup length dict begin
  {1 index /FID ne {def} {pop pop} ifelse} forall
  /Encoding WinAnsiEncoding def
  currentdict
end
/Times-Italic exch definefont pop
/Times-Bold findfont
dup length dict begin
  {1 index /FID ne {def} {pop pop} ifelse} forall
  /Encoding WinAnsiEncoding def
  currentdict
end
/Times-Bold exch definefont pop
%FOPEndFontReencode
%%EndProlog
%%Page: 1 1
%%PageBoundingBox: 0 0 900 563
%%BeginPageSetup
[1 0 0 -1 0 563] CT
%%EndPageSetup
GS
[0.75 0 0 0.75 0 0.5] CT
1 GC
N
0 0 1200 750 re
f
GR
GS
[0.75 0 0 0.75 0 0.5] CT
1 GC
N
0 0 1200 750 re
f
GR
GS
[0.75 0 0 0.75 0 0.5] CT
1 GC
N
156 667 M
1086 667 L
1086 56 L
156 56 L
cp
f
GR
GS
[0.75 0 0 0.75 0 0.5] CT
0.149 GC
2 setlinecap
1 LJ
0.667 LW
N
156 667 M
1086 667 L
S
GR
GS
[0.75 0 0 0.75 0 0.5] CT
0.149 GC
2 setlinecap
1 LJ
0.667 LW
N
156 667 M
156 657.7 L
S
GR
GS
[0.75 0 0 0.75 0 0.5] CT
0.149 GC
2 setlinecap
1 LJ
0.667 LW
N
249 667 M
249 657.7 L
S
GR
GS
[0.75 0 0 0.75 0 0.5] CT
0.149 GC
2 setlinecap
1 LJ
0.667 LW
N
342 667 M
342 657.7 L
S
GR
GS
[0.75 0 0 0.75 0 0.5] CT
0.149 GC
2 setlinecap
1 LJ
0.667 LW
N
435 667 M
435 657.7 L
S
GR
GS
[0.75 0 0 0.75 0 0.5] CT
0.149 GC
2 setlinecap
1 LJ
0.667 LW
N
528 667 M
528 657.7 L
S
GR
GS
[0.75 0 0 0.75 0 0.5] CT
0.149 GC
2 setlinecap
1 LJ
0.667 LW
N
621 667 M
621 657.7 L
S
GR
GS
[0.75 0 0 0.75 0 0.5] CT
0.149 GC
2 setlinecap
1 LJ
0.667 LW
N
714 667 M
714 657.7 L
S
GR
GS
[0.75 0 0 0.75 0 0.5] CT
0.149 GC
2 setlinecap
1 LJ
0.667 LW
N
807 667 M
807 657.7 L
S
GR
GS
[0.75 0 0 0.75 0 0.5] CT
0.149 GC
2 setlinecap
1 LJ
0.667 LW
N
900 667 M
900 657.7 L
S
GR
GS
[0.75 0 0 0.75 0 0.5] CT
0.149 GC
2 setlinecap
1 LJ
0.667 LW
N
993 667 M
993 657.7 L
S
GR
GS
[0.75 0 0 0.75 0 0.5] CT
0.149 GC
2 setlinecap
1 LJ
0.667 LW
N
1086 667 M
1086 657.7 L
S
GR
GS
[0.75 0 0 0.75 117 506.35001] CT
0.149 GC
/Helvetica 24 F
GS
[1 0 0 1 0 0] CT
-24.5 23 moveto 
1 -1 scale
(-100) t 
GR
GR
GS
[0.75 0 0 0.75 186.75 506.35001] CT
0.149 GC
/Helvetica 24 F
GS
[1 0 0 1 0 0] CT
-17.5 23 moveto 
1 -1 scale
(-80) t 
GR
GR
GS
[0.75 0 0 0.75 256.5 506.35001] CT
0.149 GC
/Helvetica 24 F
GS
[1 0 0 1 0 0] CT
-17.5 23 moveto 
1 -1 scale
(-60) t 
GR
GR
GS
[0.75 0 0 0.75 326.25 506.35001] CT
0.149 GC
/Helvetica 24 F
GS
[1 0 0 1 0 0] CT
-17.5 23 moveto 
1 -1 scale
(-40) t 
GR
GR
GS
[0.75 0 0 0.75 396 506.35001] CT
0.149 GC
/Helvetica 24 F
GS
[1 0 0 1 0 0] CT
-17.5 23 moveto 
1 -1 scale
(-20) t 
GR
GR
GS
[0.75 0 0 0.75 465.75 506.35001] CT
0.149 GC
/Helvetica 24 F
GS
[1 0 0 1 0 0] CT
-7 23 moveto 
1 -1 scale
(0) t 
GR
GR
GS
[0.75 0 0 0.75 535.5 506.35001] CT
0.149 GC
/Helvetica 24 F
GS
[1 0 0 1 0 0] CT
-13.5 23 moveto 
1 -1 scale
(20) t 
GR
GR
GS
[0.75 0 0 0.75 605.25 506.35001] CT
0.149 GC
/Helvetica 24 F
GS
[1 0 0 1 0 0] CT
-13.5 23 moveto 
1 -1 scale
(40) t 
GR
GR
GS
[0.75 0 0 0.75 675 506.35001] CT
0.149 GC
/Helvetica 24 F
GS
[1 0 0 1 0 0] CT
-13.5 23 moveto 
1 -1 scale
(60) t 
GR
GR
GS
[0.75 0 0 0.75 744.75 506.35001] CT
0.149 GC
/Helvetica 24 F
GS
[1 0 0 1 0 0] CT
-13.5 23 moveto 
1 -1 scale
(80) t 
GR
GR
GS
[0.75 0 0 0.75 814.5 506.35001] CT
0.149 GC
/Helvetica 24 F
GS
[1 0 0 1 0 0] CT
-20.5 23 moveto 
1 -1 scale
(100) t 
GR
GR
GS
[0.75 0 0 0.75 465.75032 529.09999] CT
0.149 GC
/Helvetica 29.333 F
GS
[1 0 0 1 0 0] CT
-60.5 27 moveto 
1 -1 scale
(Czas [ps]) t 
GR
GR
GS
[0.75 0 0 0.75 0 0.5] CT
0.149 GC
2 setlinecap
1 LJ
0.667 LW
N
156 667 M
156 56 L
S
GR
GS
[0.75 0 0 0.75 0 0.5] CT
0.149 GC
2 setlinecap
1 LJ
0.667 LW
N
156 667 M
165.3 667 L
S
GR
GS
[0.75 0 0 0.75 0 0.5] CT
0.149 GC
2 setlinecap
1 LJ
0.667 LW
N
156 463.333 M
165.3 463.333 L
S
GR
GS
[0.75 0 0 0.75 0 0.5] CT
0.149 GC
2 setlinecap
1 LJ
0.667 LW
N
156 259.667 M
165.3 259.667 L
S
GR
GS
[0.75 0 0 0.75 0 0.5] CT
0.149 GC
2 setlinecap
1 LJ
0.667 LW
N
156 56 M
165.3 56 L
S
GR
GS
[0.75 0 0 0.75 111.39999 500.75] CT
0.149 GC
/Helvetica 24 F
GS
[1 0 0 1 0 0] CT
-14 8.5 moveto 
1 -1 scale
(0) t 
GR
GR
GS
[0.75 0 0 0.75 111.39999 348.00001] CT
0.149 GC
/Helvetica 24 F
GS
[1 0 0 1 0 0] CT
-54 8.5 moveto 
1 -1 scale
(5000) t 
GR
GR
GS
[0.75 0 0 0.75 111.39999 195.24999] CT
0.149 GC
/Helvetica 24 F
GS
[1 0 0 1 0 0] CT
-67 8.5 moveto 
1 -1 scale
(10000) t 
GR
GR
GS
[0.75 0 0 0.75 111.39999 42.5] CT
0.149 GC
/Helvetica 24 F
GS
[1 0 0 1 0 0] CT
-67 8.5 moveto 
1 -1 scale
(15000) t 
GR
GR
GS
[0 -0.75 0.75 0 58.15001 271.62477] CT
0.149 GC
N
-88.297 -7 M
-88.297 -7 L
-88.297 -27.813 L
-88.297 -27.813 L
-86.891 -27.813 L
-85.469 -27.813 L
-85.469 -27.813 L
-85.469 -9.5 L
-85.469 -9.5 L
-74.922 -9.5 L
-74.922 -9.5 L
-74.922 -8.25 L
-74.922 -7 L
-74.922 -7 L
-88.297 -7 L
cp
-72.229 -7 M
-72.229 -22.156 L
-72.229 -22.156 L
-70.948 -22.156 L
-69.682 -22.156 L
-69.682 -22.156 L
-69.682 -7 L
-69.682 -7 L
-70.948 -7 L
-72.229 -7 L
-72.229 -7 L
cp
-72.26 -27.813 M
-69.651 -27.813 L
-69.651 -24.922 L
-72.26 -24.922 L
-72.26 -27.813 L
cp
-53.857 -12.453 M
-53.857 -12.453 L
-54.248 -9.594 -55.873 -8.094 QT
-57.498 -6.594 -60.201 -6.594 QT
-63.232 -6.594 -65.029 -8.758 QT
-66.826 -10.922 -66.826 -14.594 QT
-66.826 -18.25 -64.959 -20.43 QT
-63.092 -22.609 -59.951 -22.609 QT
-57.217 -22.609 -55.592 -21.109 QT
-53.967 -19.609 -53.857 -17 QT
-53.857 -17 L
-56.295 -17 L
-56.295 -17 L
-56.451 -18.625 -57.428 -19.516 QT
-58.404 -20.406 -60.045 -20.406 QT
-61.967 -20.406 -63.06 -18.859 QT
-64.154 -17.313 -64.154 -14.594 QT
-64.154 -11.703 -63.139 -10.242 QT
-62.123 -8.781 -60.107 -8.781 QT
-58.623 -8.781 -57.623 -9.742 QT
-56.623 -10.703 -56.295 -12.453 QT
-56.295 -12.453 L
-53.857 -12.453 L
cp
-52.139 -9 M
-43.045 -20.031 L
-43.045 -20.031 L
-51.451 -20.031 L
-51.451 -20.031 L
-51.451 -21.094 L
-51.451 -22.156 L
-51.451 -22.156 L
-39.639 -22.156 L
-39.639 -21.156 L
-39.639 -20.156 L
-48.717 -9.125 L
-48.717 -9.125 L
-39.42 -9.125 L
-39.42 -9.125 L
-39.42 -8.063 L
-39.42 -7 L
-39.42 -7 L
-52.139 -7 L
-52.139 -7.984 L
-52.139 -9 L
cp
-36.685 -27.813 M
-36.685 -27.813 L
-35.42 -27.813 L
-34.139 -27.813 L
-34.139 -27.813 L
-34.139 -20.188 L
-34.139 -20.188 L
-32.467 -22.641 -29.826 -22.609 QT
-26.842 -22.609 -25.107 -20.563 QT
-23.373 -18.516 -23.373 -15.031 QT
-23.373 -11.078 -25.123 -8.836 QT
-26.873 -6.594 -29.982 -6.594 QT
-32.545 -6.594 -34.06 -8.563 QT
-34.295 -8.875 L
-34.295 -8.875 L
-34.295 -7 L
-34.295 -7 L
-36.685 -7 L
-36.685 -7 L
-36.685 -27.813 L
cp
-30.107 -8.797 M
-28.107 -8.797 -27.076 -10.305 QT
-26.045 -11.813 -26.045 -14.703 QT
-26.045 -17.547 -27.037 -18.914 QT
-28.029 -20.281 -30.092 -20.281 QT
-32.201 -20.281 -33.17 -18.742 QT
-34.139 -17.203 -34.139 -13.859 QT
-34.139 -13.859 L
-34.139 -13.859 L
-34.139 -13.859 L
-34.139 -11.438 -33.092 -10.109 QT
-32.045 -8.797 -30.107 -8.797 QT
cp
-16.196 -6.594 M
-18.415 -6.594 -19.719 -7.781 QT
-21.024 -8.969 -21.024 -11 QT
-21.024 -13.031 -19.797 -14.234 QT
-18.571 -15.438 -16.227 -15.734 QT
-12.758 -16.172 L
-12.321 -16.219 -11.946 -16.313 QT
-11.446 -16.438 -11.18 -16.82 QT
-10.915 -17.203 -10.915 -17.797 QT
-10.915 -17.922 L
-10.915 -19.141 -11.836 -19.828 QT
-12.758 -20.516 -14.399 -20.516 QT
-15.961 -20.516 -16.852 -19.781 QT
-17.743 -19.047 -17.915 -17.609 QT
-17.915 -17.609 L
-20.274 -17.609 L
-20.274 -17.609 L
-20.086 -20.094 -18.516 -21.352 QT
-16.946 -22.609 -14.008 -22.609 QT
-11.258 -22.609 -9.813 -21.414 QT
-8.368 -20.219 -8.368 -17.922 QT
-8.368 -9.594 L
-8.368 -9.203 -8.133 -8.969 QT
-7.899 -8.734 -7.493 -8.734 QT
-7.383 -8.734 -7.165 -8.766 QT
-6.946 -8.797 -6.696 -8.859 QT
-6.696 -7.016 L
-7.055 -6.875 -7.469 -6.789 QT
-7.883 -6.703 -8.165 -6.703 QT
-9.602 -6.703 -10.258 -7.5 QT
-10.68 -8.016 -10.868 -8.984 QT
-10.868 -8.984 L
-11.149 -8.625 -11.524 -8.297 QT
-13.43 -6.594 -16.196 -6.594 QT
cp
-10.915 -13 M
-10.915 -14.641 L
-10.915 -14.641 L
-11.618 -14.313 -12.477 -14.172 QT
-14.821 -13.844 L
-16.665 -13.578 -17.516 -12.977 QT
-18.368 -12.375 -18.368 -11.344 QT
-18.368 -10.078 -17.672 -9.391 QT
-16.977 -8.703 -15.696 -8.703 QT
-13.68 -8.703 -12.305 -9.797 QT
-11.352 -10.547 -11.04 -11.516 QT
-10.977 -11.703 -10.961 -12.094 QT
-10.915 -12.516 -10.915 -13 QT
cp
3.266 -9 M
12.36 -20.031 L
12.36 -20.031 L
3.954 -20.031 L
3.954 -20.031 L
3.954 -21.094 L
3.954 -22.156 L
3.954 -22.156 L
15.766 -22.156 L
15.766 -21.156 L
15.766 -20.156 L
6.688 -9.125 L
6.688 -9.125 L
15.985 -9.125 L
15.985 -9.125 L
15.985 -8.063 L
15.985 -7 L
15.985 -7 L
3.266 -7 L
3.266 -7.984 L
3.266 -9 L
cp
18.969 -7 M
18.969 -27.813 L
18.969 -27.813 L
20.25 -27.813 L
21.516 -27.813 L
21.516 -27.813 L
21.516 -7 L
21.516 -7 L
20.25 -7 L
18.969 -7 L
18.969 -7 L
cp
25.513 -7 M
25.513 -22.156 L
25.513 -22.156 L
26.794 -22.156 L
28.06 -22.156 L
28.06 -22.156 L
28.06 -7 L
28.06 -7 L
26.794 -7 L
25.513 -7 L
25.513 -7 L
cp
25.481 -27.813 M
28.091 -27.813 L
28.091 -24.922 L
25.481 -24.922 L
25.481 -27.813 L
cp
43.884 -12.453 M
43.884 -12.453 L
43.494 -9.594 41.869 -8.094 QT
40.244 -6.594 37.541 -6.594 QT
34.509 -6.594 32.712 -8.758 QT
30.916 -10.922 30.916 -14.594 QT
30.916 -18.25 32.783 -20.43 QT
34.65 -22.609 37.791 -22.609 QT
40.525 -22.609 42.15 -21.109 QT
43.775 -19.609 43.884 -17 QT
43.884 -17 L
41.447 -17 L
41.447 -17 L
41.291 -18.625 40.314 -19.516 QT
39.337 -20.406 37.697 -20.406 QT
35.775 -20.406 34.681 -18.859 QT
33.587 -17.313 33.587 -14.594 QT
33.587 -11.703 34.603 -10.242 QT
35.619 -8.781 37.634 -8.781 QT
39.119 -8.781 40.119 -9.742 QT
41.119 -10.703 41.447 -12.453 QT
41.447 -12.453 L
43.884 -12.453 L
cp
45.603 -9 M
54.697 -20.031 L
54.697 -20.031 L
46.291 -20.031 L
46.291 -20.031 L
46.291 -21.094 L
46.291 -22.156 L
46.291 -22.156 L
58.103 -22.156 L
58.103 -21.156 L
58.103 -20.156 L
49.025 -9.125 L
49.025 -9.125 L
58.322 -9.125 L
58.322 -9.125 L
58.322 -8.063 L
58.322 -7 L
58.322 -7 L
45.603 -7 L
45.603 -7.984 L
45.603 -9 L
cp
67.431 -6.594 M
64.212 -6.594 62.369 -8.633 QT
60.525 -10.672 60.525 -14.266 QT
60.525 -18.094 62.478 -20.352 QT
64.431 -22.609 67.712 -22.609 QT
70.681 -22.609 72.509 -20.398 QT
74.337 -18.188 74.337 -14.594 QT
74.306 -13.688 L
74.306 -13.688 L
63.228 -13.688 L
63.228 -13.688 L
63.384 -11.422 64.275 -10.234 QT
65.337 -8.781 67.666 -8.781 QT
69.119 -8.781 70.212 -9.602 QT
71.306 -10.422 71.541 -11.703 QT
71.541 -11.703 L
74.072 -11.703 L
74.072 -11.703 L
73.494 -9.203 71.798 -7.898 QT
70.103 -6.594 67.431 -6.594 QT
cp
71.681 -15.734 M
71.681 -15.734 L
71.556 -17.844 70.619 -19.016 QT
69.587 -20.328 67.603 -20.328 QT
65.587 -20.328 64.384 -18.828 QT
63.431 -17.656 63.228 -15.734 QT
63.228 -15.734 L
71.681 -15.734 L
cp
77.562 -7 M
77.562 -22.156 L
77.562 -22.156 L
78.765 -22.156 L
79.983 -22.156 L
79.983 -22.156 L
79.983 -19.922 L
79.983 -19.922 L
79.983 -19.922 L
80.546 -20.672 L
82.202 -22.609 84.687 -22.609 QT
87.202 -22.609 88.562 -21.25 QT
89.921 -19.891 89.921 -17.375 QT
89.921 -7 L
89.921 -7 L
88.64 -7 L
87.374 -7 L
87.374 -7 L
87.374 -16.516 L
87.374 -18.516 86.601 -19.398 QT
85.827 -20.281 84.093 -20.281 QT
82.249 -20.281 81.179 -18.891 QT
80.108 -17.5 80.108 -15.109 QT
80.108 -15.109 L
80.108 -7 L
80.108 -7 L
78.827 -7 L
77.562 -7 L
77.562 -7 L
cp
82.421 -24 M
84.999 -28.078 L
88.124 -28.078 L
84.39 -24 L
82.421 -24 L
cp
f
GR
GS
[0.75 0 0 0.75 465.75046 37.99999] CT
N
-383.563 -7 M
-383.563 -29.969 L
-383.563 -29.969 L
-381.172 -29.969 L
-381.172 -29.969 L
-371.984 -29.969 L
-368.703 -29.969 -366.695 -28.211 QT
-364.688 -26.453 -364.688 -23.578 QT
-364.688 -20.266 -366.922 -18.734 QT
-367.516 -18.328 -368.266 -18.047 QT
-368.266 -18.047 L
-367.844 -17.875 -367.5 -17.672 QT
-365.531 -16.5 -365.453 -13.734 QT
-365.344 -9.969 L
-365.313 -8.844 -365.109 -8.375 QT
-364.906 -7.906 -364.328 -7.625 QT
-364.328 -7.016 L
-369.625 -7.016 L
-369.813 -7.375 -369.953 -8.555 QT
-370.094 -9.734 -370.109 -11.094 QT
-370.141 -13.219 L
-370.172 -14.766 -371.055 -15.422 QT
-371.938 -16.078 -373.984 -16.078 QT
-378.766 -16.078 L
-378.766 -16.078 L
-378.766 -7 L
-378.766 -7 L
-381.156 -7 L
-383.563 -7 L
-383.563 -7 L
cp
-378.766 -19.938 M
-378.766 -19.938 L
-373.203 -19.938 L
-371.344 -19.938 -370.414 -20.695 QT
-369.484 -21.453 -369.484 -22.984 QT
-369.484 -24.5 -370.367 -25.258 QT
-371.25 -26.016 -373.016 -26.016 QT
-378.766 -26.016 L
-378.766 -26.016 L
-378.766 -19.938 L
cp
-353.109 -6.563 M
-357.094 -6.563 -359.445 -8.953 QT
-361.797 -11.344 -361.797 -15.406 QT
-361.797 -19.563 -359.445 -22.008 QT
-357.094 -24.453 -353.109 -24.453 QT
-349.094 -24.453 -346.75 -22.008 QT
-344.406 -19.563 -344.406 -15.406 QT
-344.406 -11.344 -346.75 -8.953 QT
-349.094 -6.563 -353.109 -6.563 QT
-353.109 -6.563 L
cp
-353.109 -10.313 M
-351.109 -10.313 -350.063 -11.625 QT
-349.016 -12.938 -349.016 -15.453 QT
-349.016 -18.031 -350.063 -19.367 QT
-351.109 -20.703 -353.109 -20.703 QT
-355.109 -20.703 -356.148 -19.367 QT
-357.188 -18.031 -357.188 -15.453 QT
-357.188 -12.938 -356.148 -11.625 QT
-355.109 -10.313 -353.109 -10.313 QT
-353.109 -10.313 L
cp
-342.703 -10.484 M
-334.094 -20.328 L
-333.984 -20.453 L
-333.984 -20.453 L
-342.063 -20.453 L
-342.063 -20.453 L
-342.063 -22.219 L
-342.063 -24 L
-342.063 -24 L
-328.375 -24 L
-328.375 -22.172 L
-328.375 -20.328 L
-336.875 -10.672 L
-336.875 -10.672 L
-327.984 -10.672 L
-327.984 -10.672 L
-327.984 -8.844 L
-327.984 -7 L
-327.984 -7 L
-342.703 -7 L
-342.703 -8.734 L
-342.703 -10.484 L
cp
-325.141 -7 M
-325.141 -29.969 L
-325.141 -29.969 L
-322.906 -29.969 L
-320.656 -29.969 L
-320.656 -29.969 L
-320.656 -17.563 L
-320.656 -17.563 L
-315.063 -24 L
-315.063 -24 L
-312.297 -24 L
-309.531 -24 L
-309.531 -24 L
-315.672 -17.563 L
-315.672 -17.563 L
-309.375 -7 L
-309.375 -7 L
-312.031 -7 L
-314.703 -7 L
-314.703 -7 L
-318.797 -14.313 L
-318.797 -14.313 L
-320.656 -12.359 L
-320.656 -12.359 L
-320.656 -7 L
-320.656 -7 L
-322.891 -7 L
-325.141 -7 L
-325.141 -7 L
cp
-307.219 -7 M
-307.219 -17.297 L
-310.016 -15.766 L
-310.016 -18.25 L
-307.219 -19.781 L
-307.219 -29.969 L
-307.219 -29.969 L
-304.984 -29.969 L
-302.734 -29.969 L
-302.734 -29.969 L
-302.734 -22.234 L
-299.969 -23.75 L
-299.969 -21.266 L
-302.734 -19.75 L
-302.734 -7 L
-302.734 -7 L
-304.969 -7 L
-307.219 -7 L
-307.219 -7 L
cp
-294.5 -6.563 M
-296.859 -6.563 -298.297 -7.914 QT
-299.734 -9.266 -299.734 -11.469 QT
-299.734 -13.797 -298.438 -15.195 QT
-297.141 -16.594 -294.656 -16.953 QT
-291.703 -17.359 L
-290.547 -17.516 -289.781 -17.891 QT
-289.453 -18.047 -289.273 -18.453 QT
-289.094 -18.859 -289.141 -19.281 QT
-289.234 -20 -289.875 -20.406 QT
-290.641 -20.891 -292.078 -20.891 QT
-293.359 -20.891 -294.078 -20.266 QT
-294.797 -19.641 -294.844 -18.5 QT
-294.844 -18.5 L
-299.141 -18.5 L
-299.141 -18.5 L
-299 -21.484 -297.109 -22.969 QT
-295.219 -24.453 -291.563 -24.453 QT
-288.391 -24.453 -286.555 -23.117 QT
-284.719 -21.781 -284.719 -19.469 QT
-284.719 -9.969 L
-284.719 -8.828 -284.531 -8.367 QT
-284.344 -7.906 -283.781 -7.641 QT
-283.781 -7.625 L
-283.781 -7.016 L
-286.203 -7.016 L
-288.625 -7.016 L
-288.625 -7.016 L
-288.922 -8.047 -289.016 -9.031 QT
-289.031 -9.063 L
-291.141 -6.563 -294.5 -6.563 QT
cp
-289.109 -13.281 M
-289.109 -15.234 L
-289.109 -15.234 L
-289.891 -14.797 -291.172 -14.531 QT
-292.828 -14.219 L
-294 -14 -294.609 -13.414 QT
-295.219 -12.828 -295.219 -11.938 QT
-295.219 -10.922 -294.672 -10.344 QT
-294.125 -9.766 -293.141 -9.766 QT
-290.984 -9.766 -289.703 -11.281 QT
-289.453 -11.578 -289.281 -12.156 QT
-289.109 -12.734 -289.109 -13.281 QT
cp
-274.531 -6.563 M
-277.781 -6.563 -279.773 -9.094 QT
-281.766 -11.625 -281.766 -15.766 QT
-281.766 -19.672 -279.781 -22.063 QT
-277.797 -24.453 -274.563 -24.453 QT
-271.672 -24.453 -269.906 -22.016 QT
-269.719 -21.766 L
-269.719 -21.766 L
-269.719 -29.969 L
-269.719 -29.969 L
-267.484 -29.969 L
-265.234 -29.969 L
-265.234 -29.969 L
-265.234 -7 L
-265.234 -7 L
-267.406 -7 L
-269.578 -7 L
-269.578 -7 L
-269.578 -9.172 L
-269.578 -9.172 L
-269.656 -9.063 L
-271.516 -6.563 -274.531 -6.563 QT
cp
-273.328 -20.578 M
-275.125 -20.578 -276.141 -19.195 QT
-277.156 -17.813 -277.156 -15.359 QT
-277.156 -12.953 -276.148 -11.602 QT
-275.141 -10.25 -273.344 -10.25 QT
-271.531 -10.25 -270.516 -11.672 QT
-269.5 -13.094 -269.5 -15.625 QT
-269.5 -17.953 -270.516 -19.266 QT
-271.531 -20.578 -273.328 -20.578 QT
cp
-237.656 -13.297 M
-237.656 -13.297 L
-238 -10.125 -240.016 -8.344 QT
-242.031 -6.563 -245.266 -6.563 QT
-249.125 -6.563 -251.227 -8.859 QT
-253.328 -11.156 -253.328 -15.406 QT
-253.328 -19.563 -251.148 -22.008 QT
-248.969 -24.453 -245.266 -24.453 QT
-241.984 -24.453 -239.891 -22.641 QT
-237.797 -20.828 -237.656 -17.875 QT
-237.656 -17.875 L
-242.219 -17.875 L
-242.219 -17.875 L
-242.281 -19.141 -243.117 -19.922 QT
-243.953 -20.703 -245.266 -20.703 QT
-246.953 -20.703 -247.836 -19.352 QT
-248.719 -18 -248.719 -15.406 QT
-248.719 -12.875 -247.836 -11.555 QT
-246.953 -10.234 -245.266 -10.234 QT
-244.047 -10.234 -243.203 -11.078 QT
-242.359 -11.922 -242.219 -13.297 QT
-242.219 -13.297 L
-237.656 -13.297 L
cp
-235.984 -10.484 M
-227.375 -20.328 L
-227.266 -20.453 L
-227.266 -20.453 L
-235.344 -20.453 L
-235.344 -20.453 L
-235.344 -22.219 L
-235.344 -24 L
-235.344 -24 L
-221.656 -24 L
-221.656 -22.172 L
-221.656 -20.328 L
-230.156 -10.672 L
-230.156 -10.672 L
-221.266 -10.672 L
-221.266 -10.672 L
-221.266 -8.844 L
-221.266 -7 L
-221.266 -7 L
-235.984 -7 L
-235.984 -8.734 L
-235.984 -10.484 L
cp
-214.469 -6.563 M
-216.828 -6.563 -218.266 -7.914 QT
-219.703 -9.266 -219.703 -11.469 QT
-219.703 -13.797 -218.406 -15.195 QT
-217.109 -16.594 -214.625 -16.953 QT
-211.672 -17.359 L
-210.516 -17.516 -209.75 -17.891 QT
-209.422 -18.047 -209.242 -18.453 QT
-209.063 -18.859 -209.109 -19.281 QT
-209.203 -20 -209.844 -20.406 QT
-210.609 -20.891 -212.047 -20.891 QT
-213.328 -20.891 -214.047 -20.266 QT
-214.766 -19.641 -214.813 -18.5 QT
-214.813 -18.5 L
-219.109 -18.5 L
-219.109 -18.5 L
-218.969 -21.484 -217.078 -22.969 QT
-215.188 -24.453 -211.531 -24.453 QT
-208.359 -24.453 -206.523 -23.117 QT
-204.688 -21.781 -204.688 -19.469 QT
-204.688 -9.969 L
-204.688 -8.828 -204.5 -8.367 QT
-204.313 -7.906 -203.75 -7.641 QT
-203.75 -7.625 L
-203.75 -7.016 L
-206.172 -7.016 L
-208.594 -7.016 L
-208.594 -7.016 L
-208.891 -8.047 -208.984 -9.031 QT
-209 -9.063 L
-211.109 -6.563 -214.469 -6.563 QT
cp
-209.078 -13.281 M
-209.078 -15.234 L
-209.078 -15.234 L
-209.859 -14.797 -211.141 -14.531 QT
-212.797 -14.219 L
-213.969 -14 -214.578 -13.414 QT
-215.188 -12.828 -215.188 -11.938 QT
-215.188 -10.922 -214.641 -10.344 QT
-214.094 -9.766 -213.109 -9.766 QT
-210.953 -9.766 -209.672 -11.281 QT
-209.422 -11.578 -209.25 -12.156 QT
-209.078 -12.734 -209.078 -13.281 QT
cp
-191.125 -18.906 M
-191.125 -18.906 L
-191.125 -19.891 -191.938 -20.484 QT
-192.75 -21.078 -194.094 -21.078 QT
-195.391 -21.078 -196.117 -20.633 QT
-196.844 -20.188 -196.844 -19.391 QT
-196.844 -18.828 -196.016 -18.422 QT
-195.203 -18.031 -193.125 -17.563 QT
-189 -16.641 -187.609 -15.547 QT
-186.219 -14.453 -186.219 -12.109 QT
-186.219 -9.609 -188.242 -8.086 QT
-190.266 -6.563 -193.578 -6.563 QT
-197.5 -6.563 -199.617 -8.063 QT
-201.734 -9.563 -201.875 -12.438 QT
-201.875 -12.438 L
-197.313 -12.438 L
-197.313 -12.438 L
-197.266 -11.266 -196.273 -10.602 QT
-195.281 -9.938 -193.578 -9.938 QT
-192.234 -9.938 -191.477 -10.398 QT
-190.719 -10.859 -190.719 -11.688 QT
-190.719 -12.266 -191.453 -12.672 QT
-192.188 -13.063 -194.031 -13.469 QT
-198.344 -14.438 -199.797 -15.516 QT
-201.25 -16.578 -201.25 -18.813 QT
-201.25 -21.344 -199.367 -22.898 QT
-197.484 -24.453 -194.406 -24.453 QT
-190.938 -24.453 -188.813 -22.93 QT
-186.688 -21.406 -186.688 -18.906 QT
-186.688 -18.906 L
-191.125 -18.906 L
cp
-175.25 -6.563 M
-179.234 -6.563 -181.586 -8.953 QT
-183.938 -11.344 -183.938 -15.406 QT
-183.938 -19.563 -181.586 -22.008 QT
-179.234 -24.453 -175.25 -24.453 QT
-171.234 -24.453 -168.891 -22.008 QT
-166.547 -19.563 -166.547 -15.406 QT
-166.547 -11.344 -168.891 -8.953 QT
-171.234 -6.563 -175.25 -6.563 QT
-175.25 -6.563 L
cp
-175.25 -10.313 M
-173.25 -10.313 -172.203 -11.625 QT
-171.156 -12.938 -171.156 -15.453 QT
-171.156 -18.031 -172.203 -19.367 QT
-173.25 -20.703 -175.25 -20.703 QT
-177.25 -20.703 -178.289 -19.367 QT
-179.328 -18.031 -179.328 -15.453 QT
-179.328 -12.938 -178.289 -11.625 QT
-177.25 -10.313 -175.25 -10.313 QT
-175.25 -10.313 L
cp
-160.234 -7 M
-165.172 -24 L
-165.172 -24 L
-162.797 -24 L
-160.422 -24 L
-160.422 -24 L
-157.703 -11.516 L
-157.703 -11.516 L
-157.703 -11.516 L
-155.156 -24 L
-152.922 -24 L
-150.672 -24 L
-148.156 -11.484 L
-148.156 -11.484 L
-148.156 -11.484 L
-145.391 -24 L
-145.391 -24 L
-143.141 -24 L
-140.875 -24 L
-140.875 -24 L
-145.797 -7 L
-148.078 -7 L
-150.375 -7 L
-152.984 -19.656 L
-152.984 -19.656 L
-152.984 -19.656 L
-155.656 -7 L
-157.938 -7 L
-160.234 -7 L
cp
-123.344 -24 M
-129.438 -6.641 L
-130.906 -2.344 -131.953 -1.25 QT
-133 -0.156 -135.688 -0.156 QT
-137.828 -0.203 L
-137.828 -3.797 L
-137.672 -3.734 -136.969 -3.734 QT
-135.172 -3.734 -134.625 -4.469 QT
-134.281 -4.938 -133.938 -6.406 QT
-133.938 -6.406 L
-140.281 -24 L
-140.281 -24 L
-137.813 -24 L
-135.328 -24 L
-135.328 -24 L
-131.625 -11.391 L
-131.625 -11.391 L
-131.625 -11.391 L
-128.031 -24 L
-128.031 -24 L
-125.688 -24 L
-123.344 -24 L
-123.344 -24 L
cp
-111.656 -7 M
-111.656 -24 L
-111.656 -24 L
-109.422 -24 L
-107.172 -24 L
-107.172 -24 L
-107.172 -7 L
-107.172 -7 L
-109.406 -7 L
-111.656 -7 L
-111.656 -7 L
cp
-111.703 -30.141 M
-107.141 -30.141 L
-107.141 -25.984 L
-111.703 -25.984 L
-111.703 -30.141 L
cp
-102.969 -7 M
-102.969 -24 L
-102.969 -24 L
-100.844 -24 L
-98.703 -24 L
-98.703 -24 L
-98.703 -21.266 L
-98.703 -21.266 L
-98.703 -21.266 L
-98.406 -21.984 -97.953 -22.547 QT
-96.469 -24.453 -93.641 -24.453 QT
-91.391 -24.453 -89.953 -22.938 QT
-89.391 -22.359 -89.063 -21.656 QT
-89.063 -21.656 L
-88.516 -22.547 L
-87.125 -24.453 -84.469 -24.453 QT
-81.703 -24.453 -80.141 -22.813 QT
-78.578 -21.172 -78.578 -18.266 QT
-78.578 -7 L
-78.578 -7 L
-80.813 -7 L
-83.063 -7 L
-83.063 -7 L
-83.063 -16.984 L
-83.063 -18.891 -83.688 -19.805 QT
-84.313 -20.719 -85.625 -20.719 QT
-87.031 -20.719 -87.773 -19.852 QT
-88.516 -18.984 -88.516 -17.359 QT
-88.516 -17.359 L
-88.516 -7 L
-88.516 -7 L
-90.75 -7 L
-93 -7 L
-93 -7 L
-93 -17.719 L
-93 -19.25 -93.656 -19.984 QT
-94.313 -20.719 -95.672 -20.719 QT
-97.031 -20.719 -97.758 -19.852 QT
-98.484 -18.984 -98.484 -17.359 QT
-98.484 -17.359 L
-98.484 -7 L
-98.484 -7 L
-100.719 -7 L
-102.969 -7 L
-102.969 -7 L
cp
-74.578 -24 M
-74.578 -24 L
-72.453 -24 L
-70.313 -24 L
-70.313 -24 L
-70.313 -21.484 L
-70.313 -21.484 L
-70.016 -21.906 L
-68.203 -24.453 -65.234 -24.453 QT
-62 -24.453 -60.039 -22.063 QT
-58.078 -19.672 -58.078 -15.766 QT
-58.078 -11.625 -60.039 -9.094 QT
-62 -6.563 -65.234 -6.563 QT
-68.188 -6.563 -70 -8.938 QT
-70.094 -9.063 L
-70.094 -9.063 L
-70.094 -0.344 L
-70.094 -0.344 L
-72.328 -0.344 L
-74.578 -0.344 L
-74.578 -0.344 L
-74.578 -24 L
cp
-66.516 -10.25 M
-64.719 -10.25 -63.703 -11.602 QT
-62.688 -12.953 -62.688 -15.359 QT
-62.688 -17.813 -63.695 -19.195 QT
-64.703 -20.578 -66.5 -20.578 QT
-68.297 -20.578 -69.305 -19.156 QT
-70.313 -17.734 -70.313 -15.203 QT
-70.313 -15.203 L
-70.313 -15.203 L
-70.313 -15.203 L
-70.313 -12.875 -69.305 -11.563 QT
-68.297 -10.25 -66.516 -10.25 QT
cp
-50.422 -24 M
-50.422 -13.359 L
-50.422 -11.797 -49.75 -11.047 QT
-49.078 -10.297 -47.688 -10.297 QT
-45.938 -10.297 -45 -11.359 QT
-44.063 -12.422 -44.063 -14.422 QT
-44.063 -14.422 L
-44.063 -24 L
-44.063 -24 L
-41.828 -24 L
-39.578 -24 L
-39.578 -24 L
-39.578 -7 L
-39.578 -7 L
-41.703 -7 L
-43.844 -7 L
-43.844 -7 L
-43.844 -9.547 L
-43.844 -9.547 L
-43.844 -9.547 L
-44.078 -9.078 -44.406 -8.672 QT
-46.063 -6.563 -49.203 -6.563 QT
-51.891 -6.563 -53.398 -8.148 QT
-54.906 -9.734 -54.906 -12.547 QT
-54.906 -24 L
-54.906 -24 L
-52.672 -24 L
-50.422 -24 L
-50.422 -24 L
cp
-35.266 -7 M
-35.266 -29.969 L
-35.266 -29.969 L
-33.031 -29.969 L
-30.781 -29.969 L
-30.781 -29.969 L
-30.781 -7 L
-30.781 -7 L
-33.016 -7 L
-35.266 -7 L
-35.266 -7 L
cp
-16.875 -18.906 M
-16.875 -18.906 L
-16.875 -19.891 -17.688 -20.484 QT
-18.5 -21.078 -19.844 -21.078 QT
-21.141 -21.078 -21.867 -20.633 QT
-22.594 -20.188 -22.594 -19.391 QT
-22.594 -18.828 -21.766 -18.422 QT
-20.953 -18.031 -18.875 -17.563 QT
-14.75 -16.641 -13.359 -15.547 QT
-11.969 -14.453 -11.969 -12.109 QT
-11.969 -9.609 -13.992 -8.086 QT
-16.016 -6.563 -19.328 -6.563 QT
-23.25 -6.563 -25.367 -8.063 QT
-27.484 -9.563 -27.625 -12.438 QT
-27.625 -12.438 L
-23.063 -12.438 L
-23.063 -12.438 L
-23.016 -11.266 -22.023 -10.602 QT
-21.031 -9.938 -19.328 -9.938 QT
-17.984 -9.938 -17.227 -10.398 QT
-16.469 -10.859 -16.469 -11.688 QT
-16.469 -12.266 -17.203 -12.672 QT
-17.938 -13.063 -19.781 -13.469 QT
-24.094 -14.438 -25.547 -15.516 QT
-27 -16.578 -27 -18.813 QT
-27 -21.344 -25.117 -22.898 QT
-23.234 -24.453 -20.156 -24.453 QT
-16.688 -24.453 -14.563 -22.93 QT
-12.438 -21.406 -12.438 -18.906 QT
-12.438 -18.906 L
-16.875 -18.906 L
cp
-4.188 -24 M
-4.188 -13.359 L
-4.188 -11.797 -3.516 -11.047 QT
-2.844 -10.297 -1.453 -10.297 QT
0.297 -10.297 1.234 -11.359 QT
2.172 -12.422 2.172 -14.422 QT
2.172 -14.422 L
2.172 -24 L
2.172 -24 L
4.406 -24 L
6.656 -24 L
6.656 -24 L
6.656 -7 L
6.656 -7 L
4.531 -7 L
2.391 -7 L
2.391 -7 L
2.391 -9.547 L
2.391 -9.547 L
2.391 -9.547 L
2.156 -9.078 1.828 -8.672 QT
0.172 -6.563 -2.969 -6.563 QT
-5.656 -6.563 -7.164 -8.148 QT
-8.672 -9.734 -8.672 -12.547 QT
-8.672 -24 L
-8.672 -24 L
-6.438 -24 L
-4.188 -24 L
-4.188 -24 L
cp
19.734 -7 M
19.734 -24 L
19.734 -24 L
21.859 -24 L
24 -24 L
24 -24 L
24 -21.484 L
24 -21.484 L
24 -21.484 L
24.266 -21.938 24.578 -22.344 QT
26.234 -24.453 29.391 -24.453 QT
32.078 -24.453 33.602 -22.859 QT
35.125 -21.266 35.125 -18.438 QT
35.125 -7 L
35.125 -7 L
32.891 -7 L
30.641 -7 L
30.641 -7 L
30.641 -17.625 L
30.641 -19.203 29.961 -19.961 QT
29.281 -20.719 27.875 -20.719 QT
26.109 -20.719 25.164 -19.656 QT
24.219 -18.594 24.219 -16.594 QT
24.219 -16.594 L
24.219 -7 L
24.219 -7 L
21.984 -7 L
19.734 -7 L
19.734 -7 L
cp
39.453 -7 M
39.453 -24 L
39.453 -24 L
41.688 -24 L
43.938 -24 L
43.938 -24 L
43.938 -7 L
43.938 -7 L
41.703 -7 L
39.453 -7 L
39.453 -7 L
cp
39.406 -30.141 M
43.969 -30.141 L
43.969 -25.984 L
39.406 -25.984 L
39.406 -30.141 L
cp
54.906 -6.563 M
51.031 -6.563 48.93 -8.953 QT
46.828 -11.344 46.828 -15.766 QT
46.828 -19.844 48.969 -22.148 QT
51.109 -24.453 54.906 -24.453 QT
58.797 -24.453 60.898 -22.102 QT
63 -19.75 63 -15.406 QT
63.031 -14.906 62.922 -14.391 QT
62.922 -14.391 L
51.344 -14.391 L
51.344 -14.391 L
51.5 -12.375 52.234 -11.375 QT
53.172 -10.125 55.359 -10.125 QT
56.375 -10.125 57.242 -10.703 QT
58.109 -11.281 58.281 -12.094 QT
58.281 -12.094 L
62.844 -12.094 L
62.844 -12.094 L
62.266 -9.5 60.164 -8.031 QT
58.063 -6.563 54.906 -6.563 QT
cp
58.328 -17.25 M
58.328 -17.25 L
58.172 -18.781 57.516 -19.641 QT
56.656 -20.781 54.844 -20.781 QT
53.109 -20.781 52.203 -19.453 QT
51.641 -18.609 51.391 -17.25 QT
51.391 -17.25 L
58.328 -17.25 L
cp
65.875 -24 M
65.875 -24 L
68 -24 L
70.141 -24 L
70.141 -24 L
70.141 -21.484 L
70.141 -21.484 L
70.438 -21.906 L
72.25 -24.453 75.219 -24.453 QT
78.453 -24.453 80.414 -22.063 QT
82.375 -19.672 82.375 -15.766 QT
82.375 -11.625 80.414 -9.094 QT
78.453 -6.563 75.219 -6.563 QT
72.266 -6.563 70.453 -8.938 QT
70.359 -9.063 L
70.359 -9.063 L
70.359 -0.344 L
70.359 -0.344 L
68.125 -0.344 L
65.875 -0.344 L
65.875 -0.344 L
65.875 -24 L
cp
73.938 -10.25 M
75.734 -10.25 76.75 -11.602 QT
77.766 -12.953 77.766 -15.359 QT
77.766 -17.813 76.758 -19.195 QT
75.75 -20.578 73.953 -20.578 QT
72.156 -20.578 71.148 -19.156 QT
70.141 -17.734 70.141 -15.203 QT
70.141 -15.203 L
70.141 -15.203 L
70.141 -15.203 L
70.141 -12.875 71.148 -11.563 QT
72.156 -10.25 73.938 -10.25 QT
cp
93.219 -6.563 M
89.234 -6.563 86.883 -8.953 QT
84.531 -11.344 84.531 -15.406 QT
84.531 -19.563 86.883 -22.008 QT
89.234 -24.453 93.219 -24.453 QT
97.234 -24.453 99.578 -22.008 QT
101.922 -19.563 101.922 -15.406 QT
101.922 -11.344 99.578 -8.953 QT
97.234 -6.563 93.219 -6.563 QT
93.219 -6.563 L
cp
93.219 -10.313 M
95.219 -10.313 96.266 -11.625 QT
97.313 -12.938 97.313 -15.453 QT
97.313 -18.031 96.266 -19.367 QT
95.219 -20.703 93.219 -20.703 QT
91.219 -20.703 90.18 -19.367 QT
89.141 -18.031 89.141 -15.453 QT
89.141 -12.938 90.18 -11.625 QT
91.219 -10.313 93.219 -10.313 QT
93.219 -10.313 L
cp
111.313 -6.563 M
108.063 -6.563 106.07 -9.094 QT
104.078 -11.625 104.078 -15.766 QT
104.078 -19.672 106.063 -22.063 QT
108.047 -24.453 111.281 -24.453 QT
114.172 -24.453 115.938 -22.016 QT
116.125 -21.766 L
116.125 -21.766 L
116.125 -29.969 L
116.125 -29.969 L
118.359 -29.969 L
120.609 -29.969 L
120.609 -29.969 L
120.609 -7 L
120.609 -7 L
118.438 -7 L
116.266 -7 L
116.266 -7 L
116.266 -9.172 L
116.266 -9.172 L
116.188 -9.063 L
114.328 -6.563 111.313 -6.563 QT
cp
112.516 -20.578 M
110.719 -20.578 109.703 -19.195 QT
108.688 -17.813 108.688 -15.359 QT
108.688 -12.953 109.695 -11.602 QT
110.703 -10.25 112.5 -10.25 QT
114.313 -10.25 115.328 -11.672 QT
116.344 -13.094 116.344 -15.625 QT
116.344 -17.953 115.328 -19.266 QT
114.313 -20.578 112.516 -20.578 QT
cp
130.859 -6.563 M
127.609 -6.563 125.617 -9.094 QT
123.625 -11.625 123.625 -15.766 QT
123.625 -19.672 125.609 -22.063 QT
127.594 -24.453 130.828 -24.453 QT
133.719 -24.453 135.484 -22.016 QT
135.672 -21.766 L
135.672 -21.766 L
135.672 -29.969 L
135.672 -29.969 L
137.906 -29.969 L
140.156 -29.969 L
140.156 -29.969 L
140.156 -7 L
140.156 -7 L
137.984 -7 L
135.813 -7 L
135.813 -7 L
135.813 -9.172 L
135.813 -9.172 L
135.734 -9.063 L
133.875 -6.563 130.859 -6.563 QT
cp
132.063 -20.578 M
130.266 -20.578 129.25 -19.195 QT
128.234 -17.813 128.234 -15.359 QT
128.234 -12.953 129.242 -11.602 QT
130.25 -10.25 132.047 -10.25 QT
133.859 -10.25 134.875 -11.672 QT
135.891 -13.094 135.891 -15.625 QT
135.891 -17.953 134.875 -19.266 QT
133.859 -20.578 132.063 -20.578 QT
cp
148.234 -6.563 M
145.875 -6.563 144.438 -7.914 QT
143 -9.266 143 -11.469 QT
143 -13.797 144.297 -15.195 QT
145.594 -16.594 148.078 -16.953 QT
151.031 -17.359 L
152.188 -17.516 152.953 -17.891 QT
153.281 -18.047 153.461 -18.453 QT
153.641 -18.859 153.594 -19.281 QT
153.5 -20 152.859 -20.406 QT
152.094 -20.891 150.656 -20.891 QT
149.375 -20.891 148.656 -20.266 QT
147.938 -19.641 147.891 -18.5 QT
147.891 -18.5 L
143.594 -18.5 L
143.594 -18.5 L
143.734 -21.484 145.625 -22.969 QT
147.516 -24.453 151.172 -24.453 QT
154.344 -24.453 156.18 -23.117 QT
158.016 -21.781 158.016 -19.469 QT
158.016 -9.969 L
158.016 -8.828 158.203 -8.367 QT
158.391 -7.906 158.953 -7.641 QT
158.953 -7.625 L
158.953 -7.016 L
156.531 -7.016 L
154.109 -7.016 L
154.109 -7.016 L
153.813 -8.047 153.719 -9.031 QT
153.703 -9.063 L
151.594 -6.563 148.234 -6.563 QT
cp
153.625 -13.281 M
153.625 -15.234 L
153.625 -15.234 L
152.844 -14.797 151.563 -14.531 QT
149.906 -14.219 L
148.734 -14 148.125 -13.414 QT
147.516 -12.828 147.516 -11.938 QT
147.516 -10.922 148.063 -10.344 QT
148.609 -9.766 149.594 -9.766 QT
151.75 -9.766 153.031 -11.281 QT
153.281 -11.578 153.453 -12.156 QT
153.625 -12.734 153.625 -13.281 QT
cp
161.953 -7 M
161.953 -24 L
161.953 -24 L
164.078 -24 L
166.219 -24 L
166.219 -24 L
166.219 -21.484 L
166.219 -21.484 L
166.219 -21.484 L
166.484 -21.938 166.797 -22.344 QT
168.453 -24.453 171.609 -24.453 QT
174.297 -24.453 175.82 -22.859 QT
177.344 -21.266 177.344 -18.438 QT
177.344 -7 L
177.344 -7 L
175.109 -7 L
172.859 -7 L
172.859 -7 L
172.859 -17.625 L
172.859 -19.203 172.18 -19.961 QT
171.5 -20.719 170.094 -20.719 QT
168.328 -20.719 167.383 -19.656 QT
166.438 -18.594 166.438 -16.594 QT
166.438 -16.594 L
166.438 -7 L
166.438 -7 L
164.203 -7 L
161.953 -7 L
161.953 -7 L
cp
188.234 -6.563 M
184.359 -6.563 182.258 -8.953 QT
180.156 -11.344 180.156 -15.766 QT
180.156 -19.844 182.297 -22.148 QT
184.438 -24.453 188.234 -24.453 QT
192.125 -24.453 194.227 -22.102 QT
196.328 -19.75 196.328 -15.406 QT
196.359 -14.906 196.25 -14.391 QT
196.25 -14.391 L
184.672 -14.391 L
184.672 -14.391 L
184.828 -12.375 185.563 -11.375 QT
186.5 -10.125 188.688 -10.125 QT
189.703 -10.125 190.57 -10.703 QT
191.438 -11.281 191.609 -12.094 QT
191.609 -12.094 L
196.172 -12.094 L
196.172 -12.094 L
195.594 -9.5 193.492 -8.031 QT
191.391 -6.563 188.234 -6.563 QT
cp
191.656 -17.25 M
191.656 -17.25 L
191.5 -18.781 190.844 -19.641 QT
189.984 -20.781 188.172 -20.781 QT
186.438 -20.781 185.531 -19.453 QT
184.969 -18.609 184.719 -17.25 QT
184.719 -17.25 L
191.656 -17.25 L
cp
206.969 -3.469 M
208.859 -3.469 209.688 -4.383 QT
210.516 -5.297 210.516 -7.406 QT
210.516 -9.5 L
210.516 -9.5 L
210.156 -8.953 L
208.672 -6.906 205.891 -6.906 QT
202.578 -6.906 200.539 -9.289 QT
198.5 -11.672 198.5 -15.578 QT
198.5 -19.578 200.484 -22.016 QT
202.469 -24.453 205.703 -24.453 QT
208.563 -24.453 210.141 -22.375 QT
210.438 -21.984 210.688 -21.516 QT
210.688 -21.516 L
210.688 -24 L
210.688 -24 L
214.906 -24 L
214.906 -7.906 L
214.906 -3.875 212.914 -1.961 QT
210.922 -0.047 206.703 -0.047 QT
203.234 -0.047 201.188 -1.398 QT
199.141 -2.75 199 -5.141 QT
199 -5.141 L
203.875 -5.141 L
203.875 -5.141 L
203.938 -4.266 204.68 -3.867 QT
205.422 -3.469 206.969 -3.469 QT
cp
206.828 -20.578 M
205.078 -20.578 204.094 -19.242 QT
203.109 -17.906 203.109 -15.531 QT
203.109 -13.203 204.094 -11.898 QT
205.078 -10.594 206.813 -10.594 QT
208.578 -10.594 209.57 -11.922 QT
210.563 -13.25 210.563 -15.594 QT
210.563 -17.938 209.57 -19.258 QT
208.578 -20.578 206.828 -20.578 QT
cp
226.547 -6.563 M
222.563 -6.563 220.211 -8.953 QT
217.859 -11.344 217.859 -15.406 QT
217.859 -19.563 220.211 -22.008 QT
222.563 -24.453 226.547 -24.453 QT
230.563 -24.453 232.906 -22.008 QT
235.25 -19.563 235.25 -15.406 QT
235.25 -11.344 232.906 -8.953 QT
230.563 -6.563 226.547 -6.563 QT
226.547 -6.563 L
cp
226.547 -10.313 M
228.547 -10.313 229.594 -11.625 QT
230.641 -12.938 230.641 -15.453 QT
230.641 -18.031 229.594 -19.367 QT
228.547 -20.703 226.547 -20.703 QT
224.547 -20.703 223.508 -19.367 QT
222.469 -18.031 222.469 -15.453 QT
222.469 -12.938 223.508 -11.625 QT
224.547 -10.313 226.547 -10.313 QT
226.547 -10.313 L
cp
253.531 -6.563 M
250.281 -6.563 248.289 -9.094 QT
246.297 -11.625 246.297 -15.766 QT
246.297 -19.672 248.281 -22.063 QT
250.266 -24.453 253.5 -24.453 QT
256.391 -24.453 258.156 -22.016 QT
258.344 -21.766 L
258.344 -21.766 L
258.344 -29.969 L
258.344 -29.969 L
260.578 -29.969 L
262.828 -29.969 L
262.828 -29.969 L
262.828 -7 L
262.828 -7 L
260.656 -7 L
258.484 -7 L
258.484 -7 L
258.484 -9.172 L
258.484 -9.172 L
258.406 -9.063 L
256.547 -6.563 253.531 -6.563 QT
cp
254.734 -20.578 M
252.938 -20.578 251.922 -19.195 QT
250.906 -17.813 250.906 -15.359 QT
250.906 -12.953 251.914 -11.602 QT
252.922 -10.25 254.719 -10.25 QT
256.531 -10.25 257.547 -11.672 QT
258.563 -13.094 258.563 -15.625 QT
258.563 -17.953 257.547 -19.266 QT
256.531 -20.578 254.734 -20.578 QT
cp
282 -24 M
275.906 -6.641 L
274.438 -2.344 273.391 -1.25 QT
272.344 -0.156 269.656 -0.156 QT
267.516 -0.203 L
267.516 -3.797 L
267.672 -3.734 268.375 -3.734 QT
270.172 -3.734 270.719 -4.469 QT
271.063 -4.938 271.406 -6.406 QT
271.406 -6.406 L
265.063 -24 L
265.063 -24 L
267.531 -24 L
270.016 -24 L
270.016 -24 L
273.719 -11.391 L
273.719 -11.391 L
273.719 -11.391 L
277.313 -24 L
277.313 -24 L
279.656 -24 L
282 -24 L
282 -24 L
cp
294.25 -18.906 M
294.25 -18.906 L
294.25 -19.891 293.438 -20.484 QT
292.625 -21.078 291.281 -21.078 QT
289.984 -21.078 289.258 -20.633 QT
288.531 -20.188 288.531 -19.391 QT
288.531 -18.828 289.359 -18.422 QT
290.172 -18.031 292.25 -17.563 QT
296.375 -16.641 297.766 -15.547 QT
299.156 -14.453 299.156 -12.109 QT
299.156 -9.609 297.133 -8.086 QT
295.109 -6.563 291.797 -6.563 QT
287.875 -6.563 285.758 -8.063 QT
283.641 -9.563 283.5 -12.438 QT
283.5 -12.438 L
288.063 -12.438 L
288.063 -12.438 L
288.109 -11.266 289.102 -10.602 QT
290.094 -9.938 291.797 -9.938 QT
293.141 -9.938 293.898 -10.398 QT
294.656 -10.859 294.656 -11.688 QT
294.656 -12.266 293.922 -12.672 QT
293.188 -13.063 291.344 -13.469 QT
287.031 -14.438 285.578 -15.516 QT
284.125 -16.578 284.125 -18.813 QT
284.125 -21.344 286.008 -22.898 QT
287.891 -24.453 290.969 -24.453 QT
294.438 -24.453 296.563 -22.93 QT
298.688 -21.406 298.688 -18.906 QT
298.688 -18.906 L
294.25 -18.906 L
cp
302.328 -24 M
302.328 -24 L
304.453 -24 L
306.594 -24 L
306.594 -24 L
306.594 -21.484 L
306.594 -21.484 L
306.891 -21.906 L
308.703 -24.453 311.672 -24.453 QT
314.906 -24.453 316.867 -22.063 QT
318.828 -19.672 318.828 -15.766 QT
318.828 -11.625 316.867 -9.094 QT
314.906 -6.563 311.672 -6.563 QT
308.719 -6.563 306.906 -8.938 QT
306.813 -9.063 L
306.813 -9.063 L
306.813 -0.344 L
306.813 -0.344 L
304.578 -0.344 L
302.328 -0.344 L
302.328 -0.344 L
302.328 -24 L
cp
310.391 -10.25 M
312.188 -10.25 313.203 -11.602 QT
314.219 -12.953 314.219 -15.359 QT
314.219 -17.813 313.211 -19.195 QT
312.203 -20.578 310.406 -20.578 QT
308.609 -20.578 307.602 -19.156 QT
306.594 -17.734 306.594 -15.203 QT
306.594 -15.203 L
306.594 -15.203 L
306.594 -15.203 L
306.594 -12.875 307.602 -11.563 QT
308.609 -10.25 310.391 -10.25 QT
cp
328.703 -6.563 M
324.828 -6.563 322.727 -8.953 QT
320.625 -11.344 320.625 -15.766 QT
320.625 -19.844 322.766 -22.148 QT
324.906 -24.453 328.703 -24.453 QT
332.594 -24.453 334.695 -22.102 QT
336.797 -19.75 336.797 -15.406 QT
336.828 -14.906 336.719 -14.391 QT
336.719 -14.391 L
325.141 -14.391 L
325.141 -14.391 L
325.297 -12.375 326.031 -11.375 QT
326.969 -10.125 329.156 -10.125 QT
330.172 -10.125 331.039 -10.703 QT
331.906 -11.281 332.078 -12.094 QT
332.078 -12.094 L
336.641 -12.094 L
336.641 -12.094 L
336.063 -9.5 333.961 -8.031 QT
331.859 -6.563 328.703 -6.563 QT
cp
332.125 -17.25 M
332.125 -17.25 L
331.969 -18.781 331.313 -19.641 QT
330.453 -20.781 328.641 -20.781 QT
326.906 -20.781 326 -19.453 QT
325.438 -18.609 325.188 -17.25 QT
325.188 -17.25 L
332.125 -17.25 L
cp
339.734 -7 M
339.734 -24 L
339.734 -24 L
341.859 -24 L
344 -24 L
344 -24 L
344 -20.953 L
344 -20.953 L
344 -20.953 L
344.234 -21.453 344.531 -21.922 QT
346.109 -24.453 348.609 -24.453 QT
349.625 -24.438 L
349.625 -19.859 L
349.031 -19.922 348.281 -19.922 QT
346.234 -19.922 345.227 -18.906 QT
344.219 -17.891 344.219 -15.828 QT
344.219 -15.828 L
344.219 -7 L
344.219 -7 L
341.984 -7 L
339.734 -7 L
339.734 -7 L
cp
361.844 -18.906 M
361.844 -18.906 L
361.844 -19.891 361.031 -20.484 QT
360.219 -21.078 358.875 -21.078 QT
357.578 -21.078 356.852 -20.633 QT
356.125 -20.188 356.125 -19.391 QT
356.125 -18.828 356.953 -18.422 QT
357.766 -18.031 359.844 -17.563 QT
363.969 -16.641 365.359 -15.547 QT
366.75 -14.453 366.75 -12.109 QT
366.75 -9.609 364.727 -8.086 QT
362.703 -6.563 359.391 -6.563 QT
355.469 -6.563 353.352 -8.063 QT
351.234 -9.563 351.094 -12.438 QT
351.094 -12.438 L
355.656 -12.438 L
355.656 -12.438 L
355.703 -11.266 356.695 -10.602 QT
357.688 -9.938 359.391 -9.938 QT
360.734 -9.938 361.492 -10.398 QT
362.25 -10.859 362.25 -11.688 QT
362.25 -12.266 361.516 -12.672 QT
360.781 -13.063 358.938 -13.469 QT
354.625 -14.438 353.172 -15.516 QT
351.719 -16.578 351.719 -18.813 QT
351.719 -21.344 353.602 -22.898 QT
355.484 -24.453 358.563 -24.453 QT
362.031 -24.453 364.156 -22.93 QT
366.281 -21.406 366.281 -18.906 QT
366.281 -18.906 L
361.844 -18.906 L
cp
370.109 -24 M
370.109 -24 L
372.344 -24 L
374.594 -24 L
374.594 -24 L
374.594 -5.141 L
374.594 -2.375 373.398 -1.266 QT
372.203 -0.156 369.25 -0.156 QT
368.031 -0.172 L
368.031 -3.75 L
368.578 -3.734 L
369.484 -3.734 369.797 -4.023 QT
370.109 -4.313 370.109 -5.141 QT
370.109 -5.141 L
370.109 -24 L
cp
370.078 -30.141 M
374.641 -30.141 L
374.641 -25.984 L
370.078 -25.984 L
370.078 -30.141 L
cp
379.078 -7 M
379.078 -24 L
379.078 -24 L
381.313 -24 L
383.563 -24 L
383.563 -24 L
383.563 -7 L
383.563 -7 L
381.328 -7 L
379.078 -7 L
379.078 -7 L
cp
379.031 -30.141 M
383.594 -30.141 L
383.594 -25.984 L
379.031 -25.984 L
379.031 -30.141 L
cp
f
GR
GS
[0.75 0 0 0.75 117 500.41396] CT
0 0 1 RC
N
1.333 0 M
1.333 0.736 0.736 1.333 0 1.333 C
-0.736 1.333 -1.333 0.736 -1.333 0 C
-1.333 -0.736 -0.736 -1.333 0 -1.333 C
0.736 -1.333 1.333 -0.736 1.333 0 C
cp
f
GR
GS
[0.75 0 0 0.75 120.4875 500.47507] CT
0 0 1 RC
N
/f-1057828618{1.333 0 M
1.333 0.736 0.736 1.333 0 1.333 C
-0.736 1.333 -1.333 0.736 -1.333 0 C
-1.333 -0.736 -0.736 -1.333 0 -1.333 C
0.736 -1.333 1.333 -0.736 1.333 0 C
cp}def
f-1057828618
f
GR
GS
[0.75 0 0 0.75 123.975 500.41396] CT
0 0 1 RC
N
f-1057828618
f
GR
GS
[0.75 0 0 0.75 127.4625 500.62782] CT
0 0 1 RC
N
f-1057828618
f
GR
GS
[0.75 0 0 0.75 130.95 500.44449] CT
0 0 1 RC
N
f-1057828618
f
GR
GS
[0.75 0 0 0.75 134.4375 500.44449] CT
0 0 1 RC
N
f-1057828618
f
GR
GS
[0.75 0 0 0.75 137.925 500.47507] CT
0 0 1 RC
N
f-1057828618
f
GR
GS
[0.75 0 0 0.75 141.4125 500.2612] CT
0 0 1 RC
N
f-1057828618
f
GR
GS
[0.75 0 0 0.75 144.9 500.59724] CT
0 0 1 RC
N
f-1057828618
f
GR
GS
[0.75 0 0 0.75 148.3875 500.41396] CT
0 0 1 RC
N
f-1057828618
f
GR
GS
[0.75 0 0 0.75 151.875 500.38342] CT
0 0 1 RC
N
f-1057828618
f
GR
GS
[0.75 0 0 0.75 155.3625 500.13902] CT
0 0 1 RC
N
f-1057828618
f
GR
GS
[0.75 0 0 0.75 158.85 500.59724] CT
0 0 1 RC
N
f-1057828618
f
GR
GS
[0.75 0 0 0.75 162.3375 500.47507] CT
0 0 1 RC
N
f-1057828618
f
GR
GS
[0.75 0 0 0.75 165.825 500.38342] CT
0 0 1 RC
N
f-1057828618
f
GR
GS
[0.75 0 0 0.75 169.3125 500.47507] CT
0 0 1 RC
N
f-1057828618
f
GR
GS
[0.75 0 0 0.75 172.8 500.29173] CT
0 0 1 RC
N
f-1057828618
f
GR
GS
[0.75 0 0 0.75 176.2875 500.53613] CT
0 0 1 RC
N
f-1057828618
f
GR
GS
[0.75 0 0 0.75 179.775 500.56671] CT
0 0 1 RC
N
f-1057828618
f
GR
GS
[0.75 0 0 0.75 183.2625 500.29173] CT
0 0 1 RC
N
f-1057828618
f
GR
GS
[0.75 0 0 0.75 186.75 500.59724] CT
0 0 1 RC
N
f-1057828618
f
GR
GS
[0.75 0 0 0.75 190.2375 500.41396] CT
0 0 1 RC
N
f-1057828618
f
GR
GS
[0.75 0 0 0.75 193.72499 500.5056] CT
0 0 1 RC
N
f-1057828618
f
GR
GS
[0.75 0 0 0.75 197.21251 500.41396] CT
0 0 1 RC
N
f-1057828618
f
GR
GS
[0.75 0 0 0.75 200.7 500.47507] CT
0 0 1 RC
N
f-1057828618
f
GR
GS
[0.75 0 0 0.75 204.1875 500.38342] CT
0 0 1 RC
N
f-1057828618
f
GR
GS
[0.75 0 0 0.75 207.675 500.44449] CT
0 0 1 RC
N
f-1057828618
f
GR
GS
[0.75 0 0 0.75 211.16249 500.41396] CT
0 0 1 RC
N
f-1057828618
f
GR
GS
[0.75 0 0 0.75 214.65001 500.5056] CT
0 0 1 RC
N
f-1057828618
f
GR
GS
[0.75 0 0 0.75 218.1375 500.44449] CT
0 0 1 RC
N
f-1057828618
f
GR
GS
[0.75 0 0 0.75 221.625 500.29173] CT
0 0 1 RC
N
f-1057828618
f
GR
GS
[0.75 0 0 0.75 225.1125 500.53613] CT
0 0 1 RC
N
f-1057828618
f
GR
GS
[0.75 0 0 0.75 228.59999 500.41396] CT
0 0 1 RC
N
f-1057828618
f
GR
GS
[0.75 0 0 0.75 232.08751 500.47507] CT
0 0 1 RC
N
f-1057828618
f
GR
GS
[0.75 0 0 0.75 235.575 500.47507] CT
0 0 1 RC
N
f-1057828618
f
GR
GS
[0.75 0 0 0.75 239.0625 500.5056] CT
0 0 1 RC
N
f-1057828618
f
GR
GS
[0.75 0 0 0.75 242.55 500.41396] CT
0 0 1 RC
N
f-1057828618
f
GR
GS
[0.75 0 0 0.75 246.03749 500.13902] CT
0 0 1 RC
N
f-1057828618
f
GR
GS
[0.75 0 0 0.75 249.52501 500.29173] CT
0 0 1 RC
N
f-1057828618
f
GR
GS
[0.75 0 0 0.75 253.0125 500.13902] CT
0 0 1 RC
N
f-1057828618
f
GR
GS
[0.75 0 0 0.75 256.5 499.89462] CT
0 0 1 RC
N
f-1057828618
f
GR
GS
[0.75 0 0 0.75 259.9875 500.04733] CT
0 0 1 RC
N
f-1057828618
f
GR
GS
[0.75 0 0 0.75 263.47499 499.83351] CT
0 0 1 RC
N
f-1057828618
f
GR
GS
[0.75 0 0 0.75 266.96251 499.528] CT
0 0 1 RC
N
f-1057828618
f
GR
GS
[0.75 0 0 0.75 270.45 498.85591] CT
0 0 1 RC
N
f-1057828618
f
GR
GS
[0.75 0 0 0.75 273.9375 498.36711] CT
0 0 1 RC
N
f-1057828618
f
GR
GS
[0.75 0 0 0.75 277.425 498.7948] CT
0 0 1 RC
N
f-1057828618
f
GR
GS
[0.75 0 0 0.75 280.91249 497.51169] CT
0 0 1 RC
N
f-1057828618
f
GR
GS
[0.75 0 0 0.75 284.40001 496.96182] CT
0 0 1 RC
N
f-1057828618
f
GR
GS
[0.75 0 0 0.75 287.8875 495.98422] CT
0 0 1 RC
N
f-1057828618
f
GR
GS
[0.75 0 0 0.75 291.375 495.43431] CT
0 0 1 RC
N
f-1057828618
f
GR
GS
[0.75 0 0 0.75 294.8625 494.64] CT
0 0 1 RC
N
f-1057828618
f
GR
GS
[0.75 0 0 0.75 298.34999 493.69293] CT
0 0 1 RC
N
f-1057828618
f
GR
GS
[0.75 0 0 0.75 301.83751 492.16547] CT
0 0 1 RC
N
f-1057828618
f
GR
GS
[0.75 0 0 0.75 305.325 490.05751] CT
0 0 1 RC
N
f-1057828618
f
GR
GS
[0.75 0 0 0.75 308.8125 488.46889] CT
0 0 1 RC
N
f-1057828618
f
GR
GS
[0.75 0 0 0.75 312.3 485.20004] CT
0 0 1 RC
N
f-1057828618
f
GR
GS
[0.75 0 0 0.75 315.78749 484.52795] CT
0 0 1 RC
N
f-1057828618
f
GR
GS
[0.75 0 0 0.75 319.27501 481.50351] CT
0 0 1 RC
N
f-1057828618
f
GR
GS
[0.75 0 0 0.75 322.7625 478.93729] CT
0 0 1 RC
N
f-1057828618
f
GR
GS
[0.75 0 0 0.75 326.25 475.5768] CT
0 0 1 RC
N
f-1057828618
f
GR
GS
[0.75 0 0 0.75 329.7375 468.94746] CT
0 0 1 RC
N
f-1057828618
f
GR
GS
[0.75 0 0 0.75 333.22499 464.79266] CT
0 0 1 RC
N
f-1057828618
f
GR
GS
[0.75 0 0 0.75 336.71251 459.84355] CT
0 0 1 RC
N
f-1057828618
f
GR
GS
[0.75 0 0 0.75 340.2 453.36693] CT
0 0 1 RC
N
f-1057828618
f
GR
GS
[0.75 0 0 0.75 343.6875 447.40968] CT
0 0 1 RC
N
f-1057828618
f
GR
GS
[0.75 0 0 0.75 347.175 440.90257] CT
0 0 1 RC
N
f-1057828618
f
GR
GS
[0.75 0 0 0.75 350.66249 431.8903] CT
0 0 1 RC
N
f-1057828618
f
GR
GS
[0.75 0 0 0.75 354.15001 424.8027] CT
0 0 1 RC
N
f-1057828618
f
GR
GS
[0.75 0 0 0.75 357.6375 413.86581] CT
0 0 1 RC
N
f-1057828618
f
GR
GS
[0.75 0 0 0.75 361.125 404.97577] CT
0 0 1 RC
N
f-1057828618
f
GR
GS
[0.75 0 0 0.75 364.6125 393.61115] CT
0 0 1 RC
N
f-1057828618
f
GR
GS
[0.75 0 0 0.75 368.09999 378.82494] CT
0 0 1 RC
N
f-1057828618
f
GR
GS
[0.75 0 0 0.75 371.58751 364.95525] CT
0 0 1 RC
N
f-1057828618
f
GR
GS
[0.75 0 0 0.75 375.075 354.14054] CT
0 0 1 RC
N
f-1057828618
f
GR
GS
[0.75 0 0 0.75 378.5625 334.83294] CT
0 0 1 RC
N
f-1057828618
f
GR
GS
[0.75 0 0 0.75 382.05 324.41541] CT
0 0 1 RC
N
f-1057828618
f
GR
GS
[0.75 0 0 0.75 385.53749 309.20149] CT
0 0 1 RC
N
f-1057828618
f
GR
GS
[0.75 0 0 0.75 389.02501 287.96925] CT
0 0 1 RC
N
f-1057828618
f
GR
GS
[0.75 0 0 0.75 392.51248 266.126] CT
0 0 1 RC
N
f-1057828618
f
GR
GS
[0.75 0 0 0.75 396 255.2502] CT
0 0 1 RC
N
f-1057828618
f
GR
GS
[0.75 0 0 0.75 399.48752 232.79595] CT
0 0 1 RC
N
f-1057828618
f
GR
GS
[0.75 0 0 0.75 402.97499 221.03419] CT
0 0 1 RC
N
f-1057828618
f
GR
GS
[0.75 0 0 0.75 406.46251 198.39666] CT
0 0 1 RC
N
f-1057828618
f
GR
GS
[0.75 0 0 0.75 409.94998 184.16035] CT
0 0 1 RC
N
f-1057828618
f
GR
GS
[0.75 0 0 0.75 413.4375 168.15215] CT
0 0 1 RC
N
f-1057828618
f
GR
GS
[0.75 0 0 0.75 416.92502 146.7366] CT
0 0 1 RC
N
f-1057828618
f
GR
GS
[0.75 0 0 0.75 420.41249 134.42495] CT
0 0 1 RC
N
f-1057828618
f
GR
GS
[0.75 0 0 0.75 423.90001 117.653] CT
0 0 1 RC
N
f-1057828618
f
GR
GS
[0.75 0 0 0.75 427.38748 103.99715] CT
0 0 1 RC
N
f-1057828618
f
GR
GS
[0.75 0 0 0.75 430.875 97.55111] CT
0 0 1 RC
N
f-1057828618
f
GR
GS
[0.75 0 0 0.75 434.36252 76.56325] CT
0 0 1 RC
N
f-1057828618
f
GR
GS
[0.75 0 0 0.75 437.84999 66.05405] CT
0 0 1 RC
N
f-1057828618
f
GR
GS
[0.75 0 0 0.75 441.33751 59.7302] CT
0 0 1 RC
N
f-1057828618
f
GR
GS
[0.75 0 0 0.75 444.82498 58.8137] CT
0 0 1 RC
N
f-1057828618
f
GR
GS
[0.75 0 0 0.75 448.3125 51.5428] CT
0 0 1 RC
N
f-1057828618
f
GR
GS
[0.75 0 0 0.75 451.80002 53.83405] CT
0 0 1 RC
N
f-1057828618
f
GR
GS
[0.75 0 0 0.75 455.28749 52.8259] CT
0 0 1 RC
N
f-1057828618
f
GR
GS
[0.75 0 0 0.75 458.77501 50.8707] CT
0 0 1 RC
N
f-1057828618
f
GR
GS
[0.75 0 0 0.75 462.26248 57.62225] CT
0 0 1 RC
N
f-1057828618
f
GR
GS
[0.75 0 0 0.75 465.75 50.8096] CT
0 0 1 RC
N
f-1057828618
f
GR
GS
[0.75 0 0 0.75 469.23752 69.0174] CT
0 0 1 RC
N
f-1057828618
f
GR
GS
[0.75 0 0 0.75 472.72499 74.18035] CT
0 0 1 RC
N
f-1057828618
f
GR
GS
[0.75 0 0 0.75 476.21251 84.4757] CT
0 0 1 RC
N
f-1057828618
f
GR
GS
[0.75 0 0 0.75 479.69998 93.12135] CT
0 0 1 RC
N
f-1057828618
f
GR
GS
[0.75 0 0 0.75 483.1875 111.1153] CT
0 0 1 RC
N
f-1057828618
f
GR
GS
[0.75 0 0 0.75 486.67502 115.11735] CT
0 0 1 RC
N
f-1057828618
f
GR
GS
[0.75 0 0 0.75 490.16249 130.484] CT
0 0 1 RC
N
f-1057828618
f
GR
GS
[0.75 0 0 0.75 493.65001 140.04615] CT
0 0 1 RC
N
f-1057828618
f
GR
GS
[0.75 0 0 0.75 497.13748 156.54316] CT
0 0 1 RC
N
f-1057828618
f
GR
GS
[0.75 0 0 0.75 500.625 180.67765] CT
0 0 1 RC
N
f-1057828618
f
GR
GS
[0.75 0 0 0.75 504.11252 189.3844] CT
0 0 1 RC
N
f-1057828618
f
GR
GS
[0.75 0 0 0.75 507.59999 196.38035] CT
0 0 1 RC
N
f-1057828618
f
GR
GS
[0.75 0 0 0.75 511.08751 219.90384] CT
0 0 1 RC
N
f-1057828618
f
GR
GS
[0.75 0 0 0.75 514.57498 230.8102] CT
0 0 1 RC
N
f-1057828618
f
GR
GS
[0.75 0 0 0.75 518.0625 244.28275] CT
0 0 1 RC
N
f-1057828618
f
GR
GS
[0.75 0 0 0.75 521.55002 263.04044] CT
0 0 1 RC
N
f-1057828618
f
GR
GS
[0.75 0 0 0.75 525.03749 274.58836] CT
0 0 1 RC
N
f-1057828618
f
GR
GS
[0.75 0 0 0.75 528.52501 288.733] CT
0 0 1 RC
N
f-1057828618
f
GR
GS
[0.75 0 0 0.75 532.01248 302.81656] CT
0 0 1 RC
N
f-1057828618
f
GR
GS
[0.75 0 0 0.75 535.5 315.58645] CT
0 0 1 RC
N
f-1057828618
f
GR
GS
[0.75 0 0 0.75 538.98752 329.76165] CT
0 0 1 RC
N
f-1057828618
f
GR
GS
[0.75 0 0 0.75 542.47499 336.26881] CT
0 0 1 RC
N
f-1057828618
f
GR
GS
[0.75 0 0 0.75 545.96251 343.44805] CT
0 0 1 RC
N
f-1057828618
f
GR
GS
[0.75 0 0 0.75 549.44998 358.72305] CT
0 0 1 RC
N
f-1057828618
f
GR
GS
[0.75 0 0 0.75 552.9375 368.56014] CT
0 0 1 RC
N
f-1057828618
f
GR
GS
[0.75 0 0 0.75 556.42502 376.44205] CT
0 0 1 RC
N
f-1057828618
f
GR
GS
[0.75 0 0 0.75 559.91249 386.89017] CT
0 0 1 RC
N
f-1057828618
f
GR
GS
[0.75 0 0 0.75 563.40001 394.52763] CT
0 0 1 RC
N
f-1057828618
f
GR
GS
[0.75 0 0 0.75 566.88748 404.08981] CT
0 0 1 RC
N
f-1057828618
f
GR
GS
[0.75 0 0 0.75 570.375 408.64177] CT
0 0 1 RC
N
f-1057828618
f
GR
GS
[0.75 0 0 0.75 573.86252 415.14888] CT
0 0 1 RC
N
f-1057828618
f
GR
GS
[0.75 0 0 0.75 577.34999 419.76195] CT
0 0 1 RC
N
f-1057828618
f
GR
GS
[0.75 0 0 0.75 580.83751 424.92488] CT
0 0 1 RC
N
f-1057828618
f
GR
GS
[0.75 0 0 0.75 584.32498 431.34039] CT
0 0 1 RC
N
f-1057828618
f
GR
GS
[0.75 0 0 0.75 587.8125 435.5563] CT
0 0 1 RC
N
f-1057828618
f
GR
GS
[0.75 0 0 0.75 591.30002 443.19382] CT
0 0 1 RC
N
f-1057828618
f
GR
GS
[0.75 0 0 0.75 594.78749 443.16324] CT
0 0 1 RC
N
f-1057828618
f
GR
GS
[0.75 0 0 0.75 598.27501 448.41786] CT
0 0 1 RC
N
f-1057828618
f
GR
GS
[0.75 0 0 0.75 601.76248 452.08386] CT
0 0 1 RC
N
f-1057828618
f
GR
GS
[0.75 0 0 0.75 605.25 455.19995] CT
0 0 1 RC
N
f-1057828618
f
GR
GS
[0.75 0 0 0.75 608.73752 456.2692] CT
0 0 1 RC
N
f-1057828618
f
GR
GS
[0.75 0 0 0.75 612.22499 461.82928] CT
0 0 1 RC
N
f-1057828618
f
GR
GS
[0.75 0 0 0.75 615.71251 464.63991] CT
0 0 1 RC
N
f-1057828618
f
GR
GS
[0.75 0 0 0.75 619.19998 465.86191] CT
0 0 1 RC
N
f-1057828618
f
GR
GS
[0.75 0 0 0.75 622.6875 468.7336] CT
0 0 1 RC
N
f-1057828618
f
GR
GS
[0.75 0 0 0.75 626.17502 470.47493] CT
0 0 1 RC
N
f-1057828618
f
GR
GS
[0.75 0 0 0.75 629.66249 473.28555] CT
0 0 1 RC
N
f-1057828618
f
GR
GS
[0.75 0 0 0.75 633.15001 474.78249] CT
0 0 1 RC
N
f-1057828618
f
GR
GS
[0.75 0 0 0.75 636.63748 477.59311] CT
0 0 1 RC
N
f-1057828618
f
GR
GS
[0.75 0 0 0.75 640.125 476.5544] CT
0 0 1 RC
N
f-1057828618
f
GR
GS
[0.75 0 0 0.75 643.61252 480.09822] CT
0 0 1 RC
N
f-1057828618
f
GR
GS
[0.75 0 0 0.75 647.09999 481.96173] CT
0 0 1 RC
N
f-1057828618
f
GR
GS
[0.75 0 0 0.75 650.58751 481.96173] CT
0 0 1 RC
N
f-1057828618
f
GR
GS
[0.75 0 0 0.75 654.07498 483.48924] CT
0 0 1 RC
N
f-1057828618
f
GR
GS
[0.75 0 0 0.75 657.5625 484.25302] CT
0 0 1 RC
N
f-1057828618
f
GR
GS
[0.75 0 0 0.75 661.05002 485.01675] CT
0 0 1 RC
N
f-1057828618
f
GR
GS
[0.75 0 0 0.75 664.53749 487.12471] CT
0 0 1 RC
N
f-1057828618
f
GR
GS
[0.75 0 0 0.75 668.02501 487.12471] CT
0 0 1 RC
N
f-1057828618
f
GR
GS
[0.75 0 0 0.75 671.51248 488.98827] CT
0 0 1 RC
N
f-1057828618
f
GR
GS
[0.75 0 0 0.75 675 489.41595] CT
0 0 1 RC
N
f-1057828618
f
GR
GS
[0.75 0 0 0.75 678.48752 489.47707] CT
0 0 1 RC
N
f-1057828618
f
GR
GS
[0.75 0 0 0.75 681.97499 490.88235] CT
0 0 1 RC
N
f-1057828618
f
GR
GS
[0.75 0 0 0.75 685.46251 491.37115] CT
0 0 1 RC
N
f-1057828618
f
GR
GS
[0.75 0 0 0.75 688.94998 492.40987] CT
0 0 1 RC
N
f-1057828618
f
GR
GS
[0.75 0 0 0.75 692.4375 492.77644] CT
0 0 1 RC
N
f-1057828618
f
GR
GS
[0.75 0 0 0.75 695.92502 493.14307] CT
0 0 1 RC
N
f-1057828618
f
GR
GS
[0.75 0 0 0.75 699.41249 493.6624] CT
0 0 1 RC
N
f-1057828618
f
GR
GS
[0.75 0 0 0.75 702.90001 493.96791] CT
0 0 1 RC
N
f-1057828618
f
GR
GS
[0.75 0 0 0.75 706.38748 494.48724] CT
0 0 1 RC
N
f-1057828618
f
GR
GS
[0.75 0 0 0.75 709.875 494.02902] CT
0 0 1 RC
N
f-1057828618
f
GR
GS
[0.75 0 0 0.75 713.36252 494.24284] CT
0 0 1 RC
N
f-1057828618
f
GR
GS
[0.75 0 0 0.75 716.84999 494.76222] CT
0 0 1 RC
N
f-1057828618
f
GR
GS
[0.75 0 0 0.75 720.33751 495.28156] CT
0 0 1 RC
N
f-1057828618
f
GR
GS
[0.75 0 0 0.75 723.82498 496.07587] CT
0 0 1 RC
N
f-1057828618
f
GR
GS
[0.75 0 0 0.75 727.3125 496.62573] CT
0 0 1 RC
N
f-1057828618
f
GR
GS
[0.75 0 0 0.75 730.80002 496.1064] CT
0 0 1 RC
N
f-1057828618
f
GR
GS
[0.75 0 0 0.75 734.28749 496.53409] CT
0 0 1 RC
N
f-1057828618
f
GR
GS
[0.75 0 0 0.75 737.77501 497.14511] CT
0 0 1 RC
N
f-1057828618
f
GR
GS
[0.75 0 0 0.75 741.26248 496.99236] CT
0 0 1 RC
N
f-1057828618
f
GR
GS
[0.75 0 0 0.75 744.75 497.38951] CT
0 0 1 RC
N
f-1057828618
f
GR
GS
[0.75 0 0 0.75 748.23752 497.75609] CT
0 0 1 RC
N
f-1057828618
f
GR
GS
[0.75 0 0 0.75 751.72499 497.51169] CT
0 0 1 RC
N
f-1057828618
f
GR
GS
[0.75 0 0 0.75 755.21251 498.21436] CT
0 0 1 RC
N
f-1057828618
f
GR
GS
[0.75 0 0 0.75 758.69998 497.87831] CT
0 0 1 RC
N
f-1057828618
f
GR
GS
[0.75 0 0 0.75 762.1875 498.27547] CT
0 0 1 RC
N
f-1057828618
f
GR
GS
[0.75 0 0 0.75 765.67502 498.0616] CT
0 0 1 RC
N
f-1057828618
f
GR
GS
[0.75 0 0 0.75 769.16254 498.5504] CT
0 0 1 RC
N
f-1057828618
f
GR
GS
[0.75 0 0 0.75 772.64996 498.58093] CT
0 0 1 RC
N
f-1057828618
f
GR
GS
[0.75 0 0 0.75 776.13748 498.88644] CT
0 0 1 RC
N
f-1057828618
f
GR
GS
[0.75 0 0 0.75 779.625 498.48929] CT
0 0 1 RC
N
f-1057828618
f
GR
GS
[0.75 0 0 0.75 783.11252 498.33653] CT
0 0 1 RC
N
f-1057828618
f
GR
GS
[0.75 0 0 0.75 786.60004 499.40582] CT
0 0 1 RC
N
f-1057828618
f
GR
GS
[0.75 0 0 0.75 790.08746 498.94756] CT
0 0 1 RC
N
f-1057828618
f
GR
GS
[0.75 0 0 0.75 793.57498 499.40582] CT
0 0 1 RC
N
f-1057828618
f
GR
GS
[0.75 0 0 0.75 797.0625 498.94756] CT
0 0 1 RC
N
f-1057828618
f
GR
GS
[0.75 0 0 0.75 800.55002 499.13084] CT
0 0 1 RC
N
f-1057828618
f
GR
GS
[0.75 0 0 0.75 804.03754 499.71129] CT
0 0 1 RC
N
f-1057828618
f
GR
GS
[0.75 0 0 0.75 807.52496 499.22249] CT
0 0 1 RC
N
f-1057828618
f
GR
GS
[0.75 0 0 0.75 811.01248 499.25307] CT
0 0 1 RC
N
f-1057828618
f
GR
GS
[0.75 0 0 0.75 814.5 499.528] CT
0 0 1 RC
N
f-1057828618
f
GR
GS
[0.75 0 0 0.75 0 0.5] CT
1 0 0 RC
1 LJ
0.667 LW
N
155.889 667 M
156 667 L
160.65 667 L
165.3 667 L
169.95 667 L
174.6 667 L
179.25 667 L
183.9 667 L
188.55 667 L
193.2 667 L
197.85 667 L
202.5 666.999 L
207.15 666.999 L
211.8 666.999 L
216.45 666.998 L
221.1 666.998 L
225.75 666.997 L
230.4 666.996 L
235.05 666.994 L
239.7 666.992 L
244.35 666.99 L
249 666.987 L
253.65 666.983 L
258.3 666.978 L
262.95 666.971 L
267.6 666.962 L
272.25 666.951 L
276.9 666.936 L
281.55 666.918 L
286.2 666.895 L
290.85 666.866 L
295.5 666.83 L
300.15 666.784 L
304.8 666.727 L
309.45 666.656 L
314.1 666.568 L
318.75 666.46 L
323.4 666.327 L
328.05 666.165 L
332.7 665.966 L
337.35 665.725 L
342 665.434 L
346.65 665.083 L
351.3 664.661 L
355.95 664.156 L
360.6 663.554 L
365.25 662.84 L
369.9 661.995 L
374.55 661 L
379.2 659.832 L
383.85 658.467 L
388.5 656.877 L
393.15 655.034 L
397.8 652.904 L
402.45 650.454 L
407.1 647.646 L
411.75 644.442 L
416.4 640.799 L
421.05 636.674 L
425.7 632.023 L
430.35 626.8 L
435 620.96 L
439.65 614.456 L
444.3 607.244 L
448.95 599.28 L
453.6 590.524 L
458.25 580.94 L
462.9 570.494 L
467.55 559.16 L
472.2 546.918 L
476.85 533.755 L
481.5 519.669 L
486.15 504.664 L
490.8 488.76 L
495.45 471.984 L
500.1 454.377 L
504.75 435.995 L
509.4 416.905 L
514.05 397.187 L
518.7 376.935 L
523.35 356.259 L
528 335.276 L
532.65 314.119 L
537.3 292.931 L
541.95 271.861 L
546.6 251.07 L
551.25 230.721 L
555.9 210.983 L
560.55 192.024 L
565.2 174.013 L
569.85 157.115 L
574.5 141.489 L
579.15 127.284 L
583.8 114.64 L
588.45 103.684 L
593.1 94.527 L
597.75 87.263 L
602.4 81.966 L
607.05 78.694 L
611.7 77.479 L
616.35 78.334 L
621 81.251 L
625.65 86.199 L
630.3 93.127 L
634.95 101.961 L
639.6 112.612 L
644.25 124.971 L
648.9 138.914 L
653.55 154.304 L
658.2 170.993 L
662.85 188.822 L
667.5 207.628 L
672.15 227.243 L
676.8 247.498 L
681.45 268.224 L
686.1 289.257 L
690.75 310.436 L
695.4 331.609 L
700.05 352.631 L
704.7 373.37 L
709.35 393.703 L
714 413.521 L
718.65 432.727 L
723.3 451.238 L
727.95 468.983 L
732.6 485.906 L
737.25 501.965 L
741.9 517.127 L
746.55 531.374 L
751.2 544.697 L
755.85 557.099 L
760.5 568.589 L
765.15 579.188 L
769.8 588.92 L
774.45 597.817 L
779.1 605.915 L
783.75 613.255 L
788.4 619.879 L
793.05 625.831 L
797.7 631.158 L
802.35 635.905 L
807 640.118 L
811.65 643.841 L
816.3 647.119 L
820.95 649.993 L
825.6 652.503 L
830.25 654.685 L
834.9 656.576 L
839.55 658.207 L
844.2 659.609 L
848.85 660.81 L
853.5 661.833 L
858.15 662.703 L
862.8 663.438 L
867.45 664.058 L
872.1 664.579 L
876.75 665.015 L
881.4 665.378 L
886.05 665.679 L
890.7 665.928 L
895.35 666.133 L
900 666.301 L
904.65 666.439 L
909.3 666.551 L
913.95 666.642 L
918.6 666.716 L
923.25 666.775 L
927.9 666.822 L
932.55 666.86 L
937.2 666.891 L
941.85 666.915 L
946.5 666.934 L
951.15 666.948 L
955.8 666.96 L
960.45 666.969 L
965.1 666.977 L
969.75 666.982 L
974.4 666.986 L
979.05 666.99 L
983.7 666.992 L
988.35 666.994 L
993 666.996 L
997.65 666.997 L
1002.3 666.997 L
1006.95 666.998 L
1011.6 666.999 L
1016.25 666.999 L
1020.9 666.999 L
1025.55 666.999 L
1030.2 667 L
1034.85 667 L
1039.5 667 L
1044.15 667 L
1048.8 667 L
1053.45 667 L
1058.1 667 L
1062.75 667 L
1067.4 667 L
1072.05 667 L
1076.7 667 L
1081.35 667 L
1086 667 L
1086.111 667 L
S
GR
GS
[0.75 0 0 0.75 0 0.5] CT
1 GC
N
819 126 M
819 69 L
1073 69 L
1073 126 L
cp
f
GR
GS
[0.75 0 0 0.75 649.5 63.59956] CT
/Helvetica 21.6 F
GS
[1 0 0 1 0 0] CT
0 8 moveto 
1 -1 scale
(Dane pomiarowe) t 
GR
GR
GS
[0.75 0 0 0.75 632.25 63.59956] CT
0 0 1 RC
N
f-1057828618
f
GR
GS
[0.75 0 0 0.75 649.5 83.65044] CT
/Helvetica 21.6 F
GS
[1 0 0 1 0 0] CT
0 8 moveto 
1 -1 scale
(Dopasowana krzywa) t 
GR
GR
GS
[0.75 0 0 0.75 0 0.5] CT
1 0 0 RC
1 LJ
0.667 LW
N
823 110.867 M
863 110.867 L
S
GR
GS
[0.75 0 0 0.75 0 0.5] CT
0.149 GC
10.0 ML
0.667 LW
N
819 126 M
819 69 L
1073 69 L
1073 126 L
cp
S
GR
GS
[0.75 0 0 0.75 0 0.5] CT
10.0 ML
0.667 LW
N
712 248 M
712 144 L
1072.5 144 L
1072.5 248 L
cp
S
GR
GS
[0.75 0 0 0.75 539.25 128.75] CT
/Helvetica 24 F
GS
[1 0 0 1 0 0] CT
0 0 moveto 
1 -1 scale
(f\(x\) =  14472.9 *) t 
GR
GR
GS
[0.75 0 0 0.75 539.25 155.75] CT
/Helvetica 24 F
GS
[1 0 0 1 0 0] CT
0 0 moveto 
1 -1 scale
(exp\(-\(\(x-\(-1.91313\)\)/23.8518\)) t 
GR
GR
GS
[0.75 0 0 0.75 772.5 146.75] CT
/Helvetica 19.2 F
GS
[1 0 0 1 0 0] CT
0 0 moveto 
1 -1 scale
(2) t 
GR
GR
GS
[0.75 0 0 0.75 780.75 155.75] CT
/Helvetica 24 F
GS
[1 0 0 1 0 0] CT
0 0 moveto 
1 -1 scale
(\)) t 
GR
GR
%%Trailer
%%Pages: 1
%%EOF
