%!PS-Adobe-3.0 EPSF-3.0
%%Creator: (MATLAB, The Mathworks, Inc. Version 9.0.0.341360 \(R2016a\). Operating System: Linux)
%%Title: /home/misimik/Dokumenty/Magisterka/Magisterka/Photon/Spektrometr/InterferencjaSpektralnaOSA.eps
%%CreationDate: 2017-09-25T21:29:45
%%Pages: (atend)
%%BoundingBox: 0 0 906 566
%%LanguageLevel: 3
%%EndComments
%%BeginProlog
%%BeginResource: procset (Apache XML Graphics Std ProcSet) 1.2 0
%%Version: 1.2 0
%%Copyright: (Copyright 2001-2003,2010 The Apache Software Foundation. License terms: http://www.apache.org/licenses/LICENSE-2.0)
/bd{bind def}bind def
/ld{load def}bd
/GR/grestore ld
/M/moveto ld
/LJ/setlinejoin ld
/C/curveto ld
/f/fill ld
/LW/setlinewidth ld
/GC/setgray ld
/t/show ld
/N/newpath ld
/CT/concat ld
/cp/closepath ld
/S/stroke ld
/L/lineto ld
/CC/setcmykcolor ld
/A/ashow ld
/GS/gsave ld
/RC/setrgbcolor ld
/RM/rmoveto ld
/ML/setmiterlimit ld
/re {4 2 roll M
1 index 0 rlineto
0 exch rlineto
neg 0 rlineto
cp } bd
/_ctm matrix def
/_tm matrix def
/BT { _ctm currentmatrix pop matrix _tm copy pop 0 0 moveto } bd
/ET { _ctm setmatrix } bd
/iTm { _ctm setmatrix _tm concat } bd
/Tm { _tm astore pop iTm 0 0 moveto } bd
/ux 0.0 def
/uy 0.0 def
/F {
  /Tp exch def
  /Tf exch def
  Tf findfont Tp scalefont setfont
  /cf Tf def  /cs Tp def
} bd
/ULS {currentpoint /uy exch def /ux exch def} bd
/ULE {
  /Tcx currentpoint pop def
  gsave
  newpath
  cf findfont cs scalefont dup
  /FontMatrix get 0 get /Ts exch def /FontInfo get dup
  /UnderlinePosition get Ts mul /To exch def
  /UnderlineThickness get Ts mul /Tt exch def
  ux uy To add moveto  Tcx uy To add lineto
  Tt setlinewidth stroke
  grestore
} bd
/OLE {
  /Tcx currentpoint pop def
  gsave
  newpath
  cf findfont cs scalefont dup
  /FontMatrix get 0 get /Ts exch def /FontInfo get dup
  /UnderlinePosition get Ts mul /To exch def
  /UnderlineThickness get Ts mul /Tt exch def
  ux uy To add cs add moveto Tcx uy To add cs add lineto
  Tt setlinewidth stroke
  grestore
} bd
/SOE {
  /Tcx currentpoint pop def
  gsave
  newpath
  cf findfont cs scalefont dup
  /FontMatrix get 0 get /Ts exch def /FontInfo get dup
  /UnderlinePosition get Ts mul /To exch def
  /UnderlineThickness get Ts mul /Tt exch def
  ux uy To add cs 10 mul 26 idiv add moveto Tcx uy To add cs 10 mul 26 idiv add lineto
  Tt setlinewidth stroke
  grestore
} bd
/QT {
/Y22 exch store
/X22 exch store
/Y21 exch store
/X21 exch store
currentpoint
/Y21 load 2 mul add 3 div exch
/X21 load 2 mul add 3 div exch
/X21 load 2 mul /X22 load add 3 div
/Y21 load 2 mul /Y22 load add 3 div
/X22 load /Y22 load curveto
} bd
/SSPD {
dup length /d exch dict def
{
/v exch def
/k exch def
currentpagedevice k known {
/cpdv currentpagedevice k get def
v cpdv ne {
/upd false def
/nullv v type /nulltype eq def
/nullcpdv cpdv type /nulltype eq def
nullv nullcpdv or
{
/upd true def
} {
/sametype v type cpdv type eq def
sametype {
v type /arraytype eq {
/vlen v length def
/cpdvlen cpdv length def
vlen cpdvlen eq {
0 1 vlen 1 sub {
/i exch def
/obj v i get def
/cpdobj cpdv i get def
obj cpdobj ne {
/upd true def
exit
} if
} for
} {
/upd true def
} ifelse
} {
v type /dicttype eq {
v {
/dv exch def
/dk exch def
/cpddv cpdv dk get def
dv cpddv ne {
/upd true def
exit
} if
} forall
} {
/upd true def
} ifelse
} ifelse
} if
} ifelse
upd true eq {
d k v put
} if
} if
} if
} forall
d length 0 gt {
d setpagedevice
} if
} bd
%%EndResource
%%BeginResource: procset (Apache XML Graphics EPS ProcSet) 1.0 0
%%Version: 1.0 0
%%Copyright: (Copyright 2002-2003 The Apache Software Foundation. License terms: http://www.apache.org/licenses/LICENSE-2.0)
/BeginEPSF { %def
/b4_Inc_state save def         % Save state for cleanup
/dict_count countdictstack def % Count objects on dict stack
/op_count count 1 sub def      % Count objects on operand stack
userdict begin                 % Push userdict on dict stack
/showpage { } def              % Redefine showpage, { } = null proc
0 setgray 0 setlinecap         % Prepare graphics state
1 setlinewidth 0 setlinejoin
10 setmiterlimit [ ] 0 setdash newpath
/languagelevel where           % If level not equal to 1 then
{pop languagelevel             % set strokeadjust and
1 ne                           % overprint to their defaults.
{false setstrokeadjust false setoverprint
} if
} if
} bd
/EndEPSF { %def
count op_count sub {pop} repeat            % Clean up stacks
countdictstack dict_count sub {end} repeat
b4_Inc_state restore
} bd
%%EndResource
%FOPBeginFontDict
%%IncludeResource: font Courier-Bold
%%IncludeResource: font Helvetica
%%IncludeResource: font Courier-BoldOblique
%%IncludeResource: font Courier-Oblique
%%IncludeResource: font Times-Roman
%%IncludeResource: font Helvetica-BoldOblique
%%IncludeResource: font Helvetica-Bold
%%IncludeResource: font Helvetica-Oblique
%%IncludeResource: font Times-BoldItalic
%%IncludeResource: font Courier
%%IncludeResource: font Times-Italic
%%IncludeResource: font Times-Bold
%%IncludeResource: font Symbol
%%IncludeResource: font ZapfDingbats
%FOPEndFontDict
%%BeginResource: encoding WinAnsiEncoding
/WinAnsiEncoding [
/.notdef /.notdef /.notdef /.notdef /.notdef
/.notdef /.notdef /.notdef /.notdef /.notdef
/.notdef /.notdef /.notdef /.notdef /.notdef
/.notdef /.notdef /.notdef /.notdef /.notdef
/.notdef /.notdef /.notdef /.notdef /.notdef
/.notdef /.notdef /.notdef /.notdef /.notdef
/.notdef /.notdef /space /exclam /quotedbl
/numbersign /dollar /percent /ampersand /quotesingle
/parenleft /parenright /asterisk /plus /comma
/hyphen /period /slash /zero /one
/two /three /four /five /six
/seven /eight /nine /colon /semicolon
/less /equal /greater /question /at
/A /B /C /D /E
/F /G /H /I /J
/K /L /M /N /O
/P /Q /R /S /T
/U /V /W /X /Y
/Z /bracketleft /backslash /bracketright /asciicircum
/underscore /quoteleft /a /b /c
/d /e /f /g /h
/i /j /k /l /m
/n /o /p /q /r
/s /t /u /v /w
/x /y /z /braceleft /bar
/braceright /asciitilde /bullet /Euro /bullet
/quotesinglbase /florin /quotedblbase /ellipsis /dagger
/daggerdbl /circumflex /perthousand /Scaron /guilsinglleft
/OE /bullet /Zcaron /bullet /bullet
/quoteleft /quoteright /quotedblleft /quotedblright /bullet
/endash /emdash /asciitilde /trademark /scaron
/guilsinglright /oe /bullet /zcaron /Ydieresis
/space /exclamdown /cent /sterling /currency
/yen /brokenbar /section /dieresis /copyright
/ordfeminine /guillemotleft /logicalnot /sfthyphen /registered
/macron /degree /plusminus /twosuperior /threesuperior
/acute /mu /paragraph /middot /cedilla
/onesuperior /ordmasculine /guillemotright /onequarter /onehalf
/threequarters /questiondown /Agrave /Aacute /Acircumflex
/Atilde /Adieresis /Aring /AE /Ccedilla
/Egrave /Eacute /Ecircumflex /Edieresis /Igrave
/Iacute /Icircumflex /Idieresis /Eth /Ntilde
/Ograve /Oacute /Ocircumflex /Otilde /Odieresis
/multiply /Oslash /Ugrave /Uacute /Ucircumflex
/Udieresis /Yacute /Thorn /germandbls /agrave
/aacute /acircumflex /atilde /adieresis /aring
/ae /ccedilla /egrave /eacute /ecircumflex
/edieresis /igrave /iacute /icircumflex /idieresis
/eth /ntilde /ograve /oacute /ocircumflex
/otilde /odieresis /divide /oslash /ugrave
/uacute /ucircumflex /udieresis /yacute /thorn
/ydieresis
] def
%%EndResource
%FOPBeginFontReencode
/Courier-Bold findfont
dup length dict begin
  {1 index /FID ne {def} {pop pop} ifelse} forall
  /Encoding WinAnsiEncoding def
  currentdict
end
/Courier-Bold exch definefont pop
/Helvetica findfont
dup length dict begin
  {1 index /FID ne {def} {pop pop} ifelse} forall
  /Encoding WinAnsiEncoding def
  currentdict
end
/Helvetica exch definefont pop
/Courier-BoldOblique findfont
dup length dict begin
  {1 index /FID ne {def} {pop pop} ifelse} forall
  /Encoding WinAnsiEncoding def
  currentdict
end
/Courier-BoldOblique exch definefont pop
/Courier-Oblique findfont
dup length dict begin
  {1 index /FID ne {def} {pop pop} ifelse} forall
  /Encoding WinAnsiEncoding def
  currentdict
end
/Courier-Oblique exch definefont pop
/Times-Roman findfont
dup length dict begin
  {1 index /FID ne {def} {pop pop} ifelse} forall
  /Encoding WinAnsiEncoding def
  currentdict
end
/Times-Roman exch definefont pop
/Helvetica-BoldOblique findfont
dup length dict begin
  {1 index /FID ne {def} {pop pop} ifelse} forall
  /Encoding WinAnsiEncoding def
  currentdict
end
/Helvetica-BoldOblique exch definefont pop
/Helvetica-Bold findfont
dup length dict begin
  {1 index /FID ne {def} {pop pop} ifelse} forall
  /Encoding WinAnsiEncoding def
  currentdict
end
/Helvetica-Bold exch definefont pop
/Helvetica-Oblique findfont
dup length dict begin
  {1 index /FID ne {def} {pop pop} ifelse} forall
  /Encoding WinAnsiEncoding def
  currentdict
end
/Helvetica-Oblique exch definefont pop
/Times-BoldItalic findfont
dup length dict begin
  {1 index /FID ne {def} {pop pop} ifelse} forall
  /Encoding WinAnsiEncoding def
  currentdict
end
/Times-BoldItalic exch definefont pop
/Courier findfont
dup length dict begin
  {1 index /FID ne {def} {pop pop} ifelse} forall
  /Encoding WinAnsiEncoding def
  currentdict
end
/Courier exch definefont pop
/Times-Italic findfont
dup length dict begin
  {1 index /FID ne {def} {pop pop} ifelse} forall
  /Encoding WinAnsiEncoding def
  currentdict
end
/Times-Italic exch definefont pop
/Times-Bold findfont
dup length dict begin
  {1 index /FID ne {def} {pop pop} ifelse} forall
  /Encoding WinAnsiEncoding def
  currentdict
end
/Times-Bold exch definefont pop
%FOPEndFontReencode
%%EndProlog
%%Page: 1 1
%%PageBoundingBox: 0 0 906 566
%%BeginPageSetup
[1 0 0 -1 0 566] CT
%%EndPageSetup
GS
[0.75 0 0 0.75 0 0.5] CT
1 GC
N
0 0 1208 754 re
f
GR
GS
[0.75 0 0 0.75 0 0.5] CT
1 GC
N
0 0 1208 754 re
f
GR
GS
[0.75 0 0 0.75 0 0.5] CT
1 GC
N
157 671 M
1093 671 L
1093 57 L
157 57 L
cp
f
GR
GS
[0.75 0 0 0.75 0 0.5] CT
0.149 GC
2 setlinecap
1 LJ
0.667 LW
N
157 671 M
1093 671 L
S
GR
GS
[0.75 0 0 0.75 0 0.5] CT
0.149 GC
2 setlinecap
1 LJ
0.667 LW
N
157 671 M
157 661.64 L
S
GR
GS
[0.75 0 0 0.75 0 0.5] CT
0.149 GC
2 setlinecap
1 LJ
0.667 LW
N
250.6 671 M
250.6 661.64 L
S
GR
GS
[0.75 0 0 0.75 0 0.5] CT
0.149 GC
2 setlinecap
1 LJ
0.667 LW
N
344.2 671 M
344.2 661.64 L
S
GR
GS
[0.75 0 0 0.75 0 0.5] CT
0.149 GC
2 setlinecap
1 LJ
0.667 LW
N
437.8 671 M
437.8 661.64 L
S
GR
GS
[0.75 0 0 0.75 0 0.5] CT
0.149 GC
2 setlinecap
1 LJ
0.667 LW
N
531.4 671 M
531.4 661.64 L
S
GR
GS
[0.75 0 0 0.75 0 0.5] CT
0.149 GC
2 setlinecap
1 LJ
0.667 LW
N
625 671 M
625 661.64 L
S
GR
GS
[0.75 0 0 0.75 0 0.5] CT
0.149 GC
2 setlinecap
1 LJ
0.667 LW
N
718.6 671 M
718.6 661.64 L
S
GR
GS
[0.75 0 0 0.75 0 0.5] CT
0.149 GC
2 setlinecap
1 LJ
0.667 LW
N
812.2 671 M
812.2 661.64 L
S
GR
GS
[0.75 0 0 0.75 0 0.5] CT
0.149 GC
2 setlinecap
1 LJ
0.667 LW
N
905.8 671 M
905.8 661.64 L
S
GR
GS
[0.75 0 0 0.75 0 0.5] CT
0.149 GC
2 setlinecap
1 LJ
0.667 LW
N
999.4 671 M
999.4 661.64 L
S
GR
GS
[0.75 0 0 0.75 0 0.5] CT
0.149 GC
2 setlinecap
1 LJ
0.667 LW
N
1093 671 M
1093 661.64 L
S
GR
GS
[0.75 0 0 0.75 117.75 507.74998] CT
0.149 GC
/Helvetica 13.333 F
GS
[1 0 0 1 0 0] CT
-17 13 moveto 
1 -1 scale
(1554) t 
GR
GR
GS
[0.75 0 0 0.75 187.95 507.74998] CT
0.149 GC
/Helvetica 13.333 F
GS
[1 0 0 1 0 0] CT
-17 13 moveto 
1 -1 scale
(1555) t 
GR
GR
GS
[0.75 0 0 0.75 258.15001 507.74998] CT
0.149 GC
/Helvetica 13.333 F
GS
[1 0 0 1 0 0] CT
-17 13 moveto 
1 -1 scale
(1556) t 
GR
GR
GS
[0.75 0 0 0.75 328.34999 507.74998] CT
0.149 GC
/Helvetica 13.333 F
GS
[1 0 0 1 0 0] CT
-17 13 moveto 
1 -1 scale
(1557) t 
GR
GR
GS
[0.75 0 0 0.75 398.55002 507.74998] CT
0.149 GC
/Helvetica 13.333 F
GS
[1 0 0 1 0 0] CT
-17 13 moveto 
1 -1 scale
(1558) t 
GR
GR
GS
[0.75 0 0 0.75 468.75 507.74998] CT
0.149 GC
/Helvetica 13.333 F
GS
[1 0 0 1 0 0] CT
-17 13 moveto 
1 -1 scale
(1559) t 
GR
GR
GS
[0.75 0 0 0.75 538.94998 507.74998] CT
0.149 GC
/Helvetica 13.333 F
GS
[1 0 0 1 0 0] CT
-17 13 moveto 
1 -1 scale
(1560) t 
GR
GR
GS
[0.75 0 0 0.75 609.15001 507.74998] CT
0.149 GC
/Helvetica 13.333 F
GS
[1 0 0 1 0 0] CT
-17 13 moveto 
1 -1 scale
(1561) t 
GR
GR
GS
[0.75 0 0 0.75 679.34999 507.74998] CT
0.149 GC
/Helvetica 13.333 F
GS
[1 0 0 1 0 0] CT
-17 13 moveto 
1 -1 scale
(1562) t 
GR
GR
GS
[0.75 0 0 0.75 749.55002 507.74998] CT
0.149 GC
/Helvetica 13.333 F
GS
[1 0 0 1 0 0] CT
-17 13 moveto 
1 -1 scale
(1563) t 
GR
GR
GS
[0.75 0 0 0.75 819.75 507.74998] CT
0.149 GC
/Helvetica 13.333 F
GS
[1 0 0 1 0 0] CT
-17 13 moveto 
1 -1 scale
(1564) t 
GR
GR
GS
[0.75 0 0 0.75 468.75 521.50002] CT
0.149 GC
N
-118.297 8.203 M
-118.297 24.656 L
-114.844 24.656 L
-110.469 24.656 -108.438 22.672 QT
-106.406 20.688 -106.406 16.406 QT
-106.406 12.156 -108.438 10.18 QT
-110.469 8.203 -114.844 8.203 QT
-118.297 8.203 L
cp
-121.156 5.859 M
-115.281 5.859 L
-109.125 5.859 -106.25 8.414 QT
-103.375 10.969 -103.375 16.406 QT
-103.375 21.875 -106.266 24.438 QT
-109.156 27 -115.281 27 QT
-121.156 27 L
-121.156 5.859 L
cp
-98.616 4.969 M
-96.007 4.969 L
-96.007 13.484 L
-94.241 12.219 L
-93.163 13.719 L
-96.007 15.719 L
-96.007 27 L
-98.616 27 L
-98.616 17.563 L
-100.351 18.813 L
-101.398 17.313 L
-98.616 15.313 L
-98.616 4.969 L
cp
-90.63 20.734 M
-90.63 11.141 L
-88.036 11.141 L
-88.036 20.641 L
-88.036 22.891 -87.153 24.016 QT
-86.271 25.141 -84.521 25.141 QT
-82.411 25.141 -81.185 23.797 QT
-79.958 22.453 -79.958 20.125 QT
-79.958 11.141 L
-77.349 11.141 L
-77.349 27 L
-79.958 27 L
-79.958 24.563 L
-80.911 26.016 -82.161 26.711 QT
-83.411 27.406 -85.068 27.406 QT
-87.802 27.406 -89.216 25.711 QT
-90.63 24.016 -90.63 20.734 QT
cp
-61.349 18.891 M
-61.349 16.047 -62.521 14.492 QT
-63.693 12.938 -65.802 12.938 QT
-67.896 12.938 -69.06 14.492 QT
-70.224 16.047 -70.224 18.891 QT
-70.224 21.703 -69.06 23.258 QT
-67.896 24.813 -65.802 24.813 QT
-63.693 24.813 -62.521 23.258 QT
-61.349 21.703 -61.349 18.891 QT
cp
-58.74 25.031 M
-58.74 29.078 -60.544 31.055 QT
-62.349 33.031 -66.052 33.031 QT
-67.427 33.031 -68.646 32.828 QT
-69.865 32.625 -71.005 32.203 QT
-71.005 29.656 L
-69.865 30.281 -68.747 30.578 QT
-67.63 30.875 -66.458 30.875 QT
-63.896 30.875 -62.622 29.539 QT
-61.349 28.203 -61.349 25.5 QT
-61.349 24.203 L
-62.161 25.609 -63.419 26.305 QT
-64.677 27 -66.443 27 QT
-69.349 27 -71.138 24.773 QT
-72.927 22.547 -72.927 18.891 QT
-72.927 15.203 -71.138 12.984 QT
-69.349 10.766 -66.443 10.766 QT
-64.677 10.766 -63.419 11.453 QT
-62.161 12.141 -61.349 13.547 QT
-61.349 11.141 L
-58.74 11.141 L
-58.74 25.031 L
cp
-47.039 12.969 M
-49.133 12.969 -50.352 14.602 QT
-51.571 16.234 -51.571 19.078 QT
-51.571 21.938 -50.36 23.57 QT
-49.149 25.203 -47.039 25.203 QT
-44.961 25.203 -43.742 23.563 QT
-42.524 21.922 -42.524 19.078 QT
-42.524 16.266 -43.742 14.617 QT
-44.961 12.969 -47.039 12.969 QT
cp
-47.039 10.766 M
-43.633 10.766 -41.696 12.969 QT
-39.758 15.172 -39.758 19.078 QT
-39.758 22.984 -41.696 25.195 QT
-43.633 27.406 -47.039 27.406 QT
-50.446 27.406 -52.383 25.195 QT
-54.321 22.984 -54.321 19.078 QT
-54.321 15.172 -52.383 12.969 QT
-50.446 10.766 -47.039 10.766 QT
cp
-27.762 3.813 M
-24.949 3.813 L
-29.559 9.125 L
-31.73 9.125 L
-27.762 3.813 L
cp
-25.137 11.609 M
-25.137 14.078 L
-26.246 13.5 -27.434 13.219 QT
-28.621 12.938 -29.902 12.938 QT
-31.84 12.938 -32.809 13.531 QT
-33.777 14.125 -33.777 15.313 QT
-33.777 16.219 -33.082 16.734 QT
-32.387 17.25 -30.293 17.719 QT
-29.402 17.922 L
-26.621 18.516 -25.457 19.602 QT
-24.293 20.688 -24.293 22.625 QT
-24.293 24.828 -26.035 26.117 QT
-27.777 27.406 -30.84 27.406 QT
-32.121 27.406 -33.504 27.164 QT
-34.887 26.922 -36.402 26.422 QT
-36.402 23.734 L
-34.965 24.484 -33.566 24.859 QT
-32.168 25.234 -30.793 25.234 QT
-28.949 25.234 -27.957 24.602 QT
-26.965 23.969 -26.965 22.828 QT
-26.965 21.766 -27.676 21.195 QT
-28.387 20.625 -30.809 20.109 QT
-31.715 19.891 L
-34.137 19.375 -35.215 18.32 QT
-36.293 17.266 -36.293 15.438 QT
-36.293 13.188 -34.707 11.977 QT
-33.121 10.766 -30.199 10.766 QT
-28.762 10.766 -27.488 10.977 QT
-26.215 11.188 -25.137 11.609 QT
cp
-8.568 11.75 M
-8.568 14.188 L
-9.662 13.578 -10.779 13.273 QT
-11.896 12.969 -13.021 12.969 QT
-15.552 12.969 -16.959 14.578 QT
-18.365 16.188 -18.365 19.078 QT
-18.365 21.984 -16.959 23.594 QT
-15.552 25.203 -13.021 25.203 QT
-11.896 25.203 -10.779 24.898 QT
-9.662 24.594 -8.568 23.984 QT
-8.568 26.391 L
-9.646 26.906 -10.818 27.156 QT
-11.99 27.406 -13.302 27.406 QT
-16.896 27.406 -19.006 25.156 QT
-21.115 22.906 -21.115 19.078 QT
-21.115 15.203 -18.982 12.984 QT
-16.849 10.766 -13.131 10.766 QT
-11.927 10.766 -10.787 11.008 QT
-9.646 11.25 -8.568 11.75 QT
cp
-11.49 3.813 M
-8.677 3.813 L
-13.287 9.125 L
-15.459 9.125 L
-11.49 3.813 L
cp
13.491 4.969 M
13.491 7.141 L
10.991 7.141 L
9.6 7.141 9.053 7.703 QT
8.506 8.266 8.506 9.734 QT
8.506 11.141 L
12.788 11.141 L
12.788 13.172 L
8.506 13.172 L
8.506 27 L
5.881 27 L
5.881 13.172 L
3.397 13.172 L
3.397 11.141 L
5.881 11.141 L
5.881 10.031 L
5.881 7.391 7.116 6.18 QT
8.35 4.969 11.022 4.969 QT
13.491 4.969 L
cp
22.982 19.031 M
19.826 19.031 18.607 19.75 QT
17.388 20.469 17.388 22.219 QT
17.388 23.594 18.302 24.414 QT
19.216 25.234 20.795 25.234 QT
22.951 25.234 24.263 23.695 QT
25.576 22.156 25.576 19.609 QT
25.576 19.031 L
22.982 19.031 L
cp
28.185 17.953 M
28.185 27 L
25.576 27 L
25.576 24.594 L
24.685 26.031 23.357 26.719 QT
22.029 27.406 20.091 27.406 QT
17.654 27.406 16.216 26.039 QT
14.779 24.672 14.779 22.391 QT
14.779 19.703 16.576 18.344 QT
18.373 16.984 21.92 16.984 QT
25.576 16.984 L
25.576 16.734 L
25.576 14.938 24.396 13.953 QT
23.216 12.969 21.076 12.969 QT
19.716 12.969 18.427 13.297 QT
17.138 13.625 15.951 14.266 QT
15.951 11.859 L
17.373 11.313 18.724 11.039 QT
20.076 10.766 21.341 10.766 QT
24.779 10.766 26.482 12.547 QT
28.185 14.328 28.185 17.953 QT
cp
33.741 4.969 M
36.351 4.969 L
36.351 27 L
33.741 27 L
33.741 4.969 L
cp
41.885 11.141 M
44.495 11.141 L
44.495 27 L
41.885 27 L
41.885 11.141 L
cp
41.885 4.969 M
44.495 4.969 L
44.495 8.266 L
41.885 8.266 L
41.885 4.969 L
cp
59.113 4.969 M
65.113 4.969 L
65.113 6.984 L
61.706 6.984 L
61.706 28.797 L
65.113 28.797 L
65.113 30.828 L
59.113 30.828 L
59.113 4.969 L
cp
83.97 17.422 M
83.97 27 L
81.361 27 L
81.361 17.516 L
81.361 15.266 80.486 14.148 QT
79.611 13.031 77.845 13.031 QT
75.736 13.031 74.517 14.375 QT
73.298 15.719 73.298 18.031 QT
73.298 27 L
70.689 27 L
70.689 11.141 L
73.298 11.141 L
73.298 13.609 L
74.236 12.172 75.502 11.469 QT
76.767 10.766 78.423 10.766 QT
81.158 10.766 82.564 12.453 QT
83.97 14.141 83.97 17.422 QT
cp
101.704 14.188 M
102.689 12.422 104.048 11.594 QT
105.408 10.766 107.251 10.766 QT
109.72 10.766 111.064 12.5 QT
112.408 14.234 112.408 17.422 QT
112.408 27 L
109.798 27 L
109.798 17.516 L
109.798 15.234 108.986 14.133 QT
108.173 13.031 106.517 13.031 QT
104.501 13.031 103.322 14.375 QT
102.142 15.719 102.142 18.031 QT
102.142 27 L
99.533 27 L
99.533 17.516 L
99.533 15.219 98.72 14.125 QT
97.908 13.031 96.22 13.031 QT
94.236 13.031 93.056 14.383 QT
91.876 15.734 91.876 18.031 QT
91.876 27 L
89.267 27 L
89.267 11.141 L
91.876 11.141 L
91.876 13.609 L
92.767 12.141 94.017 11.453 QT
95.267 10.766 96.97 10.766 QT
98.704 10.766 99.915 11.641 QT
101.126 12.516 101.704 14.188 QT
cp
124.008 4.969 M
124.008 30.828 L
117.993 30.828 L
117.993 28.797 L
121.383 28.797 L
121.383 6.984 L
117.993 6.984 L
117.993 4.969 L
124.008 4.969 L
cp
f
GR
GS
[0.75 0 0 0.75 0 0.5] CT
0.149 GC
2 setlinecap
1 LJ
0.667 LW
N
157 671 M
157 57 L
S
GR
GS
[0.75 0 0 0.75 0 0.5] CT
0.149 GC
2 setlinecap
1 LJ
0.667 LW
N
157 671 M
166.358 671 L
S
GR
GS
[0.75 0 0 0.75 0 0.5] CT
0.149 GC
2 setlinecap
1 LJ
0.667 LW
N
157 594.25 M
166.358 594.25 L
S
GR
GS
[0.75 0 0 0.75 0 0.5] CT
0.149 GC
2 setlinecap
1 LJ
0.667 LW
N
157 517.5 M
166.358 517.5 L
S
GR
GS
[0.75 0 0 0.75 0 0.5] CT
0.149 GC
2 setlinecap
1 LJ
0.667 LW
N
157 440.75 M
166.358 440.75 L
S
GR
GS
[0.75 0 0 0.75 0 0.5] CT
0.149 GC
2 setlinecap
1 LJ
0.667 LW
N
157 364 M
166.358 364 L
S
GR
GS
[0.75 0 0 0.75 0 0.5] CT
0.149 GC
2 setlinecap
1 LJ
0.667 LW
N
157 287.25 M
166.358 287.25 L
S
GR
GS
[0.75 0 0 0.75 0 0.5] CT
0.149 GC
2 setlinecap
1 LJ
0.667 LW
N
157 210.5 M
166.358 210.5 L
S
GR
GS
[0.75 0 0 0.75 0 0.5] CT
0.149 GC
2 setlinecap
1 LJ
0.667 LW
N
157 133.75 M
166.358 133.75 L
S
GR
GS
[0.75 0 0 0.75 0 0.5] CT
0.149 GC
2 setlinecap
1 LJ
0.667 LW
N
157 57 M
166.358 57 L
S
GR
GS
[0.75 0 0 0.75 113.74812 503.75] CT
0.149 GC
/Helvetica 13.333 F
GS
[1 0 0 1 0 0] CT
-9 4.5 moveto 
1 -1 scale
(0) t 
GR
GR
GS
[0.75 0 0 0.75 113.74812 446.1875] CT
0.149 GC
/Helvetica 13.333 F
GS
[1 0 0 1 0 0] CT
-29 4.5 moveto 
1 -1 scale
(0.05) t 
GR
GR
GS
[0.75 0 0 0.75 113.74812 388.625] CT
0.149 GC
/Helvetica 13.333 F
GS
[1 0 0 1 0 0] CT
-21 4.5 moveto 
1 -1 scale
(0.1) t 
GR
GR
GS
[0.75 0 0 0.75 113.74812 331.0625] CT
0.149 GC
/Helvetica 13.333 F
GS
[1 0 0 1 0 0] CT
-29 4.5 moveto 
1 -1 scale
(0.15) t 
GR
GR
GS
[0.75 0 0 0.75 113.74812 273.5] CT
0.149 GC
/Helvetica 13.333 F
GS
[1 0 0 1 0 0] CT
-21 4.5 moveto 
1 -1 scale
(0.2) t 
GR
GR
GS
[0.75 0 0 0.75 113.74812 215.9375] CT
0.149 GC
/Helvetica 13.333 F
GS
[1 0 0 1 0 0] CT
-29 4.5 moveto 
1 -1 scale
(0.25) t 
GR
GR
GS
[0.75 0 0 0.75 113.74812 158.37499] CT
0.149 GC
/Helvetica 13.333 F
GS
[1 0 0 1 0 0] CT
-21 4.5 moveto 
1 -1 scale
(0.3) t 
GR
GR
GS
[0.75 0 0 0.75 113.74812 100.81251] CT
0.149 GC
/Helvetica 13.333 F
GS
[1 0 0 1 0 0] CT
-29 4.5 moveto 
1 -1 scale
(0.35) t 
GR
GR
GS
[0.75 0 0 0.75 113.74812 43.24999] CT
0.149 GC
/Helvetica 13.333 F
GS
[1 0 0 1 0 0] CT
-21 4.5 moveto 
1 -1 scale
(0.4) t 
GR
GR
GS
[0 -0.75 0.75 0 88.99988 273.49977] CT
0.149 GC
/Helvetica 29.333 F
GS
[1 0 0 1 0 0] CT
-68 -7 moveto 
1 -1 scale
(Moc [j.u.]) t 
GR
GR
GS
[0.75 0 0 0.75 468.75 38.75001] CT
N
-376.063 -31.328 M
-370.047 -31.328 L
-370.047 -8 L
-376.063 -8 L
-376.063 -31.328 L
cp
-346.813 -18.656 M
-346.813 -8 L
-352.438 -8 L
-352.438 -9.734 L
-352.438 -16.156 L
-352.438 -18.422 -352.539 -19.281 QT
-352.641 -20.141 -352.891 -20.547 QT
-353.219 -21.094 -353.781 -21.398 QT
-354.344 -21.703 -355.063 -21.703 QT
-356.813 -21.703 -357.813 -20.352 QT
-358.813 -19 -358.813 -16.609 QT
-358.813 -8 L
-364.406 -8 L
-364.406 -25.5 L
-358.813 -25.5 L
-358.813 -22.938 L
-357.547 -24.469 -356.125 -25.195 QT
-354.703 -25.922 -352.984 -25.922 QT
-349.953 -25.922 -348.383 -24.063 QT
-346.813 -22.203 -346.813 -18.656 QT
cp
-335.516 -30.469 M
-335.516 -25.5 L
-329.75 -25.5 L
-329.75 -21.5 L
-335.516 -21.5 L
-335.516 -14.078 L
-335.516 -12.859 -335.031 -12.43 QT
-334.547 -12 -333.109 -12 QT
-330.234 -12 L
-330.234 -8 L
-335.031 -8 L
-338.344 -8 -339.727 -9.383 QT
-341.109 -10.766 -341.109 -14.078 QT
-341.109 -21.5 L
-343.891 -21.5 L
-343.891 -25.5 L
-341.109 -25.5 L
-341.109 -30.469 L
-335.516 -30.469 L
cp
-308.859 -16.797 M
-308.859 -15.203 L
-321.938 -15.203 L
-321.734 -13.234 -320.516 -12.25 QT
-319.297 -11.266 -317.109 -11.266 QT
-315.344 -11.266 -313.492 -11.789 QT
-311.641 -12.313 -309.688 -13.375 QT
-309.688 -9.063 L
-311.672 -8.313 -313.656 -7.93 QT
-315.641 -7.547 -317.625 -7.547 QT
-322.375 -7.547 -325.008 -9.961 QT
-327.641 -12.375 -327.641 -16.734 QT
-327.641 -21.016 -325.055 -23.469 QT
-322.469 -25.922 -317.938 -25.922 QT
-313.813 -25.922 -311.336 -23.438 QT
-308.859 -20.953 -308.859 -16.797 QT
cp
-314.609 -18.656 M
-314.609 -20.25 -315.539 -21.227 QT
-316.469 -22.203 -317.969 -22.203 QT
-319.594 -22.203 -320.609 -21.289 QT
-321.625 -20.375 -321.875 -18.656 QT
-314.609 -18.656 L
cp
-291.625 -20.734 M
-292.359 -21.078 -293.086 -21.242 QT
-293.813 -21.406 -294.547 -21.406 QT
-296.703 -21.406 -297.867 -20.023 QT
-299.031 -18.641 -299.031 -16.063 QT
-299.031 -8 L
-304.625 -8 L
-304.625 -25.5 L
-299.031 -25.5 L
-299.031 -22.625 L
-297.953 -24.344 -296.555 -25.133 QT
-295.156 -25.922 -293.203 -25.922 QT
-292.922 -25.922 -292.594 -25.898 QT
-292.266 -25.875 -291.641 -25.797 QT
-291.625 -20.734 L
cp
-277.328 -32.313 M
-277.328 -28.641 L
-280.422 -28.641 L
-281.609 -28.641 -282.078 -28.211 QT
-282.547 -27.781 -282.547 -26.719 QT
-282.547 -25.5 L
-277.766 -25.5 L
-277.766 -21.5 L
-282.547 -21.5 L
-282.547 -8 L
-288.141 -8 L
-288.141 -21.5 L
-290.922 -21.5 L
-290.922 -25.5 L
-288.141 -25.5 L
-288.141 -26.719 L
-288.141 -29.578 -286.547 -30.945 QT
-284.953 -32.313 -281.609 -32.313 QT
-277.328 -32.313 L
cp
-257.453 -16.797 M
-257.453 -15.203 L
-270.531 -15.203 L
-270.328 -13.234 -269.109 -12.25 QT
-267.891 -11.266 -265.703 -11.266 QT
-263.938 -11.266 -262.086 -11.789 QT
-260.234 -12.313 -258.281 -13.375 QT
-258.281 -9.063 L
-260.266 -8.313 -262.25 -7.93 QT
-264.234 -7.547 -266.219 -7.547 QT
-270.969 -7.547 -273.602 -9.961 QT
-276.234 -12.375 -276.234 -16.734 QT
-276.234 -21.016 -273.648 -23.469 QT
-271.063 -25.922 -266.531 -25.922 QT
-262.406 -25.922 -259.93 -23.438 QT
-257.453 -20.953 -257.453 -16.797 QT
cp
-263.203 -18.656 M
-263.203 -20.25 -264.133 -21.227 QT
-265.063 -22.203 -266.563 -22.203 QT
-268.188 -22.203 -269.203 -21.289 QT
-270.219 -20.375 -270.469 -18.656 QT
-263.203 -18.656 L
cp
-240.219 -20.734 M
-240.953 -21.078 -241.68 -21.242 QT
-242.406 -21.406 -243.141 -21.406 QT
-245.297 -21.406 -246.461 -20.023 QT
-247.625 -18.641 -247.625 -16.063 QT
-247.625 -8 L
-253.219 -8 L
-253.219 -25.5 L
-247.625 -25.5 L
-247.625 -22.625 L
-246.547 -24.344 -245.148 -25.133 QT
-243.75 -25.922 -241.797 -25.922 QT
-241.516 -25.922 -241.188 -25.898 QT
-240.859 -25.875 -240.234 -25.797 QT
-240.219 -20.734 L
cp
-219.969 -16.797 M
-219.969 -15.203 L
-233.047 -15.203 L
-232.844 -13.234 -231.625 -12.25 QT
-230.406 -11.266 -228.219 -11.266 QT
-226.453 -11.266 -224.602 -11.789 QT
-222.75 -12.313 -220.797 -13.375 QT
-220.797 -9.063 L
-222.781 -8.313 -224.766 -7.93 QT
-226.75 -7.547 -228.734 -7.547 QT
-233.484 -7.547 -236.117 -9.961 QT
-238.75 -12.375 -238.75 -16.734 QT
-238.75 -21.016 -236.164 -23.469 QT
-233.578 -25.922 -229.047 -25.922 QT
-224.922 -25.922 -222.445 -23.438 QT
-219.969 -20.953 -219.969 -16.797 QT
cp
-225.719 -18.656 M
-225.719 -20.25 -226.648 -21.227 QT
-227.578 -22.203 -229.078 -22.203 QT
-230.703 -22.203 -231.719 -21.289 QT
-232.734 -20.375 -232.984 -18.656 QT
-225.719 -18.656 L
cp
-198.141 -18.656 M
-198.141 -8 L
-203.766 -8 L
-203.766 -9.734 L
-203.766 -16.156 L
-203.766 -18.422 -203.867 -19.281 QT
-203.969 -20.141 -204.219 -20.547 QT
-204.547 -21.094 -205.109 -21.398 QT
-205.672 -21.703 -206.391 -21.703 QT
-208.141 -21.703 -209.141 -20.352 QT
-210.141 -19 -210.141 -16.609 QT
-210.141 -8 L
-215.734 -8 L
-215.734 -25.5 L
-210.141 -25.5 L
-210.141 -22.938 L
-208.875 -24.469 -207.453 -25.195 QT
-206.031 -25.922 -204.313 -25.922 QT
-201.281 -25.922 -199.711 -24.063 QT
-198.141 -22.203 -198.141 -18.656 QT
cp
-178.813 -24.953 M
-178.813 -20.391 L
-179.953 -21.172 -181.102 -21.547 QT
-182.25 -21.922 -183.484 -21.922 QT
-185.828 -21.922 -187.133 -20.555 QT
-188.438 -19.188 -188.438 -16.734 QT
-188.438 -14.281 -187.133 -12.914 QT
-185.828 -11.547 -183.484 -11.547 QT
-182.172 -11.547 -180.992 -11.938 QT
-179.813 -12.328 -178.813 -13.094 QT
-178.813 -8.516 L
-180.125 -8.031 -181.477 -7.789 QT
-182.828 -7.547 -184.188 -7.547 QT
-188.922 -7.547 -191.594 -9.977 QT
-194.266 -12.406 -194.266 -16.734 QT
-194.266 -21.063 -191.594 -23.492 QT
-188.922 -25.922 -184.188 -25.922 QT
-182.813 -25.922 -181.477 -25.68 QT
-180.141 -25.438 -178.813 -24.953 QT
cp
-173.984 -25.5 M
-168.391 -25.5 L
-168.391 -8.313 L
-168.391 -4.797 -170.078 -2.945 QT
-171.766 -1.094 -174.969 -1.094 QT
-177.734 -1.094 L
-177.734 -4.766 L
-176.766 -4.766 L
-175.172 -4.766 -174.578 -5.484 QT
-173.984 -6.203 -173.984 -8.313 QT
-173.984 -25.5 L
cp
-173.984 -32.313 M
-168.391 -32.313 L
-168.391 -27.75 L
-173.984 -27.75 L
-173.984 -32.313 L
cp
-155.172 -15.875 M
-156.922 -15.875 -157.805 -15.281 QT
-158.688 -14.688 -158.688 -13.531 QT
-158.688 -12.469 -157.977 -11.867 QT
-157.266 -11.266 -156 -11.266 QT
-154.422 -11.266 -153.344 -12.398 QT
-152.266 -13.531 -152.266 -15.234 QT
-152.266 -15.875 L
-155.172 -15.875 L
cp
-146.625 -17.984 M
-146.625 -8 L
-152.266 -8 L
-152.266 -10.594 L
-153.391 -9 -154.797 -8.273 QT
-156.203 -7.547 -158.219 -7.547 QT
-160.938 -7.547 -162.633 -9.133 QT
-164.328 -10.719 -164.328 -13.25 QT
-164.328 -16.328 -162.211 -17.766 QT
-160.094 -19.203 -155.563 -19.203 QT
-152.266 -19.203 L
-152.266 -19.641 L
-152.266 -20.969 -153.313 -21.586 QT
-154.359 -22.203 -156.578 -22.203 QT
-158.375 -22.203 -159.922 -21.844 QT
-161.469 -21.484 -162.797 -20.766 QT
-162.797 -25.031 L
-161 -25.469 -159.188 -25.695 QT
-157.375 -25.922 -155.563 -25.922 QT
-150.828 -25.922 -148.727 -24.055 QT
-146.625 -22.188 -146.625 -17.984 QT
cp
-131.844 -25.5 M
-126.406 -25.5 L
-123.469 -13.438 L
-120.516 -25.5 L
-115.844 -25.5 L
-112.906 -13.563 L
-109.953 -25.5 L
-104.516 -25.5 L
-109.125 -8 L
-115.234 -8 L
-118.188 -20.031 L
-121.125 -8 L
-127.234 -8 L
-131.844 -25.5 L
cp
-100.719 -25.5 M
-95.125 -25.5 L
-95.125 -8 L
-100.719 -8 L
-100.719 -25.5 L
cp
-100.719 -32.313 M
-95.125 -32.313 L
-95.125 -27.75 L
-100.719 -27.75 L
-100.719 -32.313 L
cp
-77.844 -22.938 M
-77.844 -32.313 L
-72.219 -32.313 L
-72.219 -8 L
-77.844 -8 L
-77.844 -10.531 L
-79 -8.984 -80.391 -8.266 QT
-81.781 -7.547 -83.609 -7.547 QT
-86.844 -7.547 -88.922 -10.117 QT
-91 -12.688 -91 -16.734 QT
-91 -20.781 -88.922 -23.352 QT
-86.844 -25.922 -83.609 -25.922 QT
-81.797 -25.922 -80.398 -25.195 QT
-79 -24.469 -77.844 -22.938 QT
cp
-81.531 -11.609 M
-79.734 -11.609 -78.789 -12.922 QT
-77.844 -14.234 -77.844 -16.734 QT
-77.844 -19.234 -78.789 -20.547 QT
-79.734 -21.859 -81.531 -21.859 QT
-83.313 -21.859 -84.258 -20.547 QT
-85.203 -19.234 -85.203 -16.734 QT
-85.203 -14.234 -84.258 -12.922 QT
-83.313 -11.609 -81.531 -11.609 QT
cp
-50.625 -22.594 M
-49.563 -24.219 -48.102 -25.07 QT
-46.641 -25.922 -44.891 -25.922 QT
-41.875 -25.922 -40.297 -24.063 QT
-38.719 -22.203 -38.719 -18.656 QT
-38.719 -8 L
-44.344 -8 L
-44.344 -17.125 L
-44.328 -17.328 -44.32 -17.547 QT
-44.313 -17.766 -44.313 -18.172 QT
-44.313 -20.031 -44.859 -20.867 QT
-45.406 -21.703 -46.625 -21.703 QT
-48.219 -21.703 -49.086 -20.391 QT
-49.953 -19.078 -49.984 -16.594 QT
-49.984 -8 L
-55.609 -8 L
-55.609 -17.125 L
-55.609 -20.031 -56.109 -20.867 QT
-56.609 -21.703 -57.891 -21.703 QT
-59.5 -21.703 -60.375 -20.383 QT
-61.25 -19.063 -61.25 -16.609 QT
-61.25 -8 L
-66.875 -8 L
-66.875 -25.5 L
-61.25 -25.5 L
-61.25 -22.938 L
-60.219 -24.422 -58.883 -25.172 QT
-57.547 -25.922 -55.938 -25.922 QT
-54.125 -25.922 -52.734 -25.047 QT
-51.344 -24.172 -50.625 -22.594 QT
cp
-25.172 -21.922 M
-27.031 -21.922 -28.008 -20.586 QT
-28.984 -19.25 -28.984 -16.734 QT
-28.984 -14.219 -28.008 -12.883 QT
-27.031 -11.547 -25.172 -11.547 QT
-23.344 -11.547 -22.375 -12.883 QT
-21.406 -14.219 -21.406 -16.734 QT
-21.406 -19.25 -22.375 -20.586 QT
-23.344 -21.922 -25.172 -21.922 QT
cp
-25.172 -25.922 M
-20.656 -25.922 -18.117 -23.484 QT
-15.578 -21.047 -15.578 -16.734 QT
-15.578 -12.422 -18.117 -9.984 QT
-20.656 -7.547 -25.172 -7.547 QT
-29.703 -7.547 -32.258 -9.984 QT
-34.813 -12.422 -34.813 -16.734 QT
-34.813 -21.047 -32.258 -23.484 QT
-29.703 -25.922 -25.172 -25.922 QT
cp
-13.078 -25.5 M
-7.641 -25.5 L
-4.703 -13.438 L
-1.75 -25.5 L
2.922 -25.5 L
5.859 -13.563 L
8.813 -25.5 L
14.25 -25.5 L
9.641 -8 L
3.531 -8 L
0.578 -20.031 L
-2.359 -8 L
-8.469 -8 L
-13.078 -25.5 L
cp
25.891 -15.875 M
24.141 -15.875 23.258 -15.281 QT
22.375 -14.688 22.375 -13.531 QT
22.375 -12.469 23.086 -11.867 QT
23.797 -11.266 25.063 -11.266 QT
26.641 -11.266 27.719 -12.398 QT
28.797 -13.531 28.797 -15.234 QT
28.797 -15.875 L
25.891 -15.875 L
cp
34.438 -17.984 M
34.438 -8 L
28.797 -8 L
28.797 -10.594 L
27.672 -9 26.266 -8.273 QT
24.859 -7.547 22.844 -7.547 QT
20.125 -7.547 18.43 -9.133 QT
16.734 -10.719 16.734 -13.25 QT
16.734 -16.328 18.852 -17.766 QT
20.969 -19.203 25.5 -19.203 QT
28.797 -19.203 L
28.797 -19.641 L
28.797 -20.969 27.75 -21.586 QT
26.703 -22.203 24.484 -22.203 QT
22.688 -22.203 21.141 -21.844 QT
19.594 -21.484 18.266 -20.766 QT
18.266 -25.031 L
20.063 -25.469 21.875 -25.695 QT
23.688 -25.922 25.5 -25.922 QT
30.234 -25.922 32.336 -24.055 QT
34.438 -22.188 34.438 -17.984 QT
cp
49.828 -19.484 M
59.641 -19.484 L
59.641 -14.938 L
49.828 -14.938 L
49.828 -19.484 L
cp
73.641 -25.5 M
79.078 -25.5 L
82.016 -13.438 L
84.969 -25.5 L
89.641 -25.5 L
92.578 -13.563 L
95.531 -25.5 L
100.969 -25.5 L
96.359 -8 L
90.25 -8 L
87.297 -20.031 L
84.359 -8 L
78.25 -8 L
73.641 -25.5 L
cp
105.188 -32.313 M
110.813 -32.313 L
110.813 -24.484 L
112.828 -25.859 L
114.563 -23.453 L
110.813 -20.891 L
110.813 -8 L
105.188 -8 L
105.188 -18.016 L
103.234 -16.672 L
101.5 -19.078 L
105.188 -21.625 L
105.188 -32.313 L
cp
124.969 -21.922 M
123.109 -21.922 122.133 -20.586 QT
121.156 -19.25 121.156 -16.734 QT
121.156 -14.219 122.133 -12.883 QT
123.109 -11.547 124.969 -11.547 QT
126.797 -11.547 127.766 -12.883 QT
128.734 -14.219 128.734 -16.734 QT
128.734 -19.25 127.766 -20.586 QT
126.797 -21.922 124.969 -21.922 QT
cp
124.969 -25.922 M
129.484 -25.922 132.023 -23.484 QT
134.563 -21.047 134.563 -16.734 QT
134.563 -12.422 132.023 -9.984 QT
129.484 -7.547 124.969 -7.547 QT
120.438 -7.547 117.883 -9.984 QT
115.328 -12.422 115.328 -16.734 QT
115.328 -21.047 117.883 -23.484 QT
120.438 -25.922 124.969 -25.922 QT
cp
127.063 -33.594 M
131.484 -33.594 L
125.719 -27.719 L
122.656 -27.719 L
127.063 -33.594 L
cp
138.625 -32.313 M
144.219 -32.313 L
144.219 -19.078 L
150.656 -25.5 L
157.156 -25.5 L
148.609 -17.469 L
157.828 -8 L
151.047 -8 L
144.219 -15.297 L
144.219 -8 L
138.625 -8 L
138.625 -32.313 L
cp
177.5 -18.656 M
177.5 -8 L
171.875 -8 L
171.875 -9.734 L
171.875 -16.156 L
171.875 -18.422 171.773 -19.281 QT
171.672 -20.141 171.422 -20.547 QT
171.094 -21.094 170.531 -21.398 QT
169.969 -21.703 169.25 -21.703 QT
167.5 -21.703 166.5 -20.352 QT
165.5 -19 165.5 -16.609 QT
165.5 -8 L
159.906 -8 L
159.906 -25.5 L
165.5 -25.5 L
165.5 -22.938 L
166.766 -24.469 168.188 -25.195 QT
169.609 -25.922 171.328 -25.922 QT
174.359 -25.922 175.93 -24.063 QT
177.5 -22.203 177.5 -18.656 QT
cp
191.016 -21.922 M
189.156 -21.922 188.18 -20.586 QT
187.203 -19.25 187.203 -16.734 QT
187.203 -14.219 188.18 -12.883 QT
189.156 -11.547 191.016 -11.547 QT
192.844 -11.547 193.813 -12.883 QT
194.781 -14.219 194.781 -16.734 QT
194.781 -19.25 193.813 -20.586 QT
192.844 -21.922 191.016 -21.922 QT
cp
191.016 -25.922 M
195.531 -25.922 198.07 -23.484 QT
200.609 -21.047 200.609 -16.734 QT
200.609 -12.422 198.07 -9.984 QT
195.531 -7.547 191.016 -7.547 QT
186.484 -7.547 183.93 -9.984 QT
181.375 -12.422 181.375 -16.734 QT
181.375 -21.047 183.93 -23.484 QT
186.484 -25.922 191.016 -25.922 QT
cp
216.063 -31.328 M
226.047 -31.328 L
230.5 -31.328 232.883 -29.352 QT
235.266 -27.375 235.266 -23.719 QT
235.266 -20.047 232.883 -18.07 QT
230.5 -16.094 226.047 -16.094 QT
222.078 -16.094 L
222.078 -8 L
216.063 -8 L
216.063 -31.328 L
cp
222.078 -26.969 M
222.078 -20.453 L
225.406 -20.453 L
227.156 -20.453 228.109 -21.305 QT
229.063 -22.156 229.063 -23.719 QT
229.063 -25.281 228.109 -26.125 QT
227.156 -26.969 225.406 -26.969 QT
222.078 -26.969 L
cp
239.516 -31.328 M
247.172 -31.328 L
252.484 -18.844 L
257.828 -31.328 L
265.469 -31.328 L
265.469 -8 L
259.781 -8 L
259.781 -25.063 L
254.406 -12.484 L
250.594 -12.484 L
245.219 -25.063 L
245.219 -8 L
239.516 -8 L
239.516 -31.328 L
cp
281.297 -19.484 M
291.109 -19.484 L
291.109 -14.938 L
281.297 -14.938 L
281.297 -19.484 L
cp
317.578 -27.391 M
314.828 -27.391 313.313 -25.359 QT
311.797 -23.328 311.797 -19.641 QT
311.797 -15.969 313.313 -13.938 QT
314.828 -11.906 317.578 -11.906 QT
320.344 -11.906 321.859 -13.938 QT
323.375 -15.969 323.375 -19.641 QT
323.375 -23.328 321.859 -25.359 QT
320.344 -27.391 317.578 -27.391 QT
cp
317.578 -31.75 M
323.203 -31.75 326.391 -28.531 QT
329.578 -25.313 329.578 -19.641 QT
329.578 -13.984 326.391 -10.766 QT
323.203 -7.547 317.578 -7.547 QT
311.969 -7.547 308.773 -10.766 QT
305.578 -13.984 305.578 -19.641 QT
305.578 -25.313 308.773 -28.531 QT
311.969 -31.75 317.578 -31.75 QT
cp
350.359 -30.594 M
350.359 -25.656 L
348.438 -26.516 346.609 -26.953 QT
344.781 -27.391 343.156 -27.391 QT
341 -27.391 339.969 -26.797 QT
338.938 -26.203 338.938 -24.953 QT
338.938 -24.016 339.633 -23.492 QT
340.328 -22.969 342.156 -22.594 QT
344.719 -22.078 L
348.609 -21.297 350.25 -19.703 QT
351.891 -18.109 351.891 -15.172 QT
351.891 -11.313 349.602 -9.43 QT
347.313 -7.547 342.609 -7.547 QT
340.391 -7.547 338.156 -7.969 QT
335.922 -8.391 333.688 -9.219 QT
333.688 -14.297 L
335.922 -13.109 338.008 -12.508 QT
340.094 -11.906 342.031 -11.906 QT
344 -11.906 345.047 -12.563 QT
346.094 -13.219 346.094 -14.438 QT
346.094 -15.531 345.383 -16.125 QT
344.672 -16.719 342.547 -17.188 QT
340.219 -17.703 L
336.719 -18.453 335.102 -20.094 QT
333.484 -21.734 333.484 -24.516 QT
333.484 -28 335.734 -29.875 QT
337.984 -31.75 342.203 -31.75 QT
344.125 -31.75 346.156 -31.461 QT
348.188 -31.172 350.359 -30.594 QT
cp
371.328 -12.25 M
361.922 -12.25 L
360.438 -8 L
354.391 -8 L
363.031 -31.328 L
370.203 -31.328 L
378.844 -8 L
372.797 -8 L
371.328 -12.25 L
cp
363.422 -16.578 M
369.813 -16.578 L
366.625 -25.859 L
363.422 -16.578 L
cp
f
GR
GS
[0.75 0 0 0.75 0 0.5] CT
0 0 1 RC
1 LJ
0.667 LW
N
156.851 57.141 M
157 58.347 L
157.377 62.042 L
157.754 66.057 L
158.12 70.295 L
158.497 74.736 L
158.874 79.775 L
159.251 86.157 L
159.617 91.788 L
159.994 96.997 L
160.371 102.603 L
160.748 109.543 L
161.113 115.899 L
161.49 120.926 L
161.867 126.561 L
162.244 133.823 L
162.621 140.621 L
162.987 146.775 L
163.364 153.361 L
163.741 160.822 L
164.118 167.914 L
164.484 174.062 L
164.861 180.672 L
165.238 189.257 L
165.615 196.818 L
165.981 202.598 L
166.358 211.709 L
166.735 220.224 L
167.112 227.264 L
167.489 234.905 L
167.854 244.139 L
168.232 252.29 L
168.609 259.064 L
168.986 267.35 L
169.351 277.087 L
169.728 286.278 L
170.105 293.48 L
170.482 301.492 L
170.848 311.073 L
171.225 319.409 L
171.602 326.331 L
171.979 334.954 L
172.345 344.94 L
172.722 354.03 L
173.099 361.31 L
173.476 368.883 L
173.853 377.241 L
174.219 385.057 L
174.596 391.932 L
174.973 399.063 L
175.35 407.838 L
175.715 416.085 L
176.092 423.726 L
176.47 431.857 L
176.847 440.219 L
177.212 448.092 L
177.589 454.12 L
177.966 461.166 L
178.343 469.472 L
178.72 477.178 L
179.086 483.105 L
179.463 489.379 L
179.84 496.209 L
180.217 503.182 L
180.583 508.266 L
180.96 515.708 L
181.337 522.066 L
181.714 527.732 L
182.08 533.784 L
182.457 539.976 L
182.834 545.543 L
183.211 549.934 L
183.588 554.399 L
183.953 560.011 L
184.33 564.143 L
184.708 568.125 L
185.085 571.887 L
185.45 576.355 L
185.827 580.627 L
186.204 583.753 L
186.581 586.887 L
186.947 590.232 L
187.324 593.39 L
187.701 595.175 L
188.078 597.8 L
188.455 600.767 L
188.821 602.916 L
189.198 604.768 L
189.575 606.418 L
189.952 608.011 L
190.318 609.347 L
190.695 610.111 L
191.072 611.384 L
191.449 612.412 L
191.814 612.997 L
192.191 613.351 L
192.568 613.789 L
192.946 614.086 L
193.311 613.959 L
193.688 613.995 L
194.065 613.578 L
194.442 612.931 L
194.819 612.66 L
195.185 611.724 L
195.562 611.114 L
195.939 609.382 L
196.316 608.856 L
196.682 607.479 L
197.059 605.632 L
197.436 603.792 L
197.813 602.115 L
198.179 600.268 L
198.556 597.65 L
198.933 596.198 L
199.31 594.027 L
199.687 591.835 L
200.052 588.791 L
200.429 585.792 L
200.806 583.304 L
201.184 580.876 L
201.549 578.27 L
201.926 575.16 L
202.303 572.281 L
202.68 569.21 L
203.046 565.503 L
203.423 562.138 L
203.8 559.42 L
204.177 556.056 L
204.554 552.107 L
204.92 548.746 L
205.297 545.531 L
205.674 541.944 L
206.051 537.361 L
206.417 533.475 L
206.794 529.713 L
207.171 525.905 L
207.548 521.697 L
207.913 516.969 L
208.29 513.878 L
208.667 509.808 L
209.044 504.958 L
209.421 500.981 L
209.787 498.048 L
210.164 493.601 L
210.541 488.754 L
210.918 484.364 L
211.284 481.296 L
211.661 477.161 L
212.038 472.052 L
212.415 467.304 L
212.781 463.095 L
213.158 458.139 L
213.535 454.074 L
213.912 451.077 L
214.289 447.387 L
214.654 442.816 L
215.032 439.031 L
215.409 435.339 L
215.786 431.453 L
216.151 426.783 L
216.528 422.27 L
216.905 418.689 L
217.282 414.946 L
217.648 410.461 L
218.025 406.699 L
218.402 403.073 L
218.779 399.788 L
219.145 395.801 L
219.522 392.217 L
219.899 389.444 L
220.276 385.854 L
220.653 382.47 L
221.019 379.222 L
221.396 376.134 L
221.773 372.928 L
222.15 369.26 L
222.515 366.503 L
222.892 364.466 L
223.27 362.203 L
223.647 360.411 L
224.012 358.229 L
224.389 356.115 L
224.766 353.193 L
225.143 350.731 L
225.52 349.242 L
225.886 348.551 L
226.263 346.866 L
226.64 344.88 L
227.017 342.957 L
227.383 341.663 L
227.76 339.592 L
228.137 337.693 L
228.514 336.556 L
228.88 335.622 L
229.257 335.394 L
229.634 335.111 L
230.011 335.068 L
230.388 334.407 L
230.753 333.161 L
231.13 332.241 L
231.508 331.765 L
231.885 331.271 L
232.25 331.17 L
232.627 331.483 L
233.004 331.628 L
233.381 331.469 L
233.747 332.249 L
234.124 333.607 L
234.501 334.066 L
234.878 335.37 L
235.255 336.57 L
235.621 338.243 L
235.998 339.927 L
236.375 341.929 L
236.752 344.318 L
237.118 346.656 L
237.495 348.977 L
237.872 351.285 L
238.249 353.532 L
238.614 355.742 L
238.991 357.751 L
239.368 359.846 L
239.746 363.427 L
240.111 366.741 L
240.488 370.022 L
240.865 373.044 L
241.242 377.468 L
241.619 381.414 L
241.985 384.844 L
242.362 389.501 L
242.739 393.781 L
243.116 398.179 L
243.482 402.372 L
243.859 407.952 L
244.236 412.756 L
244.613 416.584 L
244.979 420.772 L
245.356 426.821 L
245.733 432.463 L
246.11 436.861 L
246.487 441.813 L
246.852 448.193 L
247.229 453.391 L
247.606 457.987 L
247.983 463.31 L
248.349 469.724 L
248.726 475.311 L
249.103 480.137 L
249.48 484.939 L
249.846 490.539 L
250.223 495.989 L
250.6 500.518 L
250.977 505.804 L
251.354 511.997 L
251.72 517.561 L
252.097 522.093 L
252.474 526.967 L
252.851 533.067 L
253.217 539.02 L
253.594 543.456 L
253.971 549.454 L
254.348 554.107 L
254.713 558.025 L
255.09 561.703 L
255.467 566.519 L
255.844 570.801 L
256.221 574.491 L
256.587 578.317 L
256.964 583.317 L
257.341 587.555 L
257.718 591.128 L
258.084 594.241 L
258.461 598.353 L
258.838 601.714 L
259.215 604.398 L
259.581 608.248 L
259.958 611.692 L
260.335 614.164 L
260.712 616.467 L
261.089 619.3 L
261.454 621.83 L
261.832 624.033 L
262.209 626.227 L
262.586 628.419 L
262.951 630.612 L
263.328 632.235 L
263.705 633.74 L
264.082 635.829 L
264.448 637.587 L
264.825 638.227 L
265.202 639.545 L
265.579 640.539 L
265.945 641.282 L
266.322 641.723 L
266.699 642.16 L
267.076 643.058 L
267.453 643.07 L
267.819 643.315 L
268.196 643.378 L
268.573 643.139 L
268.95 642.656 L
269.315 642.309 L
269.692 641.707 L
270.07 641.42 L
270.447 640.646 L
270.812 639.322 L
271.189 638.323 L
271.566 637.475 L
271.943 636.041 L
272.32 634.366 L
272.686 632.765 L
273.063 631.416 L
273.44 629.817 L
273.817 627.549 L
274.183 625.443 L
274.56 623.802 L
274.937 621.036 L
275.314 618.674 L
275.68 616.722 L
276.057 614.625 L
276.434 611.716 L
276.811 608.813 L
277.188 606.238 L
277.553 602.971 L
277.93 599.493 L
278.308 596.294 L
278.685 593.541 L
279.05 590.722 L
279.427 587.47 L
279.804 584.219 L
280.181 581.28 L
280.547 577.249 L
280.924 573.423 L
281.301 570.312 L
281.678 566.328 L
282.055 562.182 L
282.421 558.419 L
282.798 554.922 L
283.175 550.792 L
283.552 546.019 L
283.918 541.656 L
284.295 538.157 L
284.672 533.05 L
285.049 528.586 L
285.414 524.613 L
285.791 520.795 L
286.168 515.521 L
286.546 510.971 L
286.911 506.476 L
287.288 501.463 L
287.665 496.311 L
288.042 490.845 L
288.419 485.789 L
288.785 479.982 L
289.162 473.497 L
289.539 468.294 L
289.916 463.483 L
290.282 457.434 L
290.659 452.042 L
291.036 447.962 L
291.413 443.143 L
291.779 436.456 L
292.156 430.207 L
292.533 425.296 L
292.91 420.201 L
293.287 413.784 L
293.652 408.712 L
294.029 403.796 L
294.406 398.405 L
294.784 391.326 L
295.149 385.501 L
295.526 381.105 L
295.903 374.503 L
296.28 368.759 L
296.646 362.747 L
297.023 356.899 L
297.4 350.394 L
297.777 343.848 L
298.154 338.67 L
298.52 332.198 L
298.897 324.33 L
299.274 318.481 L
299.651 313.421 L
300.017 307.225 L
300.394 300.875 L
300.771 296.15 L
301.148 291.321 L
301.513 285.293 L
301.89 279.866 L
302.267 274.465 L
302.644 269.469 L
303.021 262.778 L
303.387 257.223 L
303.764 252.824 L
304.141 247.818 L
304.518 242.696 L
304.884 237.641 L
305.261 233.388 L
305.638 227.708 L
306.015 223.01 L
306.381 219.784 L
306.758 216.642 L
307.135 213.166 L
307.512 210.371 L
307.889 208.47 L
308.254 205.877 L
308.632 201.842 L
309.009 198.692 L
309.386 196.387 L
309.751 194.179 L
310.128 192.053 L
310.505 189.942 L
310.882 188.021 L
311.248 185.398 L
311.625 184.16 L
312.002 183.632 L
312.379 183.17 L
312.745 182.153 L
313.122 181.07 L
313.499 181.215 L
313.876 181.645 L
314.253 181.816 L
314.619 181.729 L
314.996 182.142 L
315.373 182.637 L
315.75 182.806 L
316.115 182.389 L
316.492 182.823 L
316.87 184.158 L
317.247 186.239 L
317.612 187.733 L
317.989 189.682 L
318.366 192.52 L
318.743 195.18 L
319.12 198.335 L
319.486 200.92 L
319.863 204.471 L
320.24 207.572 L
320.617 210.008 L
320.983 213.483 L
321.36 217.616 L
321.737 221.336 L
322.114 225.723 L
322.48 231.167 L
322.857 235.394 L
323.234 238.783 L
323.611 242.998 L
323.988 248.695 L
324.353 253.489 L
324.73 258.539 L
325.108 264.316 L
325.485 270.172 L
325.85 275.518 L
326.227 280.013 L
326.604 286.63 L
326.981 293.373 L
327.347 299.861 L
327.724 305.843 L
328.101 312.865 L
328.478 319.823 L
328.855 325.188 L
329.221 331.771 L
329.598 339.372 L
329.975 346.809 L
330.352 352.649 L
330.718 359.008 L
331.095 367.99 L
331.472 375.314 L
331.849 380.81 L
332.214 388.801 L
332.591 396.347 L
332.968 402.472 L
333.346 409.587 L
333.711 418.521 L
334.088 426.989 L
334.465 433.786 L
334.842 440.74 L
335.219 448.827 L
335.585 456.737 L
335.962 462.813 L
336.339 470.65 L
336.716 477.76 L
337.082 483.601 L
337.459 490.211 L
337.836 497.771 L
338.213 504.23 L
338.579 509.389 L
338.956 515.766 L
339.333 522.993 L
339.71 529.76 L
340.087 535.222 L
340.452 541.362 L
340.829 548.503 L
341.206 554.297 L
341.583 559.341 L
341.949 565.359 L
342.326 570.789 L
342.703 575.015 L
343.08 579.568 L
343.446 585.233 L
343.823 590.118 L
344.2 594.225 L
344.577 598.137 L
344.954 603.219 L
345.32 607.395 L
345.697 610.438 L
346.074 613.993 L
346.451 618.286 L
346.816 622.087 L
347.194 624.853 L
347.571 628.585 L
347.948 631.814 L
348.313 634.568 L
348.69 636.626 L
349.067 639.375 L
349.444 642.135 L
349.821 643.946 L
350.187 645.916 L
350.564 648.362 L
350.941 650.454 L
351.318 651.469 L
351.684 653.389 L
352.061 654.713 L
352.438 655.929 L
352.815 656.875 L
353.181 657.814 L
353.558 658.648 L
353.935 659.519 L
354.312 659.865 L
354.689 660.095 L
355.055 660.579 L
355.432 660.887 L
355.809 660.681 L
356.186 660.546 L
356.551 660.458 L
356.928 659.783 L
357.305 659.404 L
357.682 658.954 L
358.048 657.89 L
358.425 656.756 L
358.802 656.031 L
359.179 654.716 L
359.545 653.295 L
359.922 651.816 L
360.299 650.104 L
360.676 648.513 L
361.053 646.536 L
361.419 644.136 L
361.796 641.92 L
362.173 640.143 L
362.55 638.128 L
362.915 635.317 L
363.292 632.768 L
363.67 630.531 L
364.047 627.495 L
364.412 624.323 L
364.789 621.602 L
365.166 618.831 L
365.543 615.076 L
365.92 611.308 L
366.286 608.359 L
366.663 605.485 L
367.04 600.977 L
367.417 596.837 L
367.783 593.512 L
368.16 589.399 L
368.537 584.914 L
368.914 581.942 L
369.28 577.813 L
369.657 572.794 L
370.034 567.398 L
370.411 563.342 L
370.788 558.656 L
371.153 553.467 L
371.53 548.523 L
371.908 544.647 L
372.285 539.246 L
372.65 534.109 L
373.027 529.588 L
373.404 524.754 L
373.781 519.237 L
374.147 514.398 L
374.524 509.965 L
374.901 505.098 L
375.278 498.84 L
375.655 492.687 L
376.021 488.202 L
376.398 481.904 L
376.775 476.154 L
377.152 471.781 L
377.518 467.073 L
377.895 461.047 L
378.272 454.336 L
378.649 448.521 L
379.014 441.392 L
379.391 434.688 L
379.768 428.003 L
380.146 423.357 L
380.511 417.027 L
380.888 411.136 L
381.265 405.301 L
381.642 399.165 L
382.019 391.664 L
382.385 384.534 L
382.762 378.61 L
383.139 372.366 L
383.516 364.926 L
383.882 358.45 L
384.259 352.92 L
384.636 345.735 L
385.013 338.329 L
385.379 332.292 L
385.756 325.371 L
386.133 317.803 L
386.51 311.242 L
386.887 306.076 L
387.252 300.14 L
387.629 293.832 L
388.006 288.343 L
388.383 284.181 L
388.749 277.231 L
389.126 270.828 L
389.503 265.606 L
389.88 260.472 L
390.246 254.914 L
390.623 249.677 L
391 245.536 L
391.377 240.094 L
391.754 234.151 L
392.12 229.103 L
392.497 226.518 L
392.874 223.217 L
393.251 220.338 L
393.617 216.851 L
393.994 214.001 L
394.371 209.826 L
394.748 206.404 L
395.113 204.35 L
395.49 202.018 L
395.867 198.94 L
396.244 196.93 L
396.621 196.144 L
396.987 194.776 L
397.364 192.19 L
397.741 190.099 L
398.118 189.463 L
398.484 189.372 L
398.861 189.637 L
399.238 189.516 L
399.615 189.741 L
399.981 190.094 L
400.358 191.647 L
400.735 192.127 L
401.112 193.756 L
401.489 195.593 L
401.854 198.512 L
402.232 201.3 L
402.609 203.98 L
402.986 206.515 L
403.351 209.006 L
403.728 211.524 L
404.105 214.863 L
404.482 217.174 L
404.848 220.126 L
405.225 223.299 L
405.602 228.55 L
405.979 232.915 L
406.345 236.404 L
406.722 240.058 L
407.099 242.734 L
407.476 245.335 L
407.853 249.794 L
408.219 254.974 L
408.596 259.868 L
408.973 263.549 L
409.35 267.349 L
409.715 272.045 L
410.092 276.256 L
410.47 280.498 L
410.847 286.453 L
411.212 291.474 L
411.589 296.176 L
411.966 300.936 L
412.343 306.541 L
412.72 311.907 L
413.086 316.616 L
413.463 321.727 L
413.84 327.668 L
414.217 332.292 L
414.583 336.575 L
414.96 342.579 L
415.337 348.043 L
415.714 351.519 L
416.08 356.256 L
416.457 361.887 L
416.834 368.557 L
417.211 374.357 L
417.588 380.5 L
417.953 387.198 L
418.33 393.234 L
418.708 397.833 L
419.085 403.101 L
419.45 408.314 L
419.827 411.989 L
420.204 416.925 L
420.581 423.285 L
420.947 429.524 L
421.324 435.027 L
421.701 440.514 L
422.078 447.936 L
422.455 453.546 L
422.821 458.297 L
423.198 464.717 L
423.575 469.917 L
423.952 474.292 L
424.318 479.538 L
424.695 485.085 L
425.072 490.481 L
425.449 494.47 L
425.814 499.819 L
426.191 505.81 L
426.568 511.691 L
426.945 515.661 L
427.311 521.576 L
427.688 526.753 L
428.065 531.269 L
428.442 536.03 L
428.819 541.597 L
429.185 546.534 L
429.562 550.717 L
429.939 554.682 L
430.316 560.384 L
430.682 565.599 L
431.059 568.919 L
431.436 573.363 L
431.813 578.068 L
432.179 581.519 L
432.556 585.799 L
432.933 590.484 L
433.31 594.59 L
433.687 598.281 L
434.052 602.205 L
434.429 606.225 L
434.806 609.886 L
435.184 612.685 L
435.549 616.864 L
435.926 620.065 L
436.303 622.718 L
436.68 625.804 L
437.046 629.528 L
437.423 632.643 L
437.8 634.649 L
438.177 636.581 L
438.554 639.662 L
438.92 642.124 L
439.297 643.895 L
439.674 646.586 L
440.051 648.514 L
440.417 650.286 L
440.794 651.756 L
441.171 653.167 L
441.548 654.765 L
441.913 655.897 L
442.29 657.498 L
442.667 658.336 L
443.044 659.183 L
443.421 659.852 L
443.787 660.306 L
444.164 661.133 L
444.541 661.141 L
444.918 661.233 L
445.284 661.315 L
445.661 661.433 L
446.038 661.122 L
446.415 660.552 L
446.781 660.052 L
447.158 659.154 L
447.535 658.274 L
447.912 657.036 L
448.289 656.071 L
448.654 654.773 L
449.032 652.542 L
449.409 651.139 L
449.786 649.575 L
450.151 647.429 L
450.528 644.92 L
450.905 643.165 L
451.282 640.523 L
451.648 637.863 L
452.025 634.804 L
452.402 632.056 L
452.779 628.941 L
453.145 625.589 L
453.522 622.127 L
453.899 619.277 L
454.276 615.079 L
454.653 611.316 L
455.019 607.766 L
455.396 603.916 L
455.773 599.173 L
456.15 594.881 L
456.515 591.285 L
456.892 585.795 L
457.27 580.88 L
457.647 576.667 L
458.012 571.97 L
458.389 566.584 L
458.766 561.28 L
459.143 557.006 L
459.52 550.737 L
459.886 545.638 L
460.263 541.658 L
460.64 537.057 L
461.017 530.59 L
461.383 525.087 L
461.76 520.633 L
462.137 513.799 L
462.514 507.973 L
462.88 503.14 L
463.257 497.673 L
463.634 491.732 L
464.011 486.618 L
464.388 481.729 L
464.753 476.121 L
465.13 470.676 L
465.508 466.247 L
465.885 461.44 L
466.25 455.237 L
466.627 449.207 L
467.004 444.487 L
467.381 438.774 L
467.747 433.229 L
468.124 429.215 L
468.501 424.918 L
468.878 419.383 L
469.255 414.112 L
469.621 410.623 L
469.998 405.166 L
470.375 400.056 L
470.752 395.934 L
471.118 391.197 L
471.495 385.891 L
471.872 381.236 L
472.249 377.565 L
472.614 372.754 L
472.991 368.569 L
473.368 364.983 L
473.746 361.014 L
474.111 357.485 L
474.488 353.981 L
474.865 351.135 L
475.242 347.083 L
475.619 342.652 L
475.985 340.442 L
476.362 337.869 L
476.739 334.668 L
477.116 331.496 L
477.482 328.685 L
477.859 324.951 L
478.236 321.812 L
478.613 318.063 L
478.979 315.176 L
479.356 311.323 L
479.733 309.255 L
480.11 307.275 L
480.487 304.569 L
480.852 302.794 L
481.229 301.344 L
481.606 300.214 L
481.983 299.555 L
482.349 298.175 L
482.726 296.334 L
483.103 294.841 L
483.48 292.822 L
483.846 291.335 L
484.223 290.353 L
484.6 288.141 L
484.977 286.534 L
485.354 286.173 L
485.72 287.118 L
486.097 286.862 L
486.474 287.635 L
486.851 287.714 L
487.216 287 L
487.594 286.225 L
487.971 285.794 L
488.348 285.434 L
488.713 285.071 L
489.09 284.796 L
489.467 284.562 L
489.844 284.796 L
490.221 285.629 L
490.587 285.259 L
490.964 285.273 L
491.341 285.125 L
491.718 285.459 L
492.084 285.62 L
492.461 287.026 L
492.838 288.216 L
493.215 290.03 L
493.581 291.215 L
493.958 292.656 L
494.335 293.293 L
494.712 293.272 L
495.089 294.01 L
495.454 294.673 L
495.832 294.634 L
496.209 295.557 L
496.586 297.836 L
496.951 299.731 L
497.328 300.67 L
497.705 301.445 L
498.082 302.598 L
498.448 303.643 L
498.825 305.235 L
499.202 307.405 L
499.579 309.742 L
499.945 311.048 L
500.322 312.61 L
500.699 314.178 L
501.076 316.057 L
501.453 318.096 L
501.819 319.338 L
502.196 320.545 L
502.573 321.694 L
502.95 323.444 L
503.315 324.958 L
503.692 327.256 L
504.07 329.588 L
504.447 331.687 L
504.812 333.901 L
505.189 335.258 L
505.566 336.924 L
505.943 338.552 L
506.32 340.911 L
506.686 343.323 L
507.063 346.562 L
507.44 348.336 L
507.817 350.237 L
508.183 352.23 L
508.56 354.927 L
508.937 357.414 L
509.314 360.637 L
509.68 363.862 L
510.057 366.904 L
510.434 369.105 L
510.811 372.763 L
511.188 375.856 L
511.553 379.072 L
511.93 382.194 L
512.307 385.568 L
512.685 388.632 L
513.05 391.095 L
513.427 395.695 L
513.804 400.145 L
514.181 403.812 L
514.547 407.737 L
514.924 412.41 L
515.301 416.764 L
515.678 420.397 L
516.055 424.404 L
516.421 429.071 L
516.798 433.527 L
517.175 436.713 L
517.552 441.32 L
517.918 445.677 L
518.295 449.645 L
518.672 454.049 L
519.049 458.496 L
519.414 463.362 L
519.791 467.656 L
520.168 473.584 L
520.546 478.398 L
520.911 482.923 L
521.288 487.237 L
521.665 492.25 L
522.042 496.874 L
522.419 500.642 L
522.785 505.011 L
523.162 509.028 L
523.539 512.736 L
523.916 517.313 L
524.282 522.095 L
524.659 526.814 L
525.036 530.863 L
525.413 535.745 L
525.779 539.759 L
526.156 542.855 L
526.533 546.02 L
526.91 549.613 L
527.287 553.008 L
527.652 555.929 L
528.029 559.828 L
528.406 562.969 L
528.784 565.926 L
529.149 568.909 L
529.526 572.311 L
529.903 574.721 L
530.28 576.776 L
530.646 579.61 L
531.023 582.326 L
531.4 584.276 L
531.777 586.858 L
532.154 588.781 L
532.52 590.108 L
532.897 591.044 L
533.274 592.427 L
533.651 593.602 L
534.016 594.699 L
534.394 595.317 L
534.771 596.175 L
535.148 596.898 L
535.513 597.133 L
535.89 597.388 L
536.267 597.584 L
536.644 597.377 L
537.021 597.294 L
537.387 596.934 L
537.764 596.143 L
538.141 595.451 L
538.518 594.062 L
538.884 592.866 L
539.261 591.409 L
539.638 589.998 L
540.015 588.361 L
540.381 587.23 L
540.758 585.443 L
541.135 583.217 L
541.512 581.377 L
541.889 579.139 L
542.255 576.555 L
542.632 573.675 L
543.009 571.182 L
543.386 568.162 L
543.751 565.107 L
544.128 561.874 L
544.505 559.679 L
544.882 556.106 L
545.248 552.876 L
545.625 550.753 L
546.002 546.133 L
546.379 542.236 L
546.745 539.183 L
547.122 535.506 L
547.499 531.5 L
547.876 527.398 L
548.253 524.057 L
548.619 519.014 L
548.996 514.451 L
549.373 510.537 L
549.75 506.902 L
550.115 502.793 L
550.492 498.761 L
550.87 494.901 L
551.247 489.657 L
551.612 484.606 L
551.989 481.169 L
552.366 477.444 L
552.743 472.801 L
553.12 468.531 L
553.486 464.722 L
553.863 459.651 L
554.24 454.912 L
554.617 451.307 L
554.983 445.476 L
555.36 441.141 L
555.737 437.744 L
556.114 434.191 L
556.48 429.421 L
556.857 425.663 L
557.234 422.887 L
557.611 418.483 L
557.988 414.757 L
558.353 411.435 L
558.73 406.818 L
559.108 402.222 L
559.485 397.996 L
559.85 395.133 L
560.227 391.563 L
560.604 387.991 L
560.981 385.178 L
561.347 381.245 L
561.724 377.052 L
562.101 373.335 L
562.478 370.155 L
562.855 366.209 L
563.221 362.418 L
563.598 358.921 L
563.975 354.18 L
564.352 350.228 L
564.718 346.628 L
565.095 344.216 L
565.472 340.416 L
565.849 336.508 L
566.214 332.653 L
566.591 328.073 L
566.968 323.436 L
567.346 320.23 L
567.711 317.451 L
568.088 313.829 L
568.465 310.65 L
568.842 308.313 L
569.219 305.067 L
569.585 302.97 L
569.962 301.367 L
570.339 299.687 L
570.716 298.056 L
571.082 296.159 L
571.459 293.379 L
571.836 289.57 L
572.213 287.07 L
572.578 285.523 L
572.956 282.974 L
573.333 280.709 L
573.71 278.967 L
574.087 277.984 L
574.452 277.023 L
574.829 276.112 L
575.206 274.759 L
575.583 272.517 L
575.949 270.088 L
576.326 268.53 L
576.703 267.414 L
577.08 266.545 L
577.446 266.027 L
577.823 265.441 L
578.2 264.806 L
578.577 264.584 L
578.954 263.541 L
579.32 261.643 L
579.697 260.551 L
580.074 261.147 L
580.451 261.944 L
580.817 263.641 L
581.194 265.347 L
581.571 266.266 L
581.948 267.518 L
582.313 268.725 L
582.69 270.043 L
583.067 270.84 L
583.444 273.406 L
583.821 274.831 L
584.187 275.946 L
584.564 278.173 L
584.941 280.102 L
585.318 281.817 L
585.684 284.235 L
586.061 286.552 L
586.438 289.334 L
586.815 291.281 L
587.181 293.945 L
587.558 295.851 L
587.935 297.699 L
588.312 300.747 L
588.689 303.669 L
589.055 306.182 L
589.432 308.733 L
589.809 311.492 L
590.186 314.722 L
590.551 317.15 L
590.928 320.375 L
591.305 324.461 L
591.682 327.76 L
592.048 331.173 L
592.425 334.815 L
592.802 337.817 L
593.179 340.4 L
593.545 345.055 L
593.922 349.236 L
594.299 352.064 L
594.676 355.111 L
595.053 358.331 L
595.419 361.95 L
595.796 364.963 L
596.173 369.441 L
596.55 373.416 L
596.915 376.521 L
597.292 381.277 L
597.67 385.758 L
598.047 389.104 L
598.412 393.465 L
598.789 398.021 L
599.166 402.617 L
599.543 406.32 L
599.92 411.171 L
600.286 415.712 L
600.663 419.469 L
601.04 423.418 L
601.417 427.994 L
601.783 432.015 L
602.16 435.268 L
602.537 439.171 L
602.914 443.791 L
603.28 447.75 L
603.657 452.147 L
604.034 457.045 L
604.411 461.286 L
604.788 464.102 L
605.153 469.071 L
605.53 473.589 L
605.908 477.465 L
606.285 482.63 L
606.65 487.436 L
607.027 491.093 L
607.404 494.842 L
607.781 499.074 L
608.147 502.95 L
608.524 506.091 L
608.901 510.944 L
609.278 515.129 L
609.655 518.852 L
610.021 522.894 L
610.398 527.687 L
610.775 531.149 L
611.152 533.984 L
611.518 537.831 L
611.895 541.223 L
612.272 543.985 L
612.649 547.556 L
613.014 551.782 L
613.391 554.688 L
613.768 557.94 L
614.146 561.339 L
614.511 563.895 L
614.888 566.049 L
615.265 568.883 L
615.642 571.332 L
616.019 573.496 L
616.385 575.728 L
616.762 577.623 L
617.139 579.719 L
617.516 581.368 L
617.882 583.583 L
618.259 585.107 L
618.636 586.453 L
619.013 587.286 L
619.379 588.386 L
619.756 589.566 L
620.133 590.194 L
620.51 591.016 L
620.887 591.74 L
621.252 592.398 L
621.629 592.657 L
622.006 592.994 L
622.383 594.018 L
622.749 593.61 L
623.126 593.491 L
623.503 593.138 L
623.88 592.547 L
624.246 591.94 L
624.623 590.904 L
625 590.144 L
625.377 589.35 L
625.754 588.266 L
626.12 586.866 L
626.497 585.499 L
626.874 583.827 L
627.251 582.225 L
627.617 580.219 L
627.994 578.386 L
628.371 576.208 L
628.748 574.167 L
629.113 571.729 L
629.49 568.746 L
629.867 566.316 L
630.244 564.328 L
630.621 560.935 L
630.987 557.458 L
631.364 555.164 L
631.741 551.126 L
632.118 547.26 L
632.484 544.167 L
632.861 541.133 L
633.238 537.503 L
633.615 534.289 L
633.981 531.249 L
634.358 526.604 L
634.735 522.393 L
635.112 518.818 L
635.489 514.328 L
635.854 509.759 L
636.232 506.082 L
636.609 501.378 L
636.986 496.515 L
637.351 492.29 L
637.728 488.152 L
638.105 483.478 L
638.482 478.866 L
638.848 475.222 L
639.225 469.22 L
639.602 463.949 L
639.979 459.38 L
640.345 455.131 L
640.722 450.266 L
641.099 445.065 L
641.476 441.374 L
641.853 435.764 L
642.219 430.839 L
642.596 427.003 L
642.973 420.663 L
643.35 414.583 L
643.715 409.791 L
644.092 404.237 L
644.47 398.349 L
644.847 393.671 L
645.212 389.379 L
645.589 384.681 L
645.966 380.264 L
646.343 376.489 L
646.72 371.761 L
647.086 367.143 L
647.463 362.896 L
647.84 356.917 L
648.217 350.638 L
648.583 344.834 L
648.96 341.63 L
649.337 336.877 L
649.714 332.639 L
650.08 328.234 L
650.457 323.082 L
650.834 317.879 L
651.211 314.084 L
651.588 309.292 L
651.953 304.254 L
652.33 298.846 L
652.708 295.389 L
653.085 289.435 L
653.45 284.85 L
653.827 281.444 L
654.204 277.348 L
654.581 273.282 L
654.947 269.023 L
655.324 264.546 L
655.701 258.942 L
656.078 253.773 L
656.455 250.767 L
656.821 247.47 L
657.198 245.34 L
657.575 243.134 L
657.952 240.047 L
658.318 236.074 L
658.695 232.112 L
659.072 228.116 L
659.449 223.973 L
659.814 219.985 L
660.191 217.785 L
660.568 214.761 L
660.945 212.947 L
661.311 211.942 L
661.688 209.425 L
662.065 206.647 L
662.442 204.204 L
662.819 201.169 L
663.185 198.113 L
663.562 195.125 L
663.939 193.411 L
664.316 190.045 L
664.682 186.538 L
665.059 185.402 L
665.436 184.145 L
665.813 184.58 L
666.179 184.464 L
666.556 184.131 L
666.933 184.274 L
667.31 185.664 L
667.687 185.946 L
668.052 186.211 L
668.429 186.718 L
668.806 187.587 L
669.183 187.867 L
669.549 188.768 L
669.926 188.823 L
670.303 188.644 L
670.68 189.982 L
671.046 191.841 L
671.423 194.319 L
671.8 197.027 L
672.177 199.879 L
672.554 202.245 L
672.92 205.175 L
673.297 208.449 L
673.674 211.997 L
674.051 215.531 L
674.417 219.658 L
674.794 222.873 L
675.171 224.885 L
675.548 229.134 L
675.913 232.937 L
676.29 235.747 L
676.667 240.1 L
677.044 244.406 L
677.422 248.752 L
677.787 253.55 L
678.164 259.765 L
678.541 264.66 L
678.918 268.144 L
679.284 272.581 L
679.661 277.223 L
680.038 282.209 L
680.415 288.844 L
680.781 295.936 L
681.158 301.187 L
681.535 306.601 L
681.912 312.882 L
682.289 318.853 L
682.654 324.236 L
683.032 331.191 L
683.409 337.595 L
683.786 341.995 L
684.151 347.949 L
684.528 353.324 L
684.905 358.169 L
685.282 363.719 L
685.648 370.771 L
686.025 376.749 L
686.402 381.597 L
686.779 387.631 L
687.145 393.763 L
687.522 398.033 L
687.899 404.074 L
688.276 409.675 L
688.653 414.534 L
689.019 420.225 L
689.396 427.127 L
689.773 433.144 L
690.15 438.031 L
690.515 444.192 L
690.892 449.707 L
691.27 454.286 L
691.647 459.62 L
692.012 464.337 L
692.389 468.28 L
692.766 472.532 L
693.143 478.115 L
693.52 483.15 L
693.886 486.787 L
694.263 492.23 L
694.64 497.372 L
695.017 501.492 L
695.383 506.539 L
695.76 511.12 L
696.137 514.243 L
696.514 517.888 L
696.88 521.756 L
697.257 525.133 L
697.634 528.219 L
698.011 531.565 L
698.388 535.479 L
698.753 538.385 L
699.13 541.608 L
699.508 543.333 L
699.885 545.109 L
700.25 546.919 L
700.627 549.636 L
701.004 551.948 L
701.381 553.863 L
701.747 556.58 L
702.124 558.439 L
702.501 559.624 L
702.878 560.577 L
703.255 561.203 L
703.621 561.792 L
703.998 562.546 L
704.375 562.868 L
704.752 563.337 L
705.118 563.668 L
705.495 563.821 L
705.872 563.843 L
706.249 563.29 L
706.614 562.834 L
706.991 562.396 L
707.368 561.491 L
707.745 560.607 L
708.111 559.315 L
708.488 557.967 L
708.865 556.753 L
709.242 554.703 L
709.619 553.028 L
709.985 551.698 L
710.362 549.729 L
710.739 547.579 L
711.116 545.739 L
711.482 543.604 L
711.859 540.47 L
712.236 537.755 L
712.613 535.655 L
712.979 531.542 L
713.356 527.94 L
713.733 525.161 L
714.11 521.206 L
714.487 517.342 L
714.852 514.538 L
715.229 511.144 L
715.606 507.288 L
715.984 503.317 L
716.349 499.453 L
716.726 495.067 L
717.103 490.118 L
717.48 486.04 L
717.846 480.718 L
718.223 475.334 L
718.6 470.996 L
718.977 466.333 L
719.354 460.398 L
719.72 455.086 L
720.097 450.329 L
720.474 443.483 L
720.851 437.827 L
721.216 433.472 L
721.594 426.668 L
721.971 420.858 L
722.348 416.788 L
722.713 411.24 L
723.09 404.914 L
723.467 399.475 L
723.844 393.312 L
724.221 386.431 L
724.587 379.676 L
724.964 373.998 L
725.341 366.135 L
725.718 359.215 L
726.084 353.301 L
726.461 346.249 L
726.838 339.877 L
727.215 334.538 L
727.581 327.385 L
727.958 319.813 L
728.335 313.665 L
728.712 307.221 L
729.089 299.889 L
729.454 292.876 L
729.832 287.824 L
730.209 280.988 L
730.586 275.303 L
730.951 270.325 L
731.328 262.756 L
731.705 255.299 L
732.082 249.511 L
732.448 242.898 L
732.825 236.597 L
733.202 231.79 L
733.579 226.759 L
733.945 220.674 L
734.322 214.89 L
734.699 209.342 L
735.076 202.153 L
735.453 196.34 L
735.819 192.593 L
736.196 187.599 L
736.573 182.86 L
736.95 178.746 L
737.315 174.844 L
737.693 170.923 L
738.07 167.29 L
738.447 164.535 L
738.812 160.693 L
739.189 158.179 L
739.566 155.413 L
739.943 152.25 L
740.32 147.986 L
740.686 144.856 L
741.063 139.885 L
741.44 134.675 L
741.817 131.669 L
742.183 128.534 L
742.56 125.749 L
742.937 123.054 L
743.314 120.245 L
743.68 117.707 L
744.057 115.476 L
744.434 113.503 L
744.811 111.571 L
745.188 110.039 L
745.553 109.761 L
745.93 108.958 L
746.307 107.807 L
746.685 106.39 L
747.05 104.62 L
747.427 104.097 L
747.804 103.436 L
748.181 102.062 L
748.547 101.201 L
748.924 100.599 L
749.301 99.636 L
749.678 100.141 L
750.055 100.803 L
750.421 102.714 L
750.798 105.217 L
751.175 107.015 L
751.552 108.084 L
751.918 109.404 L
752.295 111.421 L
752.672 113.071 L
753.049 114.476 L
753.414 115.548 L
753.791 117.366 L
754.168 119.104 L
754.546 121.986 L
754.911 125.641 L
755.288 129.189 L
755.665 133.879 L
756.042 138.135 L
756.419 141.335 L
756.785 145.039 L
757.162 148.485 L
757.539 151.589 L
757.916 155.372 L
758.282 160.807 L
758.659 167.262 L
759.036 172.538 L
759.413 178.633 L
759.779 183.209 L
760.156 188.23 L
760.533 194.957 L
760.91 201.865 L
761.287 208.103 L
761.652 215.403 L
762.029 221.452 L
762.406 226.918 L
762.784 232.97 L
763.149 240.447 L
763.526 248.255 L
763.903 254.593 L
764.28 263.545 L
764.646 271.708 L
765.023 278.066 L
765.4 286.036 L
765.777 293.777 L
766.154 300.12 L
766.52 308.233 L
766.897 315.998 L
767.274 321.725 L
767.651 328.54 L
768.016 337.006 L
768.394 344.016 L
768.771 350.762 L
769.148 359.728 L
769.513 367.828 L
769.89 374.54 L
770.267 382.791 L
770.644 390.221 L
771.021 396.55 L
771.387 404.412 L
771.764 411.607 L
772.141 417.672 L
772.518 424.158 L
772.884 431.78 L
773.261 438.459 L
773.638 443.272 L
774.015 450.46 L
774.381 456.893 L
774.758 461.615 L
775.135 468.292 L
775.512 474.65 L
775.889 479.521 L
776.255 485.874 L
776.632 491.395 L
777.009 495.902 L
777.386 501.04 L
777.751 506.779 L
778.128 511.334 L
778.505 514.949 L
778.882 520.018 L
779.248 524.828 L
779.625 528.522 L
780.002 533.464 L
780.379 537.619 L
780.745 540.606 L
781.122 544.666 L
781.499 548.427 L
781.876 551.209 L
782.253 554.757 L
782.619 558.44 L
782.996 561.05 L
783.373 564.134 L
783.75 566.882 L
784.115 569.156 L
784.492 571.336 L
784.87 573.472 L
785.247 575.594 L
785.612 577.38 L
785.989 579.178 L
786.366 580.955 L
786.743 582.09 L
787.12 583.81 L
787.486 584.483 L
787.863 585.943 L
788.24 586.689 L
788.617 587.224 L
788.983 587.773 L
789.36 588.008 L
789.737 587.557 L
790.114 587.088 L
790.48 586.814 L
790.857 586.967 L
791.234 586.457 L
791.611 586.064 L
791.988 585.057 L
792.353 583.716 L
792.73 582.898 L
793.108 581.695 L
793.485 579.852 L
793.85 578.281 L
794.227 577.411 L
794.604 575.208 L
794.981 573.198 L
795.347 571.513 L
795.724 568.501 L
796.101 566.142 L
796.478 563.788 L
796.855 560.637 L
797.221 557.302 L
797.598 554.81 L
797.975 551.977 L
798.352 549.048 L
798.718 546.112 L
799.095 543.601 L
799.472 539.517 L
799.849 536.033 L
800.214 532.646 L
800.591 527.402 L
800.968 523.056 L
801.346 519.208 L
801.711 513.938 L
802.088 509.847 L
802.465 505.832 L
802.842 501.141 L
803.219 496.207 L
803.585 491.695 L
803.962 487.526 L
804.339 481.402 L
804.716 475.56 L
805.082 471.281 L
805.459 465.745 L
805.836 460.149 L
806.213 455.876 L
806.578 449.525 L
806.956 443.816 L
807.333 439.076 L
807.71 433.111 L
808.087 425.819 L
808.452 419.016 L
808.829 413.97 L
809.206 407.333 L
809.583 401.887 L
809.949 396.579 L
810.326 389.614 L
810.703 382.572 L
811.08 376.92 L
811.446 368.892 L
811.823 362.297 L
812.2 356.453 L
812.577 350.238 L
812.954 342.49 L
813.32 335.838 L
813.697 329.773 L
814.074 321.716 L
814.451 314.888 L
814.817 309.358 L
815.194 301.801 L
815.571 294.914 L
815.948 288.073 L
816.313 279.984 L
816.69 272.206 L
817.067 266.112 L
817.444 258.983 L
817.821 252.744 L
818.187 247.056 L
818.564 240.398 L
818.941 233.665 L
819.318 227.957 L
819.684 221.478 L
820.061 213.233 L
820.438 206.22 L
820.815 200.602 L
821.181 194.356 L
821.558 189.027 L
821.935 184.013 L
822.312 178.596 L
822.689 173.699 L
823.055 170.203 L
823.432 165.046 L
823.809 160.854 L
824.186 155.934 L
824.551 150.24 L
824.928 144.892 L
825.305 141.038 L
825.682 136.989 L
826.048 133.527 L
826.425 130.669 L
826.802 127.65 L
827.179 124.075 L
827.545 121.975 L
827.922 119.894 L
828.299 117.334 L
828.676 115.029 L
829.053 112.927 L
829.419 111.059 L
829.796 109.092 L
830.173 107.792 L
830.55 106.464 L
830.915 105.5 L
831.292 104.881 L
831.67 104.739 L
832.047 104.619 L
832.412 104.734 L
832.789 105.432 L
833.166 105.563 L
833.543 105.14 L
833.92 105.359 L
834.286 105.652 L
834.663 106.472 L
835.04 108.074 L
835.417 109.513 L
835.783 111.608 L
836.16 113.437 L
836.537 115.503 L
836.914 118.482 L
837.28 119.946 L
837.657 123.916 L
838.034 127.889 L
838.411 130.973 L
838.788 134.102 L
839.153 136.362 L
839.53 139.752 L
839.908 143.314 L
840.285 146.988 L
840.65 149.451 L
841.027 153.053 L
841.404 157.109 L
841.781 161.603 L
842.147 165.943 L
842.524 172.239 L
842.901 178.031 L
843.278 181.896 L
843.655 187.309 L
844.021 192.556 L
844.398 196.556 L
844.775 201.487 L
845.152 206.189 L
845.518 209.911 L
845.895 216.295 L
846.272 222.791 L
846.649 228.2 L
847.014 235.504 L
847.391 241.682 L
847.768 246.964 L
848.146 252.972 L
848.511 260.837 L
848.888 268.268 L
849.265 274.545 L
849.642 282.007 L
850.019 289.365 L
850.385 295.166 L
850.762 303.636 L
851.139 311.048 L
851.516 317.827 L
851.882 325.253 L
852.259 333.366 L
852.636 339.732 L
853.013 348.359 L
853.379 356.305 L
853.756 362.633 L
854.133 370.756 L
854.51 378.784 L
854.887 385.197 L
855.252 392.706 L
855.629 401.684 L
856.006 410.107 L
856.383 415.849 L
856.749 423.804 L
857.126 431.593 L
857.503 437.613 L
857.88 446.244 L
858.246 453.783 L
858.623 459.973 L
859 468.921 L
859.377 476.753 L
859.754 483.332 L
860.12 491.507 L
860.497 498.388 L
860.874 503.944 L
861.251 511.935 L
861.617 519.153 L
861.994 525 L
862.371 531.546 L
862.748 539.363 L
863.113 545.887 L
863.49 551.401 L
863.867 558.476 L
864.244 564.161 L
864.621 569.601 L
864.987 576.719 L
865.364 582.333 L
865.741 586.622 L
866.118 592.756 L
866.484 598.005 L
866.861 602.313 L
867.238 607.962 L
867.615 612.381 L
867.981 616.398 L
868.358 621.103 L
868.735 625.918 L
869.112 629.729 L
869.489 632.806 L
869.854 637.298 L
870.232 641.024 L
870.609 643.523 L
870.986 647.331 L
871.351 650.183 L
871.728 652.74 L
872.105 655.601 L
872.482 657.774 L
872.848 659.859 L
873.225 661.968 L
873.602 663.521 L
873.979 664.963 L
874.345 666.24 L
874.722 668.069 L
875.099 668.599 L
875.476 669.359 L
875.853 669.964 L
876.219 670.303 L
876.596 670.127 L
876.973 670.288 L
877.35 669.838 L
877.715 669.374 L
878.092 668.652 L
878.47 667.288 L
878.847 666.608 L
879.212 664.983 L
879.589 663.394 L
879.966 661.728 L
880.343 659.563 L
880.72 657.415 L
881.086 655.588 L
881.463 652.352 L
881.84 649.321 L
882.217 647.165 L
882.583 643.726 L
882.96 640.527 L
883.337 637.622 L
883.714 634.29 L
884.08 630.095 L
884.457 626.112 L
884.834 622.305 L
885.211 617.32 L
885.588 612.557 L
885.953 608.736 L
886.33 603.828 L
886.708 599.049 L
887.085 595.048 L
887.45 589.498 L
887.827 584.273 L
888.204 580.413 L
888.581 573.989 L
888.947 568.221 L
889.324 563.265 L
889.701 556.955 L
890.078 550.904 L
890.455 545.851 L
890.821 539.145 L
891.198 533.303 L
891.575 528.924 L
891.952 523.859 L
892.318 517.781 L
892.695 511.629 L
893.072 507.049 L
893.449 500.027 L
893.814 493.109 L
894.191 487.82 L
894.568 480.366 L
894.945 473.522 L
895.311 468.251 L
895.688 460.955 L
896.065 454.929 L
896.442 450.457 L
896.819 443.733 L
897.185 437.617 L
897.562 432.421 L
897.939 425.724 L
898.316 419.988 L
898.682 415.402 L
899.059 409.331 L
899.436 402.628 L
899.813 396.33 L
900.179 391.35 L
900.556 384.267 L
900.933 377.633 L
901.31 372.407 L
901.687 365.428 L
902.052 359.205 L
902.429 354.152 L
902.806 347.662 L
903.183 341.511 L
903.549 337.184 L
903.926 330.214 L
904.303 323.848 L
904.68 319.137 L
905.046 313.505 L
905.423 307.973 L
905.8 304.286 L
906.177 298.957 L
906.554 293.557 L
906.92 288.551 L
907.297 284.476 L
907.674 277.911 L
908.051 272.215 L
908.417 267.476 L
908.794 261.328 L
909.171 255.966 L
909.548 252.675 L
909.913 247.811 L
910.29 243.959 L
910.667 240.562 L
911.044 235.722 L
911.422 231.942 L
911.787 228.467 L
912.164 223.692 L
912.541 219.71 L
912.918 216.408 L
913.284 213.71 L
913.661 211.089 L
914.038 208.153 L
914.415 204.515 L
914.781 201.919 L
915.158 199.73 L
915.535 197.604 L
915.912 195.798 L
916.289 194.159 L
916.654 192.275 L
917.032 190.123 L
917.409 188.434 L
917.786 186.867 L
918.151 185.753 L
918.528 185.303 L
918.905 183.927 L
919.282 182.899 L
919.648 182.657 L
920.025 182.748 L
920.402 182.706 L
920.779 182.903 L
921.145 183.445 L
921.522 184.155 L
921.899 184.436 L
922.276 183.841 L
922.653 184.175 L
923.019 184.65 L
923.396 186.107 L
923.773 187.225 L
924.15 188.068 L
924.515 189.197 L
924.892 190.872 L
925.27 192.88 L
925.647 194.862 L
926.012 196.121 L
926.389 197.903 L
926.766 199.785 L
927.143 202.025 L
927.52 203.471 L
927.886 204.544 L
928.263 206.078 L
928.64 208.981 L
929.017 211.822 L
929.383 214.712 L
929.76 218.315 L
930.137 220.985 L
930.514 224.259 L
930.88 226.963 L
931.257 228.783 L
931.634 231.629 L
932.011 235.155 L
932.388 238.275 L
932.753 242.502 L
933.13 245.683 L
933.508 248.764 L
933.885 252.838 L
934.25 256.702 L
934.627 259.861 L
935.004 263.997 L
935.381 268.567 L
935.747 271.86 L
936.124 276.808 L
936.501 280.995 L
936.878 284.458 L
937.255 289.399 L
937.621 293.14 L
937.998 296.279 L
938.375 301.518 L
938.752 306.036 L
939.118 309.208 L
939.495 313.464 L
939.872 317.858 L
940.249 322.232 L
940.614 328.832 L
940.991 335.022 L
941.368 339.689 L
941.745 346.191 L
942.111 351.941 L
942.488 356.184 L
942.865 361.028 L
943.242 366.099 L
943.619 370.442 L
943.985 376.315 L
944.362 381.538 L
944.739 386.414 L
945.116 392.373 L
945.482 398.479 L
945.859 403.405 L
946.236 410.161 L
946.613 416.75 L
946.979 420.904 L
947.356 427.466 L
947.733 433.026 L
948.11 437.359 L
948.487 444.036 L
948.852 449.807 L
949.229 454.538 L
949.606 460.557 L
949.984 465.872 L
950.349 469.486 L
950.726 475.398 L
951.103 480.888 L
951.48 484.81 L
951.846 490.137 L
952.223 495.689 L
952.6 500.727 L
952.977 504.873 L
953.354 510.17 L
953.72 515.086 L
954.097 518.753 L
954.474 523.563 L
954.851 528.086 L
955.216 531.556 L
955.594 535.849 L
955.971 539.906 L
956.348 543.189 L
956.713 547.401 L
957.09 551.24 L
957.467 554.082 L
957.844 557.562 L
958.221 560.351 L
958.587 562.825 L
958.964 566.092 L
959.341 568.871 L
959.718 571.273 L
960.084 574.326 L
960.461 576.25 L
960.838 578.035 L
961.215 580.699 L
961.581 582.155 L
961.958 583.864 L
962.335 585.756 L
962.712 587.352 L
963.089 588.099 L
963.454 589.598 L
963.832 590.563 L
964.209 591.422 L
964.586 592.248 L
964.951 593.125 L
965.328 593.805 L
965.705 593.803 L
966.082 594.44 L
966.448 594.246 L
966.825 594.035 L
967.202 593.491 L
967.579 593.371 L
967.945 592.674 L
968.322 591.708 L
968.699 591.213 L
969.076 590.753 L
969.453 590.031 L
969.819 588.949 L
970.196 587.547 L
970.573 586.614 L
970.95 585.32 L
971.315 583.143 L
971.693 581.036 L
972.07 579.506 L
972.447 577.28 L
972.812 575.074 L
973.189 573.415 L
973.566 571.072 L
973.943 568.62 L
974.32 566.733 L
974.686 564.57 L
975.063 561.432 L
975.44 558.785 L
975.817 557.223 L
976.183 553.722 L
976.56 550.7 L
976.937 548.585 L
977.314 544.802 L
977.68 541.556 L
978.057 538.698 L
978.434 535.197 L
978.811 531.859 L
979.188 528.941 L
979.553 525.4 L
979.93 522.471 L
980.307 520.014 L
980.685 516.12 L
981.05 513.025 L
981.427 509.978 L
981.804 506.032 L
982.181 502.776 L
982.547 499.809 L
982.924 495.291 L
983.301 491.759 L
983.678 488.878 L
984.055 484.769 L
984.421 481.605 L
984.798 478.966 L
985.175 475.233 L
985.552 471.383 L
985.918 468.227 L
986.295 464.079 L
986.672 460.782 L
987.049 457.35 L
987.414 453.479 L
987.791 450.15 L
988.168 447.61 L
988.546 443.857 L
988.911 440.374 L
989.288 438.315 L
989.665 435.104 L
990.042 432.617 L
990.419 429.973 L
990.785 427.167 L
991.162 423.788 L
991.539 421.582 L
991.916 418.439 L
992.282 415.2 L
992.659 412.749 L
993.036 409.531 L
993.413 406.523 L
993.779 404.592 L
994.156 402.055 L
994.533 399.283 L
994.91 397.965 L
995.287 395.537 L
995.652 392.972 L
996.029 391.227 L
996.406 389.164 L
996.784 386.871 L
997.149 385.311 L
997.526 382.985 L
997.903 380.745 L
998.28 379.291 L
998.646 377.32 L
999.023 375.854 L
999.4 374.217 L
999.777 372.986 L
1000.154 371.866 L
1000.52 370.636 L
1000.897 370.275 L
1001.274 370.102 L
1001.651 369.38 L
1002.016 368.676 L
1002.394 368.425 L
1002.771 367.394 L
1003.148 366.886 L
1003.513 366.834 L
1003.89 366.743 L
1004.267 366.966 L
1004.644 366.977 L
1005.021 367.13 L
1005.387 366.897 L
1005.764 367.273 L
1006.141 367.934 L
1006.518 369.336 L
1006.884 369.741 L
1007.261 370.638 L
1007.638 371.741 L
1008.015 372.683 L
1008.381 374.013 L
1008.758 374.824 L
1009.135 376.562 L
1009.512 377.929 L
1009.889 379.214 L
1010.255 381.529 L
1010.632 383.66 L
1011.009 385.085 L
1011.386 387.7 L
1011.751 388.998 L
1012.128 391.047 L
1012.505 393.626 L
1012.882 395.695 L
1013.248 398.689 L
1013.625 401.51 L
1014.002 404.278 L
1014.379 406.717 L
1014.745 410.129 L
1015.122 412.964 L
1015.499 414.94 L
1015.876 417.82 L
1016.253 420.884 L
1016.619 422.947 L
1016.996 425.731 L
1017.373 428.242 L
1017.75 430.645 L
1018.115 433.663 L
1018.492 436.653 L
1018.87 439.649 L
1019.247 443.571 L
1019.612 447.396 L
1019.989 450.027 L
1020.366 453.531 L
1020.743 456.145 L
1021.12 458.667 L
1021.486 461.266 L
1021.863 463.861 L
1022.24 466.603 L
1022.617 469.981 L
1022.983 472.917 L
1023.36 475.334 L
1023.737 478.854 L
1024.114 482.28 L
1024.48 485.297 L
1024.857 488.522 L
1025.234 491.562 L
1025.611 494.068 L
1025.988 497.404 L
1026.353 500.121 L
1026.73 502.556 L
1027.108 505.439 L
1027.485 508.144 L
1027.85 510.736 L
1028.227 513.662 L
1028.604 516.718 L
1028.981 518.944 L
1029.347 522.377 L
1029.724 526.072 L
1030.101 528.783 L
1030.478 531.998 L
1030.855 534.982 L
1031.221 537.861 L
1031.598 541.163 L
1031.975 544.239 L
1032.352 546.605 L
1032.718 550.682 L
1033.095 553.63 L
1033.472 556.864 L
1033.849 560.047 L
1034.214 563.525 L
1034.591 565.669 L
1034.969 569.112 L
1035.345 571.839 L
1035.711 574.716 L
1036.088 578.017 L
1036.465 580.786 L
1036.842 583.124 L
1037.219 586.504 L
1037.585 589.866 L
1037.962 591.978 L
1038.339 595.905 L
1038.716 598.735 L
1039.082 601.394 L
1039.459 605.05 L
1039.836 607.649 L
1040.213 609.773 L
1040.578 613.248 L
1040.956 616.208 L
1041.333 618.626 L
1041.71 621.423 L
1042.087 624.33 L
1042.452 626.479 L
1042.829 629.293 L
1043.206 632.131 L
1043.583 634.13 L
1043.949 636.751 L
1044.326 639.037 L
1044.703 640.872 L
1045.08 643.466 L
1045.446 645.633 L
1045.823 647.709 L
1046.2 649.831 L
1046.577 651.812 L
1046.954 653.159 L
1047.32 654.932 L
1047.697 656.413 L
1048.074 657.875 L
1048.451 659.12 L
1048.817 660.777 L
1049.194 661.43 L
1049.571 662.532 L
1049.948 663.254 L
1050.313 663.904 L
1050.69 664.611 L
1051.067 665.41 L
1051.444 665.36 L
1051.822 665.473 L
1052.187 665.534 L
1052.564 665.5 L
1052.941 665.028 L
1053.318 664.36 L
1053.684 664.129 L
1054.061 663.211 L
1054.438 662.816 L
1054.815 661.382 L
1055.181 660.096 L
1055.558 658.88 L
1055.935 657.362 L
1056.312 655.376 L
1056.689 653.215 L
1057.054 651.752 L
1057.432 649.36 L
1057.809 647.228 L
1058.186 644.986 L
1058.551 642.275 L
1058.928 639.157 L
1059.305 636.668 L
1059.682 633.202 L
1060.048 629.437 L
1060.425 626.899 L
1060.802 623.092 L
1061.179 619.541 L
1061.545 616.184 L
1061.922 611.625 L
1062.299 607.57 L
1062.676 603.904 L
1063.053 598.445 L
1063.419 593.626 L
1063.796 590.097 L
1064.173 584.702 L
1064.55 579.822 L
1064.915 575.614 L
1065.292 570.291 L
1065.67 564.992 L
1066.047 560.904 L
1066.412 554.843 L
1066.789 549.348 L
1067.166 545.201 L
1067.543 539.21 L
1067.92 533.425 L
1068.286 528.684 L
1068.663 522.512 L
1069.04 516.387 L
1069.417 512.075 L
1069.783 505.765 L
1070.16 499.779 L
1070.537 494.531 L
1070.914 487.76 L
1071.28 481.42 L
1071.657 477.465 L
1072.034 470.652 L
1072.411 464.866 L
1072.788 460.342 L
1073.153 454.784 L
1073.531 449.908 L
1073.907 445.028 L
1074.285 439.052 L
1074.65 433.489 L
1075.027 428.626 L
1075.404 422.529 L
1075.781 416.56 L
1076.147 412.394 L
1076.524 406.536 L
1076.901 400.647 L
1077.278 396.241 L
1077.655 390.677 L
1078.021 385.66 L
1078.398 382.309 L
1078.775 377.333 L
1079.152 372.784 L
1079.518 368.556 L
1079.895 363.809 L
1080.272 358.953 L
1080.649 354.887 L
1081.014 349.055 L
1081.391 344.567 L
1081.768 340.299 L
1082.146 335.588 L
1082.511 330.966 L
1082.888 326.881 L
1083.265 321.713 L
1083.642 318.121 L
1084.019 315.317 L
1084.385 311.188 L
1084.762 308.256 L
1085.139 305.114 L
1085.516 300.579 L
1085.882 295.939 L
1086.259 292.216 L
1086.636 287.76 L
1087.013 284.353 L
1087.379 281.845 L
1087.756 278.948 L
1088.133 275.916 L
1088.51 273.222 L
1088.887 270.783 L
1089.252 268.019 L
1089.629 265.621 L
1090.006 263.848 L
1090.384 260.916 L
1090.749 258.442 L
1091.126 256.067 L
1091.503 253.294 L
1091.88 250.592 L
1092.246 247.971 L
1092.623 245.915 L
1093 244.266 L
1093.149 244.253 L
S
GR
%%Trailer
%%Pages: 1
%%EOF
