%!PS-Adobe-3.0 EPSF-3.0
%%Creator: (MATLAB, The Mathworks, Inc. Version 9.0.0.341360 \(R2016a\). Operating System: Linux)
%%Title: /home/misimik/Dokumenty/Magisterka/Magisterka/Photon/Spektrometr/PrzesunieciePiku4F.eps
%%CreationDate: 2017-09-22T15:56:58
%%Pages: (atend)
%%BoundingBox: 0 0 906 566
%%LanguageLevel: 3
%%EndComments
%%BeginProlog
%%BeginResource: procset (Apache XML Graphics Std ProcSet) 1.2 0
%%Version: 1.2 0
%%Copyright: (Copyright 2001-2003,2010 The Apache Software Foundation. License terms: http://www.apache.org/licenses/LICENSE-2.0)
/bd{bind def}bind def
/ld{load def}bd
/GR/grestore ld
/M/moveto ld
/LJ/setlinejoin ld
/C/curveto ld
/f/fill ld
/LW/setlinewidth ld
/GC/setgray ld
/t/show ld
/N/newpath ld
/CT/concat ld
/cp/closepath ld
/S/stroke ld
/L/lineto ld
/CC/setcmykcolor ld
/A/ashow ld
/GS/gsave ld
/RC/setrgbcolor ld
/RM/rmoveto ld
/ML/setmiterlimit ld
/re {4 2 roll M
1 index 0 rlineto
0 exch rlineto
neg 0 rlineto
cp } bd
/_ctm matrix def
/_tm matrix def
/BT { _ctm currentmatrix pop matrix _tm copy pop 0 0 moveto } bd
/ET { _ctm setmatrix } bd
/iTm { _ctm setmatrix _tm concat } bd
/Tm { _tm astore pop iTm 0 0 moveto } bd
/ux 0.0 def
/uy 0.0 def
/F {
  /Tp exch def
  /Tf exch def
  Tf findfont Tp scalefont setfont
  /cf Tf def  /cs Tp def
} bd
/ULS {currentpoint /uy exch def /ux exch def} bd
/ULE {
  /Tcx currentpoint pop def
  gsave
  newpath
  cf findfont cs scalefont dup
  /FontMatrix get 0 get /Ts exch def /FontInfo get dup
  /UnderlinePosition get Ts mul /To exch def
  /UnderlineThickness get Ts mul /Tt exch def
  ux uy To add moveto  Tcx uy To add lineto
  Tt setlinewidth stroke
  grestore
} bd
/OLE {
  /Tcx currentpoint pop def
  gsave
  newpath
  cf findfont cs scalefont dup
  /FontMatrix get 0 get /Ts exch def /FontInfo get dup
  /UnderlinePosition get Ts mul /To exch def
  /UnderlineThickness get Ts mul /Tt exch def
  ux uy To add cs add moveto Tcx uy To add cs add lineto
  Tt setlinewidth stroke
  grestore
} bd
/SOE {
  /Tcx currentpoint pop def
  gsave
  newpath
  cf findfont cs scalefont dup
  /FontMatrix get 0 get /Ts exch def /FontInfo get dup
  /UnderlinePosition get Ts mul /To exch def
  /UnderlineThickness get Ts mul /Tt exch def
  ux uy To add cs 10 mul 26 idiv add moveto Tcx uy To add cs 10 mul 26 idiv add lineto
  Tt setlinewidth stroke
  grestore
} bd
/QT {
/Y22 exch store
/X22 exch store
/Y21 exch store
/X21 exch store
currentpoint
/Y21 load 2 mul add 3 div exch
/X21 load 2 mul add 3 div exch
/X21 load 2 mul /X22 load add 3 div
/Y21 load 2 mul /Y22 load add 3 div
/X22 load /Y22 load curveto
} bd
/SSPD {
dup length /d exch dict def
{
/v exch def
/k exch def
currentpagedevice k known {
/cpdv currentpagedevice k get def
v cpdv ne {
/upd false def
/nullv v type /nulltype eq def
/nullcpdv cpdv type /nulltype eq def
nullv nullcpdv or
{
/upd true def
} {
/sametype v type cpdv type eq def
sametype {
v type /arraytype eq {
/vlen v length def
/cpdvlen cpdv length def
vlen cpdvlen eq {
0 1 vlen 1 sub {
/i exch def
/obj v i get def
/cpdobj cpdv i get def
obj cpdobj ne {
/upd true def
exit
} if
} for
} {
/upd true def
} ifelse
} {
v type /dicttype eq {
v {
/dv exch def
/dk exch def
/cpddv cpdv dk get def
dv cpddv ne {
/upd true def
exit
} if
} forall
} {
/upd true def
} ifelse
} ifelse
} if
} ifelse
upd true eq {
d k v put
} if
} if
} if
} forall
d length 0 gt {
d setpagedevice
} if
} bd
%%EndResource
%%BeginResource: procset (Apache XML Graphics EPS ProcSet) 1.0 0
%%Version: 1.0 0
%%Copyright: (Copyright 2002-2003 The Apache Software Foundation. License terms: http://www.apache.org/licenses/LICENSE-2.0)
/BeginEPSF { %def
/b4_Inc_state save def         % Save state for cleanup
/dict_count countdictstack def % Count objects on dict stack
/op_count count 1 sub def      % Count objects on operand stack
userdict begin                 % Push userdict on dict stack
/showpage { } def              % Redefine showpage, { } = null proc
0 setgray 0 setlinecap         % Prepare graphics state
1 setlinewidth 0 setlinejoin
10 setmiterlimit [ ] 0 setdash newpath
/languagelevel where           % If level not equal to 1 then
{pop languagelevel             % set strokeadjust and
1 ne                           % overprint to their defaults.
{false setstrokeadjust false setoverprint
} if
} if
} bd
/EndEPSF { %def
count op_count sub {pop} repeat            % Clean up stacks
countdictstack dict_count sub {end} repeat
b4_Inc_state restore
} bd
%%EndResource
%FOPBeginFontDict
%%IncludeResource: font Courier-Bold
%%IncludeResource: font Helvetica
%%IncludeResource: font Courier-BoldOblique
%%IncludeResource: font Courier-Oblique
%%IncludeResource: font Times-Roman
%%IncludeResource: font Helvetica-BoldOblique
%%IncludeResource: font Helvetica-Bold
%%IncludeResource: font Helvetica-Oblique
%%IncludeResource: font Times-BoldItalic
%%IncludeResource: font Courier
%%IncludeResource: font Times-Italic
%%IncludeResource: font Times-Bold
%%IncludeResource: font Symbol
%%IncludeResource: font ZapfDingbats
%FOPEndFontDict
%%BeginResource: encoding WinAnsiEncoding
/WinAnsiEncoding [
/.notdef /.notdef /.notdef /.notdef /.notdef
/.notdef /.notdef /.notdef /.notdef /.notdef
/.notdef /.notdef /.notdef /.notdef /.notdef
/.notdef /.notdef /.notdef /.notdef /.notdef
/.notdef /.notdef /.notdef /.notdef /.notdef
/.notdef /.notdef /.notdef /.notdef /.notdef
/.notdef /.notdef /space /exclam /quotedbl
/numbersign /dollar /percent /ampersand /quotesingle
/parenleft /parenright /asterisk /plus /comma
/hyphen /period /slash /zero /one
/two /three /four /five /six
/seven /eight /nine /colon /semicolon
/less /equal /greater /question /at
/A /B /C /D /E
/F /G /H /I /J
/K /L /M /N /O
/P /Q /R /S /T
/U /V /W /X /Y
/Z /bracketleft /backslash /bracketright /asciicircum
/underscore /quoteleft /a /b /c
/d /e /f /g /h
/i /j /k /l /m
/n /o /p /q /r
/s /t /u /v /w
/x /y /z /braceleft /bar
/braceright /asciitilde /bullet /Euro /bullet
/quotesinglbase /florin /quotedblbase /ellipsis /dagger
/daggerdbl /circumflex /perthousand /Scaron /guilsinglleft
/OE /bullet /Zcaron /bullet /bullet
/quoteleft /quoteright /quotedblleft /quotedblright /bullet
/endash /emdash /asciitilde /trademark /scaron
/guilsinglright /oe /bullet /zcaron /Ydieresis
/space /exclamdown /cent /sterling /currency
/yen /brokenbar /section /dieresis /copyright
/ordfeminine /guillemotleft /logicalnot /sfthyphen /registered
/macron /degree /plusminus /twosuperior /threesuperior
/acute /mu /paragraph /middot /cedilla
/onesuperior /ordmasculine /guillemotright /onequarter /onehalf
/threequarters /questiondown /Agrave /Aacute /Acircumflex
/Atilde /Adieresis /Aring /AE /Ccedilla
/Egrave /Eacute /Ecircumflex /Edieresis /Igrave
/Iacute /Icircumflex /Idieresis /Eth /Ntilde
/Ograve /Oacute /Ocircumflex /Otilde /Odieresis
/multiply /Oslash /Ugrave /Uacute /Ucircumflex
/Udieresis /Yacute /Thorn /germandbls /agrave
/aacute /acircumflex /atilde /adieresis /aring
/ae /ccedilla /egrave /eacute /ecircumflex
/edieresis /igrave /iacute /icircumflex /idieresis
/eth /ntilde /ograve /oacute /ocircumflex
/otilde /odieresis /divide /oslash /ugrave
/uacute /ucircumflex /udieresis /yacute /thorn
/ydieresis
] def
%%EndResource
%FOPBeginFontReencode
/Courier-Bold findfont
dup length dict begin
  {1 index /FID ne {def} {pop pop} ifelse} forall
  /Encoding WinAnsiEncoding def
  currentdict
end
/Courier-Bold exch definefont pop
/Helvetica findfont
dup length dict begin
  {1 index /FID ne {def} {pop pop} ifelse} forall
  /Encoding WinAnsiEncoding def
  currentdict
end
/Helvetica exch definefont pop
/Courier-BoldOblique findfont
dup length dict begin
  {1 index /FID ne {def} {pop pop} ifelse} forall
  /Encoding WinAnsiEncoding def
  currentdict
end
/Courier-BoldOblique exch definefont pop
/Courier-Oblique findfont
dup length dict begin
  {1 index /FID ne {def} {pop pop} ifelse} forall
  /Encoding WinAnsiEncoding def
  currentdict
end
/Courier-Oblique exch definefont pop
/Times-Roman findfont
dup length dict begin
  {1 index /FID ne {def} {pop pop} ifelse} forall
  /Encoding WinAnsiEncoding def
  currentdict
end
/Times-Roman exch definefont pop
/Helvetica-BoldOblique findfont
dup length dict begin
  {1 index /FID ne {def} {pop pop} ifelse} forall
  /Encoding WinAnsiEncoding def
  currentdict
end
/Helvetica-BoldOblique exch definefont pop
/Helvetica-Bold findfont
dup length dict begin
  {1 index /FID ne {def} {pop pop} ifelse} forall
  /Encoding WinAnsiEncoding def
  currentdict
end
/Helvetica-Bold exch definefont pop
/Helvetica-Oblique findfont
dup length dict begin
  {1 index /FID ne {def} {pop pop} ifelse} forall
  /Encoding WinAnsiEncoding def
  currentdict
end
/Helvetica-Oblique exch definefont pop
/Times-BoldItalic findfont
dup length dict begin
  {1 index /FID ne {def} {pop pop} ifelse} forall
  /Encoding WinAnsiEncoding def
  currentdict
end
/Times-BoldItalic exch definefont pop
/Courier findfont
dup length dict begin
  {1 index /FID ne {def} {pop pop} ifelse} forall
  /Encoding WinAnsiEncoding def
  currentdict
end
/Courier exch definefont pop
/Times-Italic findfont
dup length dict begin
  {1 index /FID ne {def} {pop pop} ifelse} forall
  /Encoding WinAnsiEncoding def
  currentdict
end
/Times-Italic exch definefont pop
/Times-Bold findfont
dup length dict begin
  {1 index /FID ne {def} {pop pop} ifelse} forall
  /Encoding WinAnsiEncoding def
  currentdict
end
/Times-Bold exch definefont pop
%FOPEndFontReencode
%%EndProlog
%%Page: 1 1
%%PageBoundingBox: 0 0 906 566
%%BeginPageSetup
[1 0 0 -1 0 566] CT
%%EndPageSetup
GS
[0.75 0 0 0.75 0 0.5] CT
1 GC
N
0 0 1208 754 re
f
GR
GS
[0.75 0 0 0.75 0 0.5] CT
1 GC
N
0 0 1208 754 re
f
GR
GS
[0.75 0 0 0.75 0 0.5] CT
1 GC
N
157.021 671 M
1093 671 L
1093 57 L
157.021 57 L
cp
f
GR
GS
[0.75 0 0 0.75 0 0.5] CT
0.149 GC
2 setlinecap
1 LJ
0.667 LW
N
157.021 671 M
1093 671 L
S
GR
GS
[0.75 0 0 0.75 0 0.5] CT
0.149 GC
2 setlinecap
1 LJ
0.667 LW
N
242.091 671 M
242.091 661.64 L
S
GR
GS
[0.75 0 0 0.75 0 0.5] CT
0.149 GC
2 setlinecap
1 LJ
0.667 LW
N
454.818 671 M
454.818 661.64 L
S
GR
GS
[0.75 0 0 0.75 0 0.5] CT
0.149 GC
2 setlinecap
1 LJ
0.667 LW
N
667.545 671 M
667.545 661.64 L
S
GR
GS
[0.75 0 0 0.75 0 0.5] CT
0.149 GC
2 setlinecap
1 LJ
0.667 LW
N
880.273 671 M
880.273 661.64 L
S
GR
GS
[0.75 0 0 0.75 0 0.5] CT
0.149 GC
2 setlinecap
1 LJ
0.667 LW
N
1093 671 M
1093 661.64 L
S
GR
GS
[0.75 0 0 0.75 181.56818 509.35001] CT
0.149 GC
/Helvetica 24 F
GS
[1 0 0 1 0 0] CT
-31 23 moveto 
1 -1 scale
(1554) t 
GR
GR
GS
[0.75 0 0 0.75 341.11363 509.35001] CT
0.149 GC
/Helvetica 24 F
GS
[1 0 0 1 0 0] CT
-42 23 moveto 
1 -1 scale
(1554.5) t 
GR
GR
GS
[0.75 0 0 0.75 500.6591 509.35001] CT
0.149 GC
/Helvetica 24 F
GS
[1 0 0 1 0 0] CT
-31 23 moveto 
1 -1 scale
(1555) t 
GR
GR
GS
[0.75 0 0 0.75 660.20453 509.35001] CT
0.149 GC
/Helvetica 24 F
GS
[1 0 0 1 0 0] CT
-42 23 moveto 
1 -1 scale
(1555.5) t 
GR
GR
GS
[0.75 0 0 0.75 819.75 509.35001] CT
0.149 GC
/Helvetica 24 F
GS
[1 0 0 1 0 0] CT
-31 23 moveto 
1 -1 scale
(1556) t 
GR
GR
GS
[0.75 0 0 0.75 468.75778 532.09999] CT
0.149 GC
N
-118.297 8.203 M
-118.297 24.656 L
-114.844 24.656 L
-110.469 24.656 -108.438 22.672 QT
-106.406 20.688 -106.406 16.406 QT
-106.406 12.156 -108.438 10.18 QT
-110.469 8.203 -114.844 8.203 QT
-118.297 8.203 L
cp
-121.156 5.859 M
-115.281 5.859 L
-109.125 5.859 -106.25 8.414 QT
-103.375 10.969 -103.375 16.406 QT
-103.375 21.875 -106.266 24.438 QT
-109.156 27 -115.281 27 QT
-121.156 27 L
-121.156 5.859 L
cp
-98.616 4.969 M
-96.007 4.969 L
-96.007 13.484 L
-94.241 12.219 L
-93.163 13.719 L
-96.007 15.719 L
-96.007 27 L
-98.616 27 L
-98.616 17.563 L
-100.351 18.813 L
-101.398 17.313 L
-98.616 15.313 L
-98.616 4.969 L
cp
-90.63 20.734 M
-90.63 11.141 L
-88.036 11.141 L
-88.036 20.641 L
-88.036 22.891 -87.153 24.016 QT
-86.271 25.141 -84.521 25.141 QT
-82.411 25.141 -81.185 23.797 QT
-79.958 22.453 -79.958 20.125 QT
-79.958 11.141 L
-77.349 11.141 L
-77.349 27 L
-79.958 27 L
-79.958 24.563 L
-80.911 26.016 -82.161 26.711 QT
-83.411 27.406 -85.068 27.406 QT
-87.802 27.406 -89.216 25.711 QT
-90.63 24.016 -90.63 20.734 QT
cp
-61.349 18.891 M
-61.349 16.047 -62.521 14.492 QT
-63.693 12.938 -65.802 12.938 QT
-67.896 12.938 -69.06 14.492 QT
-70.224 16.047 -70.224 18.891 QT
-70.224 21.703 -69.06 23.258 QT
-67.896 24.813 -65.802 24.813 QT
-63.693 24.813 -62.521 23.258 QT
-61.349 21.703 -61.349 18.891 QT
cp
-58.74 25.031 M
-58.74 29.078 -60.544 31.055 QT
-62.349 33.031 -66.052 33.031 QT
-67.427 33.031 -68.646 32.828 QT
-69.865 32.625 -71.005 32.203 QT
-71.005 29.656 L
-69.865 30.281 -68.747 30.578 QT
-67.63 30.875 -66.458 30.875 QT
-63.896 30.875 -62.622 29.539 QT
-61.349 28.203 -61.349 25.5 QT
-61.349 24.203 L
-62.161 25.609 -63.419 26.305 QT
-64.677 27 -66.443 27 QT
-69.349 27 -71.138 24.773 QT
-72.927 22.547 -72.927 18.891 QT
-72.927 15.203 -71.138 12.984 QT
-69.349 10.766 -66.443 10.766 QT
-64.677 10.766 -63.419 11.453 QT
-62.161 12.141 -61.349 13.547 QT
-61.349 11.141 L
-58.74 11.141 L
-58.74 25.031 L
cp
-47.039 12.969 M
-49.133 12.969 -50.352 14.602 QT
-51.571 16.234 -51.571 19.078 QT
-51.571 21.938 -50.36 23.57 QT
-49.149 25.203 -47.039 25.203 QT
-44.961 25.203 -43.742 23.563 QT
-42.524 21.922 -42.524 19.078 QT
-42.524 16.266 -43.742 14.617 QT
-44.961 12.969 -47.039 12.969 QT
cp
-47.039 10.766 M
-43.633 10.766 -41.696 12.969 QT
-39.758 15.172 -39.758 19.078 QT
-39.758 22.984 -41.696 25.195 QT
-43.633 27.406 -47.039 27.406 QT
-50.446 27.406 -52.383 25.195 QT
-54.321 22.984 -54.321 19.078 QT
-54.321 15.172 -52.383 12.969 QT
-50.446 10.766 -47.039 10.766 QT
cp
-27.762 3.813 M
-24.949 3.813 L
-29.559 9.125 L
-31.73 9.125 L
-27.762 3.813 L
cp
-25.137 11.609 M
-25.137 14.078 L
-26.246 13.5 -27.434 13.219 QT
-28.621 12.938 -29.902 12.938 QT
-31.84 12.938 -32.809 13.531 QT
-33.777 14.125 -33.777 15.313 QT
-33.777 16.219 -33.082 16.734 QT
-32.387 17.25 -30.293 17.719 QT
-29.402 17.922 L
-26.621 18.516 -25.457 19.602 QT
-24.293 20.688 -24.293 22.625 QT
-24.293 24.828 -26.035 26.117 QT
-27.777 27.406 -30.84 27.406 QT
-32.121 27.406 -33.504 27.164 QT
-34.887 26.922 -36.402 26.422 QT
-36.402 23.734 L
-34.965 24.484 -33.566 24.859 QT
-32.168 25.234 -30.793 25.234 QT
-28.949 25.234 -27.957 24.602 QT
-26.965 23.969 -26.965 22.828 QT
-26.965 21.766 -27.676 21.195 QT
-28.387 20.625 -30.809 20.109 QT
-31.715 19.891 L
-34.137 19.375 -35.215 18.32 QT
-36.293 17.266 -36.293 15.438 QT
-36.293 13.188 -34.707 11.977 QT
-33.121 10.766 -30.199 10.766 QT
-28.762 10.766 -27.488 10.977 QT
-26.215 11.188 -25.137 11.609 QT
cp
-8.568 11.75 M
-8.568 14.188 L
-9.662 13.578 -10.779 13.273 QT
-11.896 12.969 -13.021 12.969 QT
-15.552 12.969 -16.959 14.578 QT
-18.365 16.188 -18.365 19.078 QT
-18.365 21.984 -16.959 23.594 QT
-15.552 25.203 -13.021 25.203 QT
-11.896 25.203 -10.779 24.898 QT
-9.662 24.594 -8.568 23.984 QT
-8.568 26.391 L
-9.646 26.906 -10.818 27.156 QT
-11.99 27.406 -13.302 27.406 QT
-16.896 27.406 -19.006 25.156 QT
-21.115 22.906 -21.115 19.078 QT
-21.115 15.203 -18.982 12.984 QT
-16.849 10.766 -13.131 10.766 QT
-11.927 10.766 -10.787 11.008 QT
-9.646 11.25 -8.568 11.75 QT
cp
-11.49 3.813 M
-8.677 3.813 L
-13.287 9.125 L
-15.459 9.125 L
-11.49 3.813 L
cp
13.491 4.969 M
13.491 7.141 L
10.991 7.141 L
9.6 7.141 9.053 7.703 QT
8.506 8.266 8.506 9.734 QT
8.506 11.141 L
12.788 11.141 L
12.788 13.172 L
8.506 13.172 L
8.506 27 L
5.881 27 L
5.881 13.172 L
3.397 13.172 L
3.397 11.141 L
5.881 11.141 L
5.881 10.031 L
5.881 7.391 7.116 6.18 QT
8.35 4.969 11.022 4.969 QT
13.491 4.969 L
cp
22.982 19.031 M
19.826 19.031 18.607 19.75 QT
17.388 20.469 17.388 22.219 QT
17.388 23.594 18.302 24.414 QT
19.216 25.234 20.795 25.234 QT
22.951 25.234 24.263 23.695 QT
25.576 22.156 25.576 19.609 QT
25.576 19.031 L
22.982 19.031 L
cp
28.185 17.953 M
28.185 27 L
25.576 27 L
25.576 24.594 L
24.685 26.031 23.357 26.719 QT
22.029 27.406 20.091 27.406 QT
17.654 27.406 16.216 26.039 QT
14.779 24.672 14.779 22.391 QT
14.779 19.703 16.576 18.344 QT
18.373 16.984 21.92 16.984 QT
25.576 16.984 L
25.576 16.734 L
25.576 14.938 24.396 13.953 QT
23.216 12.969 21.076 12.969 QT
19.716 12.969 18.427 13.297 QT
17.138 13.625 15.951 14.266 QT
15.951 11.859 L
17.373 11.313 18.724 11.039 QT
20.076 10.766 21.341 10.766 QT
24.779 10.766 26.482 12.547 QT
28.185 14.328 28.185 17.953 QT
cp
33.741 4.969 M
36.351 4.969 L
36.351 27 L
33.741 27 L
33.741 4.969 L
cp
41.885 11.141 M
44.495 11.141 L
44.495 27 L
41.885 27 L
41.885 11.141 L
cp
41.885 4.969 M
44.495 4.969 L
44.495 8.266 L
41.885 8.266 L
41.885 4.969 L
cp
59.113 4.969 M
65.113 4.969 L
65.113 6.984 L
61.706 6.984 L
61.706 28.797 L
65.113 28.797 L
65.113 30.828 L
59.113 30.828 L
59.113 4.969 L
cp
83.97 17.422 M
83.97 27 L
81.361 27 L
81.361 17.516 L
81.361 15.266 80.486 14.148 QT
79.611 13.031 77.845 13.031 QT
75.736 13.031 74.517 14.375 QT
73.298 15.719 73.298 18.031 QT
73.298 27 L
70.689 27 L
70.689 11.141 L
73.298 11.141 L
73.298 13.609 L
74.236 12.172 75.502 11.469 QT
76.767 10.766 78.423 10.766 QT
81.158 10.766 82.564 12.453 QT
83.97 14.141 83.97 17.422 QT
cp
101.704 14.188 M
102.689 12.422 104.048 11.594 QT
105.408 10.766 107.251 10.766 QT
109.72 10.766 111.064 12.5 QT
112.408 14.234 112.408 17.422 QT
112.408 27 L
109.798 27 L
109.798 17.516 L
109.798 15.234 108.986 14.133 QT
108.173 13.031 106.517 13.031 QT
104.501 13.031 103.322 14.375 QT
102.142 15.719 102.142 18.031 QT
102.142 27 L
99.533 27 L
99.533 17.516 L
99.533 15.219 98.72 14.125 QT
97.908 13.031 96.22 13.031 QT
94.236 13.031 93.056 14.383 QT
91.876 15.734 91.876 18.031 QT
91.876 27 L
89.267 27 L
89.267 11.141 L
91.876 11.141 L
91.876 13.609 L
92.767 12.141 94.017 11.453 QT
95.267 10.766 96.97 10.766 QT
98.704 10.766 99.915 11.641 QT
101.126 12.516 101.704 14.188 QT
cp
124.008 4.969 M
124.008 30.828 L
117.993 30.828 L
117.993 28.797 L
121.383 28.797 L
121.383 6.984 L
117.993 6.984 L
117.993 4.969 L
124.008 4.969 L
cp
f
GR
GS
[0.75 0 0 0.75 0 0.5] CT
0.149 GC
2 setlinecap
1 LJ
0.667 LW
N
157.021 671 M
157.021 57 L
S
GR
GS
[0.75 0 0 0.75 0 0.5] CT
0.149 GC
2 setlinecap
1 LJ
0.667 LW
N
157.021 671 M
166.369 671 L
S
GR
GS
[0.75 0 0 0.75 0 0.5] CT
0.149 GC
2 setlinecap
1 LJ
0.667 LW
N
157.021 609.6 M
166.369 609.6 L
S
GR
GS
[0.75 0 0 0.75 0 0.5] CT
0.149 GC
2 setlinecap
1 LJ
0.667 LW
N
157.021 548.2 M
166.369 548.2 L
S
GR
GS
[0.75 0 0 0.75 0 0.5] CT
0.149 GC
2 setlinecap
1 LJ
0.667 LW
N
157.021 486.8 M
166.369 486.8 L
S
GR
GS
[0.75 0 0 0.75 0 0.5] CT
0.149 GC
2 setlinecap
1 LJ
0.667 LW
N
157.021 425.4 M
166.369 425.4 L
S
GR
GS
[0.75 0 0 0.75 0 0.5] CT
0.149 GC
2 setlinecap
1 LJ
0.667 LW
N
157.021 364 M
166.369 364 L
S
GR
GS
[0.75 0 0 0.75 0 0.5] CT
0.149 GC
2 setlinecap
1 LJ
0.667 LW
N
157.021 302.6 M
166.369 302.6 L
S
GR
GS
[0.75 0 0 0.75 0 0.5] CT
0.149 GC
2 setlinecap
1 LJ
0.667 LW
N
157.021 241.2 M
166.369 241.2 L
S
GR
GS
[0.75 0 0 0.75 0 0.5] CT
0.149 GC
2 setlinecap
1 LJ
0.667 LW
N
157.021 179.8 M
166.369 179.8 L
S
GR
GS
[0.75 0 0 0.75 0 0.5] CT
0.149 GC
2 setlinecap
1 LJ
0.667 LW
N
157.021 118.4 M
166.369 118.4 L
S
GR
GS
[0.75 0 0 0.75 0 0.5] CT
0.149 GC
2 setlinecap
1 LJ
0.667 LW
N
157.021 57 M
166.369 57 L
S
GR
GS
[0.75 0 0 0.75 112.15656 503.75] CT
0.149 GC
/Helvetica 24 F
GS
[1 0 0 1 0 0] CT
-16 8.5 moveto 
1 -1 scale
(0) t 
GR
GR
GS
[0.75 0 0 0.75 112.15656 457.69998] CT
0.149 GC
/Helvetica 24 F
GS
[1 0 0 1 0 0] CT
-39 8.5 moveto 
1 -1 scale
(0.1) t 
GR
GR
GS
[0.75 0 0 0.75 112.15656 411.65001] CT
0.149 GC
/Helvetica 24 F
GS
[1 0 0 1 0 0] CT
-39 8.5 moveto 
1 -1 scale
(0.2) t 
GR
GR
GS
[0.75 0 0 0.75 112.15656 365.59999] CT
0.149 GC
/Helvetica 24 F
GS
[1 0 0 1 0 0] CT
-39 8.5 moveto 
1 -1 scale
(0.3) t 
GR
GR
GS
[0.75 0 0 0.75 112.15656 319.55] CT
0.149 GC
/Helvetica 24 F
GS
[1 0 0 1 0 0] CT
-39 8.5 moveto 
1 -1 scale
(0.4) t 
GR
GR
GS
[0.75 0 0 0.75 112.15656 273.5] CT
0.149 GC
/Helvetica 24 F
GS
[1 0 0 1 0 0] CT
-39 8.5 moveto 
1 -1 scale
(0.5) t 
GR
GR
GS
[0.75 0 0 0.75 112.15656 227.44998] CT
0.149 GC
/Helvetica 24 F
GS
[1 0 0 1 0 0] CT
-39 8.5 moveto 
1 -1 scale
(0.6) t 
GR
GR
GS
[0.75 0 0 0.75 112.15656 181.40001] CT
0.149 GC
/Helvetica 24 F
GS
[1 0 0 1 0 0] CT
-39 8.5 moveto 
1 -1 scale
(0.7) t 
GR
GR
GS
[0.75 0 0 0.75 112.15656 135.34999] CT
0.149 GC
/Helvetica 24 F
GS
[1 0 0 1 0 0] CT
-39 8.5 moveto 
1 -1 scale
(0.8) t 
GR
GR
GS
[0.75 0 0 0.75 112.15656 89.30001] CT
0.149 GC
/Helvetica 24 F
GS
[1 0 0 1 0 0] CT
-39 8.5 moveto 
1 -1 scale
(0.9) t 
GR
GR
GS
[0.75 0 0 0.75 112.15656 43.25] CT
0.149 GC
/Helvetica 24 F
GS
[1 0 0 1 0 0] CT
-16 8.5 moveto 
1 -1 scale
(1) t 
GR
GR
GS
[0 -0.75 0.75 0 79.9047 273.49977] CT
0.149 GC
/Helvetica 29.333 F
GS
[1 0 0 1 0 0] CT
-68 -7 moveto 
1 -1 scale
(Moc [j.u.]) t 
GR
GR
GS
[0.75 0 0 0.75 468.75778 38.75002] CT
N
-243.063 -31.328 M
-233.078 -31.328 L
-228.625 -31.328 -226.242 -29.352 QT
-223.859 -27.375 -223.859 -23.719 QT
-223.859 -20.047 -226.242 -18.07 QT
-228.625 -16.094 -233.078 -16.094 QT
-237.047 -16.094 L
-237.047 -8 L
-243.063 -8 L
-243.063 -31.328 L
cp
-237.047 -26.969 M
-237.047 -20.453 L
-233.719 -20.453 L
-231.969 -20.453 -231.016 -21.305 QT
-230.063 -22.156 -230.063 -23.719 QT
-230.063 -25.281 -231.016 -26.125 QT
-231.969 -26.969 -233.719 -26.969 QT
-237.047 -26.969 L
cp
-206.859 -20.734 M
-207.594 -21.078 -208.32 -21.242 QT
-209.047 -21.406 -209.781 -21.406 QT
-211.938 -21.406 -213.102 -20.023 QT
-214.266 -18.641 -214.266 -16.063 QT
-214.266 -8 L
-219.859 -8 L
-219.859 -25.5 L
-214.266 -25.5 L
-214.266 -22.625 L
-213.188 -24.344 -211.789 -25.133 QT
-210.391 -25.922 -208.438 -25.922 QT
-208.156 -25.922 -207.828 -25.898 QT
-207.5 -25.875 -206.875 -25.797 QT
-206.859 -20.734 L
cp
-204.938 -25.5 M
-189.672 -25.5 L
-189.672 -21.594 L
-198.891 -12 L
-189.672 -12 L
-189.672 -8 L
-205.328 -8 L
-205.328 -11.906 L
-196.109 -21.5 L
-204.938 -21.5 L
-204.938 -25.5 L
cp
-167.984 -16.797 M
-167.984 -15.203 L
-181.063 -15.203 L
-180.859 -13.234 -179.641 -12.25 QT
-178.422 -11.266 -176.234 -11.266 QT
-174.469 -11.266 -172.617 -11.789 QT
-170.766 -12.313 -168.813 -13.375 QT
-168.813 -9.063 L
-170.797 -8.313 -172.781 -7.93 QT
-174.766 -7.547 -176.75 -7.547 QT
-181.5 -7.547 -184.133 -9.961 QT
-186.766 -12.375 -186.766 -16.734 QT
-186.766 -21.016 -184.18 -23.469 QT
-181.594 -25.922 -177.063 -25.922 QT
-172.938 -25.922 -170.461 -23.438 QT
-167.984 -20.953 -167.984 -16.797 QT
cp
-173.734 -18.656 M
-173.734 -20.25 -174.664 -21.227 QT
-175.594 -22.203 -177.094 -22.203 QT
-178.719 -22.203 -179.734 -21.289 QT
-180.75 -20.375 -181 -18.656 QT
-173.734 -18.656 L
cp
-150.078 -24.953 M
-150.078 -20.703 L
-151.875 -21.453 -153.547 -21.828 QT
-155.219 -22.203 -156.703 -22.203 QT
-158.297 -22.203 -159.07 -21.805 QT
-159.844 -21.406 -159.844 -20.578 QT
-159.844 -19.906 -159.258 -19.547 QT
-158.672 -19.188 -157.156 -19.016 QT
-156.172 -18.875 L
-151.875 -18.328 -150.391 -17.078 QT
-148.906 -15.828 -148.906 -13.156 QT
-148.906 -10.359 -150.969 -8.953 QT
-153.031 -7.547 -157.125 -7.547 QT
-158.859 -7.547 -160.711 -7.82 QT
-162.563 -8.094 -164.516 -8.641 QT
-164.516 -12.891 L
-162.844 -12.078 -161.086 -11.672 QT
-159.328 -11.266 -157.516 -11.266 QT
-155.875 -11.266 -155.047 -11.719 QT
-154.219 -12.172 -154.219 -13.063 QT
-154.219 -13.813 -154.789 -14.18 QT
-155.359 -14.547 -157.063 -14.75 QT
-158.047 -14.875 L
-161.781 -15.344 -163.281 -16.609 QT
-164.781 -17.875 -164.781 -20.453 QT
-164.781 -23.234 -162.875 -24.578 QT
-160.969 -25.922 -157.031 -25.922 QT
-155.484 -25.922 -153.781 -25.688 QT
-152.078 -25.453 -150.078 -24.953 QT
cp
-144.891 -14.813 M
-144.891 -25.5 L
-139.266 -25.5 L
-139.266 -23.75 L
-139.266 -22.328 -139.281 -20.18 QT
-139.297 -18.031 -139.297 -17.313 QT
-139.297 -15.203 -139.188 -14.273 QT
-139.078 -13.344 -138.813 -12.922 QT
-138.469 -12.375 -137.914 -12.078 QT
-137.359 -11.781 -136.641 -11.781 QT
-134.891 -11.781 -133.891 -13.125 QT
-132.891 -14.469 -132.891 -16.859 QT
-132.891 -25.5 L
-127.297 -25.5 L
-127.297 -8 L
-132.891 -8 L
-132.891 -10.531 L
-134.156 -9 -135.57 -8.273 QT
-136.984 -7.547 -138.688 -7.547 QT
-141.719 -7.547 -143.305 -9.406 QT
-144.891 -11.266 -144.891 -14.813 QT
cp
-104.328 -18.656 M
-104.328 -8 L
-109.953 -8 L
-109.953 -9.734 L
-109.953 -16.156 L
-109.953 -18.422 -110.055 -19.281 QT
-110.156 -20.141 -110.406 -20.547 QT
-110.734 -21.094 -111.297 -21.398 QT
-111.859 -21.703 -112.578 -21.703 QT
-114.328 -21.703 -115.328 -20.352 QT
-116.328 -19 -116.328 -16.609 QT
-116.328 -8 L
-121.922 -8 L
-121.922 -25.5 L
-116.328 -25.5 L
-116.328 -22.938 L
-115.063 -24.469 -113.641 -25.195 QT
-112.219 -25.922 -110.5 -25.922 QT
-107.469 -25.922 -105.898 -24.063 QT
-104.328 -22.203 -104.328 -18.656 QT
cp
-99.141 -25.5 M
-93.547 -25.5 L
-93.547 -8 L
-99.141 -8 L
-99.141 -25.5 L
cp
-99.141 -32.313 M
-93.547 -32.313 L
-93.547 -27.75 L
-99.141 -27.75 L
-99.141 -32.313 L
cp
-77.781 -8 M
-75.578 -8 L
-76.359 -6.953 -76.656 -6.383 QT
-76.953 -5.813 -76.953 -5.406 QT
-76.953 -4.797 -76.492 -4.414 QT
-76.031 -4.031 -75.266 -4.031 QT
-74.656 -4.031 -74.055 -4.148 QT
-73.453 -4.266 -72.828 -4.516 QT
-72.828 -2.078 L
-73.688 -1.906 -74.422 -1.82 QT
-75.156 -1.734 -75.797 -1.734 QT
-77.594 -1.734 -78.555 -2.453 QT
-79.516 -3.172 -79.516 -4.516 QT
-79.516 -5.344 -79.094 -6.195 QT
-78.672 -7.047 -77.781 -8 QT
cp
-70.703 -16.797 M
-70.703 -15.203 L
-83.781 -15.203 L
-83.578 -13.234 -82.359 -12.25 QT
-81.141 -11.266 -78.953 -11.266 QT
-77.188 -11.266 -75.336 -11.789 QT
-73.484 -12.313 -71.531 -13.375 QT
-71.531 -9.063 L
-73.516 -8.313 -75.5 -7.93 QT
-77.484 -7.547 -79.469 -7.547 QT
-84.219 -7.547 -86.852 -9.961 QT
-89.484 -12.375 -89.484 -16.734 QT
-89.484 -21.016 -86.898 -23.469 QT
-84.313 -25.922 -79.781 -25.922 QT
-75.656 -25.922 -73.18 -23.438 QT
-70.703 -20.953 -70.703 -16.797 QT
cp
-76.453 -18.656 M
-76.453 -20.25 -77.383 -21.227 QT
-78.313 -22.203 -79.813 -22.203 QT
-81.438 -22.203 -82.453 -21.289 QT
-83.469 -20.375 -83.719 -18.656 QT
-76.453 -18.656 L
cp
-52.328 -24.953 M
-52.328 -20.391 L
-53.469 -21.172 -54.617 -21.547 QT
-55.766 -21.922 -57 -21.922 QT
-59.344 -21.922 -60.648 -20.555 QT
-61.953 -19.188 -61.953 -16.734 QT
-61.953 -14.281 -60.648 -12.914 QT
-59.344 -11.547 -57 -11.547 QT
-55.688 -11.547 -54.508 -11.938 QT
-53.328 -12.328 -52.328 -13.094 QT
-52.328 -8.516 L
-53.641 -8.031 -54.992 -7.789 QT
-56.344 -7.547 -57.703 -7.547 QT
-62.438 -7.547 -65.109 -9.977 QT
-67.781 -12.406 -67.781 -16.734 QT
-67.781 -21.063 -65.109 -23.492 QT
-62.438 -25.922 -57.703 -25.922 QT
-56.328 -25.922 -54.992 -25.68 QT
-53.656 -25.438 -52.328 -24.953 QT
cp
-47.5 -25.5 M
-41.906 -25.5 L
-41.906 -8 L
-47.5 -8 L
-47.5 -25.5 L
cp
-47.5 -32.313 M
-41.906 -32.313 L
-41.906 -27.75 L
-47.5 -27.75 L
-47.5 -32.313 L
cp
-19.063 -16.797 M
-19.063 -15.203 L
-32.141 -15.203 L
-31.938 -13.234 -30.719 -12.25 QT
-29.5 -11.266 -27.313 -11.266 QT
-25.547 -11.266 -23.695 -11.789 QT
-21.844 -12.313 -19.891 -13.375 QT
-19.891 -9.063 L
-21.875 -8.313 -23.859 -7.93 QT
-25.844 -7.547 -27.828 -7.547 QT
-32.578 -7.547 -35.211 -9.961 QT
-37.844 -12.375 -37.844 -16.734 QT
-37.844 -21.016 -35.258 -23.469 QT
-32.672 -25.922 -28.141 -25.922 QT
-24.016 -25.922 -21.539 -23.438 QT
-19.063 -20.953 -19.063 -16.797 QT
cp
-24.813 -18.656 M
-24.813 -20.25 -25.742 -21.227 QT
-26.672 -22.203 -28.172 -22.203 QT
-29.797 -22.203 -30.813 -21.289 QT
-31.828 -20.375 -32.078 -18.656 QT
-24.813 -18.656 L
cp
-3.688 -32.313 M
1.906 -32.313 L
1.906 -19.078 L
8.344 -25.5 L
14.844 -25.5 L
6.297 -17.469 L
15.516 -8 L
8.734 -8 L
1.906 -15.297 L
1.906 -8 L
-3.688 -8 L
-3.688 -32.313 L
cp
30.594 -20.734 M
29.859 -21.078 29.133 -21.242 QT
28.406 -21.406 27.672 -21.406 QT
25.516 -21.406 24.352 -20.023 QT
23.188 -18.641 23.188 -16.063 QT
23.188 -8 L
17.594 -8 L
17.594 -25.5 L
23.188 -25.5 L
23.188 -22.625 L
24.266 -24.344 25.664 -25.133 QT
27.063 -25.922 29.016 -25.922 QT
29.297 -25.922 29.625 -25.898 QT
29.953 -25.875 30.578 -25.797 QT
30.594 -20.734 L
cp
41.219 -15.875 M
39.469 -15.875 38.586 -15.281 QT
37.703 -14.688 37.703 -13.531 QT
37.703 -12.469 38.414 -11.867 QT
39.125 -11.266 40.391 -11.266 QT
41.969 -11.266 43.047 -12.398 QT
44.125 -13.531 44.125 -15.234 QT
44.125 -15.875 L
41.219 -15.875 L
cp
49.766 -17.984 M
49.766 -8 L
44.125 -8 L
44.125 -10.594 L
43 -9 41.594 -8.273 QT
40.188 -7.547 38.172 -7.547 QT
35.453 -7.547 33.758 -9.133 QT
32.063 -10.719 32.063 -13.25 QT
32.063 -16.328 34.18 -17.766 QT
36.297 -19.203 40.828 -19.203 QT
44.125 -19.203 L
44.125 -19.641 L
44.125 -20.969 43.078 -21.586 QT
42.031 -22.203 39.813 -22.203 QT
38.016 -22.203 36.469 -21.844 QT
34.922 -21.484 33.594 -20.766 QT
33.594 -25.031 L
35.391 -25.469 37.203 -25.695 QT
39.016 -25.922 40.828 -25.922 QT
45.563 -25.922 47.664 -24.055 QT
49.766 -22.188 49.766 -17.984 QT
cp
53.406 -25.5 M
58.844 -25.5 L
61.781 -13.438 L
64.734 -25.5 L
69.406 -25.5 L
72.344 -13.563 L
75.297 -25.5 L
80.734 -25.5 L
76.125 -8 L
70.016 -8 L
67.063 -20.031 L
64.125 -8 L
58.016 -8 L
53.406 -25.5 L
cp
94.922 -8 M
97.125 -8 L
96.344 -6.953 96.047 -6.383 QT
95.75 -5.813 95.75 -5.406 QT
95.75 -4.797 96.211 -4.414 QT
96.672 -4.031 97.438 -4.031 QT
98.047 -4.031 98.648 -4.148 QT
99.25 -4.266 99.875 -4.516 QT
99.875 -2.078 L
99.016 -1.906 98.281 -1.82 QT
97.547 -1.734 96.906 -1.734 QT
95.109 -1.734 94.148 -2.453 QT
93.188 -3.172 93.188 -4.516 QT
93.188 -5.344 93.609 -6.195 QT
94.031 -7.047 94.922 -8 QT
cp
102 -16.797 M
102 -15.203 L
88.922 -15.203 L
89.125 -13.234 90.344 -12.25 QT
91.563 -11.266 93.75 -11.266 QT
95.516 -11.266 97.367 -11.789 QT
99.219 -12.313 101.172 -13.375 QT
101.172 -9.063 L
99.188 -8.313 97.203 -7.93 QT
95.219 -7.547 93.234 -7.547 QT
88.484 -7.547 85.852 -9.961 QT
83.219 -12.375 83.219 -16.734 QT
83.219 -21.016 85.805 -23.469 QT
88.391 -25.922 92.922 -25.922 QT
97.047 -25.922 99.523 -23.438 QT
102 -20.953 102 -16.797 QT
cp
96.25 -18.656 M
96.25 -20.25 95.32 -21.227 QT
94.391 -22.203 92.891 -22.203 QT
91.266 -22.203 90.25 -21.289 QT
89.234 -20.375 88.984 -18.656 QT
96.25 -18.656 L
cp
118.141 -22.938 M
118.141 -32.313 L
123.766 -32.313 L
123.766 -8 L
118.141 -8 L
118.141 -10.531 L
116.984 -8.984 115.594 -8.266 QT
114.203 -7.547 112.375 -7.547 QT
109.141 -7.547 107.063 -10.117 QT
104.984 -12.688 104.984 -16.734 QT
104.984 -20.781 107.063 -23.352 QT
109.141 -25.922 112.375 -25.922 QT
114.188 -25.922 115.586 -25.195 QT
116.984 -24.469 118.141 -22.938 QT
cp
114.453 -11.609 M
116.25 -11.609 117.195 -12.922 QT
118.141 -14.234 118.141 -16.734 QT
118.141 -19.234 117.195 -20.547 QT
116.25 -21.859 114.453 -21.859 QT
112.672 -21.859 111.727 -20.547 QT
110.781 -19.234 110.781 -16.734 QT
110.781 -14.234 111.727 -12.922 QT
112.672 -11.609 114.453 -11.609 QT
cp
128.281 -25.5 M
143.547 -25.5 L
143.547 -21.594 L
134.328 -12 L
143.547 -12 L
143.547 -8 L
127.891 -8 L
127.891 -11.906 L
137.109 -21.5 L
128.281 -21.5 L
128.281 -25.5 L
cp
147.766 -25.5 M
153.359 -25.5 L
153.359 -8 L
147.766 -8 L
147.766 -25.5 L
cp
147.766 -32.313 M
153.359 -32.313 L
153.359 -27.75 L
147.766 -27.75 L
147.766 -32.313 L
cp
175.469 -10.531 M
175.469 -1.344 L
169.875 -1.344 L
169.875 -25.5 L
175.469 -25.5 L
175.469 -22.938 L
176.625 -24.469 178.031 -25.195 QT
179.438 -25.922 181.266 -25.922 QT
184.5 -25.922 186.578 -23.352 QT
188.656 -20.781 188.656 -16.734 QT
188.656 -12.688 186.578 -10.117 QT
184.5 -7.547 181.266 -7.547 QT
179.438 -7.547 178.031 -8.273 QT
176.625 -9 175.469 -10.531 QT
cp
179.188 -21.859 M
177.391 -21.859 176.43 -20.539 QT
175.469 -19.219 175.469 -16.734 QT
175.469 -14.25 176.43 -12.93 QT
177.391 -11.609 179.188 -11.609 QT
180.984 -11.609 181.93 -12.922 QT
182.875 -14.234 182.875 -16.734 QT
182.875 -19.234 181.93 -20.547 QT
180.984 -21.859 179.188 -21.859 QT
cp
192.781 -25.5 M
198.375 -25.5 L
198.375 -8 L
192.781 -8 L
192.781 -25.5 L
cp
192.781 -32.313 M
198.375 -32.313 L
198.375 -27.75 L
192.781 -27.75 L
192.781 -32.313 L
cp
203.75 -32.313 M
209.344 -32.313 L
209.344 -19.078 L
215.781 -25.5 L
222.281 -25.5 L
213.734 -17.469 L
222.953 -8 L
216.172 -8 L
209.344 -15.297 L
209.344 -8 L
203.75 -8 L
203.75 -32.313 L
cp
224.844 -14.813 M
224.844 -25.5 L
230.469 -25.5 L
230.469 -23.75 L
230.469 -22.328 230.453 -20.18 QT
230.438 -18.031 230.438 -17.313 QT
230.438 -15.203 230.547 -14.273 QT
230.656 -13.344 230.922 -12.922 QT
231.266 -12.375 231.82 -12.078 QT
232.375 -11.781 233.094 -11.781 QT
234.844 -11.781 235.844 -13.125 QT
236.844 -14.469 236.844 -16.859 QT
236.844 -25.5 L
242.438 -25.5 L
242.438 -8 L
236.844 -8 L
236.844 -10.531 L
235.578 -9 234.164 -8.273 QT
232.75 -7.547 231.047 -7.547 QT
228.016 -7.547 226.43 -9.406 QT
224.844 -11.266 224.844 -14.813 QT
cp
f
GR
GS
[0.75 0 0 0.75 0 0.5] CT
0 0 1 RC
1 LJ
0.667 LW
N
156.346 670.638 M
157.021 670.633 L
158.683 670.61 L
160.397 670.593 L
162.11 670.593 L
163.824 670.598 L
165.486 670.543 L
167.2 670.512 L
168.914 670.481 L
170.628 670.473 L
172.342 670.429 L
174.004 670.426 L
175.718 670.369 L
177.431 670.356 L
179.145 670.324 L
180.807 670.277 L
182.521 670.224 L
184.235 670.201 L
185.949 670.166 L
187.611 670.123 L
189.325 670.092 L
191.038 670.016 L
192.752 669.967 L
194.414 669.914 L
196.128 669.851 L
197.842 669.847 L
199.556 669.769 L
201.27 669.681 L
202.932 669.596 L
204.646 669.56 L
206.359 669.538 L
208.073 669.469 L
209.735 669.383 L
211.449 669.271 L
213.163 669.204 L
214.877 669.102 L
216.539 669 L
218.253 668.977 L
219.966 668.9 L
221.68 668.815 L
223.394 668.742 L
225.056 668.657 L
226.77 668.574 L
228.484 668.489 L
230.198 668.375 L
231.86 668.332 L
233.574 668.158 L
235.287 668.058 L
237.001 667.93 L
238.663 667.822 L
240.377 667.715 L
242.091 667.583 L
243.805 667.468 L
245.519 667.295 L
247.181 667.194 L
248.894 667.008 L
250.608 666.935 L
252.322 666.762 L
253.984 666.508 L
255.698 666.271 L
257.412 666.075 L
259.126 665.931 L
260.788 665.702 L
262.501 665.442 L
264.215 665.185 L
265.929 664.998 L
267.643 664.667 L
269.305 664.374 L
271.019 664.043 L
272.733 663.809 L
274.447 663.522 L
276.109 663.109 L
277.822 662.789 L
279.536 662.477 L
281.25 662.14 L
282.912 661.623 L
284.626 661.18 L
286.34 660.809 L
288.054 660.441 L
289.768 659.851 L
291.43 659.311 L
293.143 658.817 L
294.857 658.361 L
296.571 657.815 L
298.233 657.254 L
299.947 656.815 L
301.661 656.155 L
303.375 655.608 L
305.037 655.057 L
306.75 654.363 L
308.464 653.656 L
310.178 652.984 L
311.84 652.421 L
313.554 651.755 L
315.268 650.98 L
316.982 650.265 L
318.696 649.698 L
320.358 649.025 L
322.071 648.244 L
323.785 647.419 L
325.499 646.747 L
327.161 645.974 L
328.875 645.089 L
330.589 644.243 L
332.303 643.444 L
333.965 642.668 L
335.678 641.633 L
337.392 640.62 L
339.106 639.845 L
340.82 638.867 L
342.482 637.708 L
344.196 636.689 L
345.91 635.796 L
347.624 634.814 L
349.286 633.563 L
350.999 632.421 L
352.713 631.281 L
354.427 629.99 L
356.089 628.597 L
357.803 627.276 L
359.517 626.081 L
361.231 624.752 L
362.945 623.168 L
364.606 621.521 L
366.32 620.18 L
368.034 618.814 L
369.748 616.92 L
371.41 615.074 L
373.124 613.514 L
374.838 611.371 L
376.552 609.287 L
378.214 607.672 L
379.927 605.546 L
381.641 603.163 L
383.355 600.953 L
385.069 599.177 L
386.731 597.315 L
388.445 594.822 L
390.159 592.357 L
391.873 590.264 L
393.534 588.153 L
395.248 585.685 L
396.962 583.248 L
398.676 581.086 L
400.338 578.594 L
402.052 575.385 L
403.766 572.64 L
405.48 570.358 L
407.142 567.908 L
408.855 564.959 L
410.569 562.252 L
412.283 559.981 L
413.997 557.155 L
415.659 553.71 L
417.373 550.654 L
419.087 548.259 L
420.801 545.594 L
422.462 542.322 L
424.176 539.278 L
425.89 536.645 L
427.604 533.64 L
429.266 530.037 L
430.98 526.583 L
432.694 523.707 L
434.408 520.37 L
436.121 516.323 L
437.783 512.568 L
439.497 509.467 L
441.211 506.458 L
442.925 502.669 L
444.587 498.857 L
446.301 495.575 L
448.015 490.848 L
449.729 486.508 L
451.39 482.647 L
453.104 478.576 L
454.818 473.458 L
456.532 468.887 L
458.246 465.196 L
459.908 461.235 L
461.622 456.561 L
463.336 452.085 L
465.049 448.55 L
466.711 444.524 L
468.425 439.768 L
470.139 435.332 L
471.853 431.687 L
473.515 427.261 L
475.229 421.782 L
476.943 416.76 L
478.657 412.969 L
480.37 408.523 L
482.032 402.84 L
483.746 397.086 L
485.46 392.437 L
487.174 387.292 L
488.836 381.378 L
490.55 375.973 L
492.264 371.481 L
493.977 366.84 L
495.639 362.111 L
497.353 358.076 L
499.067 354.886 L
500.781 350.741 L
502.495 345.068 L
504.157 338.978 L
505.871 334.059 L
507.585 328.989 L
509.298 323.024 L
510.96 317.595 L
512.674 313.4 L
514.388 307.972 L
516.102 302.975 L
517.764 298.871 L
519.478 295.074 L
521.192 290.824 L
522.905 286.768 L
524.567 282.628 L
526.281 278.349 L
527.995 272.528 L
529.709 267.397 L
531.423 263.659 L
533.085 258.749 L
534.799 253.246 L
536.513 248.53 L
538.226 245.002 L
539.888 240.35 L
541.602 235.14 L
543.316 230.42 L
545.03 226.47 L
546.692 221.372 L
548.406 215.045 L
550.12 209.481 L
551.833 205.534 L
553.547 200.949 L
555.209 195.484 L
556.923 190.083 L
558.637 185.417 L
560.351 180.714 L
562.013 174.925 L
563.727 170.025 L
565.44 165.585 L
567.154 161.262 L
568.816 156.263 L
570.53 151.422 L
572.244 147.475 L
573.958 143.226 L
575.672 137.807 L
577.334 133.151 L
579.048 129.021 L
580.761 124.555 L
582.475 119.568 L
584.137 116.119 L
585.851 113.507 L
587.565 109.387 L
589.279 106.323 L
590.941 103.819 L
592.655 100.81 L
594.369 97.397 L
596.082 94.191 L
597.796 91.741 L
599.458 88.908 L
601.172 85.681 L
602.886 82.543 L
604.6 80.385 L
606.262 77.725 L
607.976 75.005 L
609.689 73.01 L
611.403 71.61 L
613.065 69.955 L
614.779 68.065 L
616.493 66.388 L
618.207 65.648 L
619.869 64.843 L
621.583 63.479 L
623.297 62.189 L
625.01 61.12 L
626.724 60.846 L
628.386 60.577 L
630.1 60.219 L
631.814 59.834 L
633.528 59.312 L
635.19 58.945 L
636.904 58.474 L
638.617 57.64 L
640.331 57 L
641.993 57.808 L
643.707 59.446 L
645.421 60.658 L
647.135 61.691 L
648.849 62.351 L
650.511 63.572 L
652.225 64.601 L
653.938 66.487 L
655.652 67.829 L
657.314 68.99 L
659.028 71.144 L
660.742 73.8 L
662.456 76.537 L
664.118 78.534 L
665.832 80.076 L
667.545 82.168 L
669.259 84.122 L
670.973 86.096 L
672.635 88.483 L
674.349 91.334 L
676.063 93.33 L
677.777 95.185 L
679.439 97.224 L
681.153 99.95 L
682.866 101.875 L
684.58 103.292 L
686.242 104.973 L
687.956 107.492 L
689.67 110.187 L
691.384 113.548 L
693.098 117.639 L
694.76 121.16 L
696.473 124.251 L
698.187 127.062 L
699.901 130.341 L
701.563 133.661 L
703.277 136.35 L
704.991 139.394 L
706.705 143.535 L
708.367 147.2 L
710.081 149.961 L
711.794 153.513 L
713.508 157.721 L
715.222 162.183 L
716.884 167.012 L
718.598 172.388 L
720.312 176.992 L
722.026 180.768 L
723.688 184.802 L
725.401 190.34 L
727.115 195.436 L
728.829 199.074 L
730.491 203.133 L
732.205 208.231 L
733.919 213.187 L
735.633 217.029 L
737.295 222.188 L
739.009 228.207 L
740.722 232.793 L
742.436 237.16 L
744.15 242.841 L
745.812 248.661 L
747.526 252.894 L
749.24 257.6 L
750.954 263.242 L
752.616 268.111 L
754.329 272.448 L
756.043 277.257 L
757.757 282.752 L
759.419 287.541 L
761.133 292.038 L
762.847 298.432 L
764.561 304.517 L
766.275 309.076 L
767.937 314.211 L
769.65 320.884 L
771.364 326.808 L
773.078 331.359 L
774.74 336.393 L
776.454 342.024 L
778.168 347.024 L
779.882 351.797 L
781.544 358.29 L
783.257 363.73 L
784.971 368.009 L
786.685 372.662 L
788.399 378.125 L
790.061 382.934 L
791.775 387.083 L
793.489 391.748 L
795.203 397.486 L
796.865 402.528 L
798.578 406.577 L
800.292 410.619 L
802.006 415.561 L
803.668 420.046 L
805.382 423.794 L
807.096 428.558 L
808.81 433.016 L
810.523 436.576 L
812.185 440.652 L
813.899 445.201 L
815.613 449.413 L
817.327 453.205 L
818.989 457.127 L
820.703 461.431 L
822.417 465.52 L
824.131 468.765 L
825.793 472.448 L
827.506 476.725 L
829.22 480.776 L
830.934 483.975 L
832.596 488.142 L
834.31 492.301 L
836.024 495.835 L
837.738 499.508 L
839.452 503.786 L
841.113 507.855 L
842.827 511.184 L
844.541 514.885 L
846.255 518.867 L
847.917 522.203 L
849.631 524.735 L
851.345 528.047 L
853.059 531.268 L
854.721 533.912 L
856.434 536.821 L
858.148 540.479 L
859.862 544.171 L
861.576 546.856 L
863.238 549.508 L
864.952 552.599 L
866.666 555.438 L
868.38 557.668 L
870.041 560.321 L
871.755 563.285 L
873.469 565.953 L
875.183 567.847 L
876.845 570.492 L
878.559 573.081 L
880.273 575.164 L
881.987 577.549 L
883.7 580.019 L
885.362 582.219 L
887.076 584.13 L
888.79 586.354 L
890.504 588.898 L
892.166 591.157 L
893.88 592.904 L
895.594 594.925 L
897.308 597.359 L
898.969 599.432 L
900.683 600.954 L
902.397 603.063 L
904.111 604.976 L
905.825 606.455 L
907.487 608.225 L
909.201 610.214 L
910.915 612.041 L
912.628 613.493 L
914.29 615.196 L
916.004 617.139 L
917.718 618.887 L
919.432 620.338 L
921.094 621.976 L
922.808 623.658 L
924.522 625.125 L
926.236 626.403 L
927.949 627.944 L
929.611 629.284 L
931.325 630.342 L
933.039 631.608 L
934.753 633.041 L
936.415 634.373 L
938.129 635.364 L
939.843 636.54 L
941.556 637.795 L
943.218 638.91 L
944.932 639.802 L
946.646 641.005 L
948.36 642.017 L
950.022 642.816 L
951.736 643.699 L
953.45 644.591 L
955.164 645.48 L
956.877 646.212 L
958.539 647.001 L
960.253 647.844 L
961.967 648.662 L
963.681 649.352 L
965.343 649.961 L
967.057 650.77 L
968.771 651.464 L
970.484 652.025 L
972.146 652.684 L
973.86 653.302 L
975.574 653.764 L
977.288 654.317 L
979.002 654.926 L
980.664 655.441 L
982.378 655.891 L
984.092 656.353 L
985.805 656.898 L
987.467 657.414 L
989.181 657.768 L
990.895 658.197 L
992.609 658.707 L
994.271 659.127 L
995.985 659.494 L
997.699 659.922 L
999.412 660.336 L
1001.126 660.687 L
1002.788 661.056 L
1004.502 661.497 L
1006.216 661.884 L
1007.93 662.19 L
1009.592 662.513 L
1011.306 662.871 L
1013.02 663.162 L
1014.733 663.473 L
1016.395 663.796 L
1018.109 664.111 L
1019.823 664.33 L
1021.537 664.64 L
1023.251 664.914 L
1024.913 665.227 L
1026.627 665.453 L
1028.34 665.658 L
1030.054 665.884 L
1031.716 666.178 L
1033.43 666.348 L
1035.144 666.505 L
1036.858 666.702 L
1038.52 666.944 L
1040.234 667.1 L
1041.948 667.283 L
1043.661 667.433 L
1045.323 667.562 L
1047.037 667.755 L
1048.751 667.839 L
1050.465 667.97 L
1052.179 668.079 L
1053.841 668.188 L
1055.555 668.316 L
1057.268 668.458 L
1058.982 668.541 L
1060.644 668.617 L
1062.358 668.7 L
1064.072 668.816 L
1065.786 668.916 L
1067.448 668.992 L
1069.162 669.067 L
1070.875 669.161 L
1072.589 669.169 L
1074.303 669.289 L
1075.965 669.352 L
1077.679 669.418 L
1079.393 669.505 L
1081.107 669.487 L
1082.769 669.584 L
1084.483 669.623 L
1086.196 669.706 L
1087.91 669.769 L
1089.572 669.826 L
1091.286 669.874 L
1093 669.947 L
1093.675 669.97 L
S
GR
GS
[0.75 0 0 0.75 0 0.5] CT
1 0 0 RC
1 LJ
0.667 LW
N
156.346 670.27 M
157.021 670.268 L
158.683 670.248 L
160.397 670.229 L
162.11 670.177 L
163.824 670.098 L
165.486 670.108 L
167.2 670.073 L
168.914 670.073 L
170.628 670.027 L
172.342 669.979 L
174.004 669.931 L
175.718 669.87 L
177.431 669.803 L
179.145 669.769 L
180.807 669.702 L
182.521 669.719 L
184.235 669.605 L
185.949 669.573 L
187.611 669.486 L
189.325 669.369 L
191.038 669.295 L
192.752 669.235 L
194.414 669.16 L
196.128 669.082 L
197.842 668.992 L
199.556 668.917 L
201.27 668.769 L
202.932 668.647 L
204.646 668.556 L
206.359 668.465 L
208.073 668.261 L
209.735 668.104 L
211.449 668.001 L
213.163 667.912 L
214.877 667.747 L
216.539 667.606 L
218.253 667.474 L
219.966 667.337 L
221.68 667.147 L
223.394 666.963 L
225.056 666.752 L
226.77 666.588 L
228.484 666.336 L
230.198 666.139 L
231.86 665.985 L
233.574 665.777 L
235.287 665.497 L
237.001 665.271 L
238.663 665.092 L
240.377 664.864 L
242.091 664.566 L
243.805 664.323 L
245.519 664.102 L
247.181 663.843 L
248.894 663.541 L
250.608 663.294 L
252.322 662.957 L
253.984 662.684 L
255.698 662.321 L
257.412 661.976 L
259.126 661.679 L
260.788 661.383 L
262.501 661.025 L
264.215 660.668 L
265.929 660.376 L
267.643 659.993 L
269.305 659.606 L
271.019 659.109 L
272.733 658.729 L
274.447 658.321 L
276.109 657.854 L
277.822 657.312 L
279.536 656.905 L
281.25 656.422 L
282.912 655.801 L
284.626 655.232 L
286.34 654.749 L
288.054 654.096 L
289.768 653.305 L
291.43 652.583 L
293.143 652.028 L
294.857 651.331 L
296.571 650.452 L
298.233 649.606 L
299.947 648.971 L
301.661 647.906 L
303.375 647.007 L
305.037 646.089 L
306.75 645.176 L
308.464 644.012 L
310.178 642.909 L
311.84 642.044 L
313.554 640.92 L
315.268 639.644 L
316.982 638.327 L
318.696 637.39 L
320.358 636.279 L
322.071 634.888 L
323.785 633.53 L
325.499 632.512 L
327.161 631.23 L
328.875 629.714 L
330.589 628.211 L
332.303 626.912 L
333.965 625.531 L
335.678 623.895 L
337.392 622.278 L
339.106 621.137 L
340.82 619.748 L
342.482 618.032 L
344.196 616.482 L
345.91 615.279 L
347.624 613.761 L
349.286 612.071 L
350.999 610.454 L
352.713 609.1 L
354.427 607.52 L
356.089 605.604 L
357.803 603.741 L
359.517 602.207 L
361.231 600.289 L
362.945 598.026 L
364.606 595.891 L
366.32 594.173 L
368.034 592.32 L
369.748 590.07 L
371.41 587.961 L
373.124 586.196 L
374.838 583.793 L
376.552 581.466 L
378.214 579.397 L
379.927 576.898 L
381.641 574.113 L
383.355 571.505 L
385.069 569.353 L
386.731 566.778 L
388.445 563.617 L
390.159 560.563 L
391.873 557.974 L
393.534 555.238 L
395.248 552.06 L
396.962 549.078 L
398.676 546.425 L
400.338 543.097 L
402.052 539.198 L
403.766 535.621 L
405.48 532.774 L
407.142 529.552 L
408.855 525.333 L
410.569 521.654 L
412.283 518.422 L
413.997 514.838 L
415.659 510.181 L
417.373 505.898 L
419.087 502.39 L
420.801 498.629 L
422.462 494.066 L
424.176 489.85 L
425.89 486.384 L
427.604 482.577 L
429.266 478.335 L
430.98 474.215 L
432.694 470.726 L
434.408 466.548 L
436.121 460.893 L
437.783 455.677 L
439.497 451.864 L
441.211 448.086 L
442.925 443.635 L
444.587 439.048 L
446.301 434.944 L
448.015 429.742 L
449.729 424.641 L
451.39 420.286 L
453.104 415.574 L
454.818 410.318 L
456.532 405.643 L
458.246 401.857 L
459.908 397.802 L
461.622 392.477 L
463.336 387.176 L
465.049 383.031 L
466.711 378.796 L
468.425 373.735 L
470.139 369.049 L
471.853 365.181 L
473.515 360.378 L
475.229 354.892 L
476.943 350.132 L
478.657 346.235 L
480.37 341.769 L
482.032 336.09 L
483.746 330.903 L
485.46 326.756 L
487.174 321.961 L
488.836 316.323 L
490.55 311.128 L
492.264 306.849 L
493.977 301.842 L
495.639 296.773 L
497.353 292.552 L
499.067 289.103 L
500.781 284.608 L
502.495 277.943 L
504.157 271.225 L
505.871 266.04 L
507.585 260.745 L
509.298 254.594 L
510.96 249.091 L
512.674 244.967 L
514.388 240.111 L
516.102 235.586 L
517.764 232.293 L
519.478 228.723 L
521.192 224.126 L
522.905 219.581 L
524.567 215.068 L
526.281 210.562 L
527.995 204.904 L
529.709 199.876 L
531.423 195.887 L
533.085 191.244 L
534.799 185.861 L
536.513 182.146 L
538.226 179.458 L
539.888 176.005 L
541.602 171.58 L
543.316 167.726 L
545.03 163.485 L
546.692 159.226 L
548.406 153.767 L
550.12 149.399 L
551.833 146.264 L
553.547 142.901 L
555.209 138.66 L
556.923 133.735 L
558.637 129.283 L
560.351 125.556 L
562.013 121.344 L
563.727 117.813 L
565.44 115.42 L
567.154 112.754 L
568.816 109.975 L
570.53 107.184 L
572.244 103.704 L
573.958 99.571 L
575.672 93.907 L
577.334 89.366 L
579.048 86.484 L
580.761 84.252 L
582.475 82.425 L
584.137 81.251 L
585.851 79.769 L
587.565 77.565 L
589.279 75.899 L
590.941 74.647 L
592.655 73.211 L
594.369 71.042 L
596.082 68.793 L
597.796 67.444 L
599.458 65.459 L
601.172 63.766 L
602.886 62.469 L
604.6 61.298 L
606.262 59.585 L
607.976 57.95 L
609.689 57.196 L
611.403 57 L
613.065 57.061 L
614.779 57.632 L
616.493 58.246 L
618.207 59.254 L
619.869 60.802 L
621.583 61.329 L
623.297 61.928 L
625.01 61.919 L
626.724 62.482 L
628.386 62.966 L
630.1 63.542 L
631.814 64.619 L
633.528 66.16 L
635.19 68.273 L
636.904 69.874 L
638.617 71.056 L
640.331 72.974 L
641.993 75.355 L
643.707 77.51 L
645.421 79.703 L
647.135 81.731 L
648.849 84.549 L
650.511 87.161 L
652.225 89.495 L
653.938 93.075 L
655.652 96.753 L
657.314 99.878 L
659.028 102.259 L
660.742 106.148 L
662.456 109.861 L
664.118 112.778 L
665.832 116.314 L
667.545 120.82 L
669.259 124.671 L
670.973 127.913 L
672.635 131.681 L
674.349 135.506 L
676.063 138.666 L
677.777 141.255 L
679.439 144.462 L
681.153 148.11 L
682.866 151.593 L
684.58 154.394 L
686.242 158.177 L
687.956 162.284 L
689.67 166.055 L
691.384 170.21 L
693.098 175.63 L
694.76 180.6 L
696.473 184.645 L
698.187 188.963 L
699.901 193.371 L
701.563 197.168 L
703.277 200.521 L
704.991 204.086 L
706.705 208.748 L
708.367 213.379 L
710.081 217.059 L
711.794 222.136 L
713.508 227.675 L
715.222 232.407 L
716.884 237.627 L
718.598 243.676 L
720.312 248.612 L
722.026 252.598 L
723.688 256.567 L
725.401 261.442 L
727.115 265.891 L
728.829 269.791 L
730.491 274.089 L
732.205 279.618 L
733.919 284.506 L
735.633 288.807 L
737.295 294.514 L
739.009 299.935 L
740.722 304.401 L
742.436 309.005 L
744.15 314.403 L
745.812 319.962 L
747.526 324.411 L
749.24 329.423 L
750.954 335.035 L
752.616 340.204 L
754.329 344.539 L
756.043 349.559 L
757.757 354.941 L
759.419 359.691 L
761.133 364.242 L
762.847 370.4 L
764.561 375.682 L
766.275 380.095 L
767.937 384.852 L
769.65 390.965 L
771.364 396.601 L
773.078 400.697 L
774.74 405.249 L
776.454 410.634 L
778.168 415.578 L
779.882 419.775 L
781.544 425.368 L
783.257 430.205 L
784.971 434.272 L
786.685 438.697 L
788.399 443.986 L
790.061 448.51 L
791.775 452.553 L
793.489 457.262 L
795.203 462.5 L
796.865 467.079 L
798.578 470.361 L
800.292 473.891 L
802.006 477.889 L
803.668 481.724 L
805.382 484.962 L
807.096 489.226 L
808.81 493.148 L
810.523 496.477 L
812.185 500.068 L
813.899 503.905 L
815.613 507.093 L
817.327 509.987 L
818.989 513.152 L
820.703 516.874 L
822.417 520.122 L
824.131 522.761 L
825.793 525.628 L
827.506 529.061 L
829.22 532.278 L
830.934 534.65 L
832.596 537.904 L
834.31 540.955 L
836.024 543.592 L
837.738 546.575 L
839.452 550.086 L
841.113 553.422 L
842.827 556.149 L
844.541 558.865 L
846.255 561.887 L
847.917 564.626 L
849.631 566.646 L
851.345 569.323 L
853.059 571.701 L
854.721 573.834 L
856.434 576.077 L
858.148 578.843 L
859.862 581.459 L
861.576 583.687 L
863.238 585.846 L
864.952 588.442 L
866.666 590.618 L
868.38 592.39 L
870.041 594.371 L
871.755 596.773 L
873.469 598.847 L
875.183 600.457 L
876.845 602.525 L
878.559 604.427 L
880.273 606.07 L
881.987 607.84 L
883.7 609.83 L
885.362 611.648 L
887.076 613.08 L
888.79 614.703 L
890.504 616.637 L
892.166 618.199 L
893.88 619.55 L
895.594 620.984 L
897.308 622.728 L
898.969 624.107 L
900.683 625.288 L
902.397 626.738 L
904.111 628.018 L
905.825 629.111 L
907.487 630.353 L
909.201 631.76 L
910.915 632.923 L
912.628 633.972 L
914.29 635.106 L
916.004 636.359 L
917.718 637.525 L
919.432 638.471 L
921.094 639.521 L
922.808 640.676 L
924.522 641.702 L
926.236 642.441 L
927.949 643.336 L
929.611 644.19 L
931.325 644.907 L
933.039 645.67 L
934.753 646.692 L
936.415 647.556 L
938.129 648.272 L
939.843 649.034 L
941.556 649.842 L
943.218 650.638 L
944.932 651.262 L
946.646 652.023 L
948.36 652.697 L
950.022 653.268 L
951.736 653.816 L
953.45 654.439 L
955.164 655.05 L
956.877 655.603 L
958.539 656.094 L
960.253 656.724 L
961.967 657.346 L
963.681 657.777 L
965.343 658.248 L
967.057 658.819 L
968.771 659.315 L
970.484 659.66 L
972.146 660.142 L
973.86 660.54 L
975.574 660.94 L
977.288 661.268 L
979.002 661.652 L
980.664 662.033 L
982.378 662.312 L
984.092 662.584 L
985.805 662.935 L
987.467 663.243 L
989.181 663.494 L
990.895 663.752 L
992.609 664.047 L
994.271 664.303 L
995.985 664.446 L
997.699 664.725 L
999.412 664.948 L
1001.126 665.07 L
1002.788 665.35 L
1004.502 665.594 L
1006.216 665.779 L
1007.93 665.95 L
1009.592 666.104 L
1011.306 666.286 L
1013.02 666.491 L
1014.733 666.656 L
1016.395 666.832 L
1018.109 667.036 L
1019.823 667.208 L
1021.537 667.283 L
1023.251 667.447 L
1024.913 667.596 L
1026.627 667.755 L
1028.34 667.92 L
1030.054 668.039 L
1031.716 668.131 L
1033.43 668.312 L
1035.144 668.372 L
1036.858 668.556 L
1038.52 668.693 L
1040.234 668.786 L
1041.948 668.904 L
1043.661 668.992 L
1045.323 669.113 L
1047.037 669.22 L
1048.751 669.279 L
1050.465 669.377 L
1052.179 669.398 L
1053.841 669.526 L
1055.555 669.536 L
1057.268 669.636 L
1058.982 669.674 L
1060.644 669.708 L
1062.358 669.832 L
1064.072 669.866 L
1065.786 669.962 L
1067.448 669.982 L
1069.162 670.035 L
1070.875 670.057 L
1072.589 670.095 L
1074.303 670.102 L
1075.965 670.136 L
1077.679 670.155 L
1079.393 670.193 L
1081.107 670.243 L
1082.769 670.285 L
1084.483 670.344 L
1086.196 670.332 L
1087.91 670.36 L
1089.572 670.373 L
1091.286 670.371 L
1093 670.467 L
1093.675 670.465 L
S
GR
GS
[0.75 0 0 0.75 0 0.5] CT
N
756.3 369.7 M
756.3 359.3 L
766.7 359.3 L
766.7 369.7 L
cp
f
GR
GS
[0.75 0 0 0.75 0 0.5] CT
1 1 0.863 RC
10.0 ML
1.333 LW
N
756.3 369.7 M
756.3 359.3 L
766.7 359.3 L
766.7 369.7 L
cp
S
GR
GS
[0.75 0 0 0.75 0 0.5] CT
1 1 0.933 RC
N
767.841 357.575 M
837.841 357.575 L
837.841 315.575 L
767.841 315.575 L
cp
f
GR
GS
[0.75 0 0 0.75 0 0.5] CT
0.8 GC
10.0 ML
0.667 LW
N
767.841 357.575 M
837.841 357.575 L
837.841 315.575 L
767.841 315.575 L
cp
S
GR
GS
[0.75 0 0 0.75 578.88094 265.68142] CT
/Helvetica 13.333 F
GS
[1 0 0 1 0 0] CT
0 -21 moveto 
1 -1 scale
(X: 1555) t 
GR
GR
GS
[0.75 0 0 0.75 578.88094 265.68142] CT
/Helvetica 13.333 F
GS
[1 0 0 1 0 0] CT
0 -4 moveto 
1 -1 scale
(Y: 0.4996) t 
GR
GR
GS
[0.75 0 0 0.75 0 0.5] CT
0.608 GC
N
756.82 369.18 M
756.82 359.82 L
766.18 359.82 L
766.18 369.18 L
cp
f
GR
GS
[0.75 0 0 0.75 0 0.5] CT
1 1 0.946 RC
10.0 ML
1.333 LW
N
756.3 369.7 M
756.3 359.3 L
766.7 359.3 L
766.7 369.7 L
cp
S
GR
%%Trailer
%%Pages: 1
%%EOF
