%!PS-Adobe-3.0 EPSF-3.0
%%Creator: (MATLAB, The Mathworks, Inc. Version 9.0.0.341360 \(R2016a\). Operating System: Linux)
%%Title: /home/misimik/Dokumenty/Magisterka/Magisterka/Photon/Spektrometr/RelacjaDysp10km.eps
%%CreationDate: 2017-09-25T18:30:00
%%Pages: (atend)
%%BoundingBox: 0 0 906 566
%%LanguageLevel: 3
%%EndComments
%%BeginProlog
%%BeginResource: procset (Apache XML Graphics Std ProcSet) 1.2 0
%%Version: 1.2 0
%%Copyright: (Copyright 2001-2003,2010 The Apache Software Foundation. License terms: http://www.apache.org/licenses/LICENSE-2.0)
/bd{bind def}bind def
/ld{load def}bd
/GR/grestore ld
/M/moveto ld
/LJ/setlinejoin ld
/C/curveto ld
/f/fill ld
/LW/setlinewidth ld
/GC/setgray ld
/t/show ld
/N/newpath ld
/CT/concat ld
/cp/closepath ld
/S/stroke ld
/L/lineto ld
/CC/setcmykcolor ld
/A/ashow ld
/GS/gsave ld
/RC/setrgbcolor ld
/RM/rmoveto ld
/ML/setmiterlimit ld
/re {4 2 roll M
1 index 0 rlineto
0 exch rlineto
neg 0 rlineto
cp } bd
/_ctm matrix def
/_tm matrix def
/BT { _ctm currentmatrix pop matrix _tm copy pop 0 0 moveto } bd
/ET { _ctm setmatrix } bd
/iTm { _ctm setmatrix _tm concat } bd
/Tm { _tm astore pop iTm 0 0 moveto } bd
/ux 0.0 def
/uy 0.0 def
/F {
  /Tp exch def
  /Tf exch def
  Tf findfont Tp scalefont setfont
  /cf Tf def  /cs Tp def
} bd
/ULS {currentpoint /uy exch def /ux exch def} bd
/ULE {
  /Tcx currentpoint pop def
  gsave
  newpath
  cf findfont cs scalefont dup
  /FontMatrix get 0 get /Ts exch def /FontInfo get dup
  /UnderlinePosition get Ts mul /To exch def
  /UnderlineThickness get Ts mul /Tt exch def
  ux uy To add moveto  Tcx uy To add lineto
  Tt setlinewidth stroke
  grestore
} bd
/OLE {
  /Tcx currentpoint pop def
  gsave
  newpath
  cf findfont cs scalefont dup
  /FontMatrix get 0 get /Ts exch def /FontInfo get dup
  /UnderlinePosition get Ts mul /To exch def
  /UnderlineThickness get Ts mul /Tt exch def
  ux uy To add cs add moveto Tcx uy To add cs add lineto
  Tt setlinewidth stroke
  grestore
} bd
/SOE {
  /Tcx currentpoint pop def
  gsave
  newpath
  cf findfont cs scalefont dup
  /FontMatrix get 0 get /Ts exch def /FontInfo get dup
  /UnderlinePosition get Ts mul /To exch def
  /UnderlineThickness get Ts mul /Tt exch def
  ux uy To add cs 10 mul 26 idiv add moveto Tcx uy To add cs 10 mul 26 idiv add lineto
  Tt setlinewidth stroke
  grestore
} bd
/QT {
/Y22 exch store
/X22 exch store
/Y21 exch store
/X21 exch store
currentpoint
/Y21 load 2 mul add 3 div exch
/X21 load 2 mul add 3 div exch
/X21 load 2 mul /X22 load add 3 div
/Y21 load 2 mul /Y22 load add 3 div
/X22 load /Y22 load curveto
} bd
/SSPD {
dup length /d exch dict def
{
/v exch def
/k exch def
currentpagedevice k known {
/cpdv currentpagedevice k get def
v cpdv ne {
/upd false def
/nullv v type /nulltype eq def
/nullcpdv cpdv type /nulltype eq def
nullv nullcpdv or
{
/upd true def
} {
/sametype v type cpdv type eq def
sametype {
v type /arraytype eq {
/vlen v length def
/cpdvlen cpdv length def
vlen cpdvlen eq {
0 1 vlen 1 sub {
/i exch def
/obj v i get def
/cpdobj cpdv i get def
obj cpdobj ne {
/upd true def
exit
} if
} for
} {
/upd true def
} ifelse
} {
v type /dicttype eq {
v {
/dv exch def
/dk exch def
/cpddv cpdv dk get def
dv cpddv ne {
/upd true def
exit
} if
} forall
} {
/upd true def
} ifelse
} ifelse
} if
} ifelse
upd true eq {
d k v put
} if
} if
} if
} forall
d length 0 gt {
d setpagedevice
} if
} bd
%%EndResource
%%BeginResource: procset (Apache XML Graphics EPS ProcSet) 1.0 0
%%Version: 1.0 0
%%Copyright: (Copyright 2002-2003 The Apache Software Foundation. License terms: http://www.apache.org/licenses/LICENSE-2.0)
/BeginEPSF { %def
/b4_Inc_state save def         % Save state for cleanup
/dict_count countdictstack def % Count objects on dict stack
/op_count count 1 sub def      % Count objects on operand stack
userdict begin                 % Push userdict on dict stack
/showpage { } def              % Redefine showpage, { } = null proc
0 setgray 0 setlinecap         % Prepare graphics state
1 setlinewidth 0 setlinejoin
10 setmiterlimit [ ] 0 setdash newpath
/languagelevel where           % If level not equal to 1 then
{pop languagelevel             % set strokeadjust and
1 ne                           % overprint to their defaults.
{false setstrokeadjust false setoverprint
} if
} if
} bd
/EndEPSF { %def
count op_count sub {pop} repeat            % Clean up stacks
countdictstack dict_count sub {end} repeat
b4_Inc_state restore
} bd
%%EndResource
%FOPBeginFontDict
%%IncludeResource: font Courier-Bold
%%IncludeResource: font Helvetica
%%IncludeResource: font Courier-BoldOblique
%%IncludeResource: font Courier-Oblique
%%IncludeResource: font Times-Roman
%%IncludeResource: font Helvetica-BoldOblique
%%IncludeResource: font Helvetica-Bold
%%IncludeResource: font Helvetica-Oblique
%%IncludeResource: font Times-BoldItalic
%%IncludeResource: font Courier
%%IncludeResource: font Times-Italic
%%IncludeResource: font Times-Bold
%%IncludeResource: font Symbol
%%IncludeResource: font ZapfDingbats
%FOPEndFontDict
%%BeginResource: encoding WinAnsiEncoding
/WinAnsiEncoding [
/.notdef /.notdef /.notdef /.notdef /.notdef
/.notdef /.notdef /.notdef /.notdef /.notdef
/.notdef /.notdef /.notdef /.notdef /.notdef
/.notdef /.notdef /.notdef /.notdef /.notdef
/.notdef /.notdef /.notdef /.notdef /.notdef
/.notdef /.notdef /.notdef /.notdef /.notdef
/.notdef /.notdef /space /exclam /quotedbl
/numbersign /dollar /percent /ampersand /quotesingle
/parenleft /parenright /asterisk /plus /comma
/hyphen /period /slash /zero /one
/two /three /four /five /six
/seven /eight /nine /colon /semicolon
/less /equal /greater /question /at
/A /B /C /D /E
/F /G /H /I /J
/K /L /M /N /O
/P /Q /R /S /T
/U /V /W /X /Y
/Z /bracketleft /backslash /bracketright /asciicircum
/underscore /quoteleft /a /b /c
/d /e /f /g /h
/i /j /k /l /m
/n /o /p /q /r
/s /t /u /v /w
/x /y /z /braceleft /bar
/braceright /asciitilde /bullet /Euro /bullet
/quotesinglbase /florin /quotedblbase /ellipsis /dagger
/daggerdbl /circumflex /perthousand /Scaron /guilsinglleft
/OE /bullet /Zcaron /bullet /bullet
/quoteleft /quoteright /quotedblleft /quotedblright /bullet
/endash /emdash /asciitilde /trademark /scaron
/guilsinglright /oe /bullet /zcaron /Ydieresis
/space /exclamdown /cent /sterling /currency
/yen /brokenbar /section /dieresis /copyright
/ordfeminine /guillemotleft /logicalnot /sfthyphen /registered
/macron /degree /plusminus /twosuperior /threesuperior
/acute /mu /paragraph /middot /cedilla
/onesuperior /ordmasculine /guillemotright /onequarter /onehalf
/threequarters /questiondown /Agrave /Aacute /Acircumflex
/Atilde /Adieresis /Aring /AE /Ccedilla
/Egrave /Eacute /Ecircumflex /Edieresis /Igrave
/Iacute /Icircumflex /Idieresis /Eth /Ntilde
/Ograve /Oacute /Ocircumflex /Otilde /Odieresis
/multiply /Oslash /Ugrave /Uacute /Ucircumflex
/Udieresis /Yacute /Thorn /germandbls /agrave
/aacute /acircumflex /atilde /adieresis /aring
/ae /ccedilla /egrave /eacute /ecircumflex
/edieresis /igrave /iacute /icircumflex /idieresis
/eth /ntilde /ograve /oacute /ocircumflex
/otilde /odieresis /divide /oslash /ugrave
/uacute /ucircumflex /udieresis /yacute /thorn
/ydieresis
] def
%%EndResource
%FOPBeginFontReencode
/Courier-Bold findfont
dup length dict begin
  {1 index /FID ne {def} {pop pop} ifelse} forall
  /Encoding WinAnsiEncoding def
  currentdict
end
/Courier-Bold exch definefont pop
/Helvetica findfont
dup length dict begin
  {1 index /FID ne {def} {pop pop} ifelse} forall
  /Encoding WinAnsiEncoding def
  currentdict
end
/Helvetica exch definefont pop
/Courier-BoldOblique findfont
dup length dict begin
  {1 index /FID ne {def} {pop pop} ifelse} forall
  /Encoding WinAnsiEncoding def
  currentdict
end
/Courier-BoldOblique exch definefont pop
/Courier-Oblique findfont
dup length dict begin
  {1 index /FID ne {def} {pop pop} ifelse} forall
  /Encoding WinAnsiEncoding def
  currentdict
end
/Courier-Oblique exch definefont pop
/Times-Roman findfont
dup length dict begin
  {1 index /FID ne {def} {pop pop} ifelse} forall
  /Encoding WinAnsiEncoding def
  currentdict
end
/Times-Roman exch definefont pop
/Helvetica-BoldOblique findfont
dup length dict begin
  {1 index /FID ne {def} {pop pop} ifelse} forall
  /Encoding WinAnsiEncoding def
  currentdict
end
/Helvetica-BoldOblique exch definefont pop
/Helvetica-Bold findfont
dup length dict begin
  {1 index /FID ne {def} {pop pop} ifelse} forall
  /Encoding WinAnsiEncoding def
  currentdict
end
/Helvetica-Bold exch definefont pop
/Helvetica-Oblique findfont
dup length dict begin
  {1 index /FID ne {def} {pop pop} ifelse} forall
  /Encoding WinAnsiEncoding def
  currentdict
end
/Helvetica-Oblique exch definefont pop
/Times-BoldItalic findfont
dup length dict begin
  {1 index /FID ne {def} {pop pop} ifelse} forall
  /Encoding WinAnsiEncoding def
  currentdict
end
/Times-BoldItalic exch definefont pop
/Courier findfont
dup length dict begin
  {1 index /FID ne {def} {pop pop} ifelse} forall
  /Encoding WinAnsiEncoding def
  currentdict
end
/Courier exch definefont pop
/Times-Italic findfont
dup length dict begin
  {1 index /FID ne {def} {pop pop} ifelse} forall
  /Encoding WinAnsiEncoding def
  currentdict
end
/Times-Italic exch definefont pop
/Times-Bold findfont
dup length dict begin
  {1 index /FID ne {def} {pop pop} ifelse} forall
  /Encoding WinAnsiEncoding def
  currentdict
end
/Times-Bold exch definefont pop
%FOPEndFontReencode
%%EndProlog
%%Page: 1 1
%%PageBoundingBox: 0 0 906 566
%%BeginPageSetup
[1 0 0 -1 0 566] CT
%%EndPageSetup
GS
[0.75 0 0 0.75 0 0.5] CT
1 GC
N
0 0 1208 754 re
f
GR
GS
[0.75 0 0 0.75 0 0.5] CT
1 GC
N
0 0 1208 754 re
f
GR
GS
[0.75 0 0 0.75 0 0.5] CT
1 GC
N
157 671 M
1093 671 L
1093 57 L
157 57 L
cp
f
GR
GS
[0.75 0 0 0.75 0 0.5] CT
0.873 GC
1 LJ
0.667 LW
N
157 671 M
157 57 L
S
GR
GS
[0.75 0 0 0.75 0 0.5] CT
0.873 GC
1 LJ
0.667 LW
N
290.714 671 M
290.714 57 L
S
GR
GS
[0.75 0 0 0.75 0 0.5] CT
0.873 GC
1 LJ
0.667 LW
N
424.429 671 M
424.429 57 L
S
GR
GS
[0.75 0 0 0.75 0 0.5] CT
0.873 GC
1 LJ
0.667 LW
N
558.143 671 M
558.143 57 L
S
GR
GS
[0.75 0 0 0.75 0 0.5] CT
0.873 GC
1 LJ
0.667 LW
N
691.857 671 M
691.857 57 L
S
GR
GS
[0.75 0 0 0.75 0 0.5] CT
0.873 GC
1 LJ
0.667 LW
N
825.571 671 M
825.571 57 L
S
GR
GS
[0.75 0 0 0.75 0 0.5] CT
0.873 GC
1 LJ
0.667 LW
N
959.286 671 M
959.286 57 L
S
GR
GS
[0.75 0 0 0.75 0 0.5] CT
0.873 GC
1 LJ
0.667 LW
N
1093 671 M
1093 57 L
S
GR
GS
[0.75 0 0 0.75 0 0.5] CT
0.873 GC
1 LJ
0.667 LW
N
1093 671 M
157 671 L
S
GR
GS
[0.75 0 0 0.75 0 0.5] CT
0.873 GC
1 LJ
0.667 LW
N
1093 568.667 M
157 568.667 L
S
GR
GS
[0.75 0 0 0.75 0 0.5] CT
0.873 GC
1 LJ
0.667 LW
N
1093 466.333 M
157 466.333 L
S
GR
GS
[0.75 0 0 0.75 0 0.5] CT
0.873 GC
1 LJ
0.667 LW
N
1093 364 M
157 364 L
S
GR
GS
[0.75 0 0 0.75 0 0.5] CT
0.873 GC
1 LJ
0.667 LW
N
1093 261.667 M
157 261.667 L
S
GR
GS
[0.75 0 0 0.75 0 0.5] CT
0.873 GC
1 LJ
0.667 LW
N
1093 159.333 M
157 159.333 L
S
GR
GS
[0.75 0 0 0.75 0 0.5] CT
0.873 GC
1 LJ
0.667 LW
N
1093 57 M
157 57 L
S
GR
GS
[0.75 0 0 0.75 0 0.5] CT
0.149 GC
2 setlinecap
1 LJ
0.667 LW
N
157 671 M
1093 671 L
S
GR
GS
[0.75 0 0 0.75 0 0.5] CT
0.149 GC
2 setlinecap
1 LJ
0.667 LW
N
157 57 M
1093 57 L
S
GR
GS
[0.75 0 0 0.75 0 0.5] CT
0.149 GC
2 setlinecap
1 LJ
0.667 LW
N
157 671 M
157 661.64 L
S
GR
GS
[0.75 0 0 0.75 0 0.5] CT
0.149 GC
2 setlinecap
1 LJ
0.667 LW
N
290.714 671 M
290.714 661.64 L
S
GR
GS
[0.75 0 0 0.75 0 0.5] CT
0.149 GC
2 setlinecap
1 LJ
0.667 LW
N
424.429 671 M
424.429 661.64 L
S
GR
GS
[0.75 0 0 0.75 0 0.5] CT
0.149 GC
2 setlinecap
1 LJ
0.667 LW
N
558.143 671 M
558.143 661.64 L
S
GR
GS
[0.75 0 0 0.75 0 0.5] CT
0.149 GC
2 setlinecap
1 LJ
0.667 LW
N
691.857 671 M
691.857 661.64 L
S
GR
GS
[0.75 0 0 0.75 0 0.5] CT
0.149 GC
2 setlinecap
1 LJ
0.667 LW
N
825.571 671 M
825.571 661.64 L
S
GR
GS
[0.75 0 0 0.75 0 0.5] CT
0.149 GC
2 setlinecap
1 LJ
0.667 LW
N
959.286 671 M
959.286 661.64 L
S
GR
GS
[0.75 0 0 0.75 0 0.5] CT
0.149 GC
2 setlinecap
1 LJ
0.667 LW
N
1093 671 M
1093 661.64 L
S
GR
GS
[0.75 0 0 0.75 0 0.5] CT
0.149 GC
2 setlinecap
1 LJ
0.667 LW
N
157 57 M
157 66.36 L
S
GR
GS
[0.75 0 0 0.75 0 0.5] CT
0.149 GC
2 setlinecap
1 LJ
0.667 LW
N
290.714 57 M
290.714 66.36 L
S
GR
GS
[0.75 0 0 0.75 0 0.5] CT
0.149 GC
2 setlinecap
1 LJ
0.667 LW
N
424.429 57 M
424.429 66.36 L
S
GR
GS
[0.75 0 0 0.75 0 0.5] CT
0.149 GC
2 setlinecap
1 LJ
0.667 LW
N
558.143 57 M
558.143 66.36 L
S
GR
GS
[0.75 0 0 0.75 0 0.5] CT
0.149 GC
2 setlinecap
1 LJ
0.667 LW
N
691.857 57 M
691.857 66.36 L
S
GR
GS
[0.75 0 0 0.75 0 0.5] CT
0.149 GC
2 setlinecap
1 LJ
0.667 LW
N
825.571 57 M
825.571 66.36 L
S
GR
GS
[0.75 0 0 0.75 0 0.5] CT
0.149 GC
2 setlinecap
1 LJ
0.667 LW
N
959.286 57 M
959.286 66.36 L
S
GR
GS
[0.75 0 0 0.75 0 0.5] CT
0.149 GC
2 setlinecap
1 LJ
0.667 LW
N
1093 57 M
1093 66.36 L
S
GR
GS
[0.75 0 0 0.75 117.75 509.35001] CT
0.149 GC
/Helvetica 24 F
GS
[1 0 0 1 0 0] CT
-31 23 moveto 
1 -1 scale
(1568) t 
GR
GR
GS
[0.75 0 0 0.75 218.03572 509.35001] CT
0.149 GC
/Helvetica 24 F
GS
[1 0 0 1 0 0] CT
-31 23 moveto 
1 -1 scale
(1569) t 
GR
GR
GS
[0.75 0 0 0.75 318.32142 509.35001] CT
0.149 GC
/Helvetica 24 F
GS
[1 0 0 1 0 0] CT
-31 23 moveto 
1 -1 scale
(1570) t 
GR
GR
GS
[0.75 0 0 0.75 418.60716 509.35001] CT
0.149 GC
/Helvetica 24 F
GS
[1 0 0 1 0 0] CT
-31 23 moveto 
1 -1 scale
(1571) t 
GR
GR
GS
[0.75 0 0 0.75 518.89284 509.35001] CT
0.149 GC
/Helvetica 24 F
GS
[1 0 0 1 0 0] CT
-31 23 moveto 
1 -1 scale
(1572) t 
GR
GR
GS
[0.75 0 0 0.75 619.17856 509.35001] CT
0.149 GC
/Helvetica 24 F
GS
[1 0 0 1 0 0] CT
-31 23 moveto 
1 -1 scale
(1573) t 
GR
GR
GS
[0.75 0 0 0.75 719.46428 509.35001] CT
0.149 GC
/Helvetica 24 F
GS
[1 0 0 1 0 0] CT
-31 23 moveto 
1 -1 scale
(1574) t 
GR
GR
GS
[0.75 0 0 0.75 819.75 509.35001] CT
0.149 GC
/Helvetica 24 F
GS
[1 0 0 1 0 0] CT
-31 23 moveto 
1 -1 scale
(1575) t 
GR
GR
GS
[0.75 0 0 0.75 468.75 532.09999] CT
0.149 GC
N
-118.297 8.203 M
-118.297 24.656 L
-114.844 24.656 L
-110.469 24.656 -108.438 22.672 QT
-106.406 20.688 -106.406 16.406 QT
-106.406 12.156 -108.438 10.18 QT
-110.469 8.203 -114.844 8.203 QT
-118.297 8.203 L
cp
-121.156 5.859 M
-115.281 5.859 L
-109.125 5.859 -106.25 8.414 QT
-103.375 10.969 -103.375 16.406 QT
-103.375 21.875 -106.266 24.438 QT
-109.156 27 -115.281 27 QT
-121.156 27 L
-121.156 5.859 L
cp
-98.616 4.969 M
-96.007 4.969 L
-96.007 13.484 L
-94.241 12.219 L
-93.163 13.719 L
-96.007 15.719 L
-96.007 27 L
-98.616 27 L
-98.616 17.563 L
-100.351 18.813 L
-101.398 17.313 L
-98.616 15.313 L
-98.616 4.969 L
cp
-90.63 20.734 M
-90.63 11.141 L
-88.036 11.141 L
-88.036 20.641 L
-88.036 22.891 -87.153 24.016 QT
-86.271 25.141 -84.521 25.141 QT
-82.411 25.141 -81.185 23.797 QT
-79.958 22.453 -79.958 20.125 QT
-79.958 11.141 L
-77.349 11.141 L
-77.349 27 L
-79.958 27 L
-79.958 24.563 L
-80.911 26.016 -82.161 26.711 QT
-83.411 27.406 -85.068 27.406 QT
-87.802 27.406 -89.216 25.711 QT
-90.63 24.016 -90.63 20.734 QT
cp
-61.349 18.891 M
-61.349 16.047 -62.521 14.492 QT
-63.693 12.938 -65.802 12.938 QT
-67.896 12.938 -69.06 14.492 QT
-70.224 16.047 -70.224 18.891 QT
-70.224 21.703 -69.06 23.258 QT
-67.896 24.813 -65.802 24.813 QT
-63.693 24.813 -62.521 23.258 QT
-61.349 21.703 -61.349 18.891 QT
cp
-58.74 25.031 M
-58.74 29.078 -60.544 31.055 QT
-62.349 33.031 -66.052 33.031 QT
-67.427 33.031 -68.646 32.828 QT
-69.865 32.625 -71.005 32.203 QT
-71.005 29.656 L
-69.865 30.281 -68.747 30.578 QT
-67.63 30.875 -66.458 30.875 QT
-63.896 30.875 -62.622 29.539 QT
-61.349 28.203 -61.349 25.5 QT
-61.349 24.203 L
-62.161 25.609 -63.419 26.305 QT
-64.677 27 -66.443 27 QT
-69.349 27 -71.138 24.773 QT
-72.927 22.547 -72.927 18.891 QT
-72.927 15.203 -71.138 12.984 QT
-69.349 10.766 -66.443 10.766 QT
-64.677 10.766 -63.419 11.453 QT
-62.161 12.141 -61.349 13.547 QT
-61.349 11.141 L
-58.74 11.141 L
-58.74 25.031 L
cp
-47.039 12.969 M
-49.133 12.969 -50.352 14.602 QT
-51.571 16.234 -51.571 19.078 QT
-51.571 21.938 -50.36 23.57 QT
-49.149 25.203 -47.039 25.203 QT
-44.961 25.203 -43.742 23.563 QT
-42.524 21.922 -42.524 19.078 QT
-42.524 16.266 -43.742 14.617 QT
-44.961 12.969 -47.039 12.969 QT
cp
-47.039 10.766 M
-43.633 10.766 -41.696 12.969 QT
-39.758 15.172 -39.758 19.078 QT
-39.758 22.984 -41.696 25.195 QT
-43.633 27.406 -47.039 27.406 QT
-50.446 27.406 -52.383 25.195 QT
-54.321 22.984 -54.321 19.078 QT
-54.321 15.172 -52.383 12.969 QT
-50.446 10.766 -47.039 10.766 QT
cp
-27.762 3.813 M
-24.949 3.813 L
-29.559 9.125 L
-31.73 9.125 L
-27.762 3.813 L
cp
-25.137 11.609 M
-25.137 14.078 L
-26.246 13.5 -27.434 13.219 QT
-28.621 12.938 -29.902 12.938 QT
-31.84 12.938 -32.809 13.531 QT
-33.777 14.125 -33.777 15.313 QT
-33.777 16.219 -33.082 16.734 QT
-32.387 17.25 -30.293 17.719 QT
-29.402 17.922 L
-26.621 18.516 -25.457 19.602 QT
-24.293 20.688 -24.293 22.625 QT
-24.293 24.828 -26.035 26.117 QT
-27.777 27.406 -30.84 27.406 QT
-32.121 27.406 -33.504 27.164 QT
-34.887 26.922 -36.402 26.422 QT
-36.402 23.734 L
-34.965 24.484 -33.566 24.859 QT
-32.168 25.234 -30.793 25.234 QT
-28.949 25.234 -27.957 24.602 QT
-26.965 23.969 -26.965 22.828 QT
-26.965 21.766 -27.676 21.195 QT
-28.387 20.625 -30.809 20.109 QT
-31.715 19.891 L
-34.137 19.375 -35.215 18.32 QT
-36.293 17.266 -36.293 15.438 QT
-36.293 13.188 -34.707 11.977 QT
-33.121 10.766 -30.199 10.766 QT
-28.762 10.766 -27.488 10.977 QT
-26.215 11.188 -25.137 11.609 QT
cp
-8.568 11.75 M
-8.568 14.188 L
-9.662 13.578 -10.779 13.273 QT
-11.896 12.969 -13.021 12.969 QT
-15.552 12.969 -16.959 14.578 QT
-18.365 16.188 -18.365 19.078 QT
-18.365 21.984 -16.959 23.594 QT
-15.552 25.203 -13.021 25.203 QT
-11.896 25.203 -10.779 24.898 QT
-9.662 24.594 -8.568 23.984 QT
-8.568 26.391 L
-9.646 26.906 -10.818 27.156 QT
-11.99 27.406 -13.302 27.406 QT
-16.896 27.406 -19.006 25.156 QT
-21.115 22.906 -21.115 19.078 QT
-21.115 15.203 -18.982 12.984 QT
-16.849 10.766 -13.131 10.766 QT
-11.927 10.766 -10.787 11.008 QT
-9.646 11.25 -8.568 11.75 QT
cp
-11.49 3.813 M
-8.677 3.813 L
-13.287 9.125 L
-15.459 9.125 L
-11.49 3.813 L
cp
13.491 4.969 M
13.491 7.141 L
10.991 7.141 L
9.6 7.141 9.053 7.703 QT
8.506 8.266 8.506 9.734 QT
8.506 11.141 L
12.788 11.141 L
12.788 13.172 L
8.506 13.172 L
8.506 27 L
5.881 27 L
5.881 13.172 L
3.397 13.172 L
3.397 11.141 L
5.881 11.141 L
5.881 10.031 L
5.881 7.391 7.116 6.18 QT
8.35 4.969 11.022 4.969 QT
13.491 4.969 L
cp
22.982 19.031 M
19.826 19.031 18.607 19.75 QT
17.388 20.469 17.388 22.219 QT
17.388 23.594 18.302 24.414 QT
19.216 25.234 20.795 25.234 QT
22.951 25.234 24.263 23.695 QT
25.576 22.156 25.576 19.609 QT
25.576 19.031 L
22.982 19.031 L
cp
28.185 17.953 M
28.185 27 L
25.576 27 L
25.576 24.594 L
24.685 26.031 23.357 26.719 QT
22.029 27.406 20.091 27.406 QT
17.654 27.406 16.216 26.039 QT
14.779 24.672 14.779 22.391 QT
14.779 19.703 16.576 18.344 QT
18.373 16.984 21.92 16.984 QT
25.576 16.984 L
25.576 16.734 L
25.576 14.938 24.396 13.953 QT
23.216 12.969 21.076 12.969 QT
19.716 12.969 18.427 13.297 QT
17.138 13.625 15.951 14.266 QT
15.951 11.859 L
17.373 11.313 18.724 11.039 QT
20.076 10.766 21.341 10.766 QT
24.779 10.766 26.482 12.547 QT
28.185 14.328 28.185 17.953 QT
cp
33.741 4.969 M
36.351 4.969 L
36.351 27 L
33.741 27 L
33.741 4.969 L
cp
41.885 11.141 M
44.495 11.141 L
44.495 27 L
41.885 27 L
41.885 11.141 L
cp
41.885 4.969 M
44.495 4.969 L
44.495 8.266 L
41.885 8.266 L
41.885 4.969 L
cp
59.113 4.969 M
65.113 4.969 L
65.113 6.984 L
61.706 6.984 L
61.706 28.797 L
65.113 28.797 L
65.113 30.828 L
59.113 30.828 L
59.113 4.969 L
cp
83.97 17.422 M
83.97 27 L
81.361 27 L
81.361 17.516 L
81.361 15.266 80.486 14.148 QT
79.611 13.031 77.845 13.031 QT
75.736 13.031 74.517 14.375 QT
73.298 15.719 73.298 18.031 QT
73.298 27 L
70.689 27 L
70.689 11.141 L
73.298 11.141 L
73.298 13.609 L
74.236 12.172 75.502 11.469 QT
76.767 10.766 78.423 10.766 QT
81.158 10.766 82.564 12.453 QT
83.97 14.141 83.97 17.422 QT
cp
101.704 14.188 M
102.689 12.422 104.048 11.594 QT
105.408 10.766 107.251 10.766 QT
109.72 10.766 111.064 12.5 QT
112.408 14.234 112.408 17.422 QT
112.408 27 L
109.798 27 L
109.798 17.516 L
109.798 15.234 108.986 14.133 QT
108.173 13.031 106.517 13.031 QT
104.501 13.031 103.322 14.375 QT
102.142 15.719 102.142 18.031 QT
102.142 27 L
99.533 27 L
99.533 17.516 L
99.533 15.219 98.72 14.125 QT
97.908 13.031 96.22 13.031 QT
94.236 13.031 93.056 14.383 QT
91.876 15.734 91.876 18.031 QT
91.876 27 L
89.267 27 L
89.267 11.141 L
91.876 11.141 L
91.876 13.609 L
92.767 12.141 94.017 11.453 QT
95.267 10.766 96.97 10.766 QT
98.704 10.766 99.915 11.641 QT
101.126 12.516 101.704 14.188 QT
cp
124.008 4.969 M
124.008 30.828 L
117.993 30.828 L
117.993 28.797 L
121.383 28.797 L
121.383 6.984 L
117.993 6.984 L
117.993 4.969 L
124.008 4.969 L
cp
f
GR
GS
[0.75 0 0 0.75 0 0.5] CT
0.149 GC
2 setlinecap
1 LJ
0.667 LW
N
157 671 M
157 57 L
S
GR
GS
[0.75 0 0 0.75 0 0.5] CT
0.149 GC
2 setlinecap
1 LJ
0.667 LW
N
1093 671 M
1093 57 L
S
GR
GS
[0.75 0 0 0.75 0 0.5] CT
0.149 GC
2 setlinecap
1 LJ
0.667 LW
N
157 671 M
166.353 671 L
S
GR
GS
[0.75 0 0 0.75 0 0.5] CT
0.149 GC
2 setlinecap
1 LJ
0.667 LW
N
157 568.667 M
166.353 568.667 L
S
GR
GS
[0.75 0 0 0.75 0 0.5] CT
0.149 GC
2 setlinecap
1 LJ
0.667 LW
N
157 466.333 M
166.353 466.333 L
S
GR
GS
[0.75 0 0 0.75 0 0.5] CT
0.149 GC
2 setlinecap
1 LJ
0.667 LW
N
157 364 M
166.353 364 L
S
GR
GS
[0.75 0 0 0.75 0 0.5] CT
0.149 GC
2 setlinecap
1 LJ
0.667 LW
N
157 261.667 M
166.353 261.667 L
S
GR
GS
[0.75 0 0 0.75 0 0.5] CT
0.149 GC
2 setlinecap
1 LJ
0.667 LW
N
157 159.333 M
166.353 159.333 L
S
GR
GS
[0.75 0 0 0.75 0 0.5] CT
0.149 GC
2 setlinecap
1 LJ
0.667 LW
N
157 57 M
166.353 57 L
S
GR
GS
[0.75 0 0 0.75 0 0.5] CT
0.149 GC
2 setlinecap
1 LJ
0.667 LW
N
1093 671 M
1083.647 671 L
S
GR
GS
[0.75 0 0 0.75 0 0.5] CT
0.149 GC
2 setlinecap
1 LJ
0.667 LW
N
1093 568.667 M
1083.647 568.667 L
S
GR
GS
[0.75 0 0 0.75 0 0.5] CT
0.149 GC
2 setlinecap
1 LJ
0.667 LW
N
1093 466.333 M
1083.647 466.333 L
S
GR
GS
[0.75 0 0 0.75 0 0.5] CT
0.149 GC
2 setlinecap
1 LJ
0.667 LW
N
1093 364 M
1083.647 364 L
S
GR
GS
[0.75 0 0 0.75 0 0.5] CT
0.149 GC
2 setlinecap
1 LJ
0.667 LW
N
1093 261.667 M
1083.647 261.667 L
S
GR
GS
[0.75 0 0 0.75 0 0.5] CT
0.149 GC
2 setlinecap
1 LJ
0.667 LW
N
1093 159.333 M
1083.647 159.333 L
S
GR
GS
[0.75 0 0 0.75 0 0.5] CT
0.149 GC
2 setlinecap
1 LJ
0.667 LW
N
1093 57 M
1083.647 57 L
S
GR
GS
[0.75 0 0 0.75 112.15545 503.75] CT
0.149 GC
/Helvetica 24 F
GS
[1 0 0 1 0 0] CT
-70 8.5 moveto 
1 -1 scale
(-1000) t 
GR
GR
GS
[0.75 0 0 0.75 112.15545 427.00002] CT
0.149 GC
/Helvetica 24 F
GS
[1 0 0 1 0 0] CT
-55 8.5 moveto 
1 -1 scale
(-500) t 
GR
GR
GS
[0.75 0 0 0.75 112.15545 350.25001] CT
0.149 GC
/Helvetica 24 F
GS
[1 0 0 1 0 0] CT
-16 8.5 moveto 
1 -1 scale
(0) t 
GR
GR
GS
[0.75 0 0 0.75 112.15545 273.5] CT
0.149 GC
/Helvetica 24 F
GS
[1 0 0 1 0 0] CT
-46 8.5 moveto 
1 -1 scale
(500) t 
GR
GR
GS
[0.75 0 0 0.75 112.15545 196.74999] CT
0.149 GC
/Helvetica 24 F
GS
[1 0 0 1 0 0] CT
-62 8.5 moveto 
1 -1 scale
(1000) t 
GR
GR
GS
[0.75 0 0 0.75 112.15545 120] CT
0.149 GC
/Helvetica 24 F
GS
[1 0 0 1 0 0] CT
-62 8.5 moveto 
1 -1 scale
(1500) t 
GR
GR
GS
[0.75 0 0 0.75 112.15545 43.25] CT
0.149 GC
/Helvetica 24 F
GS
[1 0 0 1 0 0] CT
-62 8.5 moveto 
1 -1 scale
(2000) t 
GR
GR
GS
[0 -0.75 0.75 0 56.65063 273.49977] CT
0.149 GC
N
-164.078 -26.203 M
-167.188 -26.203 -169.023 -23.883 QT
-170.859 -21.563 -170.859 -17.547 QT
-170.859 -13.563 -169.023 -11.234 QT
-167.188 -8.906 -164.078 -8.906 QT
-160.953 -8.906 -159.133 -11.234 QT
-157.313 -13.563 -157.313 -17.547 QT
-157.313 -21.563 -159.133 -23.883 QT
-160.953 -26.203 -164.078 -26.203 QT
cp
-164.078 -28.531 M
-159.625 -28.531 -156.961 -25.547 QT
-154.297 -22.563 -154.297 -17.547 QT
-154.297 -12.547 -156.961 -9.57 QT
-159.625 -6.594 -164.078 -6.594 QT
-168.531 -6.594 -171.203 -9.563 QT
-173.875 -12.531 -173.875 -17.547 QT
-173.875 -22.563 -171.203 -25.547 QT
-168.531 -28.531 -164.078 -28.531 QT
cp
-147.178 -9.375 M
-147.178 -0.969 L
-149.787 -0.969 L
-149.787 -22.859 L
-147.178 -22.859 L
-147.178 -20.453 L
-146.35 -21.875 -145.1 -22.555 QT
-143.85 -23.234 -142.1 -23.234 QT
-139.209 -23.234 -137.404 -20.945 QT
-135.6 -18.656 -135.6 -14.922 QT
-135.6 -11.172 -137.404 -8.883 QT
-139.209 -6.594 -142.1 -6.594 QT
-143.85 -6.594 -145.1 -7.281 QT
-146.35 -7.969 -147.178 -9.375 QT
cp
-138.303 -14.922 M
-138.303 -17.797 -139.49 -19.43 QT
-140.678 -21.063 -142.74 -21.063 QT
-144.803 -21.063 -145.99 -19.43 QT
-147.178 -17.797 -147.178 -14.922 QT
-147.178 -12.047 -145.99 -10.406 QT
-144.803 -8.766 -142.74 -8.766 QT
-140.678 -8.766 -139.49 -10.406 QT
-138.303 -12.047 -138.303 -14.922 QT
cp
-124.946 -21.031 M
-127.04 -21.031 -128.259 -19.398 QT
-129.478 -17.766 -129.478 -14.922 QT
-129.478 -12.063 -128.267 -10.43 QT
-127.056 -8.797 -124.946 -8.797 QT
-122.868 -8.797 -121.649 -10.438 QT
-120.431 -12.078 -120.431 -14.922 QT
-120.431 -17.734 -121.649 -19.383 QT
-122.868 -21.031 -124.946 -21.031 QT
cp
-124.946 -23.234 M
-121.54 -23.234 -119.603 -21.031 QT
-117.665 -18.828 -117.665 -14.922 QT
-117.665 -11.016 -119.603 -8.805 QT
-121.54 -6.594 -124.946 -6.594 QT
-128.353 -6.594 -130.29 -8.805 QT
-132.228 -11.016 -132.228 -14.922 QT
-132.228 -18.828 -130.29 -21.031 QT
-128.353 -23.234 -124.946 -23.234 QT
cp
-122.603 -30.188 M
-119.79 -30.188 L
-124.399 -24.875 L
-126.571 -24.875 L
-122.603 -30.188 L
cp
-105.669 -30.188 M
-102.856 -30.188 L
-107.466 -24.875 L
-109.637 -24.875 L
-105.669 -30.188 L
cp
-114.294 -22.859 M
-101.919 -22.859 L
-101.919 -20.484 L
-111.716 -9.078 L
-101.919 -9.078 L
-101.919 -7 L
-114.637 -7 L
-114.637 -9.375 L
-104.841 -20.781 L
-114.294 -20.781 L
-114.294 -22.859 L
cp
-84.579 -16.578 M
-84.579 -7 L
-87.189 -7 L
-87.189 -16.484 L
-87.189 -18.734 -88.064 -19.852 QT
-88.939 -20.969 -90.704 -20.969 QT
-92.814 -20.969 -94.032 -19.625 QT
-95.251 -18.281 -95.251 -15.969 QT
-95.251 -7 L
-97.861 -7 L
-97.861 -22.859 L
-95.251 -22.859 L
-95.251 -20.391 L
-94.314 -21.828 -93.048 -22.531 QT
-91.782 -23.234 -90.126 -23.234 QT
-87.392 -23.234 -85.986 -21.547 QT
-84.579 -19.859 -84.579 -16.578 QT
cp
-79.189 -22.859 M
-76.58 -22.859 L
-76.58 -7 L
-79.189 -7 L
-79.189 -22.859 L
cp
-79.189 -29.031 M
-76.58 -29.031 L
-76.58 -25.734 L
-79.189 -25.734 L
-79.189 -29.031 L
cp
-57.482 -15.578 M
-57.482 -14.313 L
-69.467 -14.313 L
-69.295 -11.609 -67.842 -10.203 QT
-66.389 -8.797 -63.795 -8.797 QT
-62.295 -8.797 -60.889 -9.164 QT
-59.482 -9.531 -58.092 -10.266 QT
-58.092 -7.813 L
-59.498 -7.219 -60.967 -6.906 QT
-62.436 -6.594 -63.951 -6.594 QT
-67.748 -6.594 -69.967 -8.797 QT
-72.186 -11 -72.186 -14.781 QT
-72.186 -18.672 -70.076 -20.953 QT
-67.967 -23.234 -64.404 -23.234 QT
-61.201 -23.234 -59.342 -21.18 QT
-57.482 -19.125 -57.482 -15.578 QT
cp
-60.092 -16.344 M
-60.107 -18.484 -61.279 -19.758 QT
-62.451 -21.031 -64.373 -21.031 QT
-66.561 -21.031 -67.865 -19.797 QT
-69.17 -18.563 -69.373 -16.328 QT
-60.092 -16.344 L
cp
-39.823 -16.578 M
-39.823 -7 L
-42.433 -7 L
-42.433 -16.484 L
-42.433 -18.734 -43.308 -19.852 QT
-44.183 -20.969 -45.948 -20.969 QT
-48.058 -20.969 -49.277 -19.625 QT
-50.495 -18.281 -50.495 -15.969 QT
-50.495 -7 L
-53.105 -7 L
-53.105 -22.859 L
-50.495 -22.859 L
-50.495 -20.391 L
-49.558 -21.828 -48.292 -22.531 QT
-47.027 -23.234 -45.37 -23.234 QT
-42.636 -23.234 -41.23 -21.547 QT
-39.823 -19.859 -39.823 -16.578 QT
cp
-34.433 -22.859 M
-31.824 -22.859 L
-31.824 -7 L
-34.433 -7 L
-34.433 -22.859 L
cp
-34.433 -29.031 M
-31.824 -29.031 L
-31.824 -25.734 L
-34.433 -25.734 L
-34.433 -29.031 L
cp
-12.727 -15.578 M
-12.727 -14.313 L
-24.711 -14.313 L
-24.539 -11.609 -23.086 -10.203 QT
-21.633 -8.797 -19.039 -8.797 QT
-17.539 -8.797 -16.133 -9.164 QT
-14.727 -9.531 -13.336 -10.266 QT
-13.336 -7.813 L
-14.742 -7.219 -16.211 -6.906 QT
-17.68 -6.594 -19.195 -6.594 QT
-22.992 -6.594 -25.211 -8.797 QT
-27.43 -11 -27.43 -14.781 QT
-27.43 -18.672 -25.32 -20.953 QT
-23.211 -23.234 -19.648 -23.234 QT
-16.445 -23.234 -14.586 -21.18 QT
-12.727 -19.125 -12.727 -15.578 QT
cp
-15.336 -16.344 M
-15.352 -18.484 -16.523 -19.758 QT
-17.695 -21.031 -19.617 -21.031 QT
-21.805 -21.031 -23.109 -19.797 QT
-24.414 -18.563 -24.617 -16.328 QT
-15.336 -16.344 L
cp
11.172 -22.391 M
11.172 -19.922 L
10.063 -20.5 8.875 -20.781 QT
7.688 -21.063 6.406 -21.063 QT
4.469 -21.063 3.5 -20.469 QT
2.531 -19.875 2.531 -18.688 QT
2.531 -17.781 3.227 -17.266 QT
3.922 -16.75 6.016 -16.281 QT
6.906 -16.078 L
9.688 -15.484 10.852 -14.398 QT
12.016 -13.313 12.016 -11.375 QT
12.016 -9.172 10.274 -7.883 QT
8.531 -6.594 5.469 -6.594 QT
4.188 -6.594 2.805 -6.836 QT
1.422 -7.078 -0.094 -7.578 QT
-0.094 -10.266 L
1.344 -9.516 2.742 -9.141 QT
4.141 -8.766 5.516 -8.766 QT
7.36 -8.766 8.352 -9.398 QT
9.344 -10.031 9.344 -11.172 QT
9.344 -12.234 8.633 -12.805 QT
7.922 -13.375 5.5 -13.891 QT
4.594 -14.109 L
2.172 -14.625 1.094 -15.68 QT
0.016 -16.734 0.016 -18.563 QT
0.016 -20.813 1.602 -22.023 QT
3.188 -23.234 6.11 -23.234 QT
7.547 -23.234 8.82 -23.023 QT
10.094 -22.813 11.172 -22.391 QT
cp
22.928 -5.531 M
21.834 -2.688 20.78 -1.828 QT
19.725 -0.969 17.975 -0.969 QT
15.897 -0.969 L
15.897 -3.141 L
17.428 -3.141 L
18.506 -3.141 19.1 -3.656 QT
19.694 -4.172 20.412 -6.063 QT
20.881 -7.25 L
14.459 -22.859 L
17.225 -22.859 L
22.178 -10.453 L
27.131 -22.859 L
29.897 -22.859 L
22.928 -5.531 L
cp
44.119 -15.109 M
44.119 -17.953 42.947 -19.508 QT
41.775 -21.063 39.666 -21.063 QT
37.572 -21.063 36.408 -19.508 QT
35.244 -17.953 35.244 -15.109 QT
35.244 -12.297 36.408 -10.742 QT
37.572 -9.188 39.666 -9.188 QT
41.775 -9.188 42.947 -10.742 QT
44.119 -12.297 44.119 -15.109 QT
cp
46.728 -8.969 M
46.728 -4.922 44.924 -2.945 QT
43.119 -0.969 39.416 -0.969 QT
38.041 -0.969 36.822 -1.172 QT
35.603 -1.375 34.463 -1.797 QT
34.463 -4.344 L
35.603 -3.719 36.72 -3.422 QT
37.838 -3.125 39.01 -3.125 QT
41.572 -3.125 42.845 -4.461 QT
44.119 -5.797 44.119 -8.5 QT
44.119 -9.797 L
43.306 -8.391 42.049 -7.695 QT
40.791 -7 39.025 -7 QT
36.119 -7 34.33 -9.227 QT
32.541 -11.453 32.541 -15.109 QT
32.541 -18.797 34.33 -21.016 QT
36.119 -23.234 39.025 -23.234 QT
40.791 -23.234 42.049 -22.547 QT
43.306 -21.859 44.119 -20.453 QT
44.119 -22.859 L
46.728 -22.859 L
46.728 -8.969 L
cp
65.475 -16.578 M
65.475 -7 L
62.866 -7 L
62.866 -16.484 L
62.866 -18.734 61.991 -19.852 QT
61.116 -20.969 59.35 -20.969 QT
57.241 -20.969 56.022 -19.625 QT
54.804 -18.281 54.804 -15.969 QT
54.804 -7 L
52.194 -7 L
52.194 -22.859 L
54.804 -22.859 L
54.804 -20.391 L
55.741 -21.828 57.007 -22.531 QT
58.272 -23.234 59.929 -23.234 QT
62.663 -23.234 64.069 -21.547 QT
65.475 -19.859 65.475 -16.578 QT
cp
78.069 -14.969 M
74.913 -14.969 73.694 -14.25 QT
72.475 -13.531 72.475 -11.781 QT
72.475 -10.406 73.389 -9.586 QT
74.303 -8.766 75.882 -8.766 QT
78.038 -8.766 79.35 -10.305 QT
80.663 -11.844 80.663 -14.391 QT
80.663 -14.969 L
78.069 -14.969 L
cp
83.272 -16.047 M
83.272 -7 L
80.663 -7 L
80.663 -9.406 L
79.772 -7.969 78.444 -7.281 QT
77.116 -6.594 75.178 -6.594 QT
72.741 -6.594 71.303 -7.961 QT
69.866 -9.328 69.866 -11.609 QT
69.866 -14.297 71.663 -15.656 QT
73.46 -17.016 77.007 -17.016 QT
80.663 -17.016 L
80.663 -17.266 L
80.663 -19.063 79.483 -20.047 QT
78.303 -21.031 76.163 -21.031 QT
74.803 -21.031 73.514 -20.703 QT
72.225 -20.375 71.038 -19.734 QT
71.038 -22.141 L
72.46 -22.688 73.811 -22.961 QT
75.163 -23.234 76.428 -23.234 QT
79.866 -23.234 81.569 -21.453 QT
83.272 -19.672 83.272 -16.047 QT
cp
88.907 -29.031 M
91.516 -29.031 L
91.516 -20.516 L
93.282 -21.781 L
94.36 -20.281 L
91.516 -18.281 L
91.516 -7 L
88.907 -7 L
88.907 -16.438 L
87.172 -15.188 L
86.125 -16.688 L
88.907 -18.688 L
88.907 -29.031 L
cp
96.893 -13.266 M
96.893 -22.859 L
99.487 -22.859 L
99.487 -13.359 L
99.487 -11.109 100.369 -9.984 QT
101.252 -8.859 103.002 -8.859 QT
105.112 -8.859 106.338 -10.203 QT
107.565 -11.547 107.565 -13.875 QT
107.565 -22.859 L
110.174 -22.859 L
110.174 -7 L
107.565 -7 L
107.565 -9.438 L
106.612 -7.984 105.362 -7.289 QT
104.112 -6.594 102.455 -6.594 QT
99.721 -6.594 98.307 -8.289 QT
96.893 -9.984 96.893 -13.266 QT
cp
124.82 -29.031 M
130.82 -29.031 L
130.82 -27.016 L
127.413 -27.016 L
127.413 -5.203 L
130.82 -5.203 L
130.82 -3.172 L
124.82 -3.172 L
124.82 -29.031 L
cp
139.005 -9.375 M
139.005 -0.969 L
136.396 -0.969 L
136.396 -22.859 L
139.005 -22.859 L
139.005 -20.453 L
139.834 -21.875 141.084 -22.555 QT
142.334 -23.234 144.084 -23.234 QT
146.974 -23.234 148.779 -20.945 QT
150.584 -18.656 150.584 -14.922 QT
150.584 -11.172 148.779 -8.883 QT
146.974 -6.594 144.084 -6.594 QT
142.334 -6.594 141.084 -7.281 QT
139.834 -7.969 139.005 -9.375 QT
cp
147.88 -14.922 M
147.88 -17.797 146.693 -19.43 QT
145.505 -21.063 143.443 -21.063 QT
141.38 -21.063 140.193 -19.43 QT
139.005 -17.797 139.005 -14.922 QT
139.005 -12.047 140.193 -10.406 QT
141.38 -8.766 143.443 -8.766 QT
145.505 -8.766 146.693 -10.406 QT
147.88 -12.047 147.88 -14.922 QT
cp
165.206 -22.391 M
165.206 -19.922 L
164.096 -20.5 162.909 -20.781 QT
161.721 -21.063 160.44 -21.063 QT
158.503 -21.063 157.534 -20.469 QT
156.565 -19.875 156.565 -18.688 QT
156.565 -17.781 157.26 -17.266 QT
157.956 -16.75 160.05 -16.281 QT
160.94 -16.078 L
163.721 -15.484 164.885 -14.398 QT
166.05 -13.313 166.05 -11.375 QT
166.05 -9.172 164.307 -7.883 QT
162.565 -6.594 159.503 -6.594 QT
158.221 -6.594 156.839 -6.836 QT
155.456 -7.078 153.94 -7.578 QT
153.94 -10.266 L
155.378 -9.516 156.776 -9.141 QT
158.175 -8.766 159.55 -8.766 QT
161.393 -8.766 162.385 -9.398 QT
163.378 -10.031 163.378 -11.172 QT
163.378 -12.234 162.667 -12.805 QT
161.956 -13.375 159.534 -13.891 QT
158.628 -14.109 L
156.206 -14.625 155.128 -15.68 QT
154.05 -16.734 154.05 -18.563 QT
154.05 -20.813 155.635 -22.023 QT
157.221 -23.234 160.143 -23.234 QT
161.581 -23.234 162.854 -23.023 QT
164.128 -22.813 165.206 -22.391 QT
cp
176.462 -29.031 M
176.462 -3.172 L
170.446 -3.172 L
170.446 -5.203 L
173.837 -5.203 L
173.837 -27.016 L
170.446 -27.016 L
170.446 -29.031 L
176.462 -29.031 L
cp
f
GR
GS
[0.75 0 0 0.75 468.75 38.75001] CT
N
-449.516 -20.984 M
-447.625 -20.984 -446.805 -21.688 QT
-445.984 -22.391 -445.984 -24 QT
-445.984 -25.594 -446.805 -26.281 QT
-447.625 -26.969 -449.516 -26.969 QT
-452.047 -26.969 L
-452.047 -20.984 L
-449.516 -20.984 L
cp
-452.047 -16.828 M
-452.047 -8 L
-458.063 -8 L
-458.063 -31.328 L
-448.875 -31.328 L
-444.266 -31.328 -442.117 -29.781 QT
-439.969 -28.234 -439.969 -24.891 QT
-439.969 -22.578 -441.086 -21.094 QT
-442.203 -19.609 -444.453 -18.906 QT
-443.219 -18.625 -442.242 -17.633 QT
-441.266 -16.641 -440.266 -14.625 QT
-437 -8 L
-443.406 -8 L
-446.25 -13.797 L
-447.109 -15.547 -447.992 -16.188 QT
-448.875 -16.828 -450.344 -16.828 QT
-452.047 -16.828 L
cp
-416.203 -16.797 M
-416.203 -15.203 L
-429.281 -15.203 L
-429.078 -13.234 -427.859 -12.25 QT
-426.641 -11.266 -424.453 -11.266 QT
-422.688 -11.266 -420.836 -11.789 QT
-418.984 -12.313 -417.031 -13.375 QT
-417.031 -9.063 L
-419.016 -8.313 -421 -7.93 QT
-422.984 -7.547 -424.969 -7.547 QT
-429.719 -7.547 -432.352 -9.961 QT
-434.984 -12.375 -434.984 -16.734 QT
-434.984 -21.016 -432.398 -23.469 QT
-429.813 -25.922 -425.281 -25.922 QT
-421.156 -25.922 -418.68 -23.438 QT
-416.203 -20.953 -416.203 -16.797 QT
cp
-421.953 -18.656 M
-421.953 -20.25 -422.883 -21.227 QT
-423.813 -22.203 -425.313 -22.203 QT
-426.938 -22.203 -427.953 -21.289 QT
-428.969 -20.375 -429.219 -18.656 QT
-421.953 -18.656 L
cp
-411.969 -32.313 M
-406.375 -32.313 L
-406.375 -8 L
-411.969 -8 L
-411.969 -32.313 L
cp
-393.156 -15.875 M
-394.906 -15.875 -395.789 -15.281 QT
-396.672 -14.688 -396.672 -13.531 QT
-396.672 -12.469 -395.961 -11.867 QT
-395.25 -11.266 -393.984 -11.266 QT
-392.406 -11.266 -391.328 -12.398 QT
-390.25 -13.531 -390.25 -15.234 QT
-390.25 -15.875 L
-393.156 -15.875 L
cp
-384.609 -17.984 M
-384.609 -8 L
-390.25 -8 L
-390.25 -10.594 L
-391.375 -9 -392.781 -8.273 QT
-394.188 -7.547 -396.203 -7.547 QT
-398.922 -7.547 -400.617 -9.133 QT
-402.313 -10.719 -402.313 -13.25 QT
-402.313 -16.328 -400.195 -17.766 QT
-398.078 -19.203 -393.547 -19.203 QT
-390.25 -19.203 L
-390.25 -19.641 L
-390.25 -20.969 -391.297 -21.586 QT
-392.344 -22.203 -394.563 -22.203 QT
-396.359 -22.203 -397.906 -21.844 QT
-399.453 -21.484 -400.781 -20.766 QT
-400.781 -25.031 L
-398.984 -25.469 -397.172 -25.695 QT
-395.359 -25.922 -393.547 -25.922 QT
-388.813 -25.922 -386.711 -24.055 QT
-384.609 -22.188 -384.609 -17.984 QT
cp
-365.266 -24.953 M
-365.266 -20.391 L
-366.406 -21.172 -367.555 -21.547 QT
-368.703 -21.922 -369.938 -21.922 QT
-372.281 -21.922 -373.586 -20.555 QT
-374.891 -19.188 -374.891 -16.734 QT
-374.891 -14.281 -373.586 -12.914 QT
-372.281 -11.547 -369.938 -11.547 QT
-368.625 -11.547 -367.445 -11.938 QT
-366.266 -12.328 -365.266 -13.094 QT
-365.266 -8.516 L
-366.578 -8.031 -367.93 -7.789 QT
-369.281 -7.547 -370.641 -7.547 QT
-375.375 -7.547 -378.047 -9.977 QT
-380.719 -12.406 -380.719 -16.734 QT
-380.719 -21.063 -378.047 -23.492 QT
-375.375 -25.922 -370.641 -25.922 QT
-369.266 -25.922 -367.93 -25.68 QT
-366.594 -25.438 -365.266 -24.953 QT
cp
-360.438 -25.5 M
-354.844 -25.5 L
-354.844 -8.313 L
-354.844 -4.797 -356.531 -2.945 QT
-358.219 -1.094 -361.422 -1.094 QT
-364.188 -1.094 L
-364.188 -4.766 L
-363.219 -4.766 L
-361.625 -4.766 -361.031 -5.484 QT
-360.438 -6.203 -360.438 -8.313 QT
-360.438 -25.5 L
cp
-360.438 -32.313 M
-354.844 -32.313 L
-354.844 -27.75 L
-360.438 -27.75 L
-360.438 -32.313 L
cp
-341.625 -15.875 M
-343.375 -15.875 -344.258 -15.281 QT
-345.141 -14.688 -345.141 -13.531 QT
-345.141 -12.469 -344.43 -11.867 QT
-343.719 -11.266 -342.453 -11.266 QT
-340.875 -11.266 -339.797 -12.398 QT
-338.719 -13.531 -338.719 -15.234 QT
-338.719 -15.875 L
-341.625 -15.875 L
cp
-333.078 -17.984 M
-333.078 -8 L
-338.719 -8 L
-338.719 -10.594 L
-339.844 -9 -341.25 -8.273 QT
-342.656 -7.547 -344.672 -7.547 QT
-347.391 -7.547 -349.086 -9.133 QT
-350.781 -10.719 -350.781 -13.25 QT
-350.781 -16.328 -348.664 -17.766 QT
-346.547 -19.203 -342.016 -19.203 QT
-338.719 -19.203 L
-338.719 -19.641 L
-338.719 -20.969 -339.766 -21.586 QT
-340.813 -22.203 -343.031 -22.203 QT
-344.828 -22.203 -346.375 -21.844 QT
-347.922 -21.484 -349.25 -20.766 QT
-349.25 -25.031 L
-347.453 -25.469 -345.641 -25.695 QT
-343.828 -25.922 -342.016 -25.922 QT
-337.281 -25.922 -335.18 -24.055 QT
-333.078 -22.188 -333.078 -17.984 QT
cp
-304.828 -22.938 M
-304.828 -32.313 L
-299.203 -32.313 L
-299.203 -8 L
-304.828 -8 L
-304.828 -10.531 L
-305.984 -8.984 -307.375 -8.266 QT
-308.766 -7.547 -310.594 -7.547 QT
-313.828 -7.547 -315.906 -10.117 QT
-317.984 -12.688 -317.984 -16.734 QT
-317.984 -20.781 -315.906 -23.352 QT
-313.828 -25.922 -310.594 -25.922 QT
-308.781 -25.922 -307.383 -25.195 QT
-305.984 -24.469 -304.828 -22.938 QT
cp
-308.516 -11.609 M
-306.719 -11.609 -305.773 -12.922 QT
-304.828 -14.234 -304.828 -16.734 QT
-304.828 -19.234 -305.773 -20.547 QT
-306.719 -21.859 -308.516 -21.859 QT
-310.297 -21.859 -311.242 -20.547 QT
-312.188 -19.234 -312.188 -16.734 QT
-312.188 -14.234 -311.242 -12.922 QT
-310.297 -11.609 -308.516 -11.609 QT
cp
-296.125 -25.5 M
-290.531 -25.5 L
-285.828 -13.625 L
-281.828 -25.5 L
-276.234 -25.5 L
-283.594 -6.344 L
-284.703 -3.422 -286.18 -2.258 QT
-287.656 -1.094 -290.078 -1.094 QT
-293.313 -1.094 L
-293.313 -4.766 L
-291.563 -4.766 L
-290.141 -4.766 -289.492 -5.219 QT
-288.844 -5.672 -288.484 -6.844 QT
-288.328 -7.328 L
-296.125 -25.5 L
cp
-259.297 -24.953 M
-259.297 -20.703 L
-261.094 -21.453 -262.766 -21.828 QT
-264.438 -22.203 -265.922 -22.203 QT
-267.516 -22.203 -268.289 -21.805 QT
-269.063 -21.406 -269.063 -20.578 QT
-269.063 -19.906 -268.477 -19.547 QT
-267.891 -19.188 -266.375 -19.016 QT
-265.391 -18.875 L
-261.094 -18.328 -259.609 -17.078 QT
-258.125 -15.828 -258.125 -13.156 QT
-258.125 -10.359 -260.188 -8.953 QT
-262.25 -7.547 -266.344 -7.547 QT
-268.078 -7.547 -269.93 -7.82 QT
-271.781 -8.094 -273.734 -8.641 QT
-273.734 -12.891 L
-272.063 -12.078 -270.305 -11.672 QT
-268.547 -11.266 -266.734 -11.266 QT
-265.094 -11.266 -264.266 -11.719 QT
-263.438 -12.172 -263.438 -13.063 QT
-263.438 -13.813 -264.008 -14.18 QT
-264.578 -14.547 -266.281 -14.75 QT
-267.266 -14.875 L
-271 -15.344 -272.5 -16.609 QT
-274 -17.875 -274 -20.453 QT
-274 -23.234 -272.094 -24.578 QT
-270.188 -25.922 -266.25 -25.922 QT
-264.703 -25.922 -263 -25.688 QT
-261.297 -25.453 -259.297 -24.953 QT
cp
-248.328 -10.531 M
-248.328 -1.344 L
-253.922 -1.344 L
-253.922 -25.5 L
-248.328 -25.5 L
-248.328 -22.938 L
-247.172 -24.469 -245.766 -25.195 QT
-244.359 -25.922 -242.531 -25.922 QT
-239.297 -25.922 -237.219 -23.352 QT
-235.141 -20.781 -235.141 -16.734 QT
-235.141 -12.688 -237.219 -10.117 QT
-239.297 -7.547 -242.531 -7.547 QT
-244.359 -7.547 -245.766 -8.273 QT
-247.172 -9 -248.328 -10.531 QT
cp
-244.609 -21.859 M
-246.406 -21.859 -247.367 -20.539 QT
-248.328 -19.219 -248.328 -16.734 QT
-248.328 -14.25 -247.367 -12.93 QT
-246.406 -11.609 -244.609 -11.609 QT
-242.813 -11.609 -241.867 -12.922 QT
-240.922 -14.234 -240.922 -16.734 QT
-240.922 -19.234 -241.867 -20.547 QT
-242.813 -21.859 -244.609 -21.859 QT
cp
-213.547 -16.797 M
-213.547 -15.203 L
-226.625 -15.203 L
-226.422 -13.234 -225.203 -12.25 QT
-223.984 -11.266 -221.797 -11.266 QT
-220.031 -11.266 -218.18 -11.789 QT
-216.328 -12.313 -214.375 -13.375 QT
-214.375 -9.063 L
-216.359 -8.313 -218.344 -7.93 QT
-220.328 -7.547 -222.313 -7.547 QT
-227.063 -7.547 -229.695 -9.961 QT
-232.328 -12.375 -232.328 -16.734 QT
-232.328 -21.016 -229.742 -23.469 QT
-227.156 -25.922 -222.625 -25.922 QT
-218.5 -25.922 -216.023 -23.438 QT
-213.547 -20.953 -213.547 -16.797 QT
cp
-219.297 -18.656 M
-219.297 -20.25 -220.227 -21.227 QT
-221.156 -22.203 -222.656 -22.203 QT
-224.281 -22.203 -225.297 -21.289 QT
-226.313 -20.375 -226.563 -18.656 QT
-219.297 -18.656 L
cp
-196.313 -20.734 M
-197.047 -21.078 -197.773 -21.242 QT
-198.5 -21.406 -199.234 -21.406 QT
-201.391 -21.406 -202.555 -20.023 QT
-203.719 -18.641 -203.719 -16.063 QT
-203.719 -8 L
-209.313 -8 L
-209.313 -25.5 L
-203.719 -25.5 L
-203.719 -22.625 L
-202.641 -24.344 -201.242 -25.133 QT
-199.844 -25.922 -197.891 -25.922 QT
-197.609 -25.922 -197.281 -25.898 QT
-196.953 -25.875 -196.328 -25.797 QT
-196.313 -20.734 L
cp
-179.859 -24.953 M
-179.859 -20.703 L
-181.656 -21.453 -183.328 -21.828 QT
-185 -22.203 -186.484 -22.203 QT
-188.078 -22.203 -188.852 -21.805 QT
-189.625 -21.406 -189.625 -20.578 QT
-189.625 -19.906 -189.039 -19.547 QT
-188.453 -19.188 -186.938 -19.016 QT
-185.953 -18.875 L
-181.656 -18.328 -180.172 -17.078 QT
-178.688 -15.828 -178.688 -13.156 QT
-178.688 -10.359 -180.75 -8.953 QT
-182.813 -7.547 -186.906 -7.547 QT
-188.641 -7.547 -190.492 -7.82 QT
-192.344 -8.094 -194.297 -8.641 QT
-194.297 -12.891 L
-192.625 -12.078 -190.867 -11.672 QT
-189.109 -11.266 -187.297 -11.266 QT
-185.656 -11.266 -184.828 -11.719 QT
-184 -12.172 -184 -13.063 QT
-184 -13.813 -184.57 -14.18 QT
-185.141 -14.547 -186.844 -14.75 QT
-187.828 -14.875 L
-191.563 -15.344 -193.063 -16.609 QT
-194.563 -17.875 -194.563 -20.453 QT
-194.563 -23.234 -192.656 -24.578 QT
-190.75 -25.922 -186.813 -25.922 QT
-185.266 -25.922 -183.563 -25.688 QT
-181.859 -25.453 -179.859 -24.953 QT
cp
-176.781 -25.5 M
-171.188 -25.5 L
-166.484 -13.625 L
-162.484 -25.5 L
-156.891 -25.5 L
-164.25 -6.344 L
-165.359 -3.422 -166.836 -2.258 QT
-168.313 -1.094 -170.734 -1.094 QT
-173.969 -1.094 L
-173.969 -4.766 L
-172.219 -4.766 L
-170.797 -4.766 -170.148 -5.219 QT
-169.5 -5.672 -169.141 -6.844 QT
-168.984 -7.328 L
-176.781 -25.5 L
cp
-153.625 -25.5 M
-148.031 -25.5 L
-148.031 -8.313 L
-148.031 -4.797 -149.719 -2.945 QT
-151.406 -1.094 -154.609 -1.094 QT
-157.375 -1.094 L
-157.375 -4.766 L
-156.406 -4.766 L
-154.813 -4.766 -154.219 -5.484 QT
-153.625 -6.203 -153.625 -8.313 QT
-153.625 -25.5 L
cp
-153.625 -32.313 M
-148.031 -32.313 L
-148.031 -27.75 L
-153.625 -27.75 L
-153.625 -32.313 L
cp
-125.063 -18.656 M
-125.063 -8 L
-130.688 -8 L
-130.688 -9.734 L
-130.688 -16.156 L
-130.688 -18.422 -130.789 -19.281 QT
-130.891 -20.141 -131.141 -20.547 QT
-131.469 -21.094 -132.031 -21.398 QT
-132.594 -21.703 -133.313 -21.703 QT
-135.063 -21.703 -136.063 -20.352 QT
-137.063 -19 -137.063 -16.609 QT
-137.063 -8 L
-142.656 -8 L
-142.656 -25.5 L
-137.063 -25.5 L
-137.063 -22.938 L
-135.797 -24.469 -134.375 -25.195 QT
-132.953 -25.922 -131.234 -25.922 QT
-128.203 -25.922 -126.633 -24.063 QT
-125.063 -22.203 -125.063 -18.656 QT
cp
-112.031 -15.875 M
-113.781 -15.875 -114.664 -15.281 QT
-115.547 -14.688 -115.547 -13.531 QT
-115.547 -12.469 -114.836 -11.867 QT
-114.125 -11.266 -112.859 -11.266 QT
-111.281 -11.266 -110.203 -12.398 QT
-109.125 -13.531 -109.125 -15.234 QT
-109.125 -15.875 L
-112.031 -15.875 L
cp
-103.484 -17.984 M
-103.484 -8 L
-109.125 -8 L
-109.125 -10.594 L
-110.25 -9 -111.656 -8.273 QT
-113.063 -7.547 -115.078 -7.547 QT
-117.797 -7.547 -119.492 -9.133 QT
-121.188 -10.719 -121.188 -13.25 QT
-121.188 -16.328 -119.07 -17.766 QT
-116.953 -19.203 -112.422 -19.203 QT
-109.125 -19.203 L
-109.125 -19.641 L
-109.125 -20.969 -110.172 -21.586 QT
-111.219 -22.203 -113.438 -22.203 QT
-115.234 -22.203 -116.781 -21.844 QT
-118.328 -21.484 -119.656 -20.766 QT
-119.656 -25.031 L
-117.859 -25.469 -116.047 -25.695 QT
-114.234 -25.922 -112.422 -25.922 QT
-107.688 -25.922 -105.586 -24.055 QT
-103.484 -22.188 -103.484 -17.984 QT
cp
-75.234 -22.938 M
-75.234 -32.313 L
-69.609 -32.313 L
-69.609 -8 L
-75.234 -8 L
-75.234 -10.531 L
-76.391 -8.984 -77.781 -8.266 QT
-79.172 -7.547 -81 -7.547 QT
-84.234 -7.547 -86.313 -10.117 QT
-88.391 -12.688 -88.391 -16.734 QT
-88.391 -20.781 -86.313 -23.352 QT
-84.234 -25.922 -81 -25.922 QT
-79.188 -25.922 -77.789 -25.195 QT
-76.391 -24.469 -75.234 -22.938 QT
cp
-78.922 -11.609 M
-77.125 -11.609 -76.18 -12.922 QT
-75.234 -14.234 -75.234 -16.734 QT
-75.234 -19.234 -76.18 -20.547 QT
-77.125 -21.859 -78.922 -21.859 QT
-80.703 -21.859 -81.648 -20.547 QT
-82.594 -19.234 -82.594 -16.734 QT
-82.594 -14.234 -81.648 -12.922 QT
-80.703 -11.609 -78.922 -11.609 QT
cp
-64.234 -32.313 M
-58.641 -32.313 L
-58.641 -8 L
-64.234 -8 L
-64.234 -32.313 L
cp
-45.422 -15.875 M
-47.172 -15.875 -48.055 -15.281 QT
-48.938 -14.688 -48.938 -13.531 QT
-48.938 -12.469 -48.227 -11.867 QT
-47.516 -11.266 -46.25 -11.266 QT
-44.672 -11.266 -43.594 -12.398 QT
-42.516 -13.531 -42.516 -15.234 QT
-42.516 -15.875 L
-45.422 -15.875 L
cp
-36.875 -17.984 M
-36.875 -8 L
-42.516 -8 L
-42.516 -10.594 L
-43.641 -9 -45.047 -8.273 QT
-46.453 -7.547 -48.469 -7.547 QT
-51.188 -7.547 -52.883 -9.133 QT
-54.578 -10.719 -54.578 -13.25 QT
-54.578 -16.328 -52.461 -17.766 QT
-50.344 -19.203 -45.813 -19.203 QT
-42.516 -19.203 L
-42.516 -19.641 L
-42.516 -20.969 -43.563 -21.586 QT
-44.609 -22.203 -46.828 -22.203 QT
-48.625 -22.203 -50.172 -21.844 QT
-51.719 -21.484 -53.047 -20.766 QT
-53.047 -25.031 L
-51.25 -25.469 -49.438 -25.695 QT
-47.625 -25.922 -45.813 -25.922 QT
-41.078 -25.922 -38.977 -24.055 QT
-36.875 -22.188 -36.875 -17.984 QT
cp
-19.469 -12.156 M
-14.156 -12.156 L
-14.156 -27.234 L
-19.609 -26.109 L
-19.609 -30.203 L
-14.188 -31.328 L
-8.469 -31.328 L
-8.469 -12.156 L
-3.156 -12.156 L
-3.156 -8 L
-19.469 -8 L
-19.469 -12.156 L
cp
13.766 -19.688 M
13.766 -24.063 12.945 -25.852 QT
12.125 -27.641 10.188 -27.641 QT
8.25 -27.641 7.422 -25.852 QT
6.594 -24.063 6.594 -19.688 QT
6.594 -15.266 7.422 -13.453 QT
8.25 -11.641 10.188 -11.641 QT
12.109 -11.641 12.938 -13.453 QT
13.766 -15.266 13.766 -19.688 QT
cp
19.781 -19.641 M
19.781 -13.844 17.281 -10.695 QT
14.781 -7.547 10.188 -7.547 QT
5.578 -7.547 3.078 -10.695 QT
0.578 -13.844 0.578 -19.641 QT
0.578 -25.453 3.078 -28.602 QT
5.578 -31.75 10.188 -31.75 QT
14.781 -31.75 17.281 -28.602 QT
19.781 -25.453 19.781 -19.641 QT
cp
24 -32.313 M
29.594 -32.313 L
29.594 -19.078 L
36.031 -25.5 L
42.531 -25.5 L
33.984 -17.469 L
43.203 -8 L
36.422 -8 L
29.594 -15.297 L
29.594 -8 L
24 -8 L
24 -32.313 L
cp
61.5 -22.594 M
62.563 -24.219 64.023 -25.07 QT
65.484 -25.922 67.234 -25.922 QT
70.25 -25.922 71.828 -24.063 QT
73.406 -22.203 73.406 -18.656 QT
73.406 -8 L
67.781 -8 L
67.781 -17.125 L
67.797 -17.328 67.805 -17.547 QT
67.813 -17.766 67.813 -18.172 QT
67.813 -20.031 67.266 -20.867 QT
66.719 -21.703 65.5 -21.703 QT
63.906 -21.703 63.039 -20.391 QT
62.172 -19.078 62.141 -16.594 QT
62.141 -8 L
56.516 -8 L
56.516 -17.125 L
56.516 -20.031 56.016 -20.867 QT
55.516 -21.703 54.234 -21.703 QT
52.625 -21.703 51.75 -20.383 QT
50.875 -19.063 50.875 -16.609 QT
50.875 -8 L
45.25 -8 L
45.25 -25.5 L
50.875 -25.5 L
50.875 -22.938 L
51.906 -24.422 53.242 -25.172 QT
54.578 -25.922 56.188 -25.922 QT
58 -25.922 59.391 -25.047 QT
60.781 -24.172 61.5 -22.594 QT
cp
99.188 -33.594 M
103.609 -33.594 L
97.844 -27.719 L
94.781 -27.719 L
99.188 -33.594 L
cp
103.438 -24.953 M
103.438 -20.703 L
101.641 -21.453 99.969 -21.828 QT
98.297 -22.203 96.813 -22.203 QT
95.219 -22.203 94.445 -21.805 QT
93.672 -21.406 93.672 -20.578 QT
93.672 -19.906 94.258 -19.547 QT
94.844 -19.188 96.359 -19.016 QT
97.344 -18.875 L
101.641 -18.328 103.125 -17.078 QT
104.609 -15.828 104.609 -13.156 QT
104.609 -10.359 102.547 -8.953 QT
100.484 -7.547 96.391 -7.547 QT
94.656 -7.547 92.805 -7.82 QT
90.953 -8.094 89 -8.641 QT
89 -12.891 L
90.672 -12.078 92.43 -11.672 QT
94.188 -11.266 96 -11.266 QT
97.641 -11.266 98.469 -11.719 QT
99.297 -12.172 99.297 -13.063 QT
99.297 -13.813 98.727 -14.18 QT
98.156 -14.547 96.453 -14.75 QT
95.469 -14.875 L
91.734 -15.344 90.234 -16.609 QT
88.734 -17.875 88.734 -20.453 QT
88.734 -23.234 90.641 -24.578 QT
92.547 -25.922 96.484 -25.922 QT
98.031 -25.922 99.734 -25.688 QT
101.438 -25.453 103.438 -24.953 QT
cp
107.25 -25.5 M
112.688 -25.5 L
115.625 -13.438 L
118.578 -25.5 L
123.25 -25.5 L
126.188 -13.563 L
129.141 -25.5 L
134.578 -25.5 L
129.969 -8 L
123.859 -8 L
120.906 -20.031 L
117.969 -8 L
111.859 -8 L
107.25 -25.5 L
cp
138.375 -25.5 M
143.969 -25.5 L
143.969 -8 L
138.375 -8 L
138.375 -25.5 L
cp
138.375 -32.313 M
143.969 -32.313 L
143.969 -27.75 L
138.375 -27.75 L
138.375 -32.313 L
cp
157.188 -15.875 M
155.438 -15.875 154.555 -15.281 QT
153.672 -14.688 153.672 -13.531 QT
153.672 -12.469 154.383 -11.867 QT
155.094 -11.266 156.359 -11.266 QT
157.938 -11.266 159.016 -12.398 QT
160.094 -13.531 160.094 -15.234 QT
160.094 -15.875 L
157.188 -15.875 L
cp
165.734 -17.984 M
165.734 -8 L
160.094 -8 L
160.094 -10.594 L
158.969 -9 157.563 -8.273 QT
156.156 -7.547 154.141 -7.547 QT
151.422 -7.547 149.727 -9.133 QT
148.031 -10.719 148.031 -13.25 QT
148.031 -16.328 150.148 -17.766 QT
152.266 -19.203 156.797 -19.203 QT
160.094 -19.203 L
160.094 -19.641 L
160.094 -20.969 159.047 -21.586 QT
158 -22.203 155.781 -22.203 QT
153.984 -22.203 152.438 -21.844 QT
150.891 -21.484 149.563 -20.766 QT
149.563 -25.031 L
151.359 -25.469 153.172 -25.695 QT
154.984 -25.922 156.797 -25.922 QT
161.531 -25.922 163.633 -24.055 QT
165.734 -22.188 165.734 -17.984 QT
cp
177.047 -30.469 M
177.047 -25.5 L
182.813 -25.5 L
182.813 -21.5 L
177.047 -21.5 L
177.047 -14.078 L
177.047 -12.859 177.531 -12.43 QT
178.016 -12 179.453 -12 QT
182.328 -12 L
182.328 -8 L
177.531 -8 L
174.219 -8 172.836 -9.383 QT
171.453 -10.766 171.453 -14.078 QT
171.453 -21.5 L
168.672 -21.5 L
168.672 -25.5 L
171.453 -25.5 L
171.453 -30.469 L
177.047 -30.469 L
cp
186.656 -32.313 M
192.281 -32.313 L
192.281 -24.484 L
194.297 -25.859 L
196.031 -23.453 L
192.281 -20.891 L
192.281 -8 L
186.656 -8 L
186.656 -18.016 L
184.703 -16.672 L
182.969 -19.078 L
186.656 -21.625 L
186.656 -32.313 L
cp
206.438 -21.922 M
204.578 -21.922 203.602 -20.586 QT
202.625 -19.25 202.625 -16.734 QT
202.625 -14.219 203.602 -12.883 QT
204.578 -11.547 206.438 -11.547 QT
208.266 -11.547 209.234 -12.883 QT
210.203 -14.219 210.203 -16.734 QT
210.203 -19.25 209.234 -20.586 QT
208.266 -21.922 206.438 -21.922 QT
cp
206.438 -25.922 M
210.953 -25.922 213.492 -23.484 QT
216.031 -21.047 216.031 -16.734 QT
216.031 -12.422 213.492 -9.984 QT
210.953 -7.547 206.438 -7.547 QT
201.906 -7.547 199.352 -9.984 QT
196.797 -12.422 196.797 -16.734 QT
196.797 -21.047 199.352 -23.484 QT
201.906 -25.922 206.438 -25.922 QT
cp
218.531 -25.5 M
223.969 -25.5 L
226.906 -13.438 L
229.859 -25.5 L
234.531 -25.5 L
237.469 -13.563 L
240.422 -25.5 L
245.859 -25.5 L
241.25 -8 L
235.141 -8 L
232.188 -20.031 L
229.25 -8 L
223.141 -8 L
218.531 -25.5 L
cp
257.984 -21.922 M
256.125 -21.922 255.148 -20.586 QT
254.172 -19.25 254.172 -16.734 QT
254.172 -14.219 255.148 -12.883 QT
256.125 -11.547 257.984 -11.547 QT
259.813 -11.547 260.781 -12.883 QT
261.75 -14.219 261.75 -16.734 QT
261.75 -19.25 260.781 -20.586 QT
259.813 -21.922 257.984 -21.922 QT
cp
257.984 -25.922 M
262.5 -25.922 265.039 -23.484 QT
267.578 -21.047 267.578 -16.734 QT
267.578 -12.422 265.039 -9.984 QT
262.5 -7.547 257.984 -7.547 QT
253.453 -7.547 250.898 -9.984 QT
248.344 -12.422 248.344 -16.734 QT
248.344 -21.047 250.898 -23.484 QT
253.453 -25.922 257.984 -25.922 QT
cp
283.547 -22.938 M
283.547 -32.313 L
289.172 -32.313 L
289.172 -8 L
283.547 -8 L
283.547 -10.531 L
282.391 -8.984 281 -8.266 QT
279.609 -7.547 277.781 -7.547 QT
274.547 -7.547 272.469 -10.117 QT
270.391 -12.688 270.391 -16.734 QT
270.391 -20.781 272.469 -23.352 QT
274.547 -25.922 277.781 -25.922 QT
279.594 -25.922 280.992 -25.195 QT
282.391 -24.469 283.547 -22.938 QT
cp
279.859 -11.609 M
281.656 -11.609 282.602 -12.922 QT
283.547 -14.234 283.547 -16.734 QT
283.547 -19.234 282.602 -20.547 QT
281.656 -21.859 279.859 -21.859 QT
278.078 -21.859 277.133 -20.547 QT
276.188 -19.234 276.188 -16.734 QT
276.188 -14.234 277.133 -12.922 QT
278.078 -11.609 279.859 -11.609 QT
cp
294.359 -14.813 M
294.359 -25.5 L
299.984 -25.5 L
299.984 -23.75 L
299.984 -22.328 299.969 -20.18 QT
299.953 -18.031 299.953 -17.313 QT
299.953 -15.203 300.063 -14.273 QT
300.172 -13.344 300.438 -12.922 QT
300.781 -12.375 301.336 -12.078 QT
301.891 -11.781 302.609 -11.781 QT
304.359 -11.781 305.359 -13.125 QT
306.359 -14.469 306.359 -16.859 QT
306.359 -25.5 L
311.953 -25.5 L
311.953 -8 L
306.359 -8 L
306.359 -10.531 L
305.094 -9 303.68 -8.273 QT
302.266 -7.547 300.563 -7.547 QT
297.531 -7.547 295.945 -9.406 QT
294.359 -11.266 294.359 -14.813 QT
cp
344.953 -30.594 M
344.953 -25.656 L
343.031 -26.516 341.203 -26.953 QT
339.375 -27.391 337.75 -27.391 QT
335.594 -27.391 334.563 -26.797 QT
333.531 -26.203 333.531 -24.953 QT
333.531 -24.016 334.227 -23.492 QT
334.922 -22.969 336.75 -22.594 QT
339.313 -22.078 L
343.203 -21.297 344.844 -19.703 QT
346.484 -18.109 346.484 -15.172 QT
346.484 -11.313 344.195 -9.43 QT
341.906 -7.547 337.203 -7.547 QT
334.984 -7.547 332.75 -7.969 QT
330.516 -8.391 328.281 -9.219 QT
328.281 -14.297 L
330.516 -13.109 332.602 -12.508 QT
334.688 -11.906 336.625 -11.906 QT
338.594 -11.906 339.641 -12.563 QT
340.688 -13.219 340.688 -14.438 QT
340.688 -15.531 339.977 -16.125 QT
339.266 -16.719 337.141 -17.188 QT
334.813 -17.703 L
331.313 -18.453 329.695 -20.094 QT
328.078 -21.734 328.078 -24.516 QT
328.078 -28 330.328 -29.875 QT
332.578 -31.75 336.797 -31.75 QT
338.719 -31.75 340.75 -31.461 QT
342.781 -31.172 344.953 -30.594 QT
cp
351.766 -31.328 M
359.422 -31.328 L
364.734 -18.844 L
370.078 -31.328 L
377.719 -31.328 L
377.719 -8 L
372.031 -8 L
372.031 -25.063 L
366.656 -12.484 L
362.844 -12.484 L
357.469 -25.063 L
357.469 -8 L
351.766 -8 L
351.766 -31.328 L
cp
383.609 -31.328 M
399.844 -31.328 L
399.844 -26.781 L
389.625 -26.781 L
389.625 -22.438 L
399.234 -22.438 L
399.234 -17.891 L
389.625 -17.891 L
389.625 -8 L
383.609 -8 L
383.609 -31.328 L
cp
404.266 -19.484 M
414.078 -19.484 L
414.078 -14.938 L
404.266 -14.938 L
404.266 -19.484 L
cp
425.031 -12.422 M
435.297 -12.422 L
435.297 -8 L
418.344 -8 L
418.344 -12.422 L
426.859 -19.938 L
428 -20.969 428.547 -21.953 QT
429.094 -22.938 429.094 -24 QT
429.094 -25.641 427.992 -26.641 QT
426.891 -27.641 425.063 -27.641 QT
423.656 -27.641 421.984 -27.039 QT
420.313 -26.438 418.406 -25.25 QT
418.406 -30.375 L
420.438 -31.047 422.422 -31.398 QT
424.406 -31.75 426.313 -31.75 QT
430.5 -31.75 432.82 -29.906 QT
435.141 -28.063 435.141 -24.766 QT
435.141 -22.859 434.156 -21.211 QT
433.172 -19.563 430.016 -16.797 QT
425.031 -12.422 L
cp
449.219 -18.438 M
447.531 -18.438 446.625 -17.516 QT
445.719 -16.594 445.719 -14.875 QT
445.719 -13.156 446.625 -12.242 QT
447.531 -11.328 449.219 -11.328 QT
450.891 -11.328 451.781 -12.242 QT
452.672 -13.156 452.672 -14.875 QT
452.672 -16.609 451.781 -17.523 QT
450.891 -18.438 449.219 -18.438 QT
cp
444.828 -20.422 M
442.703 -21.063 441.625 -22.391 QT
440.547 -23.719 440.547 -25.703 QT
440.547 -28.656 442.75 -30.203 QT
444.953 -31.75 449.219 -31.75 QT
453.453 -31.75 455.656 -30.211 QT
457.859 -28.672 457.859 -25.703 QT
457.859 -23.719 456.773 -22.391 QT
455.688 -21.063 453.563 -20.422 QT
455.938 -19.766 457.148 -18.289 QT
458.359 -16.813 458.359 -14.563 QT
458.359 -11.094 456.055 -9.32 QT
453.75 -7.547 449.219 -7.547 QT
444.672 -7.547 442.352 -9.32 QT
440.031 -11.094 440.031 -14.563 QT
440.031 -16.813 441.242 -18.289 QT
442.453 -19.766 444.828 -20.422 QT
cp
446.234 -25.094 M
446.234 -23.703 447.008 -22.953 QT
447.781 -22.203 449.219 -22.203 QT
450.625 -22.203 451.391 -22.953 QT
452.156 -23.703 452.156 -25.094 QT
452.156 -26.484 451.391 -27.227 QT
450.625 -27.969 449.219 -27.969 QT
447.781 -27.969 447.008 -27.219 QT
446.234 -26.469 446.234 -25.094 QT
cp
f
GR
GS
[0.75 0 0 0.75 0 0.5] CT
1 LJ
N
1022.5 163.5 M
1021.736 161.149 L
1019.736 159.696 L
1017.264 159.696 L
1015.264 161.149 L
1014.5 163.5 L
1015.264 165.851 L
1017.264 167.304 L
1019.736 167.304 L
1021.736 165.851 L
cp
S
GR
GS
[0.75 0 0 0.75 0 0.5] CT
1 LJ
N
990.5 165.5 M
989.736 163.149 L
987.736 161.696 L
985.264 161.696 L
983.264 163.149 L
982.5 165.5 L
983.264 167.851 L
985.264 169.304 L
987.736 169.304 L
989.736 167.851 L
cp
S
GR
GS
[0.75 0 0 0.75 0 0.5] CT
1 LJ
N
963.5 174.5 M
962.736 172.149 L
960.736 170.696 L
958.264 170.696 L
956.264 172.149 L
955.5 174.5 L
956.264 176.851 L
958.264 178.304 L
960.736 178.304 L
962.736 176.851 L
cp
S
GR
GS
[0.75 0 0 0.75 0 0.5] CT
1 LJ
N
947.5 179.5 M
946.736 177.149 L
944.736 175.696 L
942.264 175.696 L
940.264 177.149 L
939.5 179.5 L
940.264 181.851 L
942.264 183.304 L
944.736 183.304 L
946.736 181.851 L
cp
S
GR
GS
[0.75 0 0 0.75 0 0.5] CT
1 LJ
N
909.5 186.5 M
908.736 184.149 L
906.736 182.696 L
904.264 182.696 L
902.264 184.149 L
901.5 186.5 L
902.264 188.851 L
904.264 190.304 L
906.736 190.304 L
908.736 188.851 L
cp
S
GR
GS
[0.75 0 0 0.75 0 0.5] CT
1 LJ
N
856.5 200.5 M
855.736 198.149 L
853.736 196.696 L
851.264 196.696 L
849.264 198.149 L
848.5 200.5 L
849.264 202.851 L
851.264 204.304 L
853.736 204.304 L
855.736 202.851 L
cp
S
GR
GS
[0.75 0 0 0.75 0 0.5] CT
1 LJ
N
792.5 218.5 M
791.736 216.149 L
789.736 214.696 L
787.264 214.696 L
785.264 216.149 L
784.5 218.5 L
785.264 220.851 L
787.264 222.304 L
789.736 222.304 L
791.736 220.851 L
cp
S
GR
GS
[0.75 0 0 0.75 0 0.5] CT
1 LJ
N
738.5 230.5 M
737.736 228.149 L
735.736 226.696 L
733.264 226.696 L
731.264 228.149 L
730.5 230.5 L
731.264 232.851 L
733.264 234.304 L
735.736 234.304 L
737.736 232.851 L
cp
S
GR
GS
[0.75 0 0 0.75 0 0.5] CT
1 LJ
N
669.5 248.5 M
668.736 246.149 L
666.736 244.696 L
664.264 244.696 L
662.264 246.149 L
661.5 248.5 L
662.264 250.851 L
664.264 252.304 L
666.736 252.304 L
668.736 250.851 L
cp
S
GR
GS
[0.75 0 0 0.75 0 0.5] CT
1 LJ
N
519.5 293.5 M
518.736 291.149 L
516.736 289.696 L
514.264 289.696 L
512.264 291.149 L
511.5 293.5 L
512.264 295.851 L
514.264 297.304 L
516.736 297.304 L
518.736 295.851 L
cp
S
GR
GS
[0.75 0 0 0.75 0 0.5] CT
1 LJ
N
476.5 301.5 M
475.736 299.149 L
473.736 297.696 L
471.264 297.696 L
469.264 299.149 L
468.5 301.5 L
469.264 303.851 L
471.264 305.304 L
473.736 305.304 L
475.736 303.851 L
cp
S
GR
GS
[0.75 0 0 0.75 0 0.5] CT
1 LJ
N
390.5 326.5 M
389.736 324.149 L
387.736 322.696 L
385.264 322.696 L
383.264 324.149 L
382.5 326.5 L
383.264 328.851 L
385.264 330.304 L
387.736 330.304 L
389.736 328.851 L
cp
S
GR
GS
[0.75 0 0 0.75 0 0.5] CT
1 LJ
N
332.5 348.5 M
331.736 346.149 L
329.736 344.696 L
327.264 344.696 L
325.264 346.149 L
324.5 348.5 L
325.264 350.851 L
327.264 352.304 L
329.736 352.304 L
331.736 350.851 L
cp
S
GR
GS
[0.75 0 0 0.75 0 0.5] CT
1 LJ
N
267.5 349.5 M
266.736 347.149 L
264.736 345.696 L
262.264 345.696 L
260.264 347.149 L
259.5 349.5 L
260.264 351.851 L
262.264 353.304 L
264.736 353.304 L
266.736 351.851 L
cp
S
GR
GS
[0.75 0 0 0.75 0 0.5] CT
1 LJ
N
161.5 638.5 M
160.736 636.149 L
158.736 634.696 L
156.264 634.696 L
154.264 636.149 L
153.5 638.5 L
154.264 640.851 L
156.264 642.304 L
158.736 642.304 L
160.736 640.851 L
cp
S
GR
GS
[0.75 0 0 0.75 0 0.5] CT
0 0 1 RC
1 LJ
0.667 LW
N
1018.112 158.593 M
986.022 167.033 L
959.286 174.066 L
943.241 178.286 L
905.797 188.132 L
852.308 202.199 L
788.128 219.078 L
734.639 233.145 L
665.121 251.431 L
515.361 290.816 L
472.564 302.069 L
386.985 324.576 L
328.158 340.048 L
263.978 356.928 L
157 385.061 L
S
GR
GS
[0.75 0 0 0.75 0 0.5] CT
10.0 ML
0.667 LW
N
483.2 489 M
483.2 377 L
1087.2 377 L
1087.2 489 L
cp
S
GR
GS
[0.75 0 0 0.75 367.4 286.25] CT
/Helvetica 29.333 F
GS
[1 0 0 1 0 0] CT
0 27 moveto 
1 -1 scale
(y = a * x + b) t 
GR
GR
GS
[0.75 0 0 0.75 367.4 286.25] CT
/Helvetica 29.333 F
GS
[1 0 0 1 0 0] CT
0 61 moveto 
1 -1 scale
(a = 171.8  \(166.1, 177.5\)) t 
GR
GR
GS
[0.75 0 0 0.75 367.4 286.25] CT
/Helvetica 29.333 F
GS
[1 0 0 1 0 0] CT
0 95 moveto 
1 -1 scale
(b = -2.69e+05  \(-2.78e+05, -2.6e+05\)) t 
GR
GR
%%Trailer
%%Pages: 1
%%EOF
