%!PS-Adobe-3.0 EPSF-3.0
%%Creator: (MATLAB, The Mathworks, Inc. Version 9.0.0.341360 \(R2016a\). Operating System: Linux)
%%Title: /home/misimik/Dokumenty/Magisterka/Magisterka/Photon/Spektrometr/RozdzielCzas.eps
%%CreationDate: 2017-09-23T06:52:03
%%Pages: (atend)
%%BoundingBox: 0 0 906 566
%%LanguageLevel: 3
%%EndComments
%%BeginProlog
%%BeginResource: procset (Apache XML Graphics Std ProcSet) 1.2 0
%%Version: 1.2 0
%%Copyright: (Copyright 2001-2003,2010 The Apache Software Foundation. License terms: http://www.apache.org/licenses/LICENSE-2.0)
/bd{bind def}bind def
/ld{load def}bd
/GR/grestore ld
/M/moveto ld
/LJ/setlinejoin ld
/C/curveto ld
/f/fill ld
/LW/setlinewidth ld
/GC/setgray ld
/t/show ld
/N/newpath ld
/CT/concat ld
/cp/closepath ld
/S/stroke ld
/L/lineto ld
/CC/setcmykcolor ld
/A/ashow ld
/GS/gsave ld
/RC/setrgbcolor ld
/RM/rmoveto ld
/ML/setmiterlimit ld
/re {4 2 roll M
1 index 0 rlineto
0 exch rlineto
neg 0 rlineto
cp } bd
/_ctm matrix def
/_tm matrix def
/BT { _ctm currentmatrix pop matrix _tm copy pop 0 0 moveto } bd
/ET { _ctm setmatrix } bd
/iTm { _ctm setmatrix _tm concat } bd
/Tm { _tm astore pop iTm 0 0 moveto } bd
/ux 0.0 def
/uy 0.0 def
/F {
  /Tp exch def
  /Tf exch def
  Tf findfont Tp scalefont setfont
  /cf Tf def  /cs Tp def
} bd
/ULS {currentpoint /uy exch def /ux exch def} bd
/ULE {
  /Tcx currentpoint pop def
  gsave
  newpath
  cf findfont cs scalefont dup
  /FontMatrix get 0 get /Ts exch def /FontInfo get dup
  /UnderlinePosition get Ts mul /To exch def
  /UnderlineThickness get Ts mul /Tt exch def
  ux uy To add moveto  Tcx uy To add lineto
  Tt setlinewidth stroke
  grestore
} bd
/OLE {
  /Tcx currentpoint pop def
  gsave
  newpath
  cf findfont cs scalefont dup
  /FontMatrix get 0 get /Ts exch def /FontInfo get dup
  /UnderlinePosition get Ts mul /To exch def
  /UnderlineThickness get Ts mul /Tt exch def
  ux uy To add cs add moveto Tcx uy To add cs add lineto
  Tt setlinewidth stroke
  grestore
} bd
/SOE {
  /Tcx currentpoint pop def
  gsave
  newpath
  cf findfont cs scalefont dup
  /FontMatrix get 0 get /Ts exch def /FontInfo get dup
  /UnderlinePosition get Ts mul /To exch def
  /UnderlineThickness get Ts mul /Tt exch def
  ux uy To add cs 10 mul 26 idiv add moveto Tcx uy To add cs 10 mul 26 idiv add lineto
  Tt setlinewidth stroke
  grestore
} bd
/QT {
/Y22 exch store
/X22 exch store
/Y21 exch store
/X21 exch store
currentpoint
/Y21 load 2 mul add 3 div exch
/X21 load 2 mul add 3 div exch
/X21 load 2 mul /X22 load add 3 div
/Y21 load 2 mul /Y22 load add 3 div
/X22 load /Y22 load curveto
} bd
/SSPD {
dup length /d exch dict def
{
/v exch def
/k exch def
currentpagedevice k known {
/cpdv currentpagedevice k get def
v cpdv ne {
/upd false def
/nullv v type /nulltype eq def
/nullcpdv cpdv type /nulltype eq def
nullv nullcpdv or
{
/upd true def
} {
/sametype v type cpdv type eq def
sametype {
v type /arraytype eq {
/vlen v length def
/cpdvlen cpdv length def
vlen cpdvlen eq {
0 1 vlen 1 sub {
/i exch def
/obj v i get def
/cpdobj cpdv i get def
obj cpdobj ne {
/upd true def
exit
} if
} for
} {
/upd true def
} ifelse
} {
v type /dicttype eq {
v {
/dv exch def
/dk exch def
/cpddv cpdv dk get def
dv cpddv ne {
/upd true def
exit
} if
} forall
} {
/upd true def
} ifelse
} ifelse
} if
} ifelse
upd true eq {
d k v put
} if
} if
} if
} forall
d length 0 gt {
d setpagedevice
} if
} bd
%%EndResource
%%BeginResource: procset (Apache XML Graphics EPS ProcSet) 1.0 0
%%Version: 1.0 0
%%Copyright: (Copyright 2002-2003 The Apache Software Foundation. License terms: http://www.apache.org/licenses/LICENSE-2.0)
/BeginEPSF { %def
/b4_Inc_state save def         % Save state for cleanup
/dict_count countdictstack def % Count objects on dict stack
/op_count count 1 sub def      % Count objects on operand stack
userdict begin                 % Push userdict on dict stack
/showpage { } def              % Redefine showpage, { } = null proc
0 setgray 0 setlinecap         % Prepare graphics state
1 setlinewidth 0 setlinejoin
10 setmiterlimit [ ] 0 setdash newpath
/languagelevel where           % If level not equal to 1 then
{pop languagelevel             % set strokeadjust and
1 ne                           % overprint to their defaults.
{false setstrokeadjust false setoverprint
} if
} if
} bd
/EndEPSF { %def
count op_count sub {pop} repeat            % Clean up stacks
countdictstack dict_count sub {end} repeat
b4_Inc_state restore
} bd
%%EndResource
%FOPBeginFontDict
%%IncludeResource: font Courier-Bold
%%IncludeResource: font Helvetica
%%IncludeResource: font Courier-BoldOblique
%%IncludeResource: font Courier-Oblique
%%IncludeResource: font Times-Roman
%%IncludeResource: font Helvetica-BoldOblique
%%IncludeResource: font Helvetica-Bold
%%IncludeResource: font Helvetica-Oblique
%%IncludeResource: font Times-BoldItalic
%%IncludeResource: font Courier
%%IncludeResource: font Times-Italic
%%IncludeResource: font Times-Bold
%%IncludeResource: font Symbol
%%IncludeResource: font ZapfDingbats
%FOPEndFontDict
%%BeginResource: encoding WinAnsiEncoding
/WinAnsiEncoding [
/.notdef /.notdef /.notdef /.notdef /.notdef
/.notdef /.notdef /.notdef /.notdef /.notdef
/.notdef /.notdef /.notdef /.notdef /.notdef
/.notdef /.notdef /.notdef /.notdef /.notdef
/.notdef /.notdef /.notdef /.notdef /.notdef
/.notdef /.notdef /.notdef /.notdef /.notdef
/.notdef /.notdef /space /exclam /quotedbl
/numbersign /dollar /percent /ampersand /quotesingle
/parenleft /parenright /asterisk /plus /comma
/hyphen /period /slash /zero /one
/two /three /four /five /six
/seven /eight /nine /colon /semicolon
/less /equal /greater /question /at
/A /B /C /D /E
/F /G /H /I /J
/K /L /M /N /O
/P /Q /R /S /T
/U /V /W /X /Y
/Z /bracketleft /backslash /bracketright /asciicircum
/underscore /quoteleft /a /b /c
/d /e /f /g /h
/i /j /k /l /m
/n /o /p /q /r
/s /t /u /v /w
/x /y /z /braceleft /bar
/braceright /asciitilde /bullet /Euro /bullet
/quotesinglbase /florin /quotedblbase /ellipsis /dagger
/daggerdbl /circumflex /perthousand /Scaron /guilsinglleft
/OE /bullet /Zcaron /bullet /bullet
/quoteleft /quoteright /quotedblleft /quotedblright /bullet
/endash /emdash /asciitilde /trademark /scaron
/guilsinglright /oe /bullet /zcaron /Ydieresis
/space /exclamdown /cent /sterling /currency
/yen /brokenbar /section /dieresis /copyright
/ordfeminine /guillemotleft /logicalnot /sfthyphen /registered
/macron /degree /plusminus /twosuperior /threesuperior
/acute /mu /paragraph /middot /cedilla
/onesuperior /ordmasculine /guillemotright /onequarter /onehalf
/threequarters /questiondown /Agrave /Aacute /Acircumflex
/Atilde /Adieresis /Aring /AE /Ccedilla
/Egrave /Eacute /Ecircumflex /Edieresis /Igrave
/Iacute /Icircumflex /Idieresis /Eth /Ntilde
/Ograve /Oacute /Ocircumflex /Otilde /Odieresis
/multiply /Oslash /Ugrave /Uacute /Ucircumflex
/Udieresis /Yacute /Thorn /germandbls /agrave
/aacute /acircumflex /atilde /adieresis /aring
/ae /ccedilla /egrave /eacute /ecircumflex
/edieresis /igrave /iacute /icircumflex /idieresis
/eth /ntilde /ograve /oacute /ocircumflex
/otilde /odieresis /divide /oslash /ugrave
/uacute /ucircumflex /udieresis /yacute /thorn
/ydieresis
] def
%%EndResource
%FOPBeginFontReencode
/Courier-Bold findfont
dup length dict begin
  {1 index /FID ne {def} {pop pop} ifelse} forall
  /Encoding WinAnsiEncoding def
  currentdict
end
/Courier-Bold exch definefont pop
/Helvetica findfont
dup length dict begin
  {1 index /FID ne {def} {pop pop} ifelse} forall
  /Encoding WinAnsiEncoding def
  currentdict
end
/Helvetica exch definefont pop
/Courier-BoldOblique findfont
dup length dict begin
  {1 index /FID ne {def} {pop pop} ifelse} forall
  /Encoding WinAnsiEncoding def
  currentdict
end
/Courier-BoldOblique exch definefont pop
/Courier-Oblique findfont
dup length dict begin
  {1 index /FID ne {def} {pop pop} ifelse} forall
  /Encoding WinAnsiEncoding def
  currentdict
end
/Courier-Oblique exch definefont pop
/Times-Roman findfont
dup length dict begin
  {1 index /FID ne {def} {pop pop} ifelse} forall
  /Encoding WinAnsiEncoding def
  currentdict
end
/Times-Roman exch definefont pop
/Helvetica-BoldOblique findfont
dup length dict begin
  {1 index /FID ne {def} {pop pop} ifelse} forall
  /Encoding WinAnsiEncoding def
  currentdict
end
/Helvetica-BoldOblique exch definefont pop
/Helvetica-Bold findfont
dup length dict begin
  {1 index /FID ne {def} {pop pop} ifelse} forall
  /Encoding WinAnsiEncoding def
  currentdict
end
/Helvetica-Bold exch definefont pop
/Helvetica-Oblique findfont
dup length dict begin
  {1 index /FID ne {def} {pop pop} ifelse} forall
  /Encoding WinAnsiEncoding def
  currentdict
end
/Helvetica-Oblique exch definefont pop
/Times-BoldItalic findfont
dup length dict begin
  {1 index /FID ne {def} {pop pop} ifelse} forall
  /Encoding WinAnsiEncoding def
  currentdict
end
/Times-BoldItalic exch definefont pop
/Courier findfont
dup length dict begin
  {1 index /FID ne {def} {pop pop} ifelse} forall
  /Encoding WinAnsiEncoding def
  currentdict
end
/Courier exch definefont pop
/Times-Italic findfont
dup length dict begin
  {1 index /FID ne {def} {pop pop} ifelse} forall
  /Encoding WinAnsiEncoding def
  currentdict
end
/Times-Italic exch definefont pop
/Times-Bold findfont
dup length dict begin
  {1 index /FID ne {def} {pop pop} ifelse} forall
  /Encoding WinAnsiEncoding def
  currentdict
end
/Times-Bold exch definefont pop
%FOPEndFontReencode
%%EndProlog
%%Page: 1 1
%%PageBoundingBox: 0 0 906 566
%%BeginPageSetup
[1 0 0 -1 0 566] CT
%%EndPageSetup
GS
[0.75 0 0 0.75 0 0.5] CT
1 GC
N
0 0 1208 754 re
f
GR
GS
[0.75 0 0 0.75 0 0.5] CT
1 GC
N
0 0 1208 754 re
f
GR
GS
[0.75 0 0 0.75 0 0.5] CT
1 GC
N
157 671 M
1093 671 L
1093 57 L
157 57 L
cp
f
GR
GS
[0.75 0 0 0.75 0 0.5] CT
0.149 GC
2 setlinecap
1 LJ
0.667 LW
N
157 671 M
1093 671 L
S
GR
GS
[0.75 0 0 0.75 0 0.5] CT
0.149 GC
2 setlinecap
1 LJ
0.667 LW
N
157 671 M
157 661.64 L
S
GR
GS
[0.75 0 0 0.75 0 0.5] CT
0.149 GC
2 setlinecap
1 LJ
0.667 LW
N
250.6 671 M
250.6 661.64 L
S
GR
GS
[0.75 0 0 0.75 0 0.5] CT
0.149 GC
2 setlinecap
1 LJ
0.667 LW
N
344.2 671 M
344.2 661.64 L
S
GR
GS
[0.75 0 0 0.75 0 0.5] CT
0.149 GC
2 setlinecap
1 LJ
0.667 LW
N
437.8 671 M
437.8 661.64 L
S
GR
GS
[0.75 0 0 0.75 0 0.5] CT
0.149 GC
2 setlinecap
1 LJ
0.667 LW
N
531.4 671 M
531.4 661.64 L
S
GR
GS
[0.75 0 0 0.75 0 0.5] CT
0.149 GC
2 setlinecap
1 LJ
0.667 LW
N
625 671 M
625 661.64 L
S
GR
GS
[0.75 0 0 0.75 0 0.5] CT
0.149 GC
2 setlinecap
1 LJ
0.667 LW
N
718.6 671 M
718.6 661.64 L
S
GR
GS
[0.75 0 0 0.75 0 0.5] CT
0.149 GC
2 setlinecap
1 LJ
0.667 LW
N
812.2 671 M
812.2 661.64 L
S
GR
GS
[0.75 0 0 0.75 0 0.5] CT
0.149 GC
2 setlinecap
1 LJ
0.667 LW
N
905.8 671 M
905.8 661.64 L
S
GR
GS
[0.75 0 0 0.75 0 0.5] CT
0.149 GC
2 setlinecap
1 LJ
0.667 LW
N
999.4 671 M
999.4 661.64 L
S
GR
GS
[0.75 0 0 0.75 0 0.5] CT
0.149 GC
2 setlinecap
1 LJ
0.667 LW
N
1093 671 M
1093 661.64 L
S
GR
GS
[0.75 0 0 0.75 117.75 509.35001] CT
0.149 GC
/Helvetica 24 F
GS
[1 0 0 1 0 0] CT
-27.5 23 moveto 
1 -1 scale
(-100) t 
GR
GR
GS
[0.75 0 0 0.75 187.95 509.35001] CT
0.149 GC
/Helvetica 24 F
GS
[1 0 0 1 0 0] CT
-20 23 moveto 
1 -1 scale
(-80) t 
GR
GR
GS
[0.75 0 0 0.75 258.15001 509.35001] CT
0.149 GC
/Helvetica 24 F
GS
[1 0 0 1 0 0] CT
-20 23 moveto 
1 -1 scale
(-60) t 
GR
GR
GS
[0.75 0 0 0.75 328.34999 509.35001] CT
0.149 GC
/Helvetica 24 F
GS
[1 0 0 1 0 0] CT
-20 23 moveto 
1 -1 scale
(-40) t 
GR
GR
GS
[0.75 0 0 0.75 398.55002 509.35001] CT
0.149 GC
/Helvetica 24 F
GS
[1 0 0 1 0 0] CT
-20 23 moveto 
1 -1 scale
(-20) t 
GR
GR
GS
[0.75 0 0 0.75 468.75 509.35001] CT
0.149 GC
/Helvetica 24 F
GS
[1 0 0 1 0 0] CT
-8 23 moveto 
1 -1 scale
(0) t 
GR
GR
GS
[0.75 0 0 0.75 538.94998 509.35001] CT
0.149 GC
/Helvetica 24 F
GS
[1 0 0 1 0 0] CT
-15.5 23 moveto 
1 -1 scale
(20) t 
GR
GR
GS
[0.75 0 0 0.75 609.15001 509.35001] CT
0.149 GC
/Helvetica 24 F
GS
[1 0 0 1 0 0] CT
-15.5 23 moveto 
1 -1 scale
(40) t 
GR
GR
GS
[0.75 0 0 0.75 679.34999 509.35001] CT
0.149 GC
/Helvetica 24 F
GS
[1 0 0 1 0 0] CT
-15.5 23 moveto 
1 -1 scale
(60) t 
GR
GR
GS
[0.75 0 0 0.75 749.55002 509.35001] CT
0.149 GC
/Helvetica 24 F
GS
[1 0 0 1 0 0] CT
-15.5 23 moveto 
1 -1 scale
(80) t 
GR
GR
GS
[0.75 0 0 0.75 819.75 509.35001] CT
0.149 GC
/Helvetica 24 F
GS
[1 0 0 1 0 0] CT
-23 23 moveto 
1 -1 scale
(100) t 
GR
GR
GS
[0.75 0 0 0.75 468.75032 532.09999] CT
0.149 GC
/Helvetica 29.333 F
GS
[1 0 0 1 0 0] CT
-67 27 moveto 
1 -1 scale
(Czas [ps]) t 
GR
GR
GS
[0.75 0 0 0.75 0 0.5] CT
0.149 GC
2 setlinecap
1 LJ
0.667 LW
N
157 671 M
157 57 L
S
GR
GS
[0.75 0 0 0.75 0 0.5] CT
0.149 GC
2 setlinecap
1 LJ
0.667 LW
N
157 671 M
166.36 671 L
S
GR
GS
[0.75 0 0 0.75 0 0.5] CT
0.149 GC
2 setlinecap
1 LJ
0.667 LW
N
157 609.6 M
166.36 609.6 L
S
GR
GS
[0.75 0 0 0.75 0 0.5] CT
0.149 GC
2 setlinecap
1 LJ
0.667 LW
N
157 548.2 M
166.36 548.2 L
S
GR
GS
[0.75 0 0 0.75 0 0.5] CT
0.149 GC
2 setlinecap
1 LJ
0.667 LW
N
157 486.8 M
166.36 486.8 L
S
GR
GS
[0.75 0 0 0.75 0 0.5] CT
0.149 GC
2 setlinecap
1 LJ
0.667 LW
N
157 425.4 M
166.36 425.4 L
S
GR
GS
[0.75 0 0 0.75 0 0.5] CT
0.149 GC
2 setlinecap
1 LJ
0.667 LW
N
157 364 M
166.36 364 L
S
GR
GS
[0.75 0 0 0.75 0 0.5] CT
0.149 GC
2 setlinecap
1 LJ
0.667 LW
N
157 302.6 M
166.36 302.6 L
S
GR
GS
[0.75 0 0 0.75 0 0.5] CT
0.149 GC
2 setlinecap
1 LJ
0.667 LW
N
157 241.2 M
166.36 241.2 L
S
GR
GS
[0.75 0 0 0.75 0 0.5] CT
0.149 GC
2 setlinecap
1 LJ
0.667 LW
N
157 179.8 M
166.36 179.8 L
S
GR
GS
[0.75 0 0 0.75 0 0.5] CT
0.149 GC
2 setlinecap
1 LJ
0.667 LW
N
157 118.4 M
166.36 118.4 L
S
GR
GS
[0.75 0 0 0.75 0 0.5] CT
0.149 GC
2 setlinecap
1 LJ
0.667 LW
N
157 57 M
166.36 57 L
S
GR
GS
[0.75 0 0 0.75 112.14999 503.75] CT
0.149 GC
/Helvetica 24 F
GS
[1 0 0 1 0 0] CT
-16 8.5 moveto 
1 -1 scale
(0) t 
GR
GR
GS
[0.75 0 0 0.75 112.14999 457.69998] CT
0.149 GC
/Helvetica 24 F
GS
[1 0 0 1 0 0] CT
-62 8.5 moveto 
1 -1 scale
(1000) t 
GR
GR
GS
[0.75 0 0 0.75 112.14999 411.65001] CT
0.149 GC
/Helvetica 24 F
GS
[1 0 0 1 0 0] CT
-62 8.5 moveto 
1 -1 scale
(2000) t 
GR
GR
GS
[0.75 0 0 0.75 112.14999 365.59999] CT
0.149 GC
/Helvetica 24 F
GS
[1 0 0 1 0 0] CT
-62 8.5 moveto 
1 -1 scale
(3000) t 
GR
GR
GS
[0.75 0 0 0.75 112.14999 319.55] CT
0.149 GC
/Helvetica 24 F
GS
[1 0 0 1 0 0] CT
-62 8.5 moveto 
1 -1 scale
(4000) t 
GR
GR
GS
[0.75 0 0 0.75 112.14999 273.5] CT
0.149 GC
/Helvetica 24 F
GS
[1 0 0 1 0 0] CT
-62 8.5 moveto 
1 -1 scale
(5000) t 
GR
GR
GS
[0.75 0 0 0.75 112.14999 227.45] CT
0.149 GC
/Helvetica 24 F
GS
[1 0 0 1 0 0] CT
-62 8.5 moveto 
1 -1 scale
(6000) t 
GR
GR
GS
[0.75 0 0 0.75 112.14999 181.4] CT
0.149 GC
/Helvetica 24 F
GS
[1 0 0 1 0 0] CT
-62 8.5 moveto 
1 -1 scale
(7000) t 
GR
GR
GS
[0.75 0 0 0.75 112.14999 135.35] CT
0.149 GC
/Helvetica 24 F
GS
[1 0 0 1 0 0] CT
-62 8.5 moveto 
1 -1 scale
(8000) t 
GR
GR
GS
[0.75 0 0 0.75 112.14999 89.3] CT
0.149 GC
/Helvetica 24 F
GS
[1 0 0 1 0 0] CT
-62 8.5 moveto 
1 -1 scale
(9000) t 
GR
GR
GS
[0.75 0 0 0.75 112.14999 43.25] CT
0.149 GC
/Helvetica 24 F
GS
[1 0 0 1 0 0] CT
-77 8.5 moveto 
1 -1 scale
(10000) t 
GR
GR
GS
[0 -0.75 0.75 0 51.39999 273.49977] CT
0.149 GC
N
-97.156 -28.141 M
-94.297 -28.141 L
-94.297 -9.406 L
-84 -9.406 L
-84 -7 L
-97.156 -7 L
-97.156 -28.141 L
cp
-80.935 -22.859 M
-78.325 -22.859 L
-78.325 -7 L
-80.935 -7 L
-80.935 -22.859 L
cp
-80.935 -29.031 M
-78.325 -29.031 L
-78.325 -25.734 L
-80.935 -25.734 L
-80.935 -29.031 L
cp
-61.385 -22.25 M
-61.385 -19.813 L
-62.478 -20.422 -63.596 -20.727 QT
-64.713 -21.031 -65.838 -21.031 QT
-68.369 -21.031 -69.775 -19.422 QT
-71.181 -17.813 -71.181 -14.922 QT
-71.181 -12.016 -69.775 -10.406 QT
-68.369 -8.797 -65.838 -8.797 QT
-64.713 -8.797 -63.596 -9.102 QT
-62.478 -9.406 -61.385 -10.016 QT
-61.385 -7.609 L
-62.463 -7.094 -63.635 -6.844 QT
-64.806 -6.594 -66.119 -6.594 QT
-69.713 -6.594 -71.822 -8.844 QT
-73.931 -11.094 -73.931 -14.922 QT
-73.931 -18.797 -71.799 -21.016 QT
-69.666 -23.234 -65.947 -23.234 QT
-64.744 -23.234 -63.603 -22.992 QT
-62.463 -22.75 -61.385 -22.25 QT
cp
-57.815 -22.859 M
-45.44 -22.859 L
-45.44 -20.484 L
-55.237 -9.078 L
-45.44 -9.078 L
-45.44 -7 L
-58.159 -7 L
-58.159 -9.375 L
-48.362 -20.781 L
-57.815 -20.781 L
-57.815 -22.859 L
cp
-29.898 -14.922 M
-29.898 -17.797 -31.085 -19.43 QT
-32.273 -21.063 -34.335 -21.063 QT
-36.398 -21.063 -37.585 -19.43 QT
-38.773 -17.797 -38.773 -14.922 QT
-38.773 -12.047 -37.585 -10.406 QT
-36.398 -8.766 -34.335 -8.766 QT
-32.273 -8.766 -31.085 -10.406 QT
-29.898 -12.047 -29.898 -14.922 QT
cp
-38.773 -20.453 M
-37.945 -21.875 -36.695 -22.555 QT
-35.445 -23.234 -33.695 -23.234 QT
-30.804 -23.234 -28.999 -20.945 QT
-27.195 -18.656 -27.195 -14.922 QT
-27.195 -11.172 -28.999 -8.883 QT
-30.804 -6.594 -33.695 -6.594 QT
-35.445 -6.594 -36.695 -7.281 QT
-37.945 -7.969 -38.773 -9.375 QT
-38.773 -7 L
-41.382 -7 L
-41.382 -29.031 L
-38.773 -29.031 L
-38.773 -20.453 L
cp
-15.479 -14.969 M
-18.635 -14.969 -19.854 -14.25 QT
-21.073 -13.531 -21.073 -11.781 QT
-21.073 -10.406 -20.158 -9.586 QT
-19.244 -8.766 -17.666 -8.766 QT
-15.51 -8.766 -14.198 -10.305 QT
-12.885 -11.844 -12.885 -14.391 QT
-12.885 -14.969 L
-15.479 -14.969 L
cp
-10.276 -16.047 M
-10.276 -7 L
-12.885 -7 L
-12.885 -9.406 L
-13.776 -7.969 -15.104 -7.281 QT
-16.432 -6.594 -18.369 -6.594 QT
-20.807 -6.594 -22.244 -7.961 QT
-23.682 -9.328 -23.682 -11.609 QT
-23.682 -14.297 -21.885 -15.656 QT
-20.088 -17.016 -16.541 -17.016 QT
-12.885 -17.016 L
-12.885 -17.266 L
-12.885 -19.063 -14.065 -20.047 QT
-15.244 -21.031 -17.385 -21.031 QT
-18.744 -21.031 -20.033 -20.703 QT
-21.323 -20.375 -22.51 -19.734 QT
-22.51 -22.141 L
-21.088 -22.688 -19.737 -22.961 QT
-18.385 -23.234 -17.119 -23.234 QT
-13.682 -23.234 -11.979 -21.453 QT
-10.276 -19.672 -10.276 -16.047 QT
cp
3.458 -22.859 M
15.833 -22.859 L
15.833 -20.484 L
6.036 -9.078 L
15.833 -9.078 L
15.833 -7 L
3.114 -7 L
3.114 -9.375 L
12.911 -20.781 L
3.458 -20.781 L
3.458 -22.859 L
cp
19.984 -29.031 M
22.594 -29.031 L
22.594 -7 L
19.984 -7 L
19.984 -29.031 L
cp
28.128 -22.859 M
30.738 -22.859 L
30.738 -7 L
28.128 -7 L
28.128 -22.859 L
cp
28.128 -29.031 M
30.738 -29.031 L
30.738 -25.734 L
28.128 -25.734 L
28.128 -29.031 L
cp
47.679 -22.25 M
47.679 -19.813 L
46.585 -20.422 45.468 -20.727 QT
44.35 -21.031 43.225 -21.031 QT
40.694 -21.031 39.288 -19.422 QT
37.882 -17.813 37.882 -14.922 QT
37.882 -12.016 39.288 -10.406 QT
40.694 -8.797 43.225 -8.797 QT
44.35 -8.797 45.468 -9.102 QT
46.585 -9.406 47.679 -10.016 QT
47.679 -7.609 L
46.6 -7.094 45.429 -6.844 QT
44.257 -6.594 42.944 -6.594 QT
39.35 -6.594 37.241 -8.844 QT
35.132 -11.094 35.132 -14.922 QT
35.132 -18.797 37.264 -21.016 QT
39.397 -23.234 43.116 -23.234 QT
44.319 -23.234 45.46 -22.992 QT
46.6 -22.75 47.679 -22.25 QT
cp
51.248 -22.859 M
63.623 -22.859 L
63.623 -20.484 L
53.826 -9.078 L
63.623 -9.078 L
63.623 -7 L
50.904 -7 L
50.904 -9.375 L
60.701 -20.781 L
51.248 -20.781 L
51.248 -22.859 L
cp
81.337 -15.578 M
81.337 -14.313 L
69.353 -14.313 L
69.525 -11.609 70.978 -10.203 QT
72.431 -8.797 75.025 -8.797 QT
76.525 -8.797 77.931 -9.164 QT
79.337 -9.531 80.728 -10.266 QT
80.728 -7.813 L
79.322 -7.219 77.853 -6.906 QT
76.384 -6.594 74.868 -6.594 QT
71.072 -6.594 68.853 -8.797 QT
66.634 -11 66.634 -14.781 QT
66.634 -18.672 68.743 -20.953 QT
70.853 -23.234 74.415 -23.234 QT
77.618 -23.234 79.478 -21.18 QT
81.337 -19.125 81.337 -15.578 QT
cp
78.728 -16.344 M
78.712 -18.484 77.54 -19.758 QT
76.368 -21.031 74.447 -21.031 QT
72.259 -21.031 70.954 -19.797 QT
69.65 -18.563 69.447 -16.328 QT
78.728 -16.344 L
cp
93.293 -30.188 M
96.106 -30.188 L
91.496 -24.875 L
89.324 -24.875 L
93.293 -30.188 L
cp
98.996 -16.578 M
98.996 -7 L
96.387 -7 L
96.387 -16.484 L
96.387 -18.734 95.512 -19.852 QT
94.637 -20.969 92.871 -20.969 QT
90.762 -20.969 89.543 -19.625 QT
88.324 -18.281 88.324 -15.969 QT
88.324 -7 L
85.715 -7 L
85.715 -22.859 L
88.324 -22.859 L
88.324 -20.391 L
89.262 -21.828 90.527 -22.531 QT
91.793 -23.234 93.449 -23.234 QT
96.184 -23.234 97.59 -21.547 QT
98.996 -19.859 98.996 -16.578 QT
cp
f
GR
GS
[0.75 0 0 0.75 468.75046 38.75001] CT
N
-440.016 -20.984 M
-438.125 -20.984 -437.305 -21.688 QT
-436.484 -22.391 -436.484 -24 QT
-436.484 -25.594 -437.305 -26.281 QT
-438.125 -26.969 -440.016 -26.969 QT
-442.547 -26.969 L
-442.547 -20.984 L
-440.016 -20.984 L
cp
-442.547 -16.828 M
-442.547 -8 L
-448.563 -8 L
-448.563 -31.328 L
-439.375 -31.328 L
-434.766 -31.328 -432.617 -29.781 QT
-430.469 -28.234 -430.469 -24.891 QT
-430.469 -22.578 -431.586 -21.094 QT
-432.703 -19.609 -434.953 -18.906 QT
-433.719 -18.625 -432.742 -17.633 QT
-431.766 -16.641 -430.766 -14.625 QT
-427.5 -8 L
-433.906 -8 L
-436.75 -13.797 L
-437.609 -15.547 -438.492 -16.188 QT
-439.375 -16.828 -440.844 -16.828 QT
-442.547 -16.828 L
cp
-415.844 -21.922 M
-417.703 -21.922 -418.68 -20.586 QT
-419.656 -19.25 -419.656 -16.734 QT
-419.656 -14.219 -418.68 -12.883 QT
-417.703 -11.547 -415.844 -11.547 QT
-414.016 -11.547 -413.047 -12.883 QT
-412.078 -14.219 -412.078 -16.734 QT
-412.078 -19.25 -413.047 -20.586 QT
-414.016 -21.922 -415.844 -21.922 QT
cp
-415.844 -25.922 M
-411.328 -25.922 -408.789 -23.484 QT
-406.25 -21.047 -406.25 -16.734 QT
-406.25 -12.422 -408.789 -9.984 QT
-411.328 -7.547 -415.844 -7.547 QT
-420.375 -7.547 -422.93 -9.984 QT
-425.484 -12.422 -425.484 -16.734 QT
-425.484 -21.047 -422.93 -23.484 QT
-420.375 -25.922 -415.844 -25.922 QT
cp
-403.047 -25.5 M
-387.781 -25.5 L
-387.781 -21.594 L
-397 -12 L
-387.781 -12 L
-387.781 -8 L
-403.438 -8 L
-403.438 -11.906 L
-394.219 -21.5 L
-403.047 -21.5 L
-403.047 -25.5 L
cp
-383.563 -32.313 M
-377.969 -32.313 L
-377.969 -19.078 L
-371.531 -25.5 L
-365.031 -25.5 L
-373.578 -17.469 L
-364.359 -8 L
-371.141 -8 L
-377.969 -15.297 L
-377.969 -8 L
-383.563 -8 L
-383.563 -32.313 L
cp
-361.859 -32.313 M
-356.234 -32.313 L
-356.234 -24.484 L
-354.219 -25.859 L
-352.484 -23.453 L
-356.234 -20.891 L
-356.234 -8 L
-361.859 -8 L
-361.859 -18.016 L
-363.813 -16.672 L
-365.547 -19.078 L
-361.859 -21.625 L
-361.859 -32.313 L
cp
-342.563 -15.875 M
-344.313 -15.875 -345.195 -15.281 QT
-346.078 -14.688 -346.078 -13.531 QT
-346.078 -12.469 -345.367 -11.867 QT
-344.656 -11.266 -343.391 -11.266 QT
-341.813 -11.266 -340.734 -12.398 QT
-339.656 -13.531 -339.656 -15.234 QT
-339.656 -15.875 L
-342.563 -15.875 L
cp
-334.016 -17.984 M
-334.016 -8 L
-339.656 -8 L
-339.656 -10.594 L
-340.781 -9 -342.188 -8.273 QT
-343.594 -7.547 -345.609 -7.547 QT
-348.328 -7.547 -350.023 -9.133 QT
-351.719 -10.719 -351.719 -13.25 QT
-351.719 -16.328 -349.602 -17.766 QT
-347.484 -19.203 -342.953 -19.203 QT
-339.656 -19.203 L
-339.656 -19.641 L
-339.656 -20.969 -340.703 -21.586 QT
-341.75 -22.203 -343.969 -22.203 QT
-345.766 -22.203 -347.313 -21.844 QT
-348.859 -21.484 -350.188 -20.766 QT
-350.188 -25.031 L
-348.391 -25.469 -346.578 -25.695 QT
-344.766 -25.922 -342.953 -25.922 QT
-338.219 -25.922 -336.117 -24.055 QT
-334.016 -22.188 -334.016 -17.984 QT
cp
-316.906 -22.938 M
-316.906 -32.313 L
-311.281 -32.313 L
-311.281 -8 L
-316.906 -8 L
-316.906 -10.531 L
-318.063 -8.984 -319.453 -8.266 QT
-320.844 -7.547 -322.672 -7.547 QT
-325.906 -7.547 -327.984 -10.117 QT
-330.063 -12.688 -330.063 -16.734 QT
-330.063 -20.781 -327.984 -23.352 QT
-325.906 -25.922 -322.672 -25.922 QT
-320.859 -25.922 -319.461 -25.195 QT
-318.063 -24.469 -316.906 -22.938 QT
cp
-320.594 -11.609 M
-318.797 -11.609 -317.852 -12.922 QT
-316.906 -14.234 -316.906 -16.734 QT
-316.906 -19.234 -317.852 -20.547 QT
-318.797 -21.859 -320.594 -21.859 QT
-322.375 -21.859 -323.32 -20.547 QT
-324.266 -19.234 -324.266 -16.734 QT
-324.266 -14.234 -323.32 -12.922 QT
-322.375 -11.609 -320.594 -11.609 QT
cp
-280.625 -24.953 M
-280.625 -20.391 L
-281.766 -21.172 -282.914 -21.547 QT
-284.063 -21.922 -285.297 -21.922 QT
-287.641 -21.922 -288.945 -20.555 QT
-290.25 -19.188 -290.25 -16.734 QT
-290.25 -14.281 -288.945 -12.914 QT
-287.641 -11.547 -285.297 -11.547 QT
-283.984 -11.547 -282.805 -11.938 QT
-281.625 -12.328 -280.625 -13.094 QT
-280.625 -8.516 L
-281.938 -8.031 -283.289 -7.789 QT
-284.641 -7.547 -286 -7.547 QT
-290.734 -7.547 -293.406 -9.977 QT
-296.078 -12.406 -296.078 -16.734 QT
-296.078 -21.063 -293.406 -23.492 QT
-290.734 -25.922 -286 -25.922 QT
-284.625 -25.922 -283.289 -25.68 QT
-281.953 -25.438 -280.625 -24.953 QT
cp
-276.656 -25.5 M
-261.391 -25.5 L
-261.391 -21.594 L
-270.609 -12 L
-261.391 -12 L
-261.391 -8 L
-277.047 -8 L
-277.047 -11.906 L
-267.828 -21.5 L
-276.656 -21.5 L
-276.656 -25.5 L
cp
-249.328 -15.875 M
-251.078 -15.875 -251.961 -15.281 QT
-252.844 -14.688 -252.844 -13.531 QT
-252.844 -12.469 -252.133 -11.867 QT
-251.422 -11.266 -250.156 -11.266 QT
-248.578 -11.266 -247.5 -12.398 QT
-246.422 -13.531 -246.422 -15.234 QT
-246.422 -15.875 L
-249.328 -15.875 L
cp
-240.781 -17.984 M
-240.781 -8 L
-246.422 -8 L
-246.422 -10.594 L
-247.547 -9 -248.953 -8.273 QT
-250.359 -7.547 -252.375 -7.547 QT
-255.094 -7.547 -256.789 -9.133 QT
-258.484 -10.719 -258.484 -13.25 QT
-258.484 -16.328 -256.367 -17.766 QT
-254.25 -19.203 -249.719 -19.203 QT
-246.422 -19.203 L
-246.422 -19.641 L
-246.422 -20.969 -247.469 -21.586 QT
-248.516 -22.203 -250.734 -22.203 QT
-252.531 -22.203 -254.078 -21.844 QT
-255.625 -21.484 -256.953 -20.766 QT
-256.953 -25.031 L
-255.156 -25.469 -253.344 -25.695 QT
-251.531 -25.922 -249.719 -25.922 QT
-244.984 -25.922 -242.883 -24.055 QT
-240.781 -22.188 -240.781 -17.984 QT
cp
-221.906 -24.953 M
-221.906 -20.703 L
-223.703 -21.453 -225.375 -21.828 QT
-227.047 -22.203 -228.531 -22.203 QT
-230.125 -22.203 -230.898 -21.805 QT
-231.672 -21.406 -231.672 -20.578 QT
-231.672 -19.906 -231.086 -19.547 QT
-230.5 -19.188 -228.984 -19.016 QT
-228 -18.875 L
-223.703 -18.328 -222.219 -17.078 QT
-220.734 -15.828 -220.734 -13.156 QT
-220.734 -10.359 -222.797 -8.953 QT
-224.859 -7.547 -228.953 -7.547 QT
-230.688 -7.547 -232.539 -7.82 QT
-234.391 -8.094 -236.344 -8.641 QT
-236.344 -12.891 L
-234.672 -12.078 -232.914 -11.672 QT
-231.156 -11.266 -229.344 -11.266 QT
-227.703 -11.266 -226.875 -11.719 QT
-226.047 -12.172 -226.047 -13.063 QT
-226.047 -13.813 -226.617 -14.18 QT
-227.188 -14.547 -228.891 -14.75 QT
-229.875 -14.875 L
-233.609 -15.344 -235.109 -16.609 QT
-236.609 -17.875 -236.609 -20.453 QT
-236.609 -23.234 -234.703 -24.578 QT
-232.797 -25.922 -228.859 -25.922 QT
-227.313 -25.922 -225.609 -25.688 QT
-223.906 -25.453 -221.906 -24.953 QT
cp
-208.203 -21.922 M
-210.063 -21.922 -211.039 -20.586 QT
-212.016 -19.25 -212.016 -16.734 QT
-212.016 -14.219 -211.039 -12.883 QT
-210.063 -11.547 -208.203 -11.547 QT
-206.375 -11.547 -205.406 -12.883 QT
-204.438 -14.219 -204.438 -16.734 QT
-204.438 -19.25 -205.406 -20.586 QT
-206.375 -21.922 -208.203 -21.922 QT
cp
-208.203 -25.922 M
-203.688 -25.922 -201.148 -23.484 QT
-198.609 -21.047 -198.609 -16.734 QT
-198.609 -12.422 -201.148 -9.984 QT
-203.688 -7.547 -208.203 -7.547 QT
-212.734 -7.547 -215.289 -9.984 QT
-217.844 -12.422 -217.844 -16.734 QT
-217.844 -21.047 -215.289 -23.484 QT
-212.734 -25.922 -208.203 -25.922 QT
cp
-196.109 -25.5 M
-190.672 -25.5 L
-187.734 -13.438 L
-184.781 -25.5 L
-180.109 -25.5 L
-177.172 -13.563 L
-174.219 -25.5 L
-168.781 -25.5 L
-173.391 -8 L
-179.5 -8 L
-182.453 -20.031 L
-185.391 -8 L
-191.5 -8 L
-196.109 -25.5 L
cp
-167.281 -25.5 M
-161.688 -25.5 L
-156.984 -13.625 L
-152.984 -25.5 L
-147.391 -25.5 L
-154.75 -6.344 L
-155.859 -3.422 -157.336 -2.258 QT
-158.813 -1.094 -161.234 -1.094 QT
-164.469 -1.094 L
-164.469 -4.766 L
-162.719 -4.766 L
-161.297 -4.766 -160.648 -5.219 QT
-160 -5.672 -159.641 -6.844 QT
-159.484 -7.328 L
-167.281 -25.5 L
cp
-132.984 -25.5 M
-127.391 -25.5 L
-127.391 -8 L
-132.984 -8 L
-132.984 -25.5 L
cp
-132.984 -32.313 M
-127.391 -32.313 L
-127.391 -27.75 L
-132.984 -27.75 L
-132.984 -32.313 L
cp
-105.797 -22.594 M
-104.734 -24.219 -103.273 -25.07 QT
-101.813 -25.922 -100.063 -25.922 QT
-97.047 -25.922 -95.469 -24.063 QT
-93.891 -22.203 -93.891 -18.656 QT
-93.891 -8 L
-99.516 -8 L
-99.516 -17.125 L
-99.5 -17.328 -99.492 -17.547 QT
-99.484 -17.766 -99.484 -18.172 QT
-99.484 -20.031 -100.031 -20.867 QT
-100.578 -21.703 -101.797 -21.703 QT
-103.391 -21.703 -104.258 -20.391 QT
-105.125 -19.078 -105.156 -16.594 QT
-105.156 -8 L
-110.781 -8 L
-110.781 -17.125 L
-110.781 -20.031 -111.281 -20.867 QT
-111.781 -21.703 -113.063 -21.703 QT
-114.672 -21.703 -115.547 -20.383 QT
-116.422 -19.063 -116.422 -16.609 QT
-116.422 -8 L
-122.047 -8 L
-122.047 -25.5 L
-116.422 -25.5 L
-116.422 -22.938 L
-115.391 -24.422 -114.055 -25.172 QT
-112.719 -25.922 -111.109 -25.922 QT
-109.297 -25.922 -107.906 -25.047 QT
-106.516 -24.172 -105.797 -22.594 QT
cp
-83.078 -10.531 M
-83.078 -1.344 L
-88.672 -1.344 L
-88.672 -25.5 L
-83.078 -25.5 L
-83.078 -22.938 L
-81.922 -24.469 -80.516 -25.195 QT
-79.109 -25.922 -77.281 -25.922 QT
-74.047 -25.922 -71.969 -23.352 QT
-69.891 -20.781 -69.891 -16.734 QT
-69.891 -12.688 -71.969 -10.117 QT
-74.047 -7.547 -77.281 -7.547 QT
-79.109 -7.547 -80.516 -8.273 QT
-81.922 -9 -83.078 -10.531 QT
cp
-79.359 -21.859 M
-81.156 -21.859 -82.117 -20.539 QT
-83.078 -19.219 -83.078 -16.734 QT
-83.078 -14.25 -82.117 -12.93 QT
-81.156 -11.609 -79.359 -11.609 QT
-77.563 -11.609 -76.617 -12.922 QT
-75.672 -14.234 -75.672 -16.734 QT
-75.672 -19.234 -76.617 -20.547 QT
-77.563 -21.859 -79.359 -21.859 QT
cp
-65.953 -14.813 M
-65.953 -25.5 L
-60.328 -25.5 L
-60.328 -23.75 L
-60.328 -22.328 -60.344 -20.18 QT
-60.359 -18.031 -60.359 -17.313 QT
-60.359 -15.203 -60.25 -14.273 QT
-60.141 -13.344 -59.875 -12.922 QT
-59.531 -12.375 -58.977 -12.078 QT
-58.422 -11.781 -57.703 -11.781 QT
-55.953 -11.781 -54.953 -13.125 QT
-53.953 -14.469 -53.953 -16.859 QT
-53.953 -25.5 L
-48.359 -25.5 L
-48.359 -8 L
-53.953 -8 L
-53.953 -10.531 L
-55.219 -9 -56.633 -8.273 QT
-58.047 -7.547 -59.75 -7.547 QT
-62.781 -7.547 -64.367 -9.406 QT
-65.953 -11.266 -65.953 -14.813 QT
cp
-42.984 -32.313 M
-37.391 -32.313 L
-37.391 -8 L
-42.984 -8 L
-42.984 -32.313 L
cp
-18.344 -24.953 M
-18.344 -20.703 L
-20.141 -21.453 -21.813 -21.828 QT
-23.484 -22.203 -24.969 -22.203 QT
-26.563 -22.203 -27.336 -21.805 QT
-28.109 -21.406 -28.109 -20.578 QT
-28.109 -19.906 -27.523 -19.547 QT
-26.938 -19.188 -25.422 -19.016 QT
-24.438 -18.875 L
-20.141 -18.328 -18.656 -17.078 QT
-17.172 -15.828 -17.172 -13.156 QT
-17.172 -10.359 -19.234 -8.953 QT
-21.297 -7.547 -25.391 -7.547 QT
-27.125 -7.547 -28.977 -7.82 QT
-30.828 -8.094 -32.781 -8.641 QT
-32.781 -12.891 L
-31.109 -12.078 -29.352 -11.672 QT
-27.594 -11.266 -25.781 -11.266 QT
-24.141 -11.266 -23.313 -11.719 QT
-22.484 -12.172 -22.484 -13.063 QT
-22.484 -13.813 -23.055 -14.18 QT
-23.625 -14.547 -25.328 -14.75 QT
-26.313 -14.875 L
-30.047 -15.344 -31.547 -16.609 QT
-33.047 -17.875 -33.047 -20.453 QT
-33.047 -23.234 -31.141 -24.578 QT
-29.234 -25.922 -25.297 -25.922 QT
-23.75 -25.922 -22.047 -25.688 QT
-20.344 -25.453 -18.344 -24.953 QT
cp
-13.156 -14.813 M
-13.156 -25.5 L
-7.531 -25.5 L
-7.531 -23.75 L
-7.531 -22.328 -7.547 -20.18 QT
-7.563 -18.031 -7.563 -17.313 QT
-7.563 -15.203 -7.453 -14.273 QT
-7.344 -13.344 -7.078 -12.922 QT
-6.734 -12.375 -6.18 -12.078 QT
-5.625 -11.781 -4.906 -11.781 QT
-3.156 -11.781 -2.156 -13.125 QT
-1.156 -14.469 -1.156 -16.859 QT
-1.156 -25.5 L
4.438 -25.5 L
4.438 -8 L
-1.156 -8 L
-1.156 -10.531 L
-2.422 -9 -3.836 -8.273 QT
-5.25 -7.547 -6.953 -7.547 QT
-9.984 -7.547 -11.57 -9.406 QT
-13.156 -11.266 -13.156 -14.813 QT
cp
38.547 -18.656 M
38.547 -8 L
32.922 -8 L
32.922 -9.734 L
32.922 -16.156 L
32.922 -18.422 32.82 -19.281 QT
32.719 -20.141 32.469 -20.547 QT
32.141 -21.094 31.578 -21.398 QT
31.016 -21.703 30.297 -21.703 QT
28.547 -21.703 27.547 -20.352 QT
26.547 -19 26.547 -16.609 QT
26.547 -8 L
20.953 -8 L
20.953 -25.5 L
26.547 -25.5 L
26.547 -22.938 L
27.813 -24.469 29.234 -25.195 QT
30.656 -25.922 32.375 -25.922 QT
35.406 -25.922 36.977 -24.063 QT
38.547 -22.203 38.547 -18.656 QT
cp
43.734 -25.5 M
49.328 -25.5 L
49.328 -8 L
43.734 -8 L
43.734 -25.5 L
cp
43.734 -32.313 M
49.328 -32.313 L
49.328 -27.75 L
43.734 -27.75 L
43.734 -32.313 L
cp
72.172 -16.797 M
72.172 -15.203 L
59.094 -15.203 L
59.297 -13.234 60.516 -12.25 QT
61.734 -11.266 63.922 -11.266 QT
65.688 -11.266 67.539 -11.789 QT
69.391 -12.313 71.344 -13.375 QT
71.344 -9.063 L
69.359 -8.313 67.375 -7.93 QT
65.391 -7.547 63.406 -7.547 QT
58.656 -7.547 56.023 -9.961 QT
53.391 -12.375 53.391 -16.734 QT
53.391 -21.016 55.977 -23.469 QT
58.563 -25.922 63.094 -25.922 QT
67.219 -25.922 69.695 -23.438 QT
72.172 -20.953 72.172 -16.797 QT
cp
66.422 -18.656 M
66.422 -20.25 65.492 -21.227 QT
64.563 -22.203 63.063 -22.203 QT
61.438 -22.203 60.422 -21.289 QT
59.406 -20.375 59.156 -18.656 QT
66.422 -18.656 L
cp
82 -10.531 M
82 -1.344 L
76.406 -1.344 L
76.406 -25.5 L
82 -25.5 L
82 -22.938 L
83.156 -24.469 84.563 -25.195 QT
85.969 -25.922 87.797 -25.922 QT
91.031 -25.922 93.109 -23.352 QT
95.188 -20.781 95.188 -16.734 QT
95.188 -12.688 93.109 -10.117 QT
91.031 -7.547 87.797 -7.547 QT
85.969 -7.547 84.563 -8.273 QT
83.156 -9 82 -10.531 QT
cp
85.719 -21.859 M
83.922 -21.859 82.961 -20.539 QT
82 -19.219 82 -16.734 QT
82 -14.25 82.961 -12.93 QT
83.922 -11.609 85.719 -11.609 QT
87.516 -11.609 88.461 -12.922 QT
89.406 -14.234 89.406 -16.734 QT
89.406 -19.234 88.461 -20.547 QT
87.516 -21.859 85.719 -21.859 QT
cp
107.641 -21.922 M
105.781 -21.922 104.805 -20.586 QT
103.828 -19.25 103.828 -16.734 QT
103.828 -14.219 104.805 -12.883 QT
105.781 -11.547 107.641 -11.547 QT
109.469 -11.547 110.438 -12.883 QT
111.406 -14.219 111.406 -16.734 QT
111.406 -19.25 110.438 -20.586 QT
109.469 -21.922 107.641 -21.922 QT
cp
107.641 -25.922 M
112.156 -25.922 114.695 -23.484 QT
117.234 -21.047 117.234 -16.734 QT
117.234 -12.422 114.695 -9.984 QT
112.156 -7.547 107.641 -7.547 QT
103.109 -7.547 100.555 -9.984 QT
98 -12.422 98 -16.734 QT
98 -21.047 100.555 -23.484 QT
103.109 -25.922 107.641 -25.922 QT
cp
133.203 -22.938 M
133.203 -32.313 L
138.828 -32.313 L
138.828 -8 L
133.203 -8 L
133.203 -10.531 L
132.047 -8.984 130.656 -8.266 QT
129.266 -7.547 127.438 -7.547 QT
124.203 -7.547 122.125 -10.117 QT
120.047 -12.688 120.047 -16.734 QT
120.047 -20.781 122.125 -23.352 QT
124.203 -25.922 127.438 -25.922 QT
129.25 -25.922 130.648 -25.195 QT
132.047 -24.469 133.203 -22.938 QT
cp
129.516 -11.609 M
131.313 -11.609 132.258 -12.922 QT
133.203 -14.234 133.203 -16.734 QT
133.203 -19.234 132.258 -20.547 QT
131.313 -21.859 129.516 -21.859 QT
127.734 -21.859 126.789 -20.547 QT
125.844 -19.234 125.844 -16.734 QT
125.844 -14.234 126.789 -12.922 QT
127.734 -11.609 129.516 -11.609 QT
cp
156.109 -22.938 M
156.109 -32.313 L
161.734 -32.313 L
161.734 -8 L
156.109 -8 L
156.109 -10.531 L
154.953 -8.984 153.563 -8.266 QT
152.172 -7.547 150.344 -7.547 QT
147.109 -7.547 145.031 -10.117 QT
142.953 -12.688 142.953 -16.734 QT
142.953 -20.781 145.031 -23.352 QT
147.109 -25.922 150.344 -25.922 QT
152.156 -25.922 153.555 -25.195 QT
154.953 -24.469 156.109 -22.938 QT
cp
152.422 -11.609 M
154.219 -11.609 155.164 -12.922 QT
156.109 -14.234 156.109 -16.734 QT
156.109 -19.234 155.164 -20.547 QT
154.219 -21.859 152.422 -21.859 QT
150.641 -21.859 149.695 -20.547 QT
148.75 -19.234 148.75 -16.734 QT
148.75 -14.234 149.695 -12.922 QT
150.641 -11.609 152.422 -11.609 QT
cp
174.953 -15.875 M
173.203 -15.875 172.32 -15.281 QT
171.438 -14.688 171.438 -13.531 QT
171.438 -12.469 172.148 -11.867 QT
172.859 -11.266 174.125 -11.266 QT
175.703 -11.266 176.781 -12.398 QT
177.859 -13.531 177.859 -15.234 QT
177.859 -15.875 L
174.953 -15.875 L
cp
183.5 -17.984 M
183.5 -8 L
177.859 -8 L
177.859 -10.594 L
176.734 -9 175.328 -8.273 QT
173.922 -7.547 171.906 -7.547 QT
169.188 -7.547 167.492 -9.133 QT
165.797 -10.719 165.797 -13.25 QT
165.797 -16.328 167.914 -17.766 QT
170.031 -19.203 174.563 -19.203 QT
177.859 -19.203 L
177.859 -19.641 L
177.859 -20.969 176.813 -21.586 QT
175.766 -22.203 173.547 -22.203 QT
171.75 -22.203 170.203 -21.844 QT
168.656 -21.484 167.328 -20.766 QT
167.328 -25.031 L
169.125 -25.469 170.938 -25.695 QT
172.75 -25.922 174.563 -25.922 QT
179.297 -25.922 181.398 -24.055 QT
183.5 -22.188 183.5 -17.984 QT
cp
206.297 -18.656 M
206.297 -8 L
200.672 -8 L
200.672 -9.734 L
200.672 -16.156 L
200.672 -18.422 200.57 -19.281 QT
200.469 -20.141 200.219 -20.547 QT
199.891 -21.094 199.328 -21.398 QT
198.766 -21.703 198.047 -21.703 QT
196.297 -21.703 195.297 -20.352 QT
194.297 -19 194.297 -16.609 QT
194.297 -8 L
188.703 -8 L
188.703 -25.5 L
194.297 -25.5 L
194.297 -22.938 L
195.563 -24.469 196.984 -25.195 QT
198.406 -25.922 200.125 -25.922 QT
203.156 -25.922 204.727 -24.063 QT
206.297 -22.203 206.297 -18.656 QT
cp
228.953 -16.797 M
228.953 -15.203 L
215.875 -15.203 L
216.078 -13.234 217.297 -12.25 QT
218.516 -11.266 220.703 -11.266 QT
222.469 -11.266 224.32 -11.789 QT
226.172 -12.313 228.125 -13.375 QT
228.125 -9.063 L
226.141 -8.313 224.156 -7.93 QT
222.172 -7.547 220.188 -7.547 QT
215.438 -7.547 212.805 -9.961 QT
210.172 -12.375 210.172 -16.734 QT
210.172 -21.016 212.758 -23.469 QT
215.344 -25.922 219.875 -25.922 QT
224 -25.922 226.477 -23.438 QT
228.953 -20.953 228.953 -16.797 QT
cp
223.203 -18.656 M
223.203 -20.25 222.273 -21.227 QT
221.344 -22.203 219.844 -22.203 QT
218.219 -22.203 217.203 -21.289 QT
216.188 -20.375 215.938 -18.656 QT
223.203 -18.656 L
cp
245.094 -10.969 M
243.938 -9.438 242.547 -8.719 QT
241.156 -8 239.328 -8 QT
236.125 -8 234.031 -10.523 QT
231.938 -13.047 231.938 -16.953 QT
231.938 -20.875 234.031 -23.383 QT
236.125 -25.891 239.328 -25.891 QT
241.156 -25.891 242.547 -25.172 QT
243.938 -24.453 245.094 -22.906 QT
245.094 -25.5 L
250.719 -25.5 L
250.719 -9.766 L
250.719 -5.547 248.055 -3.32 QT
245.391 -1.094 240.328 -1.094 QT
238.688 -1.094 237.156 -1.344 QT
235.625 -1.594 234.078 -2.109 QT
234.078 -6.469 L
235.547 -5.625 236.953 -5.211 QT
238.359 -4.797 239.781 -4.797 QT
242.531 -4.797 243.813 -6 QT
245.094 -7.203 245.094 -9.766 QT
245.094 -10.969 L
cp
241.406 -21.859 M
239.672 -21.859 238.703 -20.578 QT
237.734 -19.297 237.734 -16.953 QT
237.734 -14.547 238.672 -13.305 QT
239.609 -12.063 241.406 -12.063 QT
243.156 -12.063 244.125 -13.344 QT
245.094 -14.625 245.094 -16.953 QT
245.094 -19.297 244.125 -20.578 QT
243.156 -21.859 241.406 -21.859 QT
cp
264.422 -21.922 M
262.563 -21.922 261.586 -20.586 QT
260.609 -19.25 260.609 -16.734 QT
260.609 -14.219 261.586 -12.883 QT
262.563 -11.547 264.422 -11.547 QT
266.25 -11.547 267.219 -12.883 QT
268.188 -14.219 268.188 -16.734 QT
268.188 -19.25 267.219 -20.586 QT
266.25 -21.922 264.422 -21.922 QT
cp
264.422 -25.922 M
268.938 -25.922 271.477 -23.484 QT
274.016 -21.047 274.016 -16.734 QT
274.016 -12.422 271.477 -9.984 QT
268.938 -7.547 264.422 -7.547 QT
259.891 -7.547 257.336 -9.984 QT
254.781 -12.422 254.781 -16.734 QT
254.781 -21.047 257.336 -23.484 QT
259.891 -25.922 264.422 -25.922 QT
cp
301.125 -22.938 M
301.125 -32.313 L
306.75 -32.313 L
306.75 -8 L
301.125 -8 L
301.125 -10.531 L
299.969 -8.984 298.578 -8.266 QT
297.188 -7.547 295.359 -7.547 QT
292.125 -7.547 290.047 -10.117 QT
287.969 -12.688 287.969 -16.734 QT
287.969 -20.781 290.047 -23.352 QT
292.125 -25.922 295.359 -25.922 QT
297.172 -25.922 298.57 -25.195 QT
299.969 -24.469 301.125 -22.938 QT
cp
297.438 -11.609 M
299.234 -11.609 300.18 -12.922 QT
301.125 -14.234 301.125 -16.734 QT
301.125 -19.234 300.18 -20.547 QT
299.234 -21.859 297.438 -21.859 QT
295.656 -21.859 294.711 -20.547 QT
293.766 -19.234 293.766 -16.734 QT
293.766 -14.234 294.711 -12.922 QT
295.656 -11.609 297.438 -11.609 QT
cp
309.828 -25.5 M
315.422 -25.5 L
320.125 -13.625 L
324.125 -25.5 L
329.719 -25.5 L
322.359 -6.344 L
321.25 -3.422 319.773 -2.258 QT
318.297 -1.094 315.875 -1.094 QT
312.641 -1.094 L
312.641 -4.766 L
314.391 -4.766 L
315.813 -4.766 316.461 -5.219 QT
317.109 -5.672 317.469 -6.844 QT
317.625 -7.328 L
309.828 -25.5 L
cp
346.656 -24.953 M
346.656 -20.703 L
344.859 -21.453 343.188 -21.828 QT
341.516 -22.203 340.031 -22.203 QT
338.438 -22.203 337.664 -21.805 QT
336.891 -21.406 336.891 -20.578 QT
336.891 -19.906 337.477 -19.547 QT
338.063 -19.188 339.578 -19.016 QT
340.563 -18.875 L
344.859 -18.328 346.344 -17.078 QT
347.828 -15.828 347.828 -13.156 QT
347.828 -10.359 345.766 -8.953 QT
343.703 -7.547 339.609 -7.547 QT
337.875 -7.547 336.023 -7.82 QT
334.172 -8.094 332.219 -8.641 QT
332.219 -12.891 L
333.891 -12.078 335.648 -11.672 QT
337.406 -11.266 339.219 -11.266 QT
340.859 -11.266 341.688 -11.719 QT
342.516 -12.172 342.516 -13.063 QT
342.516 -13.813 341.945 -14.18 QT
341.375 -14.547 339.672 -14.75 QT
338.688 -14.875 L
334.953 -15.344 333.453 -16.609 QT
331.953 -17.875 331.953 -20.453 QT
331.953 -23.234 333.859 -24.578 QT
335.766 -25.922 339.703 -25.922 QT
341.25 -25.922 342.953 -25.688 QT
344.656 -25.453 346.656 -24.953 QT
cp
357.625 -10.531 M
357.625 -1.344 L
352.031 -1.344 L
352.031 -25.5 L
357.625 -25.5 L
357.625 -22.938 L
358.781 -24.469 360.188 -25.195 QT
361.594 -25.922 363.422 -25.922 QT
366.656 -25.922 368.734 -23.352 QT
370.813 -20.781 370.813 -16.734 QT
370.813 -12.688 368.734 -10.117 QT
366.656 -7.547 363.422 -7.547 QT
361.594 -7.547 360.188 -8.273 QT
358.781 -9 357.625 -10.531 QT
cp
361.344 -21.859 M
359.547 -21.859 358.586 -20.539 QT
357.625 -19.219 357.625 -16.734 QT
357.625 -14.25 358.586 -12.93 QT
359.547 -11.609 361.344 -11.609 QT
363.141 -11.609 364.086 -12.922 QT
365.031 -14.234 365.031 -16.734 QT
365.031 -19.234 364.086 -20.547 QT
363.141 -21.859 361.344 -21.859 QT
cp
392.406 -16.797 M
392.406 -15.203 L
379.328 -15.203 L
379.531 -13.234 380.75 -12.25 QT
381.969 -11.266 384.156 -11.266 QT
385.922 -11.266 387.773 -11.789 QT
389.625 -12.313 391.578 -13.375 QT
391.578 -9.063 L
389.594 -8.313 387.609 -7.93 QT
385.625 -7.547 383.641 -7.547 QT
378.891 -7.547 376.258 -9.961 QT
373.625 -12.375 373.625 -16.734 QT
373.625 -21.016 376.211 -23.469 QT
378.797 -25.922 383.328 -25.922 QT
387.453 -25.922 389.93 -23.438 QT
392.406 -20.953 392.406 -16.797 QT
cp
386.656 -18.656 M
386.656 -20.25 385.727 -21.227 QT
384.797 -22.203 383.297 -22.203 QT
381.672 -22.203 380.656 -21.289 QT
379.641 -20.375 379.391 -18.656 QT
386.656 -18.656 L
cp
409.641 -20.734 M
408.906 -21.078 408.18 -21.242 QT
407.453 -21.406 406.719 -21.406 QT
404.563 -21.406 403.398 -20.023 QT
402.234 -18.641 402.234 -16.063 QT
402.234 -8 L
396.641 -8 L
396.641 -25.5 L
402.234 -25.5 L
402.234 -22.625 L
403.313 -24.344 404.711 -25.133 QT
406.109 -25.922 408.063 -25.922 QT
408.344 -25.922 408.672 -25.898 QT
409 -25.875 409.625 -25.797 QT
409.641 -20.734 L
cp
426.094 -24.953 M
426.094 -20.703 L
424.297 -21.453 422.625 -21.828 QT
420.953 -22.203 419.469 -22.203 QT
417.875 -22.203 417.102 -21.805 QT
416.328 -21.406 416.328 -20.578 QT
416.328 -19.906 416.914 -19.547 QT
417.5 -19.188 419.016 -19.016 QT
420 -18.875 L
424.297 -18.328 425.781 -17.078 QT
427.266 -15.828 427.266 -13.156 QT
427.266 -10.359 425.203 -8.953 QT
423.141 -7.547 419.047 -7.547 QT
417.313 -7.547 415.461 -7.82 QT
413.609 -8.094 411.656 -8.641 QT
411.656 -12.891 L
413.328 -12.078 415.086 -11.672 QT
416.844 -11.266 418.656 -11.266 QT
420.297 -11.266 421.125 -11.719 QT
421.953 -12.172 421.953 -13.063 QT
421.953 -13.813 421.383 -14.18 QT
420.813 -14.547 419.109 -14.75 QT
418.125 -14.875 L
414.391 -15.344 412.891 -16.609 QT
411.391 -17.875 411.391 -20.453 QT
411.391 -23.234 413.297 -24.578 QT
415.203 -25.922 419.141 -25.922 QT
420.688 -25.922 422.391 -25.688 QT
424.094 -25.453 426.094 -24.953 QT
cp
431.469 -25.5 M
437.063 -25.5 L
437.063 -8.313 L
437.063 -4.797 435.375 -2.945 QT
433.688 -1.094 430.484 -1.094 QT
427.719 -1.094 L
427.719 -4.766 L
428.688 -4.766 L
430.281 -4.766 430.875 -5.484 QT
431.469 -6.203 431.469 -8.313 QT
431.469 -25.5 L
cp
431.469 -32.313 M
437.063 -32.313 L
437.063 -27.75 L
431.469 -27.75 L
431.469 -32.313 L
cp
442.438 -25.5 M
448.031 -25.5 L
448.031 -8 L
442.438 -8 L
442.438 -25.5 L
cp
442.438 -32.313 M
448.031 -32.313 L
448.031 -27.75 L
442.438 -27.75 L
442.438 -32.313 L
cp
f
GR
GS
[0.75 0 0 0.75 123.85739 503.6579] CT
0 0 1 RC
N
1.333 0 M
1.333 0.736 0.736 1.333 0 1.333 C
-0.736 1.333 -1.333 0.736 -1.333 0 C
-1.333 -0.736 -0.736 -1.333 0 -1.333 C
0.736 -1.333 1.333 -0.736 1.333 0 C
cp
f
GR
GS
[0.75 0 0 0.75 141.10202 503.51974] CT
0 0 1 RC
N
1.333 0 M
1.333 0.736 0.736 1.333 0 1.333 C
-0.736 1.333 -1.333 0.736 -1.333 0 C
-1.333 -0.736 -0.736 -1.333 0 -1.333 C
0.736 -1.333 1.333 -0.736 1.333 0 C
cp
f
GR
GS
[0.75 0 0 0.75 158.34667 503.6579] CT
0 0 1 RC
N
1.333 0 M
1.333 0.736 0.736 1.333 0 1.333 C
-0.736 1.333 -1.333 0.736 -1.333 0 C
-1.333 -0.736 -0.736 -1.333 0 -1.333 C
0.736 -1.333 1.333 -0.736 1.333 0 C
cp
f
GR
GS
[0.75 0 0 0.75 175.59128 503.28949] CT
0 0 1 RC
N
1.333 0 M
1.333 0.736 0.736 1.333 0 1.333 C
-0.736 1.333 -1.333 0.736 -1.333 0 C
-1.333 -0.736 -0.736 -1.333 0 -1.333 C
0.736 -1.333 1.333 -0.736 1.333 0 C
cp
f
GR
GS
[0.75 0 0 0.75 192.83592 503.5658] CT
0 0 1 RC
N
1.333 0 M
1.333 0.736 0.736 1.333 0 1.333 C
-0.736 1.333 -1.333 0.736 -1.333 0 C
-1.333 -0.736 -0.736 -1.333 0 -1.333 C
0.736 -1.333 1.333 -0.736 1.333 0 C
cp
f
GR
GS
[0.75 0 0 0.75 210.08054 503.28949] CT
0 0 1 RC
N
1.333 0 M
1.333 0.736 0.736 1.333 0 1.333 C
-0.736 1.333 -1.333 0.736 -1.333 0 C
-1.333 -0.736 -0.736 -1.333 0 -1.333 C
0.736 -1.333 1.333 -0.736 1.333 0 C
cp
f
GR
GS
[0.75 0 0 0.75 227.32519 503.61185] CT
0 0 1 RC
N
1.333 0 M
1.333 0.736 0.736 1.333 0 1.333 C
-0.736 1.333 -1.333 0.736 -1.333 0 C
-1.333 -0.736 -0.736 -1.333 0 -1.333 C
0.736 -1.333 1.333 -0.736 1.333 0 C
cp
f
GR
GS
[0.75 0 0 0.75 244.56981 503.10529] CT
0 0 1 RC
N
1.333 0 M
1.333 0.736 0.736 1.333 0 1.333 C
-0.736 1.333 -1.333 0.736 -1.333 0 C
-1.333 -0.736 -0.736 -1.333 0 -1.333 C
0.736 -1.333 1.333 -0.736 1.333 0 C
cp
f
GR
GS
[0.75 0 0 0.75 261.81443 502.78293] CT
0 0 1 RC
N
1.333 0 M
1.333 0.736 0.736 1.333 0 1.333 C
-0.736 1.333 -1.333 0.736 -1.333 0 C
-1.333 -0.736 -0.736 -1.333 0 -1.333 C
0.736 -1.333 1.333 -0.736 1.333 0 C
cp
f
GR
GS
[0.75 0 0 0.75 279.05907 501.40144] CT
0 0 1 RC
N
1.333 0 M
1.333 0.736 0.736 1.333 0 1.333 C
-0.736 1.333 -1.333 0.736 -1.333 0 C
-1.333 -0.736 -0.736 -1.333 0 -1.333 C
0.736 -1.333 1.333 -0.736 1.333 0 C
cp
f
GR
GS
[0.75 0 0 0.75 296.3037 498.03981] CT
0 0 1 RC
N
1.333 0 M
1.333 0.736 0.736 1.333 0 1.333 C
-0.736 1.333 -1.333 0.736 -1.333 0 C
-1.333 -0.736 -0.736 -1.333 0 -1.333 C
0.736 -1.333 1.333 -0.736 1.333 0 C
cp
f
GR
GS
[0.75 0 0 0.75 313.54834 490.90204] CT
0 0 1 RC
N
1.333 0 M
1.333 0.736 0.736 1.333 0 1.333 C
-0.736 1.333 -1.333 0.736 -1.333 0 C
-1.333 -0.736 -0.736 -1.333 0 -1.333 C
0.736 -1.333 1.333 -0.736 1.333 0 C
cp
f
GR
GS
[0.75 0 0 0.75 330.79296 476.02788] CT
0 0 1 RC
N
1.333 0 M
1.333 0.736 0.736 1.333 0 1.333 C
-0.736 1.333 -1.333 0.736 -1.333 0 C
-1.333 -0.736 -0.736 -1.333 0 -1.333 C
0.736 -1.333 1.333 -0.736 1.333 0 C
cp
f
GR
GS
[0.75 0 0 0.75 348.03761 447.70714] CT
0 0 1 RC
N
1.333 0 M
1.333 0.736 0.736 1.333 0 1.333 C
-0.736 1.333 -1.333 0.736 -1.333 0 C
-1.333 -0.736 -0.736 -1.333 0 -1.333 C
0.736 -1.333 1.333 -0.736 1.333 0 C
cp
f
GR
GS
[0.75 0 0 0.75 365.28223 398.89415] CT
0 0 1 RC
N
1.333 0 M
1.333 0.736 0.736 1.333 0 1.333 C
-0.736 1.333 -1.333 0.736 -1.333 0 C
-1.333 -0.736 -0.736 -1.333 0 -1.333 C
0.736 -1.333 1.333 -0.736 1.333 0 C
cp
f
GR
GS
[0.75 0 0 0.75 382.52685 341.65401] CT
0 0 1 RC
N
1.333 0 M
1.333 0.736 0.736 1.333 0 1.333 C
-0.736 1.333 -1.333 0.736 -1.333 0 C
-1.333 -0.736 -0.736 -1.333 0 -1.333 C
0.736 -1.333 1.333 -0.736 1.333 0 C
cp
f
GR
GS
[0.75 0 0 0.75 399.77147 259.3166] CT
0 0 1 RC
N
1.333 0 M
1.333 0.736 0.736 1.333 0 1.333 C
-0.736 1.333 -1.333 0.736 -1.333 0 C
-1.333 -0.736 -0.736 -1.333 0 -1.333 C
0.736 -1.333 1.333 -0.736 1.333 0 C
cp
f
GR
GS
[0.75 0 0 0.75 417.01611 245.04111] CT
0 0 1 RC
N
1.333 0 M
1.333 0.736 0.736 1.333 0 1.333 C
-0.736 1.333 -1.333 0.736 -1.333 0 C
-1.333 -0.736 -0.736 -1.333 0 -1.333 C
0.736 -1.333 1.333 -0.736 1.333 0 C
cp
f
GR
GS
[0.75 0 0 0.75 434.26076 118.81805] CT
0 0 1 RC
N
1.333 0 M
1.333 0.736 0.736 1.333 0 1.333 C
-0.736 1.333 -1.333 0.736 -1.333 0 C
-1.333 -0.736 -0.736 -1.333 0 -1.333 C
0.736 -1.333 1.333 -0.736 1.333 0 C
cp
f
GR
GS
[0.75 0 0 0.75 451.50536 72.5378] CT
0 0 1 RC
N
1.333 0 M
1.333 0.736 0.736 1.333 0 1.333 C
-0.736 1.333 -1.333 0.736 -1.333 0 C
-1.333 -0.736 -0.736 -1.333 0 -1.333 C
0.736 -1.333 1.333 -0.736 1.333 0 C
cp
f
GR
GS
[0.75 0 0 0.75 468.75 67.14995] CT
0 0 1 RC
N
1.333 0 M
1.333 0.736 0.736 1.333 0 1.333 C
-0.736 1.333 -1.333 0.736 -1.333 0 C
-1.333 -0.736 -0.736 -1.333 0 -1.333 C
0.736 -1.333 1.333 -0.736 1.333 0 C
cp
f
GR
GS
[0.75 0 0 0.75 485.99464 103.06895] CT
0 0 1 RC
N
1.333 0 M
1.333 0.736 0.736 1.333 0 1.333 C
-0.736 1.333 -1.333 0.736 -1.333 0 C
-1.333 -0.736 -0.736 -1.333 0 -1.333 C
0.736 -1.333 1.333 -0.736 1.333 0 C
cp
f
GR
GS
[0.75 0 0 0.75 503.23924 152.7569] CT
0 0 1 RC
N
1.333 0 M
1.333 0.736 0.736 1.333 0 1.333 C
-0.736 1.333 -1.333 0.736 -1.333 0 C
-1.333 -0.736 -0.736 -1.333 0 -1.333 C
0.736 -1.333 1.333 -0.736 1.333 0 C
cp
f
GR
GS
[0.75 0 0 0.75 520.48389 216.39801] CT
0 0 1 RC
N
1.333 0 M
1.333 0.736 0.736 1.333 0 1.333 C
-0.736 1.333 -1.333 0.736 -1.333 0 C
-1.333 -0.736 -0.736 -1.333 0 -1.333 C
0.736 -1.333 1.333 -0.736 1.333 0 C
cp
f
GR
GS
[0.75 0 0 0.75 537.72853 281.42059] CT
0 0 1 RC
N
1.333 0 M
1.333 0.736 0.736 1.333 0 1.333 C
-0.736 1.333 -1.333 0.736 -1.333 0 C
-1.333 -0.736 -0.736 -1.333 0 -1.333 C
0.736 -1.333 1.333 -0.736 1.333 0 C
cp
f
GR
GS
[0.75 0 0 0.75 554.97313 336.72664] CT
0 0 1 RC
N
1.333 0 M
1.333 0.736 0.736 1.333 0 1.333 C
-0.736 1.333 -1.333 0.736 -1.333 0 C
-1.333 -0.736 -0.736 -1.333 0 -1.333 C
0.736 -1.333 1.333 -0.736 1.333 0 C
cp
f
GR
GS
[0.75 0 0 0.75 572.21777 381.85566] CT
0 0 1 RC
N
1.333 0 M
1.333 0.736 0.736 1.333 0 1.333 C
-0.736 1.333 -1.333 0.736 -1.333 0 C
-1.333 -0.736 -0.736 -1.333 0 -1.333 C
0.736 -1.333 1.333 -0.736 1.333 0 C
cp
f
GR
GS
[0.75 0 0 0.75 589.46242 421.22839] CT
0 0 1 RC
N
1.333 0 M
1.333 0.736 0.736 1.333 0 1.333 C
-0.736 1.333 -1.333 0.736 -1.333 0 C
-1.333 -0.736 -0.736 -1.333 0 -1.333 C
0.736 -1.333 1.333 -0.736 1.333 0 C
cp
f
GR
GS
[0.75 0 0 0.75 606.70706 444.89812] CT
0 0 1 RC
N
1.333 0 M
1.333 0.736 0.736 1.333 0 1.333 C
-0.736 1.333 -1.333 0.736 -1.333 0 C
-1.333 -0.736 -0.736 -1.333 0 -1.333 C
0.736 -1.333 1.333 -0.736 1.333 0 C
cp
f
GR
GS
[0.75 0 0 0.75 623.95166 468.10728] CT
0 0 1 RC
N
1.333 0 M
1.333 0.736 0.736 1.333 0 1.333 C
-0.736 1.333 -1.333 0.736 -1.333 0 C
-1.333 -0.736 -0.736 -1.333 0 -1.333 C
0.736 -1.333 1.333 -0.736 1.333 0 C
cp
f
GR
GS
[0.75 0 0 0.75 641.1963 471.74527] CT
0 0 1 RC
N
1.333 0 M
1.333 0.736 0.736 1.333 0 1.333 C
-0.736 1.333 -1.333 0.736 -1.333 0 C
-1.333 -0.736 -0.736 -1.333 0 -1.333 C
0.736 -1.333 1.333 -0.736 1.333 0 C
cp
f
GR
GS
[0.75 0 0 0.75 658.44095 478.79089] CT
0 0 1 RC
N
1.333 0 M
1.333 0.736 0.736 1.333 0 1.333 C
-0.736 1.333 -1.333 0.736 -1.333 0 C
-1.333 -0.736 -0.736 -1.333 0 -1.333 C
0.736 -1.333 1.333 -0.736 1.333 0 C
cp
f
GR
GS
[0.75 0 0 0.75 675.68555 486.98779] CT
0 0 1 RC
N
1.333 0 M
1.333 0.736 0.736 1.333 0 1.333 C
-0.736 1.333 -1.333 0.736 -1.333 0 C
-1.333 -0.736 -0.736 -1.333 0 -1.333 C
0.736 -1.333 1.333 -0.736 1.333 0 C
cp
f
GR
GS
[0.75 0 0 0.75 692.93019 492.97429] CT
0 0 1 RC
N
1.333 0 M
1.333 0.736 0.736 1.333 0 1.333 C
-0.736 1.333 -1.333 0.736 -1.333 0 C
-1.333 -0.736 -0.736 -1.333 0 -1.333 C
0.736 -1.333 1.333 -0.736 1.333 0 C
cp
f
GR
GS
[0.75 0 0 0.75 710.17479 496.33597] CT
0 0 1 RC
N
1.333 0 M
1.333 0.736 0.736 1.333 0 1.333 C
-0.736 1.333 -1.333 0.736 -1.333 0 C
-1.333 -0.736 -0.736 -1.333 0 -1.333 C
0.736 -1.333 1.333 -0.736 1.333 0 C
cp
f
GR
GS
[0.75 0 0 0.75 727.41943 497.53325] CT
0 0 1 RC
N
1.333 0 M
1.333 0.736 0.736 1.333 0 1.333 C
-0.736 1.333 -1.333 0.736 -1.333 0 C
-1.333 -0.736 -0.736 -1.333 0 -1.333 C
0.736 -1.333 1.333 -0.736 1.333 0 C
cp
f
GR
GS
[0.75 0 0 0.75 744.66408 500.29626] CT
0 0 1 RC
N
1.333 0 M
1.333 0.736 0.736 1.333 0 1.333 C
-0.736 1.333 -1.333 0.736 -1.333 0 C
-1.333 -0.736 -0.736 -1.333 0 -1.333 C
0.736 -1.333 1.333 -0.736 1.333 0 C
cp
f
GR
GS
[0.75 0 0 0.75 761.90872 499.7897] CT
0 0 1 RC
N
1.333 0 M
1.333 0.736 0.736 1.333 0 1.333 C
-0.736 1.333 -1.333 0.736 -1.333 0 C
-1.333 -0.736 -0.736 -1.333 0 -1.333 C
0.736 -1.333 1.333 -0.736 1.333 0 C
cp
f
GR
GS
[0.75 0 0 0.75 779.15332 501.35539] CT
0 0 1 RC
N
1.333 0 M
1.333 0.736 0.736 1.333 0 1.333 C
-0.736 1.333 -1.333 0.736 -1.333 0 C
-1.333 -0.736 -0.736 -1.333 0 -1.333 C
0.736 -1.333 1.333 -0.736 1.333 0 C
cp
f
GR
GS
[0.75 0 0 0.75 796.39801 501.67775] CT
0 0 1 RC
N
1.333 0 M
1.333 0.736 0.736 1.333 0 1.333 C
-0.736 1.333 -1.333 0.736 -1.333 0 C
-1.333 -0.736 -0.736 -1.333 0 -1.333 C
0.736 -1.333 1.333 -0.736 1.333 0 C
cp
f
GR
GS
[0.75 0 0 0.75 813.64261 501.76985] CT
0 0 1 RC
N
1.333 0 M
1.333 0.736 0.736 1.333 0 1.333 C
-0.736 1.333 -1.333 0.736 -1.333 0 C
-1.333 -0.736 -0.736 -1.333 0 -1.333 C
0.736 -1.333 1.333 -0.736 1.333 0 C
cp
f
GR
GS
[0.75 0 0 0.75 0 0.5] CT
1 0 0 RC
1 LJ
0.667 LW
N
156.906 671 M
165.143 671 L
188.136 670.999 L
211.129 670.997 L
234.122 670.99 L
257.115 670.965 L
280.107 670.887 L
303.1 670.663 L
326.093 670.063 L
349.086 668.589 L
372.079 665.246 L
395.072 658.264 L
418.064 644.861 L
441.057 621.254 L
464.05 583.212 L
487.043 527.344 L
510.036 453.016 L
533.029 364.284 L
556.021 270.817 L
579.014 186.836 L
602.007 127.828 L
625 105.943 L
647.993 125.922 L
670.986 183.431 L
693.979 266.588 L
716.971 359.955 L
739.964 449.163 L
762.957 524.292 L
785.95 581.032 L
808.943 619.84 L
831.936 644.024 L
854.928 657.81 L
877.921 665.02 L
900.914 668.486 L
923.907 670.02 L
946.9 670.646 L
969.893 670.881 L
992.885 670.963 L
1015.878 670.989 L
1038.871 670.997 L
1061.864 670.999 L
1084.857 671 L
1093.094 671 L
S
GR
GS
[0.75 0 0 0.75 0 0.5] CT
10.0 ML
0.667 LW
N
700.64 237 M
700.64 150.8 L
1081 150.8 L
1081 237 L
cp
S
GR
GS
[0.75 0 0 0.75 530.25 134] CT
/Helvetica 24 F
GS
[1 0 0 1 0 0] CT
0 0 moveto 
1 -1 scale
(f\(x\) =  9203.07 *) t 
GR
GR
GS
[0.75 0 0 0.75 530.25 161] CT
/Helvetica 24 F
GS
[1 0 0 1 0 0] CT
0 0 moveto 
1 -1 scale
(exp\(-\(\(x-0.113997\)/25.2865\)) t 
GR
GR
GS
[0.75 0 0 0.75 789 152] CT
/Helvetica 18.667 F
GS
[1 0 0 1 0 0] CT
0 0 moveto 
1 -1 scale
(2) t 
GR
GR
GS
[0.75 0 0 0.75 798.75 161] CT
/Helvetica 24 F
GS
[1 0 0 1 0 0] CT
0 0 moveto 
1 -1 scale
(\)) t 
GR
GR
%%Trailer
%%Pages: 1
%%EOF
