%!PS-Adobe-3.0 EPSF-3.0
%%Creator: (MATLAB, The Mathworks, Inc. Version 9.2.0.538062 \(R2017a\). Operating System: Windows 7)
%%Title: ./roznosci10.eps
%%CreationDate: 2017-06-21T15:48:50
%%Pages: (atend)
%%BoundingBox:    56    17   748   607
%%LanguageLevel: 3
%%EndComments
%%BeginProlog
%%BeginResource: procset (Apache XML Graphics Std ProcSet) 1.2 0
%%Version: 1.2 0
%%Copyright: (Copyright 2001-2003,2010 The Apache Software Foundation. License terms: http://www.apache.org/licenses/LICENSE-2.0)
/bd{bind def}bind def
/ld{load def}bd
/GR/grestore ld
/M/moveto ld
/LJ/setlinejoin ld
/C/curveto ld
/f/fill ld
/LW/setlinewidth ld
/GC/setgray ld
/t/show ld
/N/newpath ld
/CT/concat ld
/cp/closepath ld
/S/stroke ld
/L/lineto ld
/CC/setcmykcolor ld
/A/ashow ld
/GS/gsave ld
/RC/setrgbcolor ld
/RM/rmoveto ld
/ML/setmiterlimit ld
/re {4 2 roll M
1 index 0 rlineto
0 exch rlineto
neg 0 rlineto
cp } bd
/_ctm matrix def
/_tm matrix def
/BT { _ctm currentmatrix pop matrix _tm copy pop 0 0 moveto } bd
/ET { _ctm setmatrix } bd
/iTm { _ctm setmatrix _tm concat } bd
/Tm { _tm astore pop iTm 0 0 moveto } bd
/ux 0.0 def
/uy 0.0 def
/F {
  /Tp exch def
  /Tf exch def
  Tf findfont Tp scalefont setfont
  /cf Tf def  /cs Tp def
} bd
/ULS {currentpoint /uy exch def /ux exch def} bd
/ULE {
  /Tcx currentpoint pop def
  gsave
  newpath
  cf findfont cs scalefont dup
  /FontMatrix get 0 get /Ts exch def /FontInfo get dup
  /UnderlinePosition get Ts mul /To exch def
  /UnderlineThickness get Ts mul /Tt exch def
  ux uy To add moveto  Tcx uy To add lineto
  Tt setlinewidth stroke
  grestore
} bd
/OLE {
  /Tcx currentpoint pop def
  gsave
  newpath
  cf findfont cs scalefont dup
  /FontMatrix get 0 get /Ts exch def /FontInfo get dup
  /UnderlinePosition get Ts mul /To exch def
  /UnderlineThickness get Ts mul /Tt exch def
  ux uy To add cs add moveto Tcx uy To add cs add lineto
  Tt setlinewidth stroke
  grestore
} bd
/SOE {
  /Tcx currentpoint pop def
  gsave
  newpath
  cf findfont cs scalefont dup
  /FontMatrix get 0 get /Ts exch def /FontInfo get dup
  /UnderlinePosition get Ts mul /To exch def
  /UnderlineThickness get Ts mul /Tt exch def
  ux uy To add cs 10 mul 26 idiv add moveto Tcx uy To add cs 10 mul 26 idiv add lineto
  Tt setlinewidth stroke
  grestore
} bd
/QT {
/Y22 exch store
/X22 exch store
/Y21 exch store
/X21 exch store
currentpoint
/Y21 load 2 mul add 3 div exch
/X21 load 2 mul add 3 div exch
/X21 load 2 mul /X22 load add 3 div
/Y21 load 2 mul /Y22 load add 3 div
/X22 load /Y22 load curveto
} bd
/SSPD {
dup length /d exch dict def
{
/v exch def
/k exch def
currentpagedevice k known {
/cpdv currentpagedevice k get def
v cpdv ne {
/upd false def
/nullv v type /nulltype eq def
/nullcpdv cpdv type /nulltype eq def
nullv nullcpdv or
{
/upd true def
} {
/sametype v type cpdv type eq def
sametype {
v type /arraytype eq {
/vlen v length def
/cpdvlen cpdv length def
vlen cpdvlen eq {
0 1 vlen 1 sub {
/i exch def
/obj v i get def
/cpdobj cpdv i get def
obj cpdobj ne {
/upd true def
exit
} if
} for
} {
/upd true def
} ifelse
} {
v type /dicttype eq {
v {
/dv exch def
/dk exch def
/cpddv cpdv dk get def
dv cpddv ne {
/upd true def
exit
} if
} forall
} {
/upd true def
} ifelse
} ifelse
} if
} ifelse
upd true eq {
d k v put
} if
} if
} if
} forall
d length 0 gt {
d setpagedevice
} if
} bd
/RE { % /NewFontName [NewEncodingArray] /FontName RE -
  findfont dup length dict begin
  {
    1 index /FID ne
    {def} {pop pop} ifelse
  } forall
  /Encoding exch def
  /FontName 1 index def
  currentdict definefont pop
  end
} bind def
%%EndResource
%%BeginResource: procset (Apache XML Graphics EPS ProcSet) 1.0 0
%%Version: 1.0 0
%%Copyright: (Copyright 2002-2003 The Apache Software Foundation. License terms: http://www.apache.org/licenses/LICENSE-2.0)
/BeginEPSF { %def
/b4_Inc_state save def         % Save state for cleanup
/dict_count countdictstack def % Count objects on dict stack
/op_count count 1 sub def      % Count objects on operand stack
userdict begin                 % Push userdict on dict stack
/showpage { } def              % Redefine showpage, { } = null proc
0 setgray 0 setlinecap         % Prepare graphics state
1 setlinewidth 0 setlinejoin
10 setmiterlimit [ ] 0 setdash newpath
/languagelevel where           % If level not equal to 1 then
{pop languagelevel             % set strokeadjust and
1 ne                           % overprint to their defaults.
{false setstrokeadjust false setoverprint
} if
} if
} bd
/EndEPSF { %def
count op_count sub {pop} repeat            % Clean up stacks
countdictstack dict_count sub {end} repeat
b4_Inc_state restore
} bd
%%EndResource
%FOPBeginFontDict
%%IncludeResource: font Courier-Bold
%%IncludeResource: font Helvetica
%%IncludeResource: font Courier-BoldOblique
%%IncludeResource: font Courier-Oblique
%%IncludeResource: font Times-Roman
%%IncludeResource: font Helvetica-BoldOblique
%%IncludeResource: font Helvetica-Bold
%%IncludeResource: font Helvetica-Oblique
%%IncludeResource: font Times-BoldItalic
%%IncludeResource: font Courier
%%IncludeResource: font Times-Italic
%%IncludeResource: font Times-Bold
%%IncludeResource: font Symbol
%%IncludeResource: font ZapfDingbats
%FOPEndFontDict
%%BeginResource: encoding WinAnsiEncoding
/WinAnsiEncoding [
/.notdef /.notdef /.notdef /.notdef /.notdef
/.notdef /.notdef /.notdef /.notdef /.notdef
/.notdef /.notdef /.notdef /.notdef /.notdef
/.notdef /.notdef /.notdef /.notdef /.notdef
/.notdef /.notdef /.notdef /.notdef /.notdef
/.notdef /.notdef /.notdef /.notdef /.notdef
/.notdef /.notdef /space /exclam /quotedbl
/numbersign /dollar /percent /ampersand /quotesingle
/parenleft /parenright /asterisk /plus /comma
/hyphen /period /slash /zero /one
/two /three /four /five /six
/seven /eight /nine /colon /semicolon
/less /equal /greater /question /at
/A /B /C /D /E
/F /G /H /I /J
/K /L /M /N /O
/P /Q /R /S /T
/U /V /W /X /Y
/Z /bracketleft /backslash /bracketright /asciicircum
/underscore /quoteleft /a /b /c
/d /e /f /g /h
/i /j /k /l /m
/n /o /p /q /r
/s /t /u /v /w
/x /y /z /braceleft /bar
/braceright /asciitilde /bullet /Euro /bullet
/quotesinglbase /florin /quotedblbase /ellipsis /dagger
/daggerdbl /circumflex /perthousand /Scaron /guilsinglleft
/OE /bullet /Zcaron /bullet /bullet
/quoteleft /quoteright /quotedblleft /quotedblright /bullet
/endash /emdash /asciitilde /trademark /scaron
/guilsinglright /oe /bullet /zcaron /Ydieresis
/space /exclamdown /cent /sterling /currency
/yen /brokenbar /section /dieresis /copyright
/ordfeminine /guillemotleft /logicalnot /sfthyphen /registered
/macron /degree /plusminus /twosuperior /threesuperior
/acute /mu /paragraph /middot /cedilla
/onesuperior /ordmasculine /guillemotright /onequarter /onehalf
/threequarters /questiondown /Agrave /Aacute /Acircumflex
/Atilde /Adieresis /Aring /AE /Ccedilla
/Egrave /Eacute /Ecircumflex /Edieresis /Igrave
/Iacute /Icircumflex /Idieresis /Eth /Ntilde
/Ograve /Oacute /Ocircumflex /Otilde /Odieresis
/multiply /Oslash /Ugrave /Uacute /Ucircumflex
/Udieresis /Yacute /Thorn /germandbls /agrave
/aacute /acircumflex /atilde /adieresis /aring
/ae /ccedilla /egrave /eacute /ecircumflex
/edieresis /igrave /iacute /icircumflex /idieresis
/eth /ntilde /ograve /oacute /ocircumflex
/otilde /odieresis /divide /oslash /ugrave
/uacute /ucircumflex /udieresis /yacute /thorn
/ydieresis
] def
%%EndResource
%FOPBeginFontReencode
/Courier-Bold findfont
dup length dict begin
  {1 index /FID ne {def} {pop pop} ifelse} forall
  /Encoding WinAnsiEncoding def
  currentdict
end
/Courier-Bold exch definefont pop
/Helvetica findfont
dup length dict begin
  {1 index /FID ne {def} {pop pop} ifelse} forall
  /Encoding WinAnsiEncoding def
  currentdict
end
/Helvetica exch definefont pop
/Courier-BoldOblique findfont
dup length dict begin
  {1 index /FID ne {def} {pop pop} ifelse} forall
  /Encoding WinAnsiEncoding def
  currentdict
end
/Courier-BoldOblique exch definefont pop
/Courier-Oblique findfont
dup length dict begin
  {1 index /FID ne {def} {pop pop} ifelse} forall
  /Encoding WinAnsiEncoding def
  currentdict
end
/Courier-Oblique exch definefont pop
/Times-Roman findfont
dup length dict begin
  {1 index /FID ne {def} {pop pop} ifelse} forall
  /Encoding WinAnsiEncoding def
  currentdict
end
/Times-Roman exch definefont pop
/Helvetica-BoldOblique findfont
dup length dict begin
  {1 index /FID ne {def} {pop pop} ifelse} forall
  /Encoding WinAnsiEncoding def
  currentdict
end
/Helvetica-BoldOblique exch definefont pop
/Helvetica-Bold findfont
dup length dict begin
  {1 index /FID ne {def} {pop pop} ifelse} forall
  /Encoding WinAnsiEncoding def
  currentdict
end
/Helvetica-Bold exch definefont pop
/Helvetica-Oblique findfont
dup length dict begin
  {1 index /FID ne {def} {pop pop} ifelse} forall
  /Encoding WinAnsiEncoding def
  currentdict
end
/Helvetica-Oblique exch definefont pop
/Times-BoldItalic findfont
dup length dict begin
  {1 index /FID ne {def} {pop pop} ifelse} forall
  /Encoding WinAnsiEncoding def
  currentdict
end
/Times-BoldItalic exch definefont pop
/Courier findfont
dup length dict begin
  {1 index /FID ne {def} {pop pop} ifelse} forall
  /Encoding WinAnsiEncoding def
  currentdict
end
/Courier exch definefont pop
/Times-Italic findfont
dup length dict begin
  {1 index /FID ne {def} {pop pop} ifelse} forall
  /Encoding WinAnsiEncoding def
  currentdict
end
/Times-Italic exch definefont pop
/Times-Bold findfont
dup length dict begin
  {1 index /FID ne {def} {pop pop} ifelse} forall
  /Encoding WinAnsiEncoding def
  currentdict
end
/Times-Bold exch definefont pop
%FOPEndFontReencode
%%EndProlog
%%Page: 1 1
%%PageBoundingBox: 0 0 806 630
%%BeginPageSetup
[1 0 0 -1 0 630] CT
%%EndPageSetup
GS
[0.75 0 0 0.75 0 0] CT
1 GC
N
0 0 1074 840 re
f
GR
GS
[0.75 0 0 0.75 0 0] CT
1 GC
N
0 0 1074 840 re
f
GR
GS
[0.75 0 0 0.75 0 0] CT
1 GC
N
140 748 M
972 748 L
972 63 L
140 63 L
cp
f
GR
GS
[0.75 0 0 0.75 0 0] CT
0.149 GC
2 setlinecap
1 LJ
0.667 LW
N
140 748 M
972 748 L
S
GR
GS
[0.75 0 0 0.75 0 0] CT
0.149 GC
2 setlinecap
1 LJ
0.667 LW
N
140 63 M
972 63 L
S
GR
GS
[0.75 0 0 0.75 0 0] CT
0.149 GC
2 setlinecap
1 LJ
0.667 LW
N
140 748 M
140 739.68 L
S
GR
GS
[0.75 0 0 0.75 0 0] CT
0.149 GC
2 setlinecap
1 LJ
0.667 LW
N
258.857 748 M
258.857 739.68 L
S
GR
GS
[0.75 0 0 0.75 0 0] CT
0.149 GC
2 setlinecap
1 LJ
0.667 LW
N
377.714 748 M
377.714 739.68 L
S
GR
GS
[0.75 0 0 0.75 0 0] CT
0.149 GC
2 setlinecap
1 LJ
0.667 LW
N
496.571 748 M
496.571 739.68 L
S
GR
GS
[0.75 0 0 0.75 0 0] CT
0.149 GC
2 setlinecap
1 LJ
0.667 LW
N
615.429 748 M
615.429 739.68 L
S
GR
GS
[0.75 0 0 0.75 0 0] CT
0.149 GC
2 setlinecap
1 LJ
0.667 LW
N
734.286 748 M
734.286 739.68 L
S
GR
GS
[0.75 0 0 0.75 0 0] CT
0.149 GC
2 setlinecap
1 LJ
0.667 LW
N
853.143 748 M
853.143 739.68 L
S
GR
GS
[0.75 0 0 0.75 0 0] CT
0.149 GC
2 setlinecap
1 LJ
0.667 LW
N
972 748 M
972 739.68 L
S
GR
GS
[0.75 0 0 0.75 0 0] CT
0.149 GC
2 setlinecap
1 LJ
0.667 LW
N
140 63 M
140 71.32 L
S
GR
GS
[0.75 0 0 0.75 0 0] CT
0.149 GC
2 setlinecap
1 LJ
0.667 LW
N
258.857 63 M
258.857 71.32 L
S
GR
GS
[0.75 0 0 0.75 0 0] CT
0.149 GC
2 setlinecap
1 LJ
0.667 LW
N
377.714 63 M
377.714 71.32 L
S
GR
GS
[0.75 0 0 0.75 0 0] CT
0.149 GC
2 setlinecap
1 LJ
0.667 LW
N
496.571 63 M
496.571 71.32 L
S
GR
GS
[0.75 0 0 0.75 0 0] CT
0.149 GC
2 setlinecap
1 LJ
0.667 LW
N
615.429 63 M
615.429 71.32 L
S
GR
GS
[0.75 0 0 0.75 0 0] CT
0.149 GC
2 setlinecap
1 LJ
0.667 LW
N
734.286 63 M
734.286 71.32 L
S
GR
GS
[0.75 0 0 0.75 0 0] CT
0.149 GC
2 setlinecap
1 LJ
0.667 LW
N
853.143 63 M
853.143 71.32 L
S
GR
GS
[0.75 0 0 0.75 0 0] CT
0.149 GC
2 setlinecap
1 LJ
0.667 LW
N
972 63 M
972 71.32 L
S
GR
GS
[0.75 0 0 0.75 105 566.60001] CT
0.149 GC
/any-Bold 24 F
GS
[1 0 0 1 0 0] CT
-7 23 moveto 
1 -1 scale
(0) t 
GR
GR
GS
[0.75 0 0 0.75 194.14286 566.60001] CT
0.149 GC
/any-Bold 24 F
GS
[1 0 0 1 0 0] CT
-27 23 moveto 
1 -1 scale
(1000) t 
GR
GR
GS
[0.75 0 0 0.75 283.28572 566.60001] CT
0.149 GC
/any-Bold 24 F
GS
[1 0 0 1 0 0] CT
-27 23 moveto 
1 -1 scale
(2000) t 
GR
GR
GS
[0.75 0 0 0.75 372.42858 566.60001] CT
0.149 GC
/any-Bold 24 F
GS
[1 0 0 1 0 0] CT
-27 23 moveto 
1 -1 scale
(3000) t 
GR
GR
GS
[0.75 0 0 0.75 461.57144 566.60001] CT
0.149 GC
/any-Bold 24 F
GS
[1 0 0 1 0 0] CT
-27 23 moveto 
1 -1 scale
(4000) t 
GR
GR
GS
[0.75 0 0 0.75 550.71428 566.60001] CT
0.149 GC
/any-Bold 24 F
GS
[1 0 0 1 0 0] CT
-27 23 moveto 
1 -1 scale
(5000) t 
GR
GR
GS
[0.75 0 0 0.75 639.85716 566.60001] CT
0.149 GC
/any-Bold 24 F
GS
[1 0 0 1 0 0] CT
-27 23 moveto 
1 -1 scale
(6000) t 
GR
GR
GS
[0.75 0 0 0.75 729 566.60001] CT
0.149 GC
/any-Bold 24 F
GS
[1 0 0 1 0 0] CT
-27 23 moveto 
1 -1 scale
(7000) t 
GR
GR
GS
[0.75 0 0 0.75 417.00032 589.34999] CT
0.149 GC
N
-87.391 25.516 M
-91.5 25.516 -93.93 22.883 QT
-96.359 20.25 -96.359 15.766 QT
-96.359 11.203 -93.93 8.516 QT
-91.5 5.828 -87.391 5.828 QT
-83.25 5.828 -80.836 8.516 QT
-78.422 11.203 -78.422 15.766 QT
-78.422 20.25 -80.836 22.883 QT
-83.25 25.516 -87.391 25.516 QT
-87.391 25.516 L
cp
-87.391 22.188 M
-85 22.188 -83.656 20.484 QT
-82.313 18.781 -82.313 15.75 QT
-82.313 12.641 -83.656 10.891 QT
-85 9.141 -87.391 9.141 QT
-89.766 9.141 -91.109 10.891 QT
-92.453 12.641 -92.453 15.75 QT
-92.453 18.781 -91.117 20.484 QT
-89.781 22.188 -87.391 22.188 QT
-87.391 22.188 L
cp
-75.375 11.188 M
-75.375 11.188 L
-73.641 11.188 L
-71.907 11.188 L
-71.907 11.188 L
-71.907 13.234 L
-71.907 13.234 L
-71.672 12.891 L
-70.188 10.813 -67.782 10.813 QT
-65.157 10.813 -63.563 12.758 QT
-61.969 14.703 -61.969 17.875 QT
-61.969 21.234 -63.563 23.297 QT
-65.157 25.359 -67.782 25.359 QT
-70.172 25.359 -71.657 23.422 QT
-71.735 23.328 L
-71.735 23.328 L
-71.735 30.406 L
-71.735 30.406 L
-73.547 30.406 L
-75.375 30.406 L
-75.375 30.406 L
-75.375 11.188 L
cp
-68.828 22.359 M
-67.36 22.359 -66.532 21.258 QT
-65.703 20.156 -65.703 18.203 QT
-65.703 16.219 -66.524 15.094 QT
-67.344 13.969 -68.813 13.969 QT
-70.266 13.969 -71.086 15.125 QT
-71.907 16.281 -71.907 18.328 QT
-71.907 18.328 L
-71.907 18.328 L
-71.907 18.328 L
-71.907 20.219 -71.086 21.289 QT
-70.266 22.359 -68.828 22.359 QT
cp
-52.921 25.359 M
-56.171 25.359 -58.077 23.414 QT
-59.983 21.469 -59.983 18.172 QT
-59.983 14.797 -58.077 12.805 QT
-56.171 10.813 -52.921 10.813 QT
-49.671 10.813 -47.764 12.805 QT
-45.858 14.797 -45.858 18.172 QT
-45.858 21.469 -47.764 23.414 QT
-49.671 25.359 -52.921 25.359 QT
-52.921 25.359 L
cp
-52.921 22.313 M
-51.296 22.313 -50.444 21.242 QT
-49.593 20.172 -49.593 18.125 QT
-49.593 16.031 -50.444 14.945 QT
-51.296 13.859 -52.921 13.859 QT
-54.546 13.859 -55.389 14.945 QT
-56.233 16.031 -56.233 18.125 QT
-56.233 20.172 -55.389 21.242 QT
-54.546 22.313 -52.921 22.313 QT
-52.921 22.313 L
cp
-54.421 9 M
-51.968 5.234 L
-47.983 5.234 L
-51.796 9 L
-54.421 9 L
cp
-44.247 22.172 M
-37.247 14.172 L
-37.154 14.063 L
-37.154 14.063 L
-43.716 14.063 L
-43.716 14.063 L
-43.716 12.641 L
-43.716 11.188 L
-43.716 11.188 L
-32.607 11.188 L
-32.607 12.672 L
-32.607 14.172 L
-39.513 22.016 L
-39.513 22.016 L
-32.279 22.016 L
-32.279 22.016 L
-32.279 23.5 L
-32.279 25 L
-32.279 25 L
-44.247 25 L
-44.247 23.594 L
-44.247 22.172 L
cp
-39.31 9 M
-36.857 5.234 L
-32.872 5.234 L
-36.685 9 L
-39.31 9 L
cp
-29.888 25 M
-29.888 11.188 L
-29.888 11.188 L
-28.154 11.188 L
-26.419 11.188 L
-26.419 11.188 L
-26.419 13.234 L
-26.419 13.234 L
-26.419 13.234 L
-26.2 12.859 -25.95 12.531 QT
-24.607 10.813 -22.044 10.813 QT
-19.857 10.813 -18.622 12.109 QT
-17.388 13.406 -17.388 15.703 QT
-17.388 25 L
-17.388 25 L
-19.2 25 L
-21.029 25 L
-21.029 25 L
-21.029 16.359 L
-21.029 15.078 -21.575 14.469 QT
-22.122 13.859 -23.279 13.859 QT
-24.7 13.859 -25.474 14.719 QT
-26.247 15.578 -26.247 17.203 QT
-26.247 17.203 L
-26.247 25 L
-26.247 25 L
-28.06 25 L
-29.888 25 L
-29.888 25 L
cp
-13.636 25 M
-13.636 11.188 L
-13.636 11.188 L
-11.824 11.188 L
-9.996 11.188 L
-9.996 11.188 L
-9.996 25 L
-9.996 25 L
-11.808 25 L
-13.636 25 L
-13.636 25 L
cp
-13.668 6.203 M
-9.964 6.203 L
-9.964 9.578 L
-13.668 9.578 L
-13.668 6.203 L
cp
-0.98 25.359 M
-4.121 25.359 -5.832 23.414 QT
-7.543 21.469 -7.543 17.875 QT
-7.543 14.563 -5.801 12.688 QT
-4.059 10.813 -0.98 10.813 QT
2.191 10.813 3.895 12.727 QT
5.598 14.641 5.598 18.172 QT
5.629 18.578 5.535 19 QT
5.535 19 L
-3.871 19 L
-3.871 19 L
-3.746 20.625 -3.152 21.438 QT
-2.387 22.453 -0.605 22.453 QT
0.223 22.453 0.926 21.984 QT
1.629 21.516 1.77 20.859 QT
1.77 20.859 L
5.473 20.859 L
5.473 20.859 L
5.004 22.969 3.293 24.164 QT
1.582 25.359 -0.98 25.359 QT
cp
1.801 16.672 M
1.801 16.672 L
1.676 15.422 1.145 14.734 QT
0.441 13.797 -1.027 13.797 QT
-2.434 13.797 -3.168 14.875 QT
-3.637 15.563 -3.84 16.672 QT
-3.84 16.672 L
1.801 16.672 L
cp
8.219 25 M
8.219 11.188 L
8.219 11.188 L
9.954 11.188 L
11.688 11.188 L
11.688 11.188 L
11.688 13.234 L
11.688 13.234 L
11.688 13.234 L
11.907 12.859 12.157 12.531 QT
13.501 10.813 16.063 10.813 QT
18.251 10.813 19.485 12.109 QT
20.719 13.406 20.719 15.703 QT
20.719 25 L
20.719 25 L
18.907 25 L
17.079 25 L
17.079 25 L
17.079 16.359 L
17.079 15.078 16.532 14.469 QT
15.985 13.859 14.829 13.859 QT
13.407 13.859 12.633 14.719 QT
11.86 15.578 11.86 17.203 QT
11.86 17.203 L
11.86 25 L
11.86 25 L
10.047 25 L
8.219 25 L
8.219 25 L
cp
24.471 25 M
24.471 11.188 L
24.471 11.188 L
26.283 11.188 L
28.112 11.188 L
28.112 11.188 L
28.112 25 L
28.112 25 L
26.299 25 L
24.471 25 L
24.471 25 L
cp
24.44 6.203 M
28.143 6.203 L
28.143 9.578 L
24.44 9.578 L
24.44 6.203 L
cp
37.127 25.359 M
33.986 25.359 32.275 23.414 QT
30.564 21.469 30.564 17.875 QT
30.564 14.563 32.307 12.688 QT
34.049 10.813 37.127 10.813 QT
40.299 10.813 42.002 12.727 QT
43.705 14.641 43.705 18.172 QT
43.736 18.578 43.642 19 QT
43.642 19 L
34.236 19 L
34.236 19 L
34.361 20.625 34.955 21.438 QT
35.721 22.453 37.502 22.453 QT
38.33 22.453 39.033 21.984 QT
39.736 21.516 39.877 20.859 QT
39.877 20.859 L
43.58 20.859 L
43.58 20.859 L
43.111 22.969 41.4 24.164 QT
39.689 25.359 37.127 25.359 QT
cp
39.908 16.672 M
39.908 16.672 L
39.783 15.422 39.252 14.734 QT
38.549 13.797 37.08 13.797 QT
35.674 13.797 34.939 14.875 QT
34.471 15.563 34.267 16.672 QT
34.267 16.672 L
39.908 16.672 L
cp
53.608 30.141 M
53.608 6.203 L
53.608 6.203 L
59.998 6.203 L
59.998 8.719 L
56.858 8.719 L
56.858 8.719 L
56.858 27.641 L
56.858 27.641 L
59.998 27.641 L
59.998 30.141 L
53.608 30.141 L
53.608 30.141 L
cp
62.359 11.188 M
62.359 11.188 L
64.094 11.188 L
65.828 11.188 L
65.828 11.188 L
65.828 13.234 L
65.828 13.234 L
66.063 12.891 L
67.547 10.813 69.953 10.813 QT
72.578 10.813 74.172 12.758 QT
75.766 14.703 75.766 17.875 QT
75.766 21.234 74.172 23.297 QT
72.578 25.359 69.953 25.359 QT
67.563 25.359 66.078 23.422 QT
66 23.328 L
66 23.328 L
66 30.406 L
66 30.406 L
64.188 30.406 L
62.359 30.406 L
62.359 30.406 L
62.359 11.188 L
cp
68.906 22.359 M
70.375 22.359 71.203 21.258 QT
72.031 20.156 72.031 18.203 QT
72.031 16.219 71.211 15.094 QT
70.391 13.969 68.922 13.969 QT
67.469 13.969 66.648 15.125 QT
65.828 16.281 65.828 18.328 QT
65.828 18.328 L
65.828 18.328 L
65.828 18.328 L
65.828 20.219 66.648 21.289 QT
67.469 22.359 68.906 22.359 QT
cp
86.377 15.328 M
86.377 15.328 L
86.377 14.531 85.712 14.047 QT
85.048 13.563 83.955 13.563 QT
82.908 13.563 82.314 13.922 QT
81.72 14.281 81.72 14.938 QT
81.72 15.391 82.392 15.719 QT
83.064 16.031 84.752 16.422 QT
88.095 17.172 89.22 18.063 QT
90.361 18.938 90.361 20.844 QT
90.361 22.875 88.712 24.117 QT
87.064 25.359 84.377 25.359 QT
81.189 25.359 79.47 24.141 QT
77.752 22.922 77.642 20.578 QT
77.642 20.578 L
81.345 20.578 L
81.345 20.578 L
81.377 21.531 82.181 22.07 QT
82.986 22.609 84.377 22.609 QT
85.47 22.609 86.087 22.234 QT
86.705 21.859 86.705 21.188 QT
86.705 20.719 86.111 20.391 QT
85.502 20.078 84.002 19.75 QT
80.502 18.953 79.33 18.078 QT
78.142 17.219 78.142 15.406 QT
78.142 13.344 79.673 12.078 QT
81.205 10.813 83.705 10.813 QT
86.517 10.813 88.244 12.055 QT
89.97 13.297 89.97 15.328 QT
89.97 15.328 L
86.377 15.328 L
cp
98.545 30.141 M
98.545 30.141 L
92.154 30.141 L
92.154 27.641 L
95.295 27.641 L
95.295 27.641 L
95.295 8.719 L
95.295 8.719 L
92.154 8.719 L
92.154 6.203 L
98.545 6.203 L
98.545 6.203 L
98.545 30.141 L
cp
f
GR
GS
[0.75 0 0 0.75 0 0] CT
0.149 GC
2 setlinecap
1 LJ
0.667 LW
N
140 748 M
140 63 L
S
GR
GS
[0.75 0 0 0.75 0 0] CT
0.149 GC
2 setlinecap
1 LJ
0.667 LW
N
972 748 M
972 63 L
S
GR
GS
[0.75 0 0 0.75 0 0] CT
0.149 GC
2 setlinecap
1 LJ
0.667 LW
N
140 748 M
148.32 748 L
S
GR
GS
[0.75 0 0 0.75 0 0] CT
0.149 GC
2 setlinecap
1 LJ
0.667 LW
N
140 679.5 M
148.32 679.5 L
S
GR
GS
[0.75 0 0 0.75 0 0] CT
0.149 GC
2 setlinecap
1 LJ
0.667 LW
N
140 611 M
148.32 611 L
S
GR
GS
[0.75 0 0 0.75 0 0] CT
0.149 GC
2 setlinecap
1 LJ
0.667 LW
N
140 542.5 M
148.32 542.5 L
S
GR
GS
[0.75 0 0 0.75 0 0] CT
0.149 GC
2 setlinecap
1 LJ
0.667 LW
N
140 474 M
148.32 474 L
S
GR
GS
[0.75 0 0 0.75 0 0] CT
0.149 GC
2 setlinecap
1 LJ
0.667 LW
N
140 405.5 M
148.32 405.5 L
S
GR
GS
[0.75 0 0 0.75 0 0] CT
0.149 GC
2 setlinecap
1 LJ
0.667 LW
N
140 337 M
148.32 337 L
S
GR
GS
[0.75 0 0 0.75 0 0] CT
0.149 GC
2 setlinecap
1 LJ
0.667 LW
N
140 268.5 M
148.32 268.5 L
S
GR
GS
[0.75 0 0 0.75 0 0] CT
0.149 GC
2 setlinecap
1 LJ
0.667 LW
N
140 200 M
148.32 200 L
S
GR
GS
[0.75 0 0 0.75 0 0] CT
0.149 GC
2 setlinecap
1 LJ
0.667 LW
N
140 131.5 M
148.32 131.5 L
S
GR
GS
[0.75 0 0 0.75 0 0] CT
0.149 GC
2 setlinecap
1 LJ
0.667 LW
N
140 63 M
148.32 63 L
S
GR
GS
[0.75 0 0 0.75 0 0] CT
0.149 GC
2 setlinecap
1 LJ
0.667 LW
N
972 748 M
963.68 748 L
S
GR
GS
[0.75 0 0 0.75 0 0] CT
0.149 GC
2 setlinecap
1 LJ
0.667 LW
N
972 679.5 M
963.68 679.5 L
S
GR
GS
[0.75 0 0 0.75 0 0] CT
0.149 GC
2 setlinecap
1 LJ
0.667 LW
N
972 611 M
963.68 611 L
S
GR
GS
[0.75 0 0 0.75 0 0] CT
0.149 GC
2 setlinecap
1 LJ
0.667 LW
N
972 542.5 M
963.68 542.5 L
S
GR
GS
[0.75 0 0 0.75 0 0] CT
0.149 GC
2 setlinecap
1 LJ
0.667 LW
N
972 474 M
963.68 474 L
S
GR
GS
[0.75 0 0 0.75 0 0] CT
0.149 GC
2 setlinecap
1 LJ
0.667 LW
N
972 405.5 M
963.68 405.5 L
S
GR
GS
[0.75 0 0 0.75 0 0] CT
0.149 GC
2 setlinecap
1 LJ
0.667 LW
N
972 337 M
963.68 337 L
S
GR
GS
[0.75 0 0 0.75 0 0] CT
0.149 GC
2 setlinecap
1 LJ
0.667 LW
N
972 268.5 M
963.68 268.5 L
S
GR
GS
[0.75 0 0 0.75 0 0] CT
0.149 GC
2 setlinecap
1 LJ
0.667 LW
N
972 200 M
963.68 200 L
S
GR
GS
[0.75 0 0 0.75 0 0] CT
0.149 GC
2 setlinecap
1 LJ
0.667 LW
N
972 131.5 M
963.68 131.5 L
S
GR
GS
[0.75 0 0 0.75 0 0] CT
0.149 GC
2 setlinecap
1 LJ
0.667 LW
N
972 63 M
963.68 63 L
S
GR
GS
[0.75 0 0 0.75 99.40001 561] CT
0.149 GC
/any-Bold 24 F
GS
[1 0 0 1 0 0] CT
-14 8.5 moveto 
1 -1 scale
(0) t 
GR
GR
GS
[0.75 0 0 0.75 99.40001 509.625] CT
0.149 GC
/any-Bold 24 F
GS
[1 0 0 1 0 0] CT
-14 8.5 moveto 
1 -1 scale
(1) t 
GR
GR
GS
[0.75 0 0 0.75 99.40001 458.25] CT
0.149 GC
/any-Bold 24 F
GS
[1 0 0 1 0 0] CT
-14 8.5 moveto 
1 -1 scale
(2) t 
GR
GR
GS
[0.75 0 0 0.75 99.40001 406.875] CT
0.149 GC
/any-Bold 24 F
GS
[1 0 0 1 0 0] CT
-14 8.5 moveto 
1 -1 scale
(3) t 
GR
GR
GS
[0.75 0 0 0.75 99.40001 355.5] CT
0.149 GC
/any-Bold 24 F
GS
[1 0 0 1 0 0] CT
-14 8.5 moveto 
1 -1 scale
(4) t 
GR
GR
GS
[0.75 0 0 0.75 99.40001 304.125] CT
0.149 GC
/any-Bold 24 F
GS
[1 0 0 1 0 0] CT
-14 8.5 moveto 
1 -1 scale
(5) t 
GR
GR
GS
[0.75 0 0 0.75 99.40001 252.75] CT
0.149 GC
/any-Bold 24 F
GS
[1 0 0 1 0 0] CT
-14 8.5 moveto 
1 -1 scale
(6) t 
GR
GR
GS
[0.75 0 0 0.75 99.40001 201.375] CT
0.149 GC
/any-Bold 24 F
GS
[1 0 0 1 0 0] CT
-14 8.5 moveto 
1 -1 scale
(7) t 
GR
GR
GS
[0.75 0 0 0.75 99.40001 150] CT
0.149 GC
/any-Bold 24 F
GS
[1 0 0 1 0 0] CT
-14 8.5 moveto 
1 -1 scale
(8) t 
GR
GR
GS
[0.75 0 0 0.75 99.40001 98.625] CT
0.149 GC
/any-Bold 24 F
GS
[1 0 0 1 0 0] CT
-14 8.5 moveto 
1 -1 scale
(9) t 
GR
GR
GS
[0.75 0 0 0.75 99.40001 47.25] CT
0.149 GC
/any-Bold 24 F
GS
[1 0 0 1 0 0] CT
-27 8.5 moveto 
1 -1 scale
(10) t 
GR
GR
GS
[0 -0.75 0.75 0 76.15 304.12475] CT
0.149 GC
N
-85.016 -6 M
-85.016 -6 L
-85.016 -24.656 L
-85.016 -24.656 L
-83.078 -24.656 L
-81.125 -24.656 L
-81.125 -24.656 L
-81.125 -9.313 L
-81.125 -9.313 L
-71.844 -9.313 L
-71.844 -9.313 L
-71.844 -7.656 L
-71.844 -6 L
-71.844 -6 L
-85.016 -6 L
cp
-69.061 -6 M
-69.061 -19.813 L
-69.061 -19.813 L
-67.248 -19.813 L
-65.42 -19.813 L
-65.42 -19.813 L
-65.42 -6 L
-65.42 -6 L
-67.233 -6 L
-69.061 -6 L
-69.061 -6 L
cp
-69.092 -24.797 M
-65.389 -24.797 L
-65.389 -21.422 L
-69.092 -21.422 L
-69.092 -24.797 L
cp
-49.936 -11.109 M
-49.936 -11.109 L
-50.218 -8.547 -51.858 -7.094 QT
-53.499 -5.641 -56.124 -5.641 QT
-59.264 -5.641 -60.968 -7.508 QT
-62.671 -9.375 -62.671 -12.828 QT
-62.671 -16.203 -60.897 -18.195 QT
-59.124 -20.188 -56.124 -20.188 QT
-53.452 -20.188 -51.749 -18.711 QT
-50.046 -17.234 -49.936 -14.844 QT
-49.936 -14.844 L
-53.639 -14.844 L
-53.639 -14.844 L
-53.702 -15.859 -54.382 -16.5 QT
-55.061 -17.141 -56.124 -17.141 QT
-57.499 -17.141 -58.21 -16.039 QT
-58.921 -14.938 -58.921 -12.828 QT
-58.921 -10.781 -58.21 -9.703 QT
-57.499 -8.625 -56.124 -8.625 QT
-55.124 -8.625 -54.444 -9.313 QT
-53.764 -10 -53.639 -11.109 QT
-53.639 -11.109 L
-49.936 -11.109 L
cp
-48.377 -8.828 M
-41.377 -16.828 L
-41.283 -16.938 L
-41.283 -16.938 L
-47.846 -16.938 L
-47.846 -16.938 L
-47.846 -18.359 L
-47.846 -19.813 L
-47.846 -19.813 L
-36.737 -19.813 L
-36.737 -18.328 L
-36.737 -16.828 L
-43.643 -8.984 L
-43.643 -8.984 L
-36.408 -8.984 L
-36.408 -8.984 L
-36.408 -7.5 L
-36.408 -6 L
-36.408 -6 L
-48.377 -6 L
-48.377 -7.406 L
-48.377 -8.828 L
cp
-34.112 -24.656 M
-34.112 -24.656 L
-32.299 -24.656 L
-30.471 -24.656 L
-30.471 -24.656 L
-30.471 -18.016 L
-30.471 -18.016 L
-30.393 -18.109 L
-28.924 -20.188 -26.518 -20.188 QT
-23.893 -20.188 -22.291 -18.242 QT
-20.69 -16.297 -20.69 -13.125 QT
-20.69 -9.766 -22.291 -7.703 QT
-23.893 -5.641 -26.518 -5.641 QT
-28.908 -5.641 -30.393 -7.578 QT
-30.549 -7.781 L
-30.549 -7.781 L
-30.549 -6 L
-30.549 -6 L
-34.112 -6 L
-34.112 -6 L
-34.112 -24.656 L
cp
-27.549 -8.641 M
-26.08 -8.641 -25.252 -9.742 QT
-24.424 -10.844 -24.424 -12.797 QT
-24.424 -14.781 -25.252 -15.906 QT
-26.08 -17.031 -27.549 -17.031 QT
-29.002 -17.031 -29.83 -15.875 QT
-30.658 -14.719 -30.658 -12.672 QT
-30.658 -12.672 L
-30.658 -12.672 L
-30.658 -12.672 L
-30.658 -10.781 -29.83 -9.703 QT
-29.018 -8.641 -27.549 -8.641 QT
cp
-14.594 -5.641 M
-16.516 -5.641 -17.68 -6.742 QT
-18.844 -7.844 -18.844 -9.625 QT
-18.844 -11.516 -17.79 -12.656 QT
-16.735 -13.797 -14.719 -14.094 QT
-12.313 -14.422 L
-11.376 -14.547 -10.751 -14.844 QT
-10.485 -14.969 -10.344 -15.305 QT
-10.204 -15.641 -10.235 -15.984 QT
-10.313 -16.563 -10.829 -16.891 QT
-11.454 -17.281 -12.626 -17.281 QT
-13.672 -17.281 -14.251 -16.773 QT
-14.829 -16.266 -14.876 -15.344 QT
-14.876 -15.344 L
-18.36 -15.344 L
-18.36 -15.344 L
-18.251 -17.766 -16.712 -18.977 QT
-15.172 -20.188 -12.204 -20.188 QT
-9.626 -20.188 -8.133 -19.102 QT
-6.641 -18.016 -6.641 -16.125 QT
-6.641 -8.406 L
-6.641 -7.484 -6.493 -7.109 QT
-6.344 -6.734 -5.876 -6.516 QT
-5.876 -6.516 L
-5.876 -6.016 L
-7.844 -6.016 L
-9.813 -6.016 L
-9.813 -6.016 L
-10.063 -6.844 -10.141 -7.656 QT
-10.141 -7.672 L
-11.86 -5.641 -14.594 -5.641 QT
cp
-10.219 -11.109 M
-10.219 -12.688 L
-10.219 -12.688 L
-10.844 -12.328 -11.891 -12.125 QT
-13.235 -11.859 L
-14.188 -11.688 -14.68 -11.211 QT
-15.172 -10.734 -15.172 -10.016 QT
-15.172 -9.188 -14.727 -8.719 QT
-14.282 -8.25 -13.485 -8.25 QT
-11.735 -8.25 -10.688 -9.484 QT
-10.485 -9.719 -10.344 -10.188 QT
-10.219 -10.656 -10.219 -11.109 QT
cp
2.918 -8.828 M
9.918 -16.828 L
10.011 -16.938 L
10.011 -16.938 L
3.449 -16.938 L
3.449 -16.938 L
3.449 -18.359 L
3.449 -19.813 L
3.449 -19.813 L
14.558 -19.813 L
14.558 -18.328 L
14.558 -16.828 L
7.652 -8.984 L
7.652 -8.984 L
14.886 -8.984 L
14.886 -8.984 L
14.886 -7.5 L
14.886 -6 L
14.886 -6 L
2.918 -6 L
2.918 -7.406 L
2.918 -8.828 L
cp
17.386 -6 M
17.386 -24.656 L
17.386 -24.656 L
19.199 -24.656 L
21.027 -24.656 L
21.027 -24.656 L
21.027 -6 L
21.027 -6 L
19.214 -6 L
17.386 -6 L
17.386 -6 L
cp
24.745 -6 M
24.745 -19.813 L
24.745 -19.813 L
26.558 -19.813 L
28.386 -19.813 L
28.386 -19.813 L
28.386 -6 L
28.386 -6 L
26.574 -6 L
24.745 -6 L
24.745 -6 L
cp
24.714 -24.797 M
28.417 -24.797 L
28.417 -21.422 L
24.714 -21.422 L
24.714 -24.797 L
cp
43.87 -11.109 M
43.87 -11.109 L
43.589 -8.547 41.948 -7.094 QT
40.308 -5.641 37.683 -5.641 QT
34.542 -5.641 32.839 -7.508 QT
31.136 -9.375 31.136 -12.828 QT
31.136 -16.203 32.909 -18.195 QT
34.683 -20.188 37.683 -20.188 QT
40.354 -20.188 42.058 -18.711 QT
43.761 -17.234 43.87 -14.844 QT
43.87 -14.844 L
40.167 -14.844 L
40.167 -14.844 L
40.104 -15.859 39.425 -16.5 QT
38.745 -17.141 37.683 -17.141 QT
36.308 -17.141 35.597 -16.039 QT
34.886 -14.938 34.886 -12.828 QT
34.886 -10.781 35.597 -9.703 QT
36.308 -8.625 37.683 -8.625 QT
38.683 -8.625 39.362 -9.313 QT
40.042 -10 40.167 -11.109 QT
40.167 -11.109 L
43.87 -11.109 L
cp
45.429 -8.828 M
52.429 -16.828 L
52.523 -16.938 L
52.523 -16.938 L
45.961 -16.938 L
45.961 -16.938 L
45.961 -18.359 L
45.961 -19.813 L
45.961 -19.813 L
57.07 -19.813 L
57.07 -18.328 L
57.07 -16.828 L
50.164 -8.984 L
50.164 -8.984 L
57.398 -8.984 L
57.398 -8.984 L
57.398 -7.5 L
57.398 -6 L
57.398 -6 L
45.429 -6 L
45.429 -7.406 L
45.429 -8.828 L
cp
65.257 -5.641 M
62.117 -5.641 60.406 -7.586 QT
58.695 -9.531 58.695 -13.125 QT
58.695 -16.438 60.437 -18.313 QT
62.179 -20.188 65.257 -20.188 QT
68.429 -20.188 70.132 -18.273 QT
71.836 -16.359 71.836 -12.828 QT
71.867 -12.422 71.773 -12 QT
71.773 -12 L
62.367 -12 L
62.367 -12 L
62.492 -10.375 63.086 -9.563 QT
63.851 -8.547 65.632 -8.547 QT
66.461 -8.547 67.164 -9.016 QT
67.867 -9.484 68.007 -10.141 QT
68.007 -10.141 L
71.711 -10.141 L
71.711 -10.141 L
71.242 -8.031 69.531 -6.836 QT
67.82 -5.641 65.257 -5.641 QT
cp
68.039 -14.328 M
68.039 -14.328 L
67.914 -15.578 67.382 -16.266 QT
66.679 -17.203 65.211 -17.203 QT
63.804 -17.203 63.07 -16.125 QT
62.601 -15.438 62.398 -14.328 QT
62.398 -14.328 L
68.039 -14.328 L
cp
74.457 -6 M
74.457 -19.813 L
74.457 -19.813 L
76.192 -19.813 L
77.926 -19.813 L
77.926 -19.813 L
77.926 -17.766 L
77.926 -17.766 L
77.926 -17.766 L
78.145 -18.141 78.395 -18.469 QT
79.738 -20.188 82.301 -20.188 QT
84.488 -20.188 85.723 -18.891 QT
86.957 -17.594 86.957 -15.297 QT
86.957 -6 L
86.957 -6 L
85.145 -6 L
83.317 -6 L
83.317 -6 L
83.317 -14.641 L
83.317 -15.922 82.77 -16.531 QT
82.223 -17.141 81.067 -17.141 QT
79.645 -17.141 78.871 -16.281 QT
78.098 -15.422 78.098 -13.797 QT
78.098 -13.797 L
78.098 -6 L
78.098 -6 L
76.285 -6 L
74.457 -6 L
74.457 -6 L
cp
79.223 -22 M
81.676 -25.766 L
85.66 -25.766 L
81.848 -22 L
79.223 -22 L
cp
f
GR
GS
[0.75 0 0 0.75 105 42.75] CT
0.149 GC
N
3.531 -0.688 M
3.531 -0.875 3.641 -1.031 QT
8.641 -6 L
3.641 -11 L
3.531 -11.109 3.531 -11.313 QT
3.531 -11.484 3.672 -11.641 QT
3.813 -11.797 4.016 -11.797 QT
5.172 -11.797 5.375 -11.641 QT
9.828 -7.172 L
14.281 -11.641 L
14.484 -11.797 14.641 -11.797 QT
15.844 -11.797 15.984 -11.656 QT
16.125 -11.516 16.125 -11.313 QT
16.125 -11.109 16 -11 QT
11.016 -6 L
16 -1.031 L
16.125 -0.875 16.125 -0.688 QT
16.125 -0.5 15.984 -0.359 QT
15.844 -0.219 14.641 -0.219 QT
14.469 -0.219 14.281 -0.391 QT
9.828 -4.828 L
5.375 -0.391 L
5.203 -0.219 4.016 -0.219 QT
3.813 -0.219 3.672 -0.367 QT
3.531 -0.516 3.531 -0.688 QT
cp
f
GR
GS
[0.75 0 0 0.75 120 42.75] CT
0.149 GC
/any-Bold 24 F
GS
[1 0 0 1 0 0] CT
0 0 moveto 
1 -1 scale
(10) t 
GR
GR
GS
[0.75 0 0 0.75 140.25 33.75] CT
0.149 GC
/any-Bold 19.2 F
GS
[1 0 0 1 0 0] CT
0 0 moveto 
1 -1 scale
(4) t 
GR
GR
GS
[0.75 0 0 0.75 417.00041 43.53751] CT
N
-123.156 -6 M
-123.156 -24.656 L
-123.156 -24.656 L
-121.219 -24.656 L
-119.266 -24.656 L
-119.266 -24.656 L
-119.266 -17.672 L
-119.266 -17.672 L
-111.969 -17.672 L
-111.969 -17.672 L
-111.969 -24.656 L
-111.969 -24.656 L
-110.016 -24.656 L
-108.063 -24.656 L
-108.063 -24.656 L
-108.063 -6 L
-108.063 -6 L
-110 -6 L
-111.969 -6 L
-111.969 -6 L
-111.969 -14.453 L
-111.969 -14.453 L
-119.266 -14.453 L
-119.266 -14.453 L
-119.266 -6 L
-119.266 -6 L
-121.203 -6 L
-123.156 -6 L
-123.156 -6 L
cp
-104.125 -6 M
-104.125 -19.813 L
-104.125 -19.813 L
-102.312 -19.813 L
-100.484 -19.813 L
-100.484 -19.813 L
-100.484 -6 L
-100.484 -6 L
-102.297 -6 L
-104.125 -6 L
-104.125 -6 L
cp
-104.156 -24.797 M
-100.453 -24.797 L
-100.453 -21.422 L
-104.156 -21.422 L
-104.156 -24.797 L
cp
-89.109 -15.672 M
-89.109 -15.672 L
-89.109 -16.469 -89.773 -16.953 QT
-90.438 -17.438 -91.531 -17.438 QT
-92.578 -17.438 -93.172 -17.078 QT
-93.766 -16.719 -93.766 -16.063 QT
-93.766 -15.609 -93.094 -15.281 QT
-92.422 -14.969 -90.734 -14.578 QT
-87.391 -13.828 -86.266 -12.938 QT
-85.125 -12.063 -85.125 -10.156 QT
-85.125 -8.125 -86.773 -6.883 QT
-88.422 -5.641 -91.109 -5.641 QT
-94.297 -5.641 -96.016 -6.859 QT
-97.734 -8.078 -97.844 -10.422 QT
-97.844 -10.422 L
-94.141 -10.422 L
-94.141 -10.422 L
-94.109 -9.469 -93.305 -8.93 QT
-92.5 -8.391 -91.109 -8.391 QT
-90.016 -8.391 -89.398 -8.766 QT
-88.781 -9.141 -88.781 -9.813 QT
-88.781 -10.281 -89.375 -10.609 QT
-89.984 -10.922 -91.484 -11.25 QT
-94.984 -12.047 -96.156 -12.922 QT
-97.344 -13.781 -97.344 -15.594 QT
-97.344 -17.656 -95.813 -18.922 QT
-94.281 -20.188 -91.781 -20.188 QT
-88.969 -20.188 -87.242 -18.945 QT
-85.516 -17.703 -85.516 -15.672 QT
-85.516 -15.672 L
-89.109 -15.672 L
cp
-75.925 -5.922 M
-76.831 -5.844 -78.16 -5.844 QT
-80.097 -5.844 -80.941 -6.539 QT
-81.785 -7.234 -81.785 -8.813 QT
-81.785 -17.266 L
-81.785 -17.266 L
-83.706 -17.266 L
-83.706 -19.813 L
-81.785 -19.813 L
-81.785 -19.813 L
-81.785 -23.531 L
-78.144 -23.531 L
-78.144 -19.813 L
-78.144 -19.813 L
-75.925 -19.813 L
-75.925 -17.266 L
-78.144 -17.266 L
-78.144 -17.266 L
-78.144 -9.422 L
-78.144 -8.938 -77.855 -8.781 QT
-77.566 -8.625 -76.675 -8.625 QT
-75.925 -8.625 L
-75.925 -5.922 L
cp
-67.22 -5.641 M
-70.47 -5.641 -72.377 -7.586 QT
-74.283 -9.531 -74.283 -12.828 QT
-74.283 -16.203 -72.377 -18.195 QT
-70.47 -20.188 -67.22 -20.188 QT
-63.97 -20.188 -62.064 -18.195 QT
-60.158 -16.203 -60.158 -12.828 QT
-60.158 -9.531 -62.064 -7.586 QT
-63.97 -5.641 -67.22 -5.641 QT
-67.22 -5.641 L
cp
-67.22 -8.688 M
-65.595 -8.688 -64.744 -9.758 QT
-63.892 -10.828 -63.892 -12.875 QT
-63.892 -14.969 -64.744 -16.055 QT
-65.595 -17.141 -67.22 -17.141 QT
-68.845 -17.141 -69.689 -16.055 QT
-70.533 -14.969 -70.533 -12.875 QT
-70.533 -10.828 -69.689 -9.758 QT
-68.845 -8.688 -67.22 -8.688 QT
-67.22 -8.688 L
cp
-51.141 -3.125 M
-49.609 -3.125 -48.938 -3.867 QT
-48.266 -4.609 -48.266 -6.328 QT
-48.266 -8.031 L
-48.266 -8.031 L
-48.547 -7.594 L
-49.75 -5.922 -52.016 -5.922 QT
-54.703 -5.922 -56.359 -7.859 QT
-58.016 -9.797 -58.016 -12.969 QT
-58.016 -16.219 -56.406 -18.203 QT
-54.797 -20.188 -52.172 -20.188 QT
-49.844 -20.188 -48.563 -18.5 QT
-48.328 -18.172 -48.125 -17.797 QT
-48.125 -17.797 L
-48.125 -19.813 L
-48.125 -19.813 L
-44.688 -19.813 L
-44.688 -6.734 L
-44.688 -3.453 -46.305 -1.898 QT
-47.922 -0.344 -51.359 -0.344 QT
-54.172 -0.344 -55.836 -1.445 QT
-57.5 -2.547 -57.609 -4.484 QT
-57.609 -4.484 L
-53.656 -4.484 L
-53.656 -4.484 L
-53.609 -3.781 -53 -3.453 QT
-52.391 -3.125 -51.141 -3.125 QT
cp
-51.25 -17.031 M
-52.672 -17.031 -53.477 -15.945 QT
-54.281 -14.859 -54.281 -12.938 QT
-54.281 -11.047 -53.477 -9.984 QT
-52.672 -8.922 -51.266 -8.922 QT
-49.828 -8.922 -49.023 -10 QT
-48.219 -11.078 -48.219 -12.984 QT
-48.219 -14.891 -49.023 -15.961 QT
-49.828 -17.031 -51.25 -17.031 QT
cp
-41.295 -6 M
-41.295 -19.813 L
-41.295 -19.813 L
-39.561 -19.813 L
-37.827 -19.813 L
-37.827 -19.813 L
-37.827 -17.344 L
-37.827 -17.344 L
-37.827 -17.344 L
-37.639 -17.75 -37.389 -18.125 QT
-36.108 -20.188 -34.077 -20.188 QT
-33.248 -20.172 L
-33.248 -16.453 L
-33.733 -16.5 -34.342 -16.5 QT
-36.014 -16.5 -36.827 -15.672 QT
-37.639 -14.844 -37.639 -13.172 QT
-37.639 -13.172 L
-37.639 -6 L
-37.639 -6 L
-39.467 -6 L
-41.295 -6 L
-41.295 -6 L
cp
-27.688 -5.641 M
-29.609 -5.641 -30.773 -6.742 QT
-31.938 -7.844 -31.938 -9.625 QT
-31.938 -11.516 -30.883 -12.656 QT
-29.828 -13.797 -27.813 -14.094 QT
-25.406 -14.422 L
-24.469 -14.547 -23.844 -14.844 QT
-23.578 -14.969 -23.438 -15.305 QT
-23.297 -15.641 -23.328 -15.984 QT
-23.406 -16.563 -23.922 -16.891 QT
-24.547 -17.281 -25.719 -17.281 QT
-26.766 -17.281 -27.344 -16.773 QT
-27.922 -16.266 -27.969 -15.344 QT
-27.969 -15.344 L
-31.453 -15.344 L
-31.453 -15.344 L
-31.344 -17.766 -29.805 -18.977 QT
-28.266 -20.188 -25.297 -20.188 QT
-22.719 -20.188 -21.227 -19.102 QT
-19.734 -18.016 -19.734 -16.125 QT
-19.734 -8.406 L
-19.734 -7.484 -19.586 -7.109 QT
-19.438 -6.734 -18.969 -6.516 QT
-18.969 -6.516 L
-18.969 -6.016 L
-20.938 -6.016 L
-22.906 -6.016 L
-22.906 -6.016 L
-23.156 -6.844 -23.234 -7.656 QT
-23.234 -7.672 L
-24.953 -5.641 -27.688 -5.641 QT
cp
-23.313 -11.109 M
-23.313 -12.688 L
-23.313 -12.688 L
-23.938 -12.328 -24.984 -12.125 QT
-26.328 -11.859 L
-27.281 -11.688 -27.773 -11.211 QT
-28.266 -10.734 -28.266 -10.016 QT
-28.266 -9.188 -27.82 -8.719 QT
-27.375 -8.25 -26.578 -8.25 QT
-24.828 -8.25 -23.781 -9.484 QT
-23.578 -9.719 -23.438 -10.188 QT
-23.313 -10.656 -23.313 -11.109 QT
cp
-16.363 -6 M
-16.363 -19.813 L
-16.363 -19.813 L
-14.628 -19.813 L
-12.894 -19.813 L
-12.894 -19.813 L
-12.894 -17.594 L
-12.894 -17.594 L
-12.894 -17.594 L
-12.644 -18.172 -12.285 -18.625 QT
-11.081 -20.188 -8.769 -20.188 QT
-6.941 -20.188 -5.785 -18.953 QT
-5.316 -18.484 -5.05 -17.906 QT
-5.05 -17.906 L
-4.613 -18.625 L
-3.488 -20.188 -1.331 -20.188 QT
0.919 -20.188 2.192 -18.852 QT
3.465 -17.516 3.465 -15.156 QT
3.465 -6 L
3.465 -6 L
1.653 -6 L
-0.175 -6 L
-0.175 -6 L
-0.175 -14.109 L
-0.175 -15.656 -0.683 -16.398 QT
-1.191 -17.141 -2.269 -17.141 QT
-3.41 -17.141 -4.011 -16.438 QT
-4.613 -15.734 -4.613 -14.422 QT
-4.613 -14.422 L
-4.613 -6 L
-4.613 -6 L
-6.425 -6 L
-8.253 -6 L
-8.253 -6 L
-8.253 -14.703 L
-8.253 -15.953 -8.785 -16.547 QT
-9.316 -17.141 -10.425 -17.141 QT
-11.535 -17.141 -12.121 -16.438 QT
-12.706 -15.734 -12.706 -14.422 QT
-12.706 -14.422 L
-12.706 -6 L
-12.706 -6 L
-14.535 -6 L
-16.363 -6 L
-16.363 -6 L
cp
20.714 -5.641 M
17.464 -5.641 15.557 -7.586 QT
13.651 -9.531 13.651 -12.828 QT
13.651 -16.203 15.557 -18.195 QT
17.464 -20.188 20.714 -20.188 QT
23.964 -20.188 25.87 -18.195 QT
27.776 -16.203 27.776 -12.828 QT
27.776 -9.531 25.87 -7.586 QT
23.964 -5.641 20.714 -5.641 QT
20.714 -5.641 L
cp
20.714 -8.688 M
22.339 -8.688 23.19 -9.758 QT
24.042 -10.828 24.042 -12.875 QT
24.042 -14.969 23.19 -16.055 QT
22.339 -17.141 20.714 -17.141 QT
19.089 -17.141 18.245 -16.055 QT
17.401 -14.969 17.401 -12.875 QT
17.401 -10.828 18.245 -9.758 QT
19.089 -8.688 20.714 -8.688 QT
20.714 -8.688 L
cp
30.481 -19.813 M
30.481 -19.813 L
32.215 -19.813 L
33.949 -19.813 L
33.949 -19.813 L
33.949 -17.766 L
33.949 -17.766 L
34.184 -18.109 L
35.668 -20.188 38.074 -20.188 QT
40.699 -20.188 42.293 -18.242 QT
43.887 -16.297 43.887 -13.125 QT
43.887 -9.766 42.293 -7.703 QT
40.699 -5.641 38.074 -5.641 QT
35.684 -5.641 34.199 -7.578 QT
34.121 -7.672 L
34.121 -7.672 L
34.121 -0.594 L
34.121 -0.594 L
32.309 -0.594 L
30.481 -0.594 L
30.481 -0.594 L
30.481 -19.813 L
cp
37.028 -8.641 M
38.496 -8.641 39.324 -9.742 QT
40.153 -10.844 40.153 -12.797 QT
40.153 -14.781 39.332 -15.906 QT
38.512 -17.031 37.043 -17.031 QT
35.59 -17.031 34.77 -15.875 QT
33.949 -14.719 33.949 -12.672 QT
33.949 -12.672 L
33.949 -12.672 L
33.949 -12.672 L
33.949 -10.781 34.77 -9.711 QT
35.59 -8.641 37.028 -8.641 QT
cp
52.935 -5.641 M
49.685 -5.641 47.779 -7.586 QT
45.873 -9.531 45.873 -12.828 QT
45.873 -16.203 47.779 -18.195 QT
49.685 -20.188 52.935 -20.188 QT
56.185 -20.188 58.092 -18.195 QT
59.998 -16.203 59.998 -12.828 QT
59.998 -9.531 58.092 -7.586 QT
56.185 -5.641 52.935 -5.641 QT
52.935 -5.641 L
cp
52.935 -8.688 M
54.56 -8.688 55.412 -9.758 QT
56.263 -10.828 56.263 -12.875 QT
56.263 -14.969 55.412 -16.055 QT
54.56 -17.141 52.935 -17.141 QT
51.31 -17.141 50.467 -16.055 QT
49.623 -14.969 49.623 -12.875 QT
49.623 -10.828 50.467 -9.758 QT
51.31 -8.688 52.935 -8.688 QT
52.935 -8.688 L
cp
51.435 -22 M
53.888 -25.766 L
57.873 -25.766 L
54.06 -22 L
51.435 -22 L
cp
61.609 -8.828 M
68.609 -16.828 L
68.703 -16.938 L
68.703 -16.938 L
62.14 -16.938 L
62.14 -16.938 L
62.14 -18.359 L
62.14 -19.813 L
62.14 -19.813 L
73.249 -19.813 L
73.249 -18.328 L
73.249 -16.828 L
66.343 -8.984 L
66.343 -8.984 L
73.578 -8.984 L
73.578 -8.984 L
73.578 -7.5 L
73.578 -6 L
73.578 -6 L
61.609 -6 L
61.609 -7.406 L
61.609 -8.828 L
cp
66.546 -22 M
68.999 -25.766 L
72.984 -25.766 L
69.171 -22 L
66.546 -22 L
cp
75.968 -6 M
75.968 -19.813 L
75.968 -19.813 L
77.703 -19.813 L
79.437 -19.813 L
79.437 -19.813 L
79.437 -17.766 L
79.437 -17.766 L
79.437 -17.766 L
79.656 -18.141 79.906 -18.469 QT
81.249 -20.188 83.812 -20.188 QT
85.999 -20.188 87.234 -18.891 QT
88.468 -17.594 88.468 -15.297 QT
88.468 -6 L
88.468 -6 L
86.656 -6 L
84.828 -6 L
84.828 -6 L
84.828 -14.641 L
84.828 -15.922 84.281 -16.531 QT
83.734 -17.141 82.578 -17.141 QT
81.156 -17.141 80.382 -16.281 QT
79.609 -15.422 79.609 -13.797 QT
79.609 -13.797 L
79.609 -6 L
79.609 -6 L
77.796 -6 L
75.968 -6 L
75.968 -6 L
cp
92.22 -6 M
92.22 -19.813 L
92.22 -19.813 L
94.032 -19.813 L
95.86 -19.813 L
95.86 -19.813 L
95.86 -6 L
95.86 -6 L
94.048 -6 L
92.22 -6 L
92.22 -6 L
cp
92.188 -24.797 M
95.892 -24.797 L
95.892 -21.422 L
92.188 -21.422 L
92.188 -24.797 L
cp
104.876 -5.641 M
101.735 -5.641 100.024 -7.586 QT
98.313 -9.531 98.313 -13.125 QT
98.313 -16.438 100.055 -18.313 QT
101.797 -20.188 104.876 -20.188 QT
108.047 -20.188 109.751 -18.273 QT
111.454 -16.359 111.454 -12.828 QT
111.485 -12.422 111.391 -12 QT
111.391 -12 L
101.985 -12 L
101.985 -12 L
102.11 -10.375 102.704 -9.563 QT
103.469 -8.547 105.251 -8.547 QT
106.079 -8.547 106.782 -9.016 QT
107.485 -9.484 107.626 -10.141 QT
107.626 -10.141 L
111.329 -10.141 L
111.329 -10.141 L
110.86 -8.031 109.149 -6.836 QT
107.438 -5.641 104.876 -5.641 QT
cp
107.657 -14.328 M
107.657 -14.328 L
107.532 -15.578 107.001 -16.266 QT
106.297 -17.203 104.829 -17.203 QT
103.422 -17.203 102.688 -16.125 QT
102.219 -15.438 102.016 -14.328 QT
102.016 -14.328 L
107.657 -14.328 L
cp
114.075 -6 M
114.075 -19.813 L
114.075 -19.813 L
115.81 -19.813 L
117.544 -19.813 L
117.544 -19.813 L
117.544 -17.766 L
117.544 -17.766 L
117.544 -17.766 L
117.763 -18.141 118.013 -18.469 QT
119.357 -20.188 121.919 -20.188 QT
124.107 -20.188 125.341 -18.891 QT
126.575 -17.594 126.575 -15.297 QT
126.575 -6 L
126.575 -6 L
124.763 -6 L
122.935 -6 L
122.935 -6 L
122.935 -14.641 L
122.935 -15.922 122.388 -16.531 QT
121.841 -17.141 120.685 -17.141 QT
119.263 -17.141 118.489 -16.281 QT
117.716 -15.422 117.716 -13.797 QT
117.716 -13.797 L
117.716 -6 L
117.716 -6 L
115.904 -6 L
114.075 -6 L
114.075 -6 L
cp
118.841 -22 M
121.294 -25.766 L
125.279 -25.766 L
121.466 -22 L
118.841 -22 L
cp
f
GR
GS
[0.75 0 0 0.75 0 0] CT
0 0.447 0.741 RC
1 LJ
0.667 LW
N
140 747.801 M
141.902 747.836 L
143.803 747.794 L
145.705 747.788 L
147.607 747.774 L
149.509 747.74 L
151.41 747.747 L
153.312 747.774 L
155.214 747.849 L
157.115 747.836 L
159.017 747.815 L
160.919 747.829 L
162.821 747.781 L
164.722 747.788 L
166.624 747.87 L
168.526 747.842 L
170.427 747.829 L
172.329 747.829 L
174.231 747.815 L
176.133 747.801 L
178.034 747.76 L
179.936 747.801 L
181.838 747.76 L
183.739 747.829 L
185.641 747.774 L
187.543 747.808 L
189.445 747.74 L
191.346 747.822 L
193.248 747.836 L
195.15 747.842 L
197.051 747.788 L
198.953 747.794 L
200.855 747.767 L
202.757 747.822 L
204.658 747.856 L
206.56 747.863 L
208.462 747.87 L
210.363 747.788 L
212.265 747.829 L
214.167 747.842 L
216.069 747.836 L
217.97 747.794 L
219.872 747.829 L
221.774 747.815 L
223.675 747.842 L
225.577 747.808 L
227.479 747.863 L
229.381 747.808 L
231.282 747.822 L
233.184 747.863 L
235.086 747.781 L
236.987 747.767 L
238.889 747.788 L
240.791 747.808 L
242.693 747.61 L
244.594 747.37 L
246.496 746.452 L
248.398 745.897 L
250.299 742.116 L
252.201 733.814 L
254.103 725.936 L
256.005 722.751 L
257.906 716.271 L
259.808 708.647 L
261.71 703.564 L
263.611 694.132 L
265.513 684.5 L
267.415 681.103 L
269.317 683.507 L
271.218 696.07 L
273.12 707.866 L
275.022 717.949 L
276.923 724.128 L
278.825 729.656 L
280.727 733.32 L
282.629 735.951 L
284.53 738.307 L
286.432 740.157 L
288.334 738.431 L
290.235 736.876 L
292.137 733.663 L
294.039 729.443 L
295.941 724.395 L
297.842 717.99 L
299.744 708.065 L
301.646 704.16 L
303.547 703.283 L
305.449 706.379 L
307.351 709.825 L
309.253 713.49 L
311.154 712.798 L
313.056 713.25 L
314.958 714.894 L
316.859 713.113 L
318.761 712.106 L
320.663 706.955 L
322.565 702.05 L
324.466 693.221 L
326.368 675.774 L
328.27 656.635 L
330.171 631.399 L
332.073 624.775 L
333.975 627.18 L
335.877 643.729 L
337.778 656.374 L
339.68 667.163 L
341.582 676.568 L
343.483 685.014 L
345.385 688.658 L
347.287 691.604 L
349.189 699.249 L
351.09 698.892 L
352.992 696.878 L
354.894 703.235 L
356.795 705.42 L
358.697 708.688 L
360.599 703.475 L
362.501 705.927 L
364.402 703.297 L
366.304 698.173 L
368.206 692.138 L
370.107 691.001 L
372.009 690.72 L
373.911 689.2 L
375.813 689.672 L
377.714 684.946 L
379.616 680.247 L
381.518 686.131 L
383.419 691.227 L
385.321 701.393 L
387.223 706.304 L
389.125 713.339 L
391.026 723.456 L
392.928 731.313 L
394.83 734.334 L
396.731 735.382 L
398.633 734.91 L
400.535 734.225 L
402.437 733.56 L
404.338 734.314 L
406.24 731.957 L
408.142 729.395 L
410.043 727.95 L
411.945 725.82 L
413.847 719.196 L
415.749 714.277 L
417.65 712.106 L
419.552 706.948 L
421.454 702.523 L
423.355 703.016 L
425.257 703.475 L
427.159 709.708 L
429.061 712.647 L
430.962 713.318 L
432.864 720.525 L
434.766 726.306 L
436.667 729.868 L
438.569 734.807 L
440.471 737.506 L
442.373 739.985 L
444.274 741.253 L
446.176 742.109 L
448.078 742.356 L
449.979 741.931 L
451.881 742.082 L
453.783 742.075 L
455.685 742.664 L
457.586 743.842 L
459.488 745.637 L
461.39 746.568 L
463.291 747.157 L
465.193 747.521 L
467.095 747.616 L
468.997 747.644 L
470.898 747.575 L
472.8 747.411 L
474.702 747.562 L
476.603 747.575 L
478.505 747.705 L
480.407 747.692 L
482.309 747.575 L
484.21 747.514 L
486.112 747.568 L
488.014 747.637 L
489.915 747.726 L
491.817 747.705 L
493.719 747.623 L
495.621 747.657 L
497.522 747.582 L
499.424 747.596 L
501.326 747.575 L
503.227 747.562 L
505.129 747.575 L
507.031 747.623 L
508.933 747.582 L
510.834 747.637 L
512.736 747.678 L
514.638 747.63 L
516.539 747.664 L
518.441 747.644 L
520.343 747.623 L
522.245 747.623 L
524.146 747.705 L
526.048 747.637 L
527.95 747.767 L
529.851 747.733 L
531.753 747.774 L
533.655 747.603 L
535.557 747.575 L
537.458 747.548 L
539.36 747.596 L
541.262 747.582 L
543.163 747.404 L
545.065 747.438 L
546.967 747.452 L
548.869 747.431 L
550.77 747.575 L
552.672 747.534 L
554.574 747.479 L
556.475 747.534 L
558.377 747.527 L
560.279 747.534 L
562.181 747.575 L
564.082 747.452 L
565.984 747.486 L
567.886 747.534 L
569.787 747.466 L
571.689 747.438 L
573.591 747.479 L
575.493 747.438 L
577.394 747.459 L
579.296 747.493 L
581.198 747.507 L
583.099 747.596 L
585.001 747.5 L
586.903 747.452 L
588.805 747.377 L
590.706 747.452 L
592.608 747.397 L
594.51 747.411 L
596.411 747.438 L
598.313 747.514 L
600.215 747.418 L
602.117 747.425 L
604.018 747.452 L
605.92 747.425 L
607.822 747.438 L
609.723 747.37 L
611.625 747.404 L
613.527 747.514 L
615.429 747.534 L
617.33 747.486 L
619.232 747.411 L
621.134 747.527 L
623.035 747.596 L
624.937 747.582 L
626.839 747.671 L
628.741 747.726 L
630.642 747.705 L
632.544 747.808 L
634.446 747.808 L
636.347 747.856 L
638.249 747.788 L
640.151 747.822 L
642.053 747.863 L
643.954 747.822 L
645.856 747.849 L
647.758 747.877 L
649.659 747.897 L
651.561 747.849 L
653.463 747.856 L
655.365 747.815 L
657.266 747.781 L
659.168 747.637 L
661.07 747.753 L
662.971 747.651 L
664.873 747.541 L
666.775 747.473 L
668.677 747.247 L
670.578 747.363 L
672.48 747.185 L
674.382 747.233 L
676.283 747.294 L
678.185 747.329 L
680.087 747.144 L
681.989 746.931 L
683.89 746.993 L
685.792 746.972 L
687.694 746.911 L
689.595 746.801 L
691.497 746.719 L
693.399 746.5 L
695.301 746.541 L
697.202 746.431 L
699.104 746.322 L
701.006 746.363 L
702.907 746.267 L
704.809 746.048 L
706.711 746.137 L
708.613 746.013 L
710.514 745.644 L
712.416 745.561 L
714.318 745.274 L
716.219 745.027 L
718.121 744.431 L
720.023 744.15 L
721.925 744.006 L
723.826 743.116 L
725.728 742.184 L
727.63 741.451 L
729.531 740.869 L
731.433 739.198 L
733.335 737.677 L
735.237 735.608 L
737.138 730.416 L
739.04 720.723 L
740.942 689.104 L
742.843 614.925 L
744.745 502.366 L
746.647 391.389 L
748.549 310.901 L
750.45 257.307 L
752.352 229.325 L
754.254 207.994 L
756.155 192.02 L
758.057 172.792 L
759.959 156.639 L
761.861 143.501 L
763.762 127.109 L
765.664 110.573 L
767.566 104.943 L
769.467 106.785 L
771.369 144.118 L
773.271 235.99 L
775.173 385.176 L
777.074 536.965 L
778.976 637.852 L
780.878 692.001 L
782.779 715.915 L
784.681 726.155 L
786.583 732.444 L
788.485 735.923 L
790.386 737.848 L
792.288 740.033 L
794.19 741.198 L
796.091 742.15 L
797.993 743.089 L
799.895 743.534 L
801.797 743.808 L
803.698 744.664 L
805.6 744.87 L
807.502 745.219 L
809.403 745.486 L
811.305 745.822 L
813.207 745.698 L
815.109 745.938 L
817.01 746.404 L
818.912 746.253 L
820.814 746.253 L
822.715 746.609 L
824.617 746.609 L
826.519 746.5 L
828.421 746.582 L
830.322 746.726 L
832.224 746.767 L
834.126 746.959 L
836.027 747.082 L
837.929 747.377 L
839.831 747.336 L
841.733 747.397 L
843.634 747.548 L
845.536 747.623 L
847.438 747.63 L
849.339 747.712 L
851.241 747.726 L
853.143 747.753 L
855.045 747.692 L
856.946 747.692 L
858.848 747.719 L
860.75 747.733 L
862.651 747.801 L
864.553 747.808 L
866.455 747.877 L
868.357 747.877 L
870.258 747.829 L
872.16 747.842 L
874.062 747.801 L
875.963 747.897 L
877.865 747.877 L
879.767 747.836 L
881.669 747.863 L
883.57 747.863 L
885.472 747.884 L
887.374 747.849 L
889.275 747.897 L
891.177 747.918 L
893.079 747.863 L
894.981 747.89 L
896.882 747.836 L
898.784 747.89 L
900.686 747.904 L
S
GR
%%Trailer
%%Pages: 1
%%EOF
