%!PS-Adobe-3.0 EPSF-3.0
%%Creator: (MATLAB, The Mathworks, Inc. Version 9.2.0.538062 \(R2017a\). Operating System: Windows 7)
%%Title: ./roznosci.eps
%%CreationDate: 2017-06-20T16:37:25
%%Pages: (atend)
%%BoundingBox:    69    31   739   596
%%LanguageLevel: 3
%%EndComments
%%BeginProlog
%%BeginResource: procset (Apache XML Graphics Std ProcSet) 1.2 0
%%Version: 1.2 0
%%Copyright: (Copyright 2001-2003,2010 The Apache Software Foundation. License terms: http://www.apache.org/licenses/LICENSE-2.0)
/bd{bind def}bind def
/ld{load def}bd
/GR/grestore ld
/M/moveto ld
/LJ/setlinejoin ld
/C/curveto ld
/f/fill ld
/LW/setlinewidth ld
/GC/setgray ld
/t/show ld
/N/newpath ld
/CT/concat ld
/cp/closepath ld
/S/stroke ld
/L/lineto ld
/CC/setcmykcolor ld
/A/ashow ld
/GS/gsave ld
/RC/setrgbcolor ld
/RM/rmoveto ld
/ML/setmiterlimit ld
/re {4 2 roll M
1 index 0 rlineto
0 exch rlineto
neg 0 rlineto
cp } bd
/_ctm matrix def
/_tm matrix def
/BT { _ctm currentmatrix pop matrix _tm copy pop 0 0 moveto } bd
/ET { _ctm setmatrix } bd
/iTm { _ctm setmatrix _tm concat } bd
/Tm { _tm astore pop iTm 0 0 moveto } bd
/ux 0.0 def
/uy 0.0 def
/F {
  /Tp exch def
  /Tf exch def
  Tf findfont Tp scalefont setfont
  /cf Tf def  /cs Tp def
} bd
/ULS {currentpoint /uy exch def /ux exch def} bd
/ULE {
  /Tcx currentpoint pop def
  gsave
  newpath
  cf findfont cs scalefont dup
  /FontMatrix get 0 get /Ts exch def /FontInfo get dup
  /UnderlinePosition get Ts mul /To exch def
  /UnderlineThickness get Ts mul /Tt exch def
  ux uy To add moveto  Tcx uy To add lineto
  Tt setlinewidth stroke
  grestore
} bd
/OLE {
  /Tcx currentpoint pop def
  gsave
  newpath
  cf findfont cs scalefont dup
  /FontMatrix get 0 get /Ts exch def /FontInfo get dup
  /UnderlinePosition get Ts mul /To exch def
  /UnderlineThickness get Ts mul /Tt exch def
  ux uy To add cs add moveto Tcx uy To add cs add lineto
  Tt setlinewidth stroke
  grestore
} bd
/SOE {
  /Tcx currentpoint pop def
  gsave
  newpath
  cf findfont cs scalefont dup
  /FontMatrix get 0 get /Ts exch def /FontInfo get dup
  /UnderlinePosition get Ts mul /To exch def
  /UnderlineThickness get Ts mul /Tt exch def
  ux uy To add cs 10 mul 26 idiv add moveto Tcx uy To add cs 10 mul 26 idiv add lineto
  Tt setlinewidth stroke
  grestore
} bd
/QT {
/Y22 exch store
/X22 exch store
/Y21 exch store
/X21 exch store
currentpoint
/Y21 load 2 mul add 3 div exch
/X21 load 2 mul add 3 div exch
/X21 load 2 mul /X22 load add 3 div
/Y21 load 2 mul /Y22 load add 3 div
/X22 load /Y22 load curveto
} bd
/SSPD {
dup length /d exch dict def
{
/v exch def
/k exch def
currentpagedevice k known {
/cpdv currentpagedevice k get def
v cpdv ne {
/upd false def
/nullv v type /nulltype eq def
/nullcpdv cpdv type /nulltype eq def
nullv nullcpdv or
{
/upd true def
} {
/sametype v type cpdv type eq def
sametype {
v type /arraytype eq {
/vlen v length def
/cpdvlen cpdv length def
vlen cpdvlen eq {
0 1 vlen 1 sub {
/i exch def
/obj v i get def
/cpdobj cpdv i get def
obj cpdobj ne {
/upd true def
exit
} if
} for
} {
/upd true def
} ifelse
} {
v type /dicttype eq {
v {
/dv exch def
/dk exch def
/cpddv cpdv dk get def
dv cpddv ne {
/upd true def
exit
} if
} forall
} {
/upd true def
} ifelse
} ifelse
} if
} ifelse
upd true eq {
d k v put
} if
} if
} if
} forall
d length 0 gt {
d setpagedevice
} if
} bd
/RE { % /NewFontName [NewEncodingArray] /FontName RE -
  findfont dup length dict begin
  {
    1 index /FID ne
    {def} {pop pop} ifelse
  } forall
  /Encoding exch def
  /FontName 1 index def
  currentdict definefont pop
  end
} bind def
%%EndResource
%%BeginResource: procset (Apache XML Graphics EPS ProcSet) 1.0 0
%%Version: 1.0 0
%%Copyright: (Copyright 2002-2003 The Apache Software Foundation. License terms: http://www.apache.org/licenses/LICENSE-2.0)
/BeginEPSF { %def
/b4_Inc_state save def         % Save state for cleanup
/dict_count countdictstack def % Count objects on dict stack
/op_count count 1 sub def      % Count objects on operand stack
userdict begin                 % Push userdict on dict stack
/showpage { } def              % Redefine showpage, { } = null proc
0 setgray 0 setlinecap         % Prepare graphics state
1 setlinewidth 0 setlinejoin
10 setmiterlimit [ ] 0 setdash newpath
/languagelevel where           % If level not equal to 1 then
{pop languagelevel             % set strokeadjust and
1 ne                           % overprint to their defaults.
{false setstrokeadjust false setoverprint
} if
} if
} bd
/EndEPSF { %def
count op_count sub {pop} repeat            % Clean up stacks
countdictstack dict_count sub {end} repeat
b4_Inc_state restore
} bd
%%EndResource
%FOPBeginFontDict
%%IncludeResource: font Courier-Bold
%%IncludeResource: font Helvetica
%%IncludeResource: font Courier-BoldOblique
%%IncludeResource: font Courier-Oblique
%%IncludeResource: font Times-Roman
%%IncludeResource: font Helvetica-BoldOblique
%%IncludeResource: font Helvetica-Bold
%%IncludeResource: font Helvetica-Oblique
%%IncludeResource: font Times-BoldItalic
%%IncludeResource: font Courier
%%IncludeResource: font Times-Italic
%%IncludeResource: font Times-Bold
%%IncludeResource: font Symbol
%%IncludeResource: font ZapfDingbats
%FOPEndFontDict
%%BeginResource: encoding WinAnsiEncoding
/WinAnsiEncoding [
/.notdef /.notdef /.notdef /.notdef /.notdef
/.notdef /.notdef /.notdef /.notdef /.notdef
/.notdef /.notdef /.notdef /.notdef /.notdef
/.notdef /.notdef /.notdef /.notdef /.notdef
/.notdef /.notdef /.notdef /.notdef /.notdef
/.notdef /.notdef /.notdef /.notdef /.notdef
/.notdef /.notdef /space /exclam /quotedbl
/numbersign /dollar /percent /ampersand /quotesingle
/parenleft /parenright /asterisk /plus /comma
/hyphen /period /slash /zero /one
/two /three /four /five /six
/seven /eight /nine /colon /semicolon
/less /equal /greater /question /at
/A /B /C /D /E
/F /G /H /I /J
/K /L /M /N /O
/P /Q /R /S /T
/U /V /W /X /Y
/Z /bracketleft /backslash /bracketright /asciicircum
/underscore /quoteleft /a /b /c
/d /e /f /g /h
/i /j /k /l /m
/n /o /p /q /r
/s /t /u /v /w
/x /y /z /braceleft /bar
/braceright /asciitilde /bullet /Euro /bullet
/quotesinglbase /florin /quotedblbase /ellipsis /dagger
/daggerdbl /circumflex /perthousand /Scaron /guilsinglleft
/OE /bullet /Zcaron /bullet /bullet
/quoteleft /quoteright /quotedblleft /quotedblright /bullet
/endash /emdash /asciitilde /trademark /scaron
/guilsinglright /oe /bullet /zcaron /Ydieresis
/space /exclamdown /cent /sterling /currency
/yen /brokenbar /section /dieresis /copyright
/ordfeminine /guillemotleft /logicalnot /sfthyphen /registered
/macron /degree /plusminus /twosuperior /threesuperior
/acute /mu /paragraph /middot /cedilla
/onesuperior /ordmasculine /guillemotright /onequarter /onehalf
/threequarters /questiondown /Agrave /Aacute /Acircumflex
/Atilde /Adieresis /Aring /AE /Ccedilla
/Egrave /Eacute /Ecircumflex /Edieresis /Igrave
/Iacute /Icircumflex /Idieresis /Eth /Ntilde
/Ograve /Oacute /Ocircumflex /Otilde /Odieresis
/multiply /Oslash /Ugrave /Uacute /Ucircumflex
/Udieresis /Yacute /Thorn /germandbls /agrave
/aacute /acircumflex /atilde /adieresis /aring
/ae /ccedilla /egrave /eacute /ecircumflex
/edieresis /igrave /iacute /icircumflex /idieresis
/eth /ntilde /ograve /oacute /ocircumflex
/otilde /odieresis /divide /oslash /ugrave
/uacute /ucircumflex /udieresis /yacute /thorn
/ydieresis
] def
%%EndResource
%FOPBeginFontReencode
/Courier-Bold findfont
dup length dict begin
  {1 index /FID ne {def} {pop pop} ifelse} forall
  /Encoding WinAnsiEncoding def
  currentdict
end
/Courier-Bold exch definefont pop
/Helvetica findfont
dup length dict begin
  {1 index /FID ne {def} {pop pop} ifelse} forall
  /Encoding WinAnsiEncoding def
  currentdict
end
/Helvetica exch definefont pop
/Courier-BoldOblique findfont
dup length dict begin
  {1 index /FID ne {def} {pop pop} ifelse} forall
  /Encoding WinAnsiEncoding def
  currentdict
end
/Courier-BoldOblique exch definefont pop
/Courier-Oblique findfont
dup length dict begin
  {1 index /FID ne {def} {pop pop} ifelse} forall
  /Encoding WinAnsiEncoding def
  currentdict
end
/Courier-Oblique exch definefont pop
/Times-Roman findfont
dup length dict begin
  {1 index /FID ne {def} {pop pop} ifelse} forall
  /Encoding WinAnsiEncoding def
  currentdict
end
/Times-Roman exch definefont pop
/Helvetica-BoldOblique findfont
dup length dict begin
  {1 index /FID ne {def} {pop pop} ifelse} forall
  /Encoding WinAnsiEncoding def
  currentdict
end
/Helvetica-BoldOblique exch definefont pop
/Helvetica-Bold findfont
dup length dict begin
  {1 index /FID ne {def} {pop pop} ifelse} forall
  /Encoding WinAnsiEncoding def
  currentdict
end
/Helvetica-Bold exch definefont pop
/Helvetica-Oblique findfont
dup length dict begin
  {1 index /FID ne {def} {pop pop} ifelse} forall
  /Encoding WinAnsiEncoding def
  currentdict
end
/Helvetica-Oblique exch definefont pop
/Times-BoldItalic findfont
dup length dict begin
  {1 index /FID ne {def} {pop pop} ifelse} forall
  /Encoding WinAnsiEncoding def
  currentdict
end
/Times-BoldItalic exch definefont pop
/Courier findfont
dup length dict begin
  {1 index /FID ne {def} {pop pop} ifelse} forall
  /Encoding WinAnsiEncoding def
  currentdict
end
/Courier exch definefont pop
/Times-Italic findfont
dup length dict begin
  {1 index /FID ne {def} {pop pop} ifelse} forall
  /Encoding WinAnsiEncoding def
  currentdict
end
/Times-Italic exch definefont pop
/Times-Bold findfont
dup length dict begin
  {1 index /FID ne {def} {pop pop} ifelse} forall
  /Encoding WinAnsiEncoding def
  currentdict
end
/Times-Bold exch definefont pop
%FOPEndFontReencode
%%EndProlog
%%Page: 1 1
%%PageBoundingBox: 0 0 806 630
%%BeginPageSetup
[1 0 0 -1 0 630] CT
%%EndPageSetup
GS
[0.75 0 0 0.75 0 0] CT
1 GC
N
0 0 1074 840 re
f
GR
GS
[0.75 0 0 0.75 0 0] CT
1 GC
N
0 0 1074 840 re
f
GR
GS
[0.75 0 0 0.75 0 0] CT
1 GC
N
140 748 M
972 748 L
972 63 L
140 63 L
cp
f
GR
GS
[0.75 0 0 0.75 0 0] CT
0.149 GC
2 setlinecap
1 LJ
0.667 LW
N
140 748 M
972 748 L
S
GR
GS
[0.75 0 0 0.75 0 0] CT
0.149 GC
2 setlinecap
1 LJ
0.667 LW
N
140 63 M
972 63 L
S
GR
GS
[0.75 0 0 0.75 0 0] CT
0.149 GC
2 setlinecap
1 LJ
0.667 LW
N
140 748 M
140 739.68 L
S
GR
GS
[0.75 0 0 0.75 0 0] CT
0.149 GC
2 setlinecap
1 LJ
0.667 LW
N
278.667 748 M
278.667 739.68 L
S
GR
GS
[0.75 0 0 0.75 0 0] CT
0.149 GC
2 setlinecap
1 LJ
0.667 LW
N
417.333 748 M
417.333 739.68 L
S
GR
GS
[0.75 0 0 0.75 0 0] CT
0.149 GC
2 setlinecap
1 LJ
0.667 LW
N
556 748 M
556 739.68 L
S
GR
GS
[0.75 0 0 0.75 0 0] CT
0.149 GC
2 setlinecap
1 LJ
0.667 LW
N
694.667 748 M
694.667 739.68 L
S
GR
GS
[0.75 0 0 0.75 0 0] CT
0.149 GC
2 setlinecap
1 LJ
0.667 LW
N
833.333 748 M
833.333 739.68 L
S
GR
GS
[0.75 0 0 0.75 0 0] CT
0.149 GC
2 setlinecap
1 LJ
0.667 LW
N
972 748 M
972 739.68 L
S
GR
GS
[0.75 0 0 0.75 0 0] CT
0.149 GC
2 setlinecap
1 LJ
0.667 LW
N
140 63 M
140 71.32 L
S
GR
GS
[0.75 0 0 0.75 0 0] CT
0.149 GC
2 setlinecap
1 LJ
0.667 LW
N
278.667 63 M
278.667 71.32 L
S
GR
GS
[0.75 0 0 0.75 0 0] CT
0.149 GC
2 setlinecap
1 LJ
0.667 LW
N
417.333 63 M
417.333 71.32 L
S
GR
GS
[0.75 0 0 0.75 0 0] CT
0.149 GC
2 setlinecap
1 LJ
0.667 LW
N
556 63 M
556 71.32 L
S
GR
GS
[0.75 0 0 0.75 0 0] CT
0.149 GC
2 setlinecap
1 LJ
0.667 LW
N
694.667 63 M
694.667 71.32 L
S
GR
GS
[0.75 0 0 0.75 0 0] CT
0.149 GC
2 setlinecap
1 LJ
0.667 LW
N
833.333 63 M
833.333 71.32 L
S
GR
GS
[0.75 0 0 0.75 0 0] CT
0.149 GC
2 setlinecap
1 LJ
0.667 LW
N
972 63 M
972 71.32 L
S
GR
GS
[0.75 0 0 0.75 105 564.99998] CT
0.149 GC
/Helvetica 13.333 F
GS
[1 0 0 1 0 0] CT
-14.5 13 moveto 
1 -1 scale
(2000) t 
GR
GR
GS
[0.75 0 0 0.75 208.99999 564.99998] CT
0.149 GC
/Helvetica 13.333 F
GS
[1 0 0 1 0 0] CT
-14.5 13 moveto 
1 -1 scale
(3000) t 
GR
GR
GS
[0.75 0 0 0.75 313.00001 564.99998] CT
0.149 GC
/Helvetica 13.333 F
GS
[1 0 0 1 0 0] CT
-14.5 13 moveto 
1 -1 scale
(4000) t 
GR
GR
GS
[0.75 0 0 0.75 417 564.99998] CT
0.149 GC
/Helvetica 13.333 F
GS
[1 0 0 1 0 0] CT
-14.5 13 moveto 
1 -1 scale
(5000) t 
GR
GR
GS
[0.75 0 0 0.75 521.00002 564.99998] CT
0.149 GC
/Helvetica 13.333 F
GS
[1 0 0 1 0 0] CT
-14.5 13 moveto 
1 -1 scale
(6000) t 
GR
GR
GS
[0.75 0 0 0.75 624.99998 564.99998] CT
0.149 GC
/Helvetica 13.333 F
GS
[1 0 0 1 0 0] CT
-14.5 13 moveto 
1 -1 scale
(7000) t 
GR
GR
GS
[0.75 0 0 0.75 729 564.99998] CT
0.149 GC
/Helvetica 13.333 F
GS
[1 0 0 1 0 0] CT
-14.5 13 moveto 
1 -1 scale
(8000) t 
GR
GR
GS
[0.75 0 0 0.75 417.00032 578.00002] CT
0.149 GC
N
-74.172 23.469 M
-77.922 23.469 -80.242 20.969 QT
-82.563 18.469 -82.563 14.391 QT
-82.563 10.313 -80.242 7.805 QT
-77.922 5.297 -74.172 5.297 QT
-70.391 5.297 -68.078 7.805 QT
-65.766 10.313 -65.766 14.391 QT
-65.766 18.469 -68.078 20.969 QT
-70.391 23.469 -74.172 23.469 QT
-74.172 23.469 L
cp
-74.172 21.406 M
-71.469 21.406 -69.82 19.469 QT
-68.172 17.531 -68.172 14.391 QT
-68.172 11.25 -69.82 9.305 QT
-71.469 7.359 -74.172 7.359 QT
-76.859 7.359 -78.508 9.305 QT
-80.156 11.25 -80.156 14.391 QT
-80.156 17.531 -78.508 19.469 QT
-76.859 21.406 -74.172 21.406 QT
-74.172 21.406 L
cp
-63.441 10.453 M
-63.441 10.453 L
-62.441 10.453 L
-61.426 10.453 L
-61.426 10.453 L
-61.426 12.234 L
-61.426 12.234 L
-61.332 12.094 L
-59.973 10.078 -57.754 10.078 QT
-55.285 10.078 -53.855 11.773 QT
-52.426 13.469 -52.426 16.359 QT
-52.426 19.625 -53.871 21.484 QT
-55.316 23.344 -57.879 23.344 QT
-60.004 23.344 -61.254 21.703 QT
-61.332 21.609 L
-61.332 21.609 L
-61.332 27.953 L
-61.332 27.953 L
-62.379 27.953 L
-63.441 27.953 L
-63.441 27.953 L
-63.441 10.453 L
cp
-57.988 21.516 M
-56.332 21.516 -55.48 20.266 QT
-54.629 19.016 -54.629 16.625 QT
-54.629 14.266 -55.449 13.133 QT
-56.27 12 -57.973 12 QT
-59.723 12 -60.527 13.281 QT
-61.332 14.563 -61.332 17.328 QT
-61.332 17.328 L
-61.332 17.328 L
-61.332 17.328 L
-61.332 19.328 -60.465 20.422 QT
-59.598 21.516 -57.988 21.516 QT
cp
-44.813 23.344 M
-47.422 23.344 -49.031 21.516 QT
-50.641 19.688 -50.641 16.719 QT
-50.641 13.734 -49.031 11.906 QT
-47.422 10.078 -44.813 10.078 QT
-42.188 10.078 -40.586 11.906 QT
-38.984 13.734 -38.984 16.719 QT
-38.984 19.688 -40.586 21.516 QT
-42.188 23.344 -44.813 23.344 QT
-44.813 23.344 L
cp
-44.813 21.516 M
-43.156 21.516 -42.172 20.219 QT
-41.188 18.922 -41.188 16.719 QT
-41.188 14.516 -42.172 13.211 QT
-43.156 11.906 -44.813 11.906 QT
-46.484 11.906 -47.461 13.211 QT
-48.438 14.516 -48.438 16.719 QT
-48.438 18.922 -47.461 20.219 QT
-46.484 21.516 -44.813 21.516 QT
-44.813 21.516 L
cp
-47.516 9 M
-45.375 5.625 L
-42.797 5.625 L
-45.891 9 L
-47.516 9 L
cp
-37.402 21.344 M
-29.871 12.219 L
-29.871 12.219 L
-36.84 12.219 L
-36.84 12.219 L
-36.84 11.344 L
-36.84 10.453 L
-36.84 10.453 L
-27.043 10.453 L
-27.043 11.281 L
-27.043 12.109 L
-34.574 21.234 L
-34.574 21.234 L
-26.871 21.234 L
-26.871 21.234 L
-26.871 22.125 L
-26.871 23 L
-26.871 23 L
-37.402 23 L
-37.402 22.172 L
-37.402 21.344 L
cp
-34.168 9 M
-32.027 5.625 L
-29.449 5.625 L
-32.543 9 L
-34.168 9 L
cp
-24.574 23 M
-24.574 10.453 L
-24.574 10.453 L
-23.574 10.453 L
-22.574 10.453 L
-22.574 10.453 L
-22.574 12.313 L
-22.574 12.313 L
-22.574 12.313 L
-22.105 11.688 L
-20.73 10.078 -18.668 10.078 QT
-16.59 10.078 -15.465 11.203 QT
-14.34 12.328 -14.34 14.406 QT
-14.34 23 L
-14.34 23 L
-15.402 23 L
-16.449 23 L
-16.449 23 L
-16.449 15.125 L
-16.449 13.469 -17.09 12.734 QT
-17.73 12 -19.168 12 QT
-20.684 12 -21.574 13.156 QT
-22.465 14.313 -22.465 16.281 QT
-22.465 16.281 L
-22.465 23 L
-22.465 23 L
-23.527 23 L
-24.574 23 L
-24.574 23 L
cp
-11.164 23 M
-11.164 10.453 L
-11.164 10.453 L
-10.102 10.453 L
-9.055 10.453 L
-9.055 10.453 L
-9.055 23 L
-9.055 23 L
-10.102 23 L
-11.164 23 L
-11.164 23 L
cp
-11.18 5.766 M
-9.023 5.766 L
-9.023 8.156 L
-11.18 8.156 L
-11.18 5.766 L
cp
-0.785 23.344 M
-3.441 23.344 -4.965 21.656 QT
-6.488 19.969 -6.488 16.984 QT
-6.488 13.828 -4.879 11.953 QT
-3.27 10.078 -0.551 10.078 QT
1.902 10.078 3.418 11.906 QT
4.934 13.734 4.934 16.719 QT
4.902 17.469 L
4.902 17.469 L
-4.254 17.469 L
-4.254 17.469 L
-4.129 19.344 -3.395 20.328 QT
-2.504 21.516 -0.582 21.516 QT
0.621 21.516 1.52 20.836 QT
2.418 20.156 2.621 19.109 QT
2.621 19.109 L
4.715 19.109 L
4.715 19.109 L
4.246 21.172 2.84 22.258 QT
1.434 23.344 -0.785 23.344 QT
cp
2.73 15.766 M
2.73 15.766 L
2.637 14.016 1.855 13.047 QT
1.012 11.969 -0.645 11.969 QT
-2.316 11.969 -3.301 13.219 QT
-4.098 14.188 -4.254 15.766 QT
-4.254 15.766 L
2.73 15.766 L
cp
7.453 23 M
7.453 10.453 L
7.453 10.453 L
8.453 10.453 L
9.453 10.453 L
9.453 10.453 L
9.453 12.313 L
9.453 12.313 L
9.453 12.313 L
9.922 11.688 L
11.297 10.078 13.359 10.078 QT
15.438 10.078 16.563 11.203 QT
17.688 12.328 17.688 14.406 QT
17.688 23 L
17.688 23 L
16.625 23 L
15.578 23 L
15.578 23 L
15.578 15.125 L
15.578 13.469 14.938 12.734 QT
14.297 12 12.859 12 QT
11.344 12 10.453 13.156 QT
9.563 14.313 9.563 16.281 QT
9.563 16.281 L
9.563 23 L
9.563 23 L
8.5 23 L
7.453 23 L
7.453 23 L
cp
20.863 23 M
20.863 10.453 L
20.863 10.453 L
21.926 10.453 L
22.973 10.453 L
22.973 10.453 L
22.973 23 L
22.973 23 L
21.926 23 L
20.863 23 L
20.863 23 L
cp
20.848 5.766 M
23.004 5.766 L
23.004 8.156 L
20.848 8.156 L
20.848 5.766 L
cp
31.242 23.344 M
28.586 23.344 27.063 21.656 QT
25.539 19.969 25.539 16.984 QT
25.539 13.828 27.148 11.953 QT
28.758 10.078 31.477 10.078 QT
33.93 10.078 35.445 11.906 QT
36.961 13.734 36.961 16.719 QT
36.93 17.469 L
36.93 17.469 L
27.773 17.469 L
27.773 17.469 L
27.898 19.344 28.633 20.328 QT
29.523 21.516 31.445 21.516 QT
32.648 21.516 33.547 20.836 QT
34.445 20.156 34.648 19.109 QT
34.648 19.109 L
36.742 19.109 L
36.742 19.109 L
36.273 21.172 34.867 22.258 QT
33.461 23.344 31.242 23.344 QT
cp
34.758 15.766 M
34.758 15.766 L
34.664 14.016 33.883 13.047 QT
33.039 11.969 31.383 11.969 QT
29.711 11.969 28.727 13.219 QT
27.93 14.188 27.773 15.766 QT
27.773 15.766 L
34.758 15.766 L
cp
46.102 27.719 M
46.102 5.656 L
46.102 5.656 L
50.586 5.656 L
50.586 7.359 L
47.992 7.359 L
47.992 7.359 L
47.992 26.016 L
47.992 26.016 L
50.586 26.016 L
50.586 27.719 L
46.102 27.719 L
46.102 27.719 L
cp
52.645 10.453 M
52.645 10.453 L
53.645 10.453 L
54.66 10.453 L
54.66 10.453 L
54.66 12.234 L
54.66 12.234 L
54.754 12.094 L
56.113 10.078 58.332 10.078 QT
60.801 10.078 62.23 11.773 QT
63.66 13.469 63.66 16.359 QT
63.66 19.625 62.215 21.484 QT
60.77 23.344 58.207 23.344 QT
56.082 23.344 54.832 21.703 QT
54.754 21.609 L
54.754 21.609 L
54.754 27.953 L
54.754 27.953 L
53.707 27.953 L
52.645 27.953 L
52.645 27.953 L
52.645 10.453 L
cp
58.098 21.516 M
59.754 21.516 60.605 20.266 QT
61.457 19.016 61.457 16.625 QT
61.457 14.266 60.637 13.133 QT
59.816 12 58.113 12 QT
56.363 12 55.559 13.281 QT
54.754 14.563 54.754 17.328 QT
54.754 17.328 L
54.754 17.328 L
54.754 17.328 L
54.754 19.328 55.621 20.422 QT
56.488 21.516 58.098 21.516 QT
cp
73.352 14.094 M
73.352 14.094 L
73.258 13.047 72.5 12.477 QT
71.742 11.906 70.461 11.906 QT
69.148 11.906 68.461 12.359 QT
67.773 12.813 67.773 13.688 QT
67.773 14.359 68.258 14.703 QT
68.742 15.047 70.164 15.375 QT
72.352 15.891 L
74.18 16.344 74.961 17.125 QT
75.742 17.906 75.742 19.297 QT
75.742 21.156 74.398 22.25 QT
73.055 23.344 70.773 23.344 QT
68.117 23.344 66.82 22.289 QT
65.523 21.234 65.383 18.984 QT
65.383 18.984 L
67.398 18.984 L
67.398 18.984 L
67.555 20.328 68.344 20.922 QT
69.133 21.516 70.773 21.516 QT
72.18 21.516 72.914 20.977 QT
73.648 20.438 73.648 19.406 QT
73.648 18.75 73.164 18.422 QT
72.695 18.078 71.242 17.734 QT
69.055 17.219 L
67.289 16.797 66.539 16.031 QT
65.789 15.281 65.789 13.922 QT
65.789 12.156 67.047 11.117 QT
68.305 10.078 70.461 10.078 QT
72.648 10.078 73.945 11.148 QT
75.242 12.219 75.32 14.094 QT
75.32 14.094 L
73.352 14.094 L
cp
81.758 27.719 M
81.758 27.719 L
77.273 27.719 L
77.273 26.016 L
79.867 26.016 L
79.867 26.016 L
79.867 7.359 L
79.867 7.359 L
77.273 7.359 L
77.273 5.656 L
81.758 5.656 L
81.758 5.656 L
81.758 27.719 L
cp
f
GR
GS
[0.75 0 0 0.75 0 0] CT
0.149 GC
2 setlinecap
1 LJ
0.667 LW
N
140 748 M
140 63 L
S
GR
GS
[0.75 0 0 0.75 0 0] CT
0.149 GC
2 setlinecap
1 LJ
0.667 LW
N
972 748 M
972 63 L
S
GR
GS
[0.75 0 0 0.75 0 0] CT
0.149 GC
2 setlinecap
1 LJ
0.667 LW
N
140 748 M
148.32 748 L
S
GR
GS
[0.75 0 0 0.75 0 0] CT
0.149 GC
2 setlinecap
1 LJ
0.667 LW
N
140 679.5 M
148.32 679.5 L
S
GR
GS
[0.75 0 0 0.75 0 0] CT
0.149 GC
2 setlinecap
1 LJ
0.667 LW
N
140 611 M
148.32 611 L
S
GR
GS
[0.75 0 0 0.75 0 0] CT
0.149 GC
2 setlinecap
1 LJ
0.667 LW
N
140 542.5 M
148.32 542.5 L
S
GR
GS
[0.75 0 0 0.75 0 0] CT
0.149 GC
2 setlinecap
1 LJ
0.667 LW
N
140 474 M
148.32 474 L
S
GR
GS
[0.75 0 0 0.75 0 0] CT
0.149 GC
2 setlinecap
1 LJ
0.667 LW
N
140 405.5 M
148.32 405.5 L
S
GR
GS
[0.75 0 0 0.75 0 0] CT
0.149 GC
2 setlinecap
1 LJ
0.667 LW
N
140 337 M
148.32 337 L
S
GR
GS
[0.75 0 0 0.75 0 0] CT
0.149 GC
2 setlinecap
1 LJ
0.667 LW
N
140 268.5 M
148.32 268.5 L
S
GR
GS
[0.75 0 0 0.75 0 0] CT
0.149 GC
2 setlinecap
1 LJ
0.667 LW
N
140 200 M
148.32 200 L
S
GR
GS
[0.75 0 0 0.75 0 0] CT
0.149 GC
2 setlinecap
1 LJ
0.667 LW
N
140 131.5 M
148.32 131.5 L
S
GR
GS
[0.75 0 0 0.75 0 0] CT
0.149 GC
2 setlinecap
1 LJ
0.667 LW
N
140 63 M
148.32 63 L
S
GR
GS
[0.75 0 0 0.75 0 0] CT
0.149 GC
2 setlinecap
1 LJ
0.667 LW
N
972 748 M
963.68 748 L
S
GR
GS
[0.75 0 0 0.75 0 0] CT
0.149 GC
2 setlinecap
1 LJ
0.667 LW
N
972 679.5 M
963.68 679.5 L
S
GR
GS
[0.75 0 0 0.75 0 0] CT
0.149 GC
2 setlinecap
1 LJ
0.667 LW
N
972 611 M
963.68 611 L
S
GR
GS
[0.75 0 0 0.75 0 0] CT
0.149 GC
2 setlinecap
1 LJ
0.667 LW
N
972 542.5 M
963.68 542.5 L
S
GR
GS
[0.75 0 0 0.75 0 0] CT
0.149 GC
2 setlinecap
1 LJ
0.667 LW
N
972 474 M
963.68 474 L
S
GR
GS
[0.75 0 0 0.75 0 0] CT
0.149 GC
2 setlinecap
1 LJ
0.667 LW
N
972 405.5 M
963.68 405.5 L
S
GR
GS
[0.75 0 0 0.75 0 0] CT
0.149 GC
2 setlinecap
1 LJ
0.667 LW
N
972 337 M
963.68 337 L
S
GR
GS
[0.75 0 0 0.75 0 0] CT
0.149 GC
2 setlinecap
1 LJ
0.667 LW
N
972 268.5 M
963.68 268.5 L
S
GR
GS
[0.75 0 0 0.75 0 0] CT
0.149 GC
2 setlinecap
1 LJ
0.667 LW
N
972 200 M
963.68 200 L
S
GR
GS
[0.75 0 0 0.75 0 0] CT
0.149 GC
2 setlinecap
1 LJ
0.667 LW
N
972 131.5 M
963.68 131.5 L
S
GR
GS
[0.75 0 0 0.75 0 0] CT
0.149 GC
2 setlinecap
1 LJ
0.667 LW
N
972 63 M
963.68 63 L
S
GR
GS
[0.75 0 0 0.75 101 561] CT
0.149 GC
/Helvetica 13.333 F
GS
[1 0 0 1 0 0] CT
-8 5 moveto 
1 -1 scale
(0) t 
GR
GR
GS
[0.75 0 0 0.75 101 509.625] CT
0.149 GC
/Helvetica 13.333 F
GS
[1 0 0 1 0 0] CT
-8 5 moveto 
1 -1 scale
(1) t 
GR
GR
GS
[0.75 0 0 0.75 101 458.25] CT
0.149 GC
/Helvetica 13.333 F
GS
[1 0 0 1 0 0] CT
-8 5 moveto 
1 -1 scale
(2) t 
GR
GR
GS
[0.75 0 0 0.75 101 406.875] CT
0.149 GC
/Helvetica 13.333 F
GS
[1 0 0 1 0 0] CT
-8 5 moveto 
1 -1 scale
(3) t 
GR
GR
GS
[0.75 0 0 0.75 101 355.5] CT
0.149 GC
/Helvetica 13.333 F
GS
[1 0 0 1 0 0] CT
-8 5 moveto 
1 -1 scale
(4) t 
GR
GR
GS
[0.75 0 0 0.75 101 304.125] CT
0.149 GC
/Helvetica 13.333 F
GS
[1 0 0 1 0 0] CT
-8 5 moveto 
1 -1 scale
(5) t 
GR
GR
GS
[0.75 0 0 0.75 101 252.75] CT
0.149 GC
/Helvetica 13.333 F
GS
[1 0 0 1 0 0] CT
-8 5 moveto 
1 -1 scale
(6) t 
GR
GR
GS
[0.75 0 0 0.75 101 201.375] CT
0.149 GC
/Helvetica 13.333 F
GS
[1 0 0 1 0 0] CT
-8 5 moveto 
1 -1 scale
(7) t 
GR
GR
GS
[0.75 0 0 0.75 101 150] CT
0.149 GC
/Helvetica 13.333 F
GS
[1 0 0 1 0 0] CT
-8 5 moveto 
1 -1 scale
(8) t 
GR
GR
GS
[0.75 0 0 0.75 101 98.625] CT
0.149 GC
/Helvetica 13.333 F
GS
[1 0 0 1 0 0] CT
-8 5 moveto 
1 -1 scale
(9) t 
GR
GR
GS
[0.75 0 0 0.75 101 47.25] CT
0.149 GC
/Helvetica 13.333 F
GS
[1 0 0 1 0 0] CT
-15 5 moveto 
1 -1 scale
(10) t 
GR
GR
GS
[0 -0.75 0.75 0 86.75 304.12475] CT
0.149 GC
N
-73.172 -6 M
-73.172 -6 L
-73.172 -23.234 L
-73.172 -23.234 L
-72.016 -23.234 L
-70.844 -23.234 L
-70.844 -23.234 L
-70.844 -8.063 L
-70.844 -8.063 L
-62.109 -8.063 L
-62.109 -8.063 L
-62.109 -7.031 L
-62.109 -6 L
-62.109 -6 L
-73.172 -6 L
cp
-60.027 -6 M
-60.027 -18.547 L
-60.027 -18.547 L
-58.965 -18.547 L
-57.918 -18.547 L
-57.918 -18.547 L
-57.918 -6 L
-57.918 -6 L
-58.965 -6 L
-60.027 -6 L
-60.027 -6 L
cp
-60.043 -23.234 M
-57.887 -23.234 L
-57.887 -20.844 L
-60.043 -20.844 L
-60.043 -23.234 L
cp
-44.867 -10.516 M
-44.867 -10.516 L
-45.195 -8.141 -46.547 -6.898 QT
-47.898 -5.656 -50.133 -5.656 QT
-52.633 -5.656 -54.117 -7.453 QT
-55.602 -9.25 -55.602 -12.281 QT
-55.602 -15.313 -54.063 -17.117 QT
-52.523 -18.922 -49.914 -18.922 QT
-47.664 -18.922 -46.313 -17.68 QT
-44.961 -16.438 -44.867 -14.281 QT
-44.867 -14.281 L
-46.898 -14.281 L
-46.898 -14.281 L
-47.023 -15.625 -47.836 -16.359 QT
-48.648 -17.094 -49.992 -17.094 QT
-51.586 -17.094 -52.492 -15.813 QT
-53.398 -14.531 -53.398 -12.281 QT
-53.398 -9.891 -52.555 -8.688 QT
-51.711 -7.484 -50.055 -7.484 QT
-48.82 -7.484 -47.992 -8.273 QT
-47.164 -9.063 -46.898 -10.516 QT
-46.898 -10.516 L
-44.867 -10.516 L
cp
-43.586 -7.656 M
-36.055 -16.781 L
-36.055 -16.781 L
-43.023 -16.781 L
-43.023 -16.781 L
-43.023 -17.656 L
-43.023 -18.547 L
-43.023 -18.547 L
-33.227 -18.547 L
-33.227 -17.719 L
-33.227 -16.891 L
-40.758 -7.766 L
-40.758 -7.766 L
-33.055 -7.766 L
-33.055 -7.766 L
-33.055 -6.875 L
-33.055 -6 L
-33.055 -6 L
-43.586 -6 L
-43.586 -6.828 L
-43.586 -7.656 L
cp
-30.93 -23.234 M
-30.93 -23.234 L
-29.867 -23.234 L
-28.82 -23.234 L
-28.82 -23.234 L
-28.82 -16.906 L
-28.82 -16.906 L
-27.43 -18.938 -25.242 -18.922 QT
-22.773 -18.922 -21.344 -17.227 QT
-19.914 -15.531 -19.914 -12.641 QT
-19.914 -9.375 -21.359 -7.516 QT
-22.805 -5.656 -25.367 -5.656 QT
-27.492 -5.656 -28.742 -7.297 QT
-28.945 -7.547 L
-28.945 -7.547 L
-28.945 -6 L
-28.945 -6 L
-30.93 -6 L
-30.93 -6 L
-30.93 -23.234 L
cp
-25.477 -7.484 M
-23.82 -7.484 -22.969 -8.734 QT
-22.117 -9.984 -22.117 -12.375 QT
-22.117 -14.734 -22.938 -15.867 QT
-23.758 -17 -25.461 -17 QT
-27.211 -17 -28.016 -15.719 QT
-28.82 -14.438 -28.82 -11.672 QT
-28.82 -11.672 L
-28.82 -11.672 L
-28.82 -11.672 L
-28.82 -9.672 -27.945 -8.578 QT
-27.086 -7.484 -25.477 -7.484 QT
cp
-14.113 -5.656 M
-15.941 -5.656 -17.02 -6.641 QT
-18.098 -7.625 -18.098 -9.313 QT
-18.098 -11 -17.09 -11.992 QT
-16.082 -12.984 -14.129 -13.234 QT
-11.254 -13.594 L
-10.91 -13.625 -10.598 -13.719 QT
-10.176 -13.813 -9.957 -14.133 QT
-9.738 -14.453 -9.738 -14.938 QT
-9.738 -15.031 L
-9.738 -16.047 -10.496 -16.617 QT
-11.254 -17.188 -12.613 -17.188 QT
-13.926 -17.188 -14.652 -16.578 QT
-15.379 -15.969 -15.535 -14.781 QT
-15.535 -14.781 L
-17.488 -14.781 L
-17.488 -14.781 L
-17.332 -16.844 -16.027 -17.883 QT
-14.723 -18.922 -12.301 -18.922 QT
-10.02 -18.922 -8.824 -17.93 QT
-7.629 -16.938 -7.629 -15.031 QT
-7.629 -8.141 L
-7.629 -7.828 -7.434 -7.633 QT
-7.238 -7.438 -6.91 -7.438 QT
-6.816 -7.438 -6.637 -7.461 QT
-6.457 -7.484 -6.238 -7.531 QT
-6.238 -6.016 L
-6.551 -5.891 -6.887 -5.82 QT
-7.223 -5.75 -7.457 -5.75 QT
-8.66 -5.75 -9.191 -6.406 QT
-9.551 -6.844 -9.707 -7.641 QT
-9.707 -7.641 L
-9.941 -7.344 -10.238 -7.078 QT
-11.816 -5.656 -14.113 -5.656 QT
cp
-9.738 -10.969 M
-9.738 -12.328 L
-9.738 -12.328 L
-10.316 -12.047 -11.035 -11.938 QT
-12.973 -11.656 L
-14.488 -11.453 -15.191 -10.953 QT
-15.895 -10.453 -15.895 -9.594 QT
-15.895 -8.547 -15.324 -7.977 QT
-14.754 -7.406 -13.691 -7.406 QT
-12.035 -7.406 -10.879 -8.313 QT
-10.098 -8.938 -9.848 -9.734 QT
-9.801 -9.891 -9.77 -10.219 QT
-9.738 -10.563 -9.738 -10.969 QT
cp
1.777 -7.656 M
9.309 -16.781 L
9.309 -16.781 L
2.34 -16.781 L
2.34 -16.781 L
2.34 -17.656 L
2.34 -18.547 L
2.34 -18.547 L
12.137 -18.547 L
12.137 -17.719 L
12.137 -16.891 L
4.605 -7.766 L
4.605 -7.766 L
12.309 -7.766 L
12.309 -7.766 L
12.309 -6.875 L
12.309 -6 L
12.309 -6 L
1.777 -6 L
1.777 -6.828 L
1.777 -7.656 L
cp
14.652 -6 M
14.652 -23.234 L
14.652 -23.234 L
15.699 -23.234 L
16.762 -23.234 L
16.762 -23.234 L
16.762 -6 L
16.762 -6 L
15.699 -6 L
14.652 -6 L
14.652 -6 L
cp
20 -6 M
20 -18.547 L
20 -18.547 L
21.063 -18.547 L
22.109 -18.547 L
22.109 -18.547 L
22.109 -6 L
22.109 -6 L
21.063 -6 L
20 -6 L
20 -6 L
cp
19.984 -23.234 M
22.141 -23.234 L
22.141 -20.844 L
19.984 -20.844 L
19.984 -23.234 L
cp
35.16 -10.516 M
35.16 -10.516 L
34.832 -8.141 33.48 -6.898 QT
32.129 -5.656 29.895 -5.656 QT
27.395 -5.656 25.91 -7.453 QT
24.426 -9.25 24.426 -12.281 QT
24.426 -15.313 25.965 -17.117 QT
27.504 -18.922 30.113 -18.922 QT
32.363 -18.922 33.715 -17.68 QT
35.066 -16.438 35.16 -14.281 QT
35.16 -14.281 L
33.129 -14.281 L
33.129 -14.281 L
33.004 -15.625 32.191 -16.359 QT
31.379 -17.094 30.035 -17.094 QT
28.441 -17.094 27.535 -15.813 QT
26.629 -14.531 26.629 -12.281 QT
26.629 -9.891 27.473 -8.688 QT
28.316 -7.484 29.973 -7.484 QT
31.207 -7.484 32.035 -8.273 QT
32.863 -9.063 33.129 -10.516 QT
33.129 -10.516 L
35.16 -10.516 L
cp
36.441 -7.656 M
43.973 -16.781 L
43.973 -16.781 L
37.004 -16.781 L
37.004 -16.781 L
37.004 -17.656 L
37.004 -18.547 L
37.004 -18.547 L
46.801 -18.547 L
46.801 -17.719 L
46.801 -16.891 L
39.27 -7.766 L
39.27 -7.766 L
46.973 -7.766 L
46.973 -7.766 L
46.973 -6.875 L
46.973 -6 L
46.973 -6 L
36.441 -6 L
36.441 -6.828 L
36.441 -7.656 L
cp
54.379 -5.656 M
51.723 -5.656 50.199 -7.344 QT
48.676 -9.031 48.676 -12.016 QT
48.676 -15.172 50.285 -17.047 QT
51.895 -18.922 54.613 -18.922 QT
57.066 -18.922 58.582 -17.094 QT
60.098 -15.266 60.098 -12.281 QT
60.066 -11.531 L
60.066 -11.531 L
50.91 -11.531 L
50.91 -11.531 L
51.035 -9.656 51.77 -8.672 QT
52.66 -7.484 54.582 -7.484 QT
55.785 -7.484 56.684 -8.164 QT
57.582 -8.844 57.785 -9.891 QT
57.785 -9.891 L
59.879 -9.891 L
59.879 -9.891 L
59.41 -7.828 58.004 -6.742 QT
56.598 -5.656 54.379 -5.656 QT
cp
57.895 -13.234 M
57.895 -13.234 L
57.801 -14.984 57.02 -15.953 QT
56.176 -17.031 54.52 -17.031 QT
52.848 -17.031 51.863 -15.781 QT
51.066 -14.813 50.91 -13.234 QT
50.91 -13.234 L
57.895 -13.234 L
cp
62.617 -6 M
62.617 -18.547 L
62.617 -18.547 L
63.617 -18.547 L
64.617 -18.547 L
64.617 -18.547 L
64.617 -16.688 L
64.617 -16.688 L
64.617 -16.688 L
65.086 -17.313 L
66.461 -18.922 68.523 -18.922 QT
70.602 -18.922 71.727 -17.797 QT
72.852 -16.672 72.852 -14.594 QT
72.852 -6 L
72.852 -6 L
71.789 -6 L
70.742 -6 L
70.742 -6 L
70.742 -13.875 L
70.742 -15.531 70.102 -16.266 QT
69.461 -17 68.023 -17 QT
66.508 -17 65.617 -15.844 QT
64.727 -14.688 64.727 -12.719 QT
64.727 -12.719 L
64.727 -6 L
64.727 -6 L
63.664 -6 L
62.617 -6 L
62.617 -6 L
cp
65.023 -20 M
67.164 -23.375 L
69.742 -23.375 L
66.648 -20 L
65.023 -20 L
cp
f
GR
GS
[0.75 0 0 0.75 105 45] CT
0.149 GC
N
1.906 -0.375 M
1.906 -0.469 1.969 -0.563 QT
4.672 -3.25 L
1.969 -5.953 L
1.906 -6.016 1.906 -6.125 QT
1.906 -6.219 1.984 -6.305 QT
2.063 -6.391 2.172 -6.391 QT
2.266 -6.391 2.375 -6.297 QT
5.063 -3.609 L
7.734 -6.297 L
7.844 -6.391 7.922 -6.391 QT
8.031 -6.391 8.109 -6.313 QT
8.188 -6.234 8.188 -6.125 QT
8.188 -6.016 8.125 -5.953 QT
5.422 -3.25 L
8.125 -0.563 L
8.188 -0.469 8.188 -0.375 QT
8.188 -0.266 8.109 -0.188 QT
8.031 -0.109 7.922 -0.109 QT
7.828 -0.109 7.734 -0.203 QT
5.063 -2.891 L
2.375 -0.203 L
2.266 -0.109 2.172 -0.109 QT
2.063 -0.109 1.984 -0.195 QT
1.906 -0.281 1.906 -0.375 QT
cp
f
GR
GS
[0.75 0 0 0.75 113.25 45] CT
0.149 GC
/Helvetica 13.333 F
GS
[1 0 0 1 0 0] CT
0 0 moveto 
1 -1 scale
(10) t 
GR
GR
GS
[0.75 0 0 0.75 124.5 40.5] CT
0.149 GC
/Helvetica 10.667 F
GS
[1 0 0 1 0 0] CT
0 0 moveto 
1 -1 scale
(4) t 
GR
GR
GS
[0.75 0 0 0.75 0 0] CT
0 0.447 0.741 RC
1 LJ
0.667 LW
N
139.901 746.574 M
140 746.562 L
141.387 746.514 L
142.773 746.089 L
144.16 746.541 L
145.547 746.616 L
146.933 746.87 L
148.32 747.082 L
149.707 746.925 L
151.093 746.74 L
152.48 746.767 L
153.867 746.726 L
155.253 746.883 L
156.64 746.746 L
158.027 746.966 L
159.413 746.959 L
160.8 746.938 L
162.187 747.062 L
163.573 747.294 L
164.96 747.267 L
166.347 747.185 L
167.733 747.219 L
169.12 747.068 L
170.507 747.068 L
171.893 747.027 L
173.28 747.014 L
174.667 746.959 L
176.053 747.041 L
177.44 746.993 L
178.827 747.096 L
180.213 747.164 L
181.6 747.082 L
182.987 747.219 L
184.373 747.226 L
185.76 747.116 L
187.147 747.075 L
188.533 747.247 L
189.92 747.007 L
191.307 747.157 L
192.693 746.959 L
194.08 746.952 L
195.467 746.918 L
196.853 746.794 L
198.24 747.027 L
199.627 747.24 L
201.013 747.178 L
202.4 747.418 L
203.787 747.5 L
205.173 747.589 L
206.56 747.692 L
207.947 747.637 L
209.333 747.61 L
210.72 747.74 L
212.107 747.63 L
213.493 747.712 L
214.88 747.527 L
216.267 747.596 L
217.653 747.623 L
219.04 747.507 L
220.427 747.699 L
221.813 747.794 L
223.2 747.753 L
224.587 747.781 L
225.973 747.664 L
227.36 747.657 L
228.747 747.61 L
230.133 747.726 L
231.52 747.712 L
232.907 747.794 L
234.293 747.788 L
235.68 747.678 L
237.067 747.774 L
238.453 747.794 L
239.84 747.76 L
241.227 747.726 L
242.613 747.74 L
244 747.719 L
245.387 747.794 L
246.773 747.774 L
248.16 747.829 L
249.547 747.904 L
250.933 747.74 L
252.32 747.815 L
253.707 747.712 L
255.093 747.794 L
256.48 747.89 L
257.867 747.774 L
259.253 747.733 L
260.64 747.767 L
262.027 747.712 L
263.413 747.76 L
264.8 747.753 L
266.187 747.815 L
267.573 747.801 L
268.96 747.842 L
270.347 747.794 L
271.733 747.808 L
273.12 747.726 L
274.507 747.801 L
275.893 747.808 L
277.28 747.794 L
278.667 747.877 L
280.053 747.849 L
281.44 747.781 L
282.827 747.822 L
284.213 747.781 L
285.6 747.753 L
286.987 747.788 L
288.373 747.733 L
289.76 747.808 L
291.147 747.781 L
292.533 747.801 L
293.92 747.801 L
295.307 747.794 L
296.693 747.842 L
298.08 747.801 L
299.467 747.774 L
300.853 747.808 L
302.24 747.856 L
303.627 747.856 L
305.013 747.877 L
306.4 747.829 L
307.787 747.753 L
309.173 747.794 L
310.56 747.788 L
311.947 747.712 L
313.333 747.794 L
314.72 747.842 L
316.107 747.822 L
317.493 747.849 L
318.88 747.808 L
320.267 747.801 L
321.653 747.808 L
323.04 747.842 L
324.427 747.822 L
325.813 747.849 L
327.2 747.733 L
328.587 747.794 L
329.973 747.733 L
331.36 747.425 L
332.747 746.794 L
334.133 745.897 L
335.52 743.685 L
336.907 736.334 L
338.293 727.861 L
339.68 723.169 L
341.067 718.134 L
342.453 709.969 L
343.84 704.66 L
345.227 696.324 L
346.613 687.117 L
348 681.26 L
349.387 681.617 L
350.773 692.378 L
352.16 705.585 L
353.547 715.49 L
354.933 723.354 L
356.32 728.793 L
357.707 733.101 L
359.093 735.745 L
360.48 738.143 L
361.867 739.622 L
363.253 739.266 L
364.64 736.999 L
366.027 733.533 L
367.413 730.491 L
368.8 725.518 L
370.187 719.573 L
371.573 710.914 L
372.96 704.242 L
374.347 702.831 L
375.733 706.434 L
377.12 710.14 L
378.507 713.092 L
379.893 713.825 L
381.28 713.36 L
382.667 715.058 L
384.053 714.332 L
385.44 711.811 L
386.827 708.715 L
388.213 703.838 L
389.6 695.714 L
390.987 679.329 L
392.373 661.827 L
393.76 636.756 L
395.147 624.337 L
396.533 624.727 L
397.92 638.77 L
399.307 651.723 L
400.693 664.553 L
402.08 674.164 L
403.467 682.226 L
404.853 687.569 L
406.24 691.357 L
407.627 698.344 L
409.013 699.399 L
410.4 695.639 L
411.787 702.249 L
413.173 705.783 L
414.56 706.523 L
415.947 705.605 L
417.333 705.345 L
418.72 705.194 L
420.107 698.399 L
421.493 692.899 L
422.88 690.679 L
424.267 691.111 L
425.653 689.912 L
427.04 690.405 L
428.427 686.405 L
429.813 681.123 L
431.2 683.404 L
432.587 688.583 L
433.973 698.735 L
435.36 704.914 L
436.747 712.085 L
438.133 722.011 L
439.52 730.841 L
440.907 734.533 L
442.293 735.697 L
443.68 735.067 L
445.067 734.458 L
446.453 734.094 L
447.84 733.642 L
449.227 731.861 L
450.613 729.656 L
452 728.395 L
453.387 726.703 L
454.773 720.826 L
456.16 714.688 L
457.547 711.716 L
458.933 708.448 L
460.32 702.502 L
461.707 702.495 L
463.093 704.064 L
464.48 708.03 L
465.867 712.722 L
467.253 712.202 L
468.64 718.196 L
470.027 725.47 L
471.413 728.752 L
472.8 733.471 L
474.187 736.787 L
475.573 739.835 L
476.96 741.006 L
478.347 741.465 L
479.733 742.027 L
481.12 742.362 L
482.507 741.945 L
483.893 741.41 L
485.28 742.308 L
486.667 743.719 L
488.053 745.274 L
489.44 746.514 L
490.827 747.219 L
492.213 747.425 L
493.6 747.699 L
494.987 747.637 L
496.373 747.479 L
497.76 747.473 L
499.147 747.651 L
500.533 747.616 L
501.92 747.651 L
503.307 747.74 L
504.693 747.568 L
506.08 747.555 L
507.467 747.589 L
508.853 747.671 L
510.24 747.705 L
511.627 747.76 L
513.013 747.685 L
514.4 747.692 L
515.787 747.548 L
517.173 747.575 L
518.56 747.589 L
519.947 747.63 L
521.333 747.575 L
522.72 747.61 L
524.107 747.548 L
525.493 747.616 L
526.88 747.644 L
528.267 747.767 L
529.653 747.61 L
531.04 747.603 L
532.427 747.685 L
533.813 747.719 L
535.2 747.719 L
536.587 747.651 L
537.973 747.719 L
539.36 747.671 L
540.747 747.747 L
542.133 747.747 L
543.52 747.664 L
544.907 747.623 L
546.293 747.562 L
547.68 747.527 L
549.067 747.534 L
550.453 747.466 L
551.84 747.514 L
553.227 747.377 L
554.613 747.473 L
556 747.397 L
557.387 747.425 L
558.773 747.521 L
560.16 747.527 L
561.547 747.514 L
562.933 747.466 L
564.32 747.486 L
565.707 747.459 L
567.093 747.493 L
568.48 747.438 L
569.867 747.473 L
571.253 747.425 L
572.64 747.411 L
574.027 747.438 L
575.413 747.486 L
576.8 747.5 L
578.187 747.438 L
579.573 747.438 L
580.96 747.397 L
582.347 747.37 L
583.733 747.5 L
585.12 747.473 L
586.507 747.356 L
587.893 747.411 L
589.28 747.507 L
590.667 747.349 L
592.053 747.411 L
593.44 747.377 L
594.827 747.459 L
596.213 747.322 L
597.6 747.486 L
598.987 747.521 L
600.373 747.37 L
601.76 747.527 L
603.147 747.596 L
604.533 747.459 L
605.92 747.541 L
607.307 747.589 L
608.693 747.568 L
610.08 747.651 L
611.467 747.651 L
612.853 747.74 L
614.24 747.808 L
615.627 747.781 L
617.013 747.829 L
618.4 747.815 L
619.787 747.829 L
621.173 747.836 L
622.56 747.856 L
623.947 747.836 L
625.333 747.89 L
626.72 747.836 L
628.107 747.801 L
629.493 747.836 L
630.88 747.849 L
632.267 747.747 L
633.653 747.705 L
635.04 747.644 L
636.427 747.589 L
637.813 747.466 L
639.2 747.568 L
640.587 747.322 L
641.973 747.466 L
643.36 747.274 L
644.747 747.274 L
646.133 747.082 L
647.52 747.185 L
648.907 747.041 L
650.293 747.233 L
651.68 747.075 L
653.067 746.945 L
654.453 746.863 L
655.84 746.863 L
657.227 746.644 L
658.613 746.685 L
660 746.281 L
661.387 746.692 L
662.773 746.404 L
664.16 746.322 L
665.547 746.301 L
666.933 746.164 L
668.32 745.938 L
669.707 745.705 L
671.093 745.842 L
672.48 745.589 L
673.867 745.322 L
675.253 745.089 L
676.64 744.671 L
678.027 744.438 L
679.413 744.096 L
680.8 743.273 L
682.187 742.794 L
683.573 741.883 L
684.96 741.109 L
686.347 739.965 L
687.733 738.458 L
689.12 736.115 L
690.507 732.279 L
691.893 724.196 L
693.28 701.297 L
694.667 640.921 L
696.053 532.478 L
697.44 417.172 L
698.827 327.458 L
700.213 269.391 L
701.6 232.332 L
702.987 213.104 L
704.373 187.471 L
705.76 176.861 L
707.147 159.537 L
708.533 147.762 L
709.92 130.678 L
711.307 115.348 L
712.693 107.121 L
714.08 107.039 L
715.467 126.356 L
716.853 211.624 L
718.24 343.932 L
719.627 500.016 L
721.013 619.563 L
722.4 683.548 L
723.787 711.325 L
725.173 724.826 L
726.56 731.307 L
727.947 735.245 L
729.333 737.526 L
730.72 739.78 L
732.107 740.814 L
733.493 742.116 L
734.88 742.287 L
736.267 743.157 L
737.653 743.938 L
739.04 744.472 L
740.427 744.883 L
741.813 744.965 L
743.2 745.692 L
744.587 745.767 L
745.973 745.801 L
747.36 745.835 L
748.747 746.274 L
750.133 746.157 L
751.52 746.404 L
752.907 746.404 L
754.293 746.568 L
755.68 746.39 L
757.067 746.555 L
758.453 746.678 L
759.84 746.657 L
761.227 746.829 L
762.613 747.233 L
764 747.144 L
765.387 747.288 L
766.773 747.452 L
768.16 747.548 L
769.547 747.623 L
770.933 747.678 L
772.32 747.637 L
773.707 747.664 L
775.093 747.74 L
776.48 747.705 L
777.867 747.747 L
779.253 747.726 L
780.64 747.836 L
782.027 747.733 L
783.413 747.699 L
784.8 747.788 L
786.187 747.829 L
787.573 747.842 L
788.96 747.932 L
790.347 747.822 L
791.733 747.89 L
793.12 747.781 L
794.507 747.829 L
795.893 747.856 L
797.28 747.849 L
798.667 747.842 L
800.053 747.884 L
801.44 747.911 L
802.827 747.911 L
804.213 747.87 L
805.6 747.863 L
806.987 747.829 L
808.373 747.815 L
809.76 747.863 L
811.147 747.863 L
812.533 747.877 L
813.92 747.801 L
815.307 747.87 L
816.693 747.829 L
818.08 747.822 L
819.467 747.877 L
820.853 747.911 L
822.24 747.856 L
823.627 747.863 L
825.013 747.897 L
826.4 747.863 L
827.787 747.87 L
829.173 747.849 L
830.56 747.856 L
831.947 747.904 L
833.333 747.897 L
834.72 747.87 L
836.107 747.87 L
837.493 747.87 L
838.88 747.897 L
840.267 747.856 L
841.653 747.89 L
843.04 747.877 L
844.427 747.89 L
845.813 747.904 L
847.2 747.904 L
848.587 747.89 L
849.973 747.918 L
851.36 747.904 L
852.747 747.849 L
854.133 747.884 L
855.52 747.897 L
856.907 747.918 L
858.293 747.89 L
859.68 747.89 L
861.067 747.897 L
862.453 747.884 L
863.84 747.89 L
865.227 747.897 L
866.613 747.842 L
868 747.911 L
869.387 747.87 L
870.773 747.863 L
872.16 747.849 L
873.547 747.87 L
874.933 747.877 L
876.32 747.87 L
877.707 747.904 L
879.093 747.897 L
880.48 747.884 L
881.867 747.904 L
883.253 747.89 L
884.64 747.877 L
886.027 747.904 L
887.413 747.877 L
888.8 747.897 L
890.187 747.884 L
891.573 747.904 L
892.96 747.884 L
894.347 747.945 L
895.733 747.884 L
897.12 747.877 L
898.507 747.904 L
899.893 747.918 L
901.28 747.815 L
902.667 747.829 L
904.053 747.856 L
905.44 747.89 L
906.827 747.877 L
908.213 747.781 L
909.6 747.836 L
910.987 747.849 L
912.373 747.842 L
913.76 747.884 L
915.147 747.897 L
916.533 747.89 L
917.92 747.849 L
919.307 747.863 L
920.693 747.911 L
922.08 747.89 L
923.467 747.815 L
924.853 747.904 L
926.24 747.836 L
927.627 747.856 L
929.013 747.911 L
930.4 747.87 L
931.787 747.822 L
933.173 747.877 L
934.56 747.87 L
935.947 747.911 L
937.333 747.877 L
938.72 747.911 L
940.107 747.904 L
941.493 747.918 L
942.88 747.884 L
944.267 747.856 L
945.653 747.89 L
947.04 747.897 L
948.427 747.911 L
949.813 747.897 L
951.2 747.884 L
952.587 747.904 L
953.973 747.911 L
955.36 747.856 L
956.747 747.856 L
958.133 747.89 L
959.52 747.856 L
960.907 747.897 L
962.293 747.863 L
963.68 747.911 L
965.067 747.884 L
966.453 747.904 L
967.84 747.89 L
969.227 747.89 L
970.613 747.836 L
972 747.884 L
972.099 747.886 L
S
GR
%%Trailer
%%Pages: 1
%%EOF
