%!PS-Adobe-3.0 EPSF-3.0
%%Creator: (MATLAB, The Mathworks, Inc. Version 9.2.0.538062 \(R2017a\). Operating System: Windows 7)
%%Title: ./roznosci11.eps
%%CreationDate: 2017-06-21T15:49:46
%%Pages: (atend)
%%BoundingBox:    47     8   753   611
%%LanguageLevel: 3
%%EndComments
%%BeginProlog
%%BeginResource: procset (Apache XML Graphics Std ProcSet) 1.2 0
%%Version: 1.2 0
%%Copyright: (Copyright 2001-2003,2010 The Apache Software Foundation. License terms: http://www.apache.org/licenses/LICENSE-2.0)
/bd{bind def}bind def
/ld{load def}bd
/GR/grestore ld
/M/moveto ld
/LJ/setlinejoin ld
/C/curveto ld
/f/fill ld
/LW/setlinewidth ld
/GC/setgray ld
/t/show ld
/N/newpath ld
/CT/concat ld
/cp/closepath ld
/S/stroke ld
/L/lineto ld
/CC/setcmykcolor ld
/A/ashow ld
/GS/gsave ld
/RC/setrgbcolor ld
/RM/rmoveto ld
/ML/setmiterlimit ld
/re {4 2 roll M
1 index 0 rlineto
0 exch rlineto
neg 0 rlineto
cp } bd
/_ctm matrix def
/_tm matrix def
/BT { _ctm currentmatrix pop matrix _tm copy pop 0 0 moveto } bd
/ET { _ctm setmatrix } bd
/iTm { _ctm setmatrix _tm concat } bd
/Tm { _tm astore pop iTm 0 0 moveto } bd
/ux 0.0 def
/uy 0.0 def
/F {
  /Tp exch def
  /Tf exch def
  Tf findfont Tp scalefont setfont
  /cf Tf def  /cs Tp def
} bd
/ULS {currentpoint /uy exch def /ux exch def} bd
/ULE {
  /Tcx currentpoint pop def
  gsave
  newpath
  cf findfont cs scalefont dup
  /FontMatrix get 0 get /Ts exch def /FontInfo get dup
  /UnderlinePosition get Ts mul /To exch def
  /UnderlineThickness get Ts mul /Tt exch def
  ux uy To add moveto  Tcx uy To add lineto
  Tt setlinewidth stroke
  grestore
} bd
/OLE {
  /Tcx currentpoint pop def
  gsave
  newpath
  cf findfont cs scalefont dup
  /FontMatrix get 0 get /Ts exch def /FontInfo get dup
  /UnderlinePosition get Ts mul /To exch def
  /UnderlineThickness get Ts mul /Tt exch def
  ux uy To add cs add moveto Tcx uy To add cs add lineto
  Tt setlinewidth stroke
  grestore
} bd
/SOE {
  /Tcx currentpoint pop def
  gsave
  newpath
  cf findfont cs scalefont dup
  /FontMatrix get 0 get /Ts exch def /FontInfo get dup
  /UnderlinePosition get Ts mul /To exch def
  /UnderlineThickness get Ts mul /Tt exch def
  ux uy To add cs 10 mul 26 idiv add moveto Tcx uy To add cs 10 mul 26 idiv add lineto
  Tt setlinewidth stroke
  grestore
} bd
/QT {
/Y22 exch store
/X22 exch store
/Y21 exch store
/X21 exch store
currentpoint
/Y21 load 2 mul add 3 div exch
/X21 load 2 mul add 3 div exch
/X21 load 2 mul /X22 load add 3 div
/Y21 load 2 mul /Y22 load add 3 div
/X22 load /Y22 load curveto
} bd
/SSPD {
dup length /d exch dict def
{
/v exch def
/k exch def
currentpagedevice k known {
/cpdv currentpagedevice k get def
v cpdv ne {
/upd false def
/nullv v type /nulltype eq def
/nullcpdv cpdv type /nulltype eq def
nullv nullcpdv or
{
/upd true def
} {
/sametype v type cpdv type eq def
sametype {
v type /arraytype eq {
/vlen v length def
/cpdvlen cpdv length def
vlen cpdvlen eq {
0 1 vlen 1 sub {
/i exch def
/obj v i get def
/cpdobj cpdv i get def
obj cpdobj ne {
/upd true def
exit
} if
} for
} {
/upd true def
} ifelse
} {
v type /dicttype eq {
v {
/dv exch def
/dk exch def
/cpddv cpdv dk get def
dv cpddv ne {
/upd true def
exit
} if
} forall
} {
/upd true def
} ifelse
} ifelse
} if
} ifelse
upd true eq {
d k v put
} if
} if
} if
} forall
d length 0 gt {
d setpagedevice
} if
} bd
/RE { % /NewFontName [NewEncodingArray] /FontName RE -
  findfont dup length dict begin
  {
    1 index /FID ne
    {def} {pop pop} ifelse
  } forall
  /Encoding exch def
  /FontName 1 index def
  currentdict definefont pop
  end
} bind def
%%EndResource
%%BeginResource: procset (Apache XML Graphics EPS ProcSet) 1.0 0
%%Version: 1.0 0
%%Copyright: (Copyright 2002-2003 The Apache Software Foundation. License terms: http://www.apache.org/licenses/LICENSE-2.0)
/BeginEPSF { %def
/b4_Inc_state save def         % Save state for cleanup
/dict_count countdictstack def % Count objects on dict stack
/op_count count 1 sub def      % Count objects on operand stack
userdict begin                 % Push userdict on dict stack
/showpage { } def              % Redefine showpage, { } = null proc
0 setgray 0 setlinecap         % Prepare graphics state
1 setlinewidth 0 setlinejoin
10 setmiterlimit [ ] 0 setdash newpath
/languagelevel where           % If level not equal to 1 then
{pop languagelevel             % set strokeadjust and
1 ne                           % overprint to their defaults.
{false setstrokeadjust false setoverprint
} if
} if
} bd
/EndEPSF { %def
count op_count sub {pop} repeat            % Clean up stacks
countdictstack dict_count sub {end} repeat
b4_Inc_state restore
} bd
%%EndResource
%FOPBeginFontDict
%%IncludeResource: font Courier-Bold
%%IncludeResource: font Helvetica
%%IncludeResource: font Courier-BoldOblique
%%IncludeResource: font Courier-Oblique
%%IncludeResource: font Times-Roman
%%IncludeResource: font Helvetica-BoldOblique
%%IncludeResource: font Helvetica-Bold
%%IncludeResource: font Helvetica-Oblique
%%IncludeResource: font Times-BoldItalic
%%IncludeResource: font Courier
%%IncludeResource: font Times-Italic
%%IncludeResource: font Times-Bold
%%IncludeResource: font Symbol
%%IncludeResource: font ZapfDingbats
%FOPEndFontDict
%%BeginResource: encoding WinAnsiEncoding
/WinAnsiEncoding [
/.notdef /.notdef /.notdef /.notdef /.notdef
/.notdef /.notdef /.notdef /.notdef /.notdef
/.notdef /.notdef /.notdef /.notdef /.notdef
/.notdef /.notdef /.notdef /.notdef /.notdef
/.notdef /.notdef /.notdef /.notdef /.notdef
/.notdef /.notdef /.notdef /.notdef /.notdef
/.notdef /.notdef /space /exclam /quotedbl
/numbersign /dollar /percent /ampersand /quotesingle
/parenleft /parenright /asterisk /plus /comma
/hyphen /period /slash /zero /one
/two /three /four /five /six
/seven /eight /nine /colon /semicolon
/less /equal /greater /question /at
/A /B /C /D /E
/F /G /H /I /J
/K /L /M /N /O
/P /Q /R /S /T
/U /V /W /X /Y
/Z /bracketleft /backslash /bracketright /asciicircum
/underscore /quoteleft /a /b /c
/d /e /f /g /h
/i /j /k /l /m
/n /o /p /q /r
/s /t /u /v /w
/x /y /z /braceleft /bar
/braceright /asciitilde /bullet /Euro /bullet
/quotesinglbase /florin /quotedblbase /ellipsis /dagger
/daggerdbl /circumflex /perthousand /Scaron /guilsinglleft
/OE /bullet /Zcaron /bullet /bullet
/quoteleft /quoteright /quotedblleft /quotedblright /bullet
/endash /emdash /asciitilde /trademark /scaron
/guilsinglright /oe /bullet /zcaron /Ydieresis
/space /exclamdown /cent /sterling /currency
/yen /brokenbar /section /dieresis /copyright
/ordfeminine /guillemotleft /logicalnot /sfthyphen /registered
/macron /degree /plusminus /twosuperior /threesuperior
/acute /mu /paragraph /middot /cedilla
/onesuperior /ordmasculine /guillemotright /onequarter /onehalf
/threequarters /questiondown /Agrave /Aacute /Acircumflex
/Atilde /Adieresis /Aring /AE /Ccedilla
/Egrave /Eacute /Ecircumflex /Edieresis /Igrave
/Iacute /Icircumflex /Idieresis /Eth /Ntilde
/Ograve /Oacute /Ocircumflex /Otilde /Odieresis
/multiply /Oslash /Ugrave /Uacute /Ucircumflex
/Udieresis /Yacute /Thorn /germandbls /agrave
/aacute /acircumflex /atilde /adieresis /aring
/ae /ccedilla /egrave /eacute /ecircumflex
/edieresis /igrave /iacute /icircumflex /idieresis
/eth /ntilde /ograve /oacute /ocircumflex
/otilde /odieresis /divide /oslash /ugrave
/uacute /ucircumflex /udieresis /yacute /thorn
/ydieresis
] def
%%EndResource
%FOPBeginFontReencode
/Courier-Bold findfont
dup length dict begin
  {1 index /FID ne {def} {pop pop} ifelse} forall
  /Encoding WinAnsiEncoding def
  currentdict
end
/Courier-Bold exch definefont pop
/Helvetica findfont
dup length dict begin
  {1 index /FID ne {def} {pop pop} ifelse} forall
  /Encoding WinAnsiEncoding def
  currentdict
end
/Helvetica exch definefont pop
/Courier-BoldOblique findfont
dup length dict begin
  {1 index /FID ne {def} {pop pop} ifelse} forall
  /Encoding WinAnsiEncoding def
  currentdict
end
/Courier-BoldOblique exch definefont pop
/Courier-Oblique findfont
dup length dict begin
  {1 index /FID ne {def} {pop pop} ifelse} forall
  /Encoding WinAnsiEncoding def
  currentdict
end
/Courier-Oblique exch definefont pop
/Times-Roman findfont
dup length dict begin
  {1 index /FID ne {def} {pop pop} ifelse} forall
  /Encoding WinAnsiEncoding def
  currentdict
end
/Times-Roman exch definefont pop
/Helvetica-BoldOblique findfont
dup length dict begin
  {1 index /FID ne {def} {pop pop} ifelse} forall
  /Encoding WinAnsiEncoding def
  currentdict
end
/Helvetica-BoldOblique exch definefont pop
/Helvetica-Bold findfont
dup length dict begin
  {1 index /FID ne {def} {pop pop} ifelse} forall
  /Encoding WinAnsiEncoding def
  currentdict
end
/Helvetica-Bold exch definefont pop
/Helvetica-Oblique findfont
dup length dict begin
  {1 index /FID ne {def} {pop pop} ifelse} forall
  /Encoding WinAnsiEncoding def
  currentdict
end
/Helvetica-Oblique exch definefont pop
/Times-BoldItalic findfont
dup length dict begin
  {1 index /FID ne {def} {pop pop} ifelse} forall
  /Encoding WinAnsiEncoding def
  currentdict
end
/Times-BoldItalic exch definefont pop
/Courier findfont
dup length dict begin
  {1 index /FID ne {def} {pop pop} ifelse} forall
  /Encoding WinAnsiEncoding def
  currentdict
end
/Courier exch definefont pop
/Times-Italic findfont
dup length dict begin
  {1 index /FID ne {def} {pop pop} ifelse} forall
  /Encoding WinAnsiEncoding def
  currentdict
end
/Times-Italic exch definefont pop
/Times-Bold findfont
dup length dict begin
  {1 index /FID ne {def} {pop pop} ifelse} forall
  /Encoding WinAnsiEncoding def
  currentdict
end
/Times-Bold exch definefont pop
%FOPEndFontReencode
%%EndProlog
%%Page: 1 1
%%PageBoundingBox: 0 0 806 630
%%BeginPageSetup
[1 0 0 -1 0 630] CT
%%EndPageSetup
GS
[0.75 0 0 0.75 0 0] CT
1 GC
N
0 0 1074 840 re
f
GR
GS
[0.75 0 0 0.75 0 0] CT
1 GC
N
0 0 1074 840 re
f
GR
GS
[0.75 0 0 0.75 0 0] CT
1 GC
N
140 748 M
972 748 L
972 63 L
140 63 L
cp
f
GR
GS
[0.75 0 0 0.75 0 0] CT
0.149 GC
2 setlinecap
1 LJ
0.667 LW
N
140 748 M
972 748 L
S
GR
GS
[0.75 0 0 0.75 0 0] CT
0.149 GC
2 setlinecap
1 LJ
0.667 LW
N
140 63 M
972 63 L
S
GR
GS
[0.75 0 0 0.75 0 0] CT
0.149 GC
2 setlinecap
1 LJ
0.667 LW
N
140 748 M
140 739.68 L
S
GR
GS
[0.75 0 0 0.75 0 0] CT
0.149 GC
2 setlinecap
1 LJ
0.667 LW
N
258.857 748 M
258.857 739.68 L
S
GR
GS
[0.75 0 0 0.75 0 0] CT
0.149 GC
2 setlinecap
1 LJ
0.667 LW
N
377.714 748 M
377.714 739.68 L
S
GR
GS
[0.75 0 0 0.75 0 0] CT
0.149 GC
2 setlinecap
1 LJ
0.667 LW
N
496.571 748 M
496.571 739.68 L
S
GR
GS
[0.75 0 0 0.75 0 0] CT
0.149 GC
2 setlinecap
1 LJ
0.667 LW
N
615.429 748 M
615.429 739.68 L
S
GR
GS
[0.75 0 0 0.75 0 0] CT
0.149 GC
2 setlinecap
1 LJ
0.667 LW
N
734.286 748 M
734.286 739.68 L
S
GR
GS
[0.75 0 0 0.75 0 0] CT
0.149 GC
2 setlinecap
1 LJ
0.667 LW
N
853.143 748 M
853.143 739.68 L
S
GR
GS
[0.75 0 0 0.75 0 0] CT
0.149 GC
2 setlinecap
1 LJ
0.667 LW
N
972 748 M
972 739.68 L
S
GR
GS
[0.75 0 0 0.75 0 0] CT
0.149 GC
2 setlinecap
1 LJ
0.667 LW
N
140 63 M
140 71.32 L
S
GR
GS
[0.75 0 0 0.75 0 0] CT
0.149 GC
2 setlinecap
1 LJ
0.667 LW
N
258.857 63 M
258.857 71.32 L
S
GR
GS
[0.75 0 0 0.75 0 0] CT
0.149 GC
2 setlinecap
1 LJ
0.667 LW
N
377.714 63 M
377.714 71.32 L
S
GR
GS
[0.75 0 0 0.75 0 0] CT
0.149 GC
2 setlinecap
1 LJ
0.667 LW
N
496.571 63 M
496.571 71.32 L
S
GR
GS
[0.75 0 0 0.75 0 0] CT
0.149 GC
2 setlinecap
1 LJ
0.667 LW
N
615.429 63 M
615.429 71.32 L
S
GR
GS
[0.75 0 0 0.75 0 0] CT
0.149 GC
2 setlinecap
1 LJ
0.667 LW
N
734.286 63 M
734.286 71.32 L
S
GR
GS
[0.75 0 0 0.75 0 0] CT
0.149 GC
2 setlinecap
1 LJ
0.667 LW
N
853.143 63 M
853.143 71.32 L
S
GR
GS
[0.75 0 0 0.75 0 0] CT
0.149 GC
2 setlinecap
1 LJ
0.667 LW
N
972 63 M
972 71.32 L
S
GR
GS
[0.75 0 0 0.75 105 567.39999] CT
0.149 GC
/any-Bold 29.333 F
GS
[1 0 0 1 0 0] CT
-8.5 27 moveto 
1 -1 scale
(0) t 
GR
GR
GS
[0.75 0 0 0.75 194.14286 567.39999] CT
0.149 GC
/any-Bold 29.333 F
GS
[1 0 0 1 0 0] CT
-32.5 27 moveto 
1 -1 scale
(1000) t 
GR
GR
GS
[0.75 0 0 0.75 283.28572 567.39999] CT
0.149 GC
/any-Bold 29.333 F
GS
[1 0 0 1 0 0] CT
-32.5 27 moveto 
1 -1 scale
(2000) t 
GR
GR
GS
[0.75 0 0 0.75 372.42858 567.39999] CT
0.149 GC
/any-Bold 29.333 F
GS
[1 0 0 1 0 0] CT
-32.5 27 moveto 
1 -1 scale
(3000) t 
GR
GR
GS
[0.75 0 0 0.75 461.57144 567.39999] CT
0.149 GC
/any-Bold 29.333 F
GS
[1 0 0 1 0 0] CT
-32.5 27 moveto 
1 -1 scale
(4000) t 
GR
GR
GS
[0.75 0 0 0.75 550.71428 567.39999] CT
0.149 GC
/any-Bold 29.333 F
GS
[1 0 0 1 0 0] CT
-32.5 27 moveto 
1 -1 scale
(5000) t 
GR
GR
GS
[0.75 0 0 0.75 639.85716 567.39999] CT
0.149 GC
/any-Bold 29.333 F
GS
[1 0 0 1 0 0] CT
-32.5 27 moveto 
1 -1 scale
(6000) t 
GR
GR
GS
[0.75 0 0 0.75 729 567.39999] CT
0.149 GC
/any-Bold 29.333 F
GS
[1 0 0 1 0 0] CT
-32.5 27 moveto 
1 -1 scale
(7000) t 
GR
GR
GS
[0.75 0 0 0.75 417.00032 593.89998] CT
0.149 GC
N
-107.563 30.625 M
-112.625 30.625 -115.609 27.391 QT
-118.594 24.156 -118.594 18.641 QT
-118.594 13.016 -115.609 9.711 QT
-112.625 6.406 -107.563 6.406 QT
-102.469 6.406 -99.492 9.711 QT
-96.516 13.016 -96.516 18.641 QT
-96.516 24.156 -99.492 27.391 QT
-102.469 30.625 -107.563 30.625 QT
-107.563 30.625 L
cp
-107.563 26.547 M
-104.625 26.547 -102.969 24.445 QT
-101.313 22.344 -101.313 18.609 QT
-101.313 14.797 -102.969 12.641 QT
-104.625 10.484 -107.563 10.484 QT
-110.484 10.484 -112.141 12.641 QT
-113.797 14.797 -113.797 18.609 QT
-113.797 22.344 -112.148 24.445 QT
-110.5 26.547 -107.563 26.547 QT
-107.563 26.547 L
cp
-92.931 13 M
-92.931 13 L
-90.806 13 L
-88.665 13 L
-88.665 13 L
-88.665 15.516 L
-88.665 15.516 L
-88.368 15.094 L
-86.556 12.547 -83.587 12.547 QT
-80.352 12.547 -78.391 14.938 QT
-76.431 17.328 -76.431 21.234 QT
-76.431 25.375 -78.391 27.906 QT
-80.352 30.438 -83.587 30.438 QT
-86.54 30.438 -88.352 28.063 QT
-88.446 27.938 L
-88.446 27.938 L
-88.446 36.656 L
-88.446 36.656 L
-90.681 36.656 L
-92.931 36.656 L
-92.931 36.656 L
-92.931 13 L
cp
-84.868 26.75 M
-83.071 26.75 -82.056 25.398 QT
-81.04 24.047 -81.04 21.641 QT
-81.04 19.188 -82.048 17.805 QT
-83.056 16.422 -84.852 16.422 QT
-86.649 16.422 -87.657 17.844 QT
-88.665 19.266 -88.665 21.797 QT
-88.665 21.797 L
-88.665 21.797 L
-88.665 21.797 L
-88.665 24.125 -87.657 25.438 QT
-86.649 26.75 -84.868 26.75 QT
cp
-65.434 30.438 M
-69.418 30.438 -71.77 28.047 QT
-74.122 25.656 -74.122 21.594 QT
-74.122 17.438 -71.77 14.992 QT
-69.418 12.547 -65.434 12.547 QT
-61.418 12.547 -59.075 14.992 QT
-56.731 17.438 -56.731 21.594 QT
-56.731 25.656 -59.075 28.047 QT
-61.418 30.438 -65.434 30.438 QT
-65.434 30.438 L
cp
-65.434 26.688 M
-63.434 26.688 -62.387 25.375 QT
-61.34 24.063 -61.34 21.547 QT
-61.34 18.969 -62.387 17.633 QT
-63.434 16.297 -65.434 16.297 QT
-67.434 16.297 -68.473 17.633 QT
-69.512 18.969 -69.512 21.547 QT
-69.512 24.063 -68.473 25.375 QT
-67.434 26.688 -65.434 26.688 QT
-65.434 26.688 L
cp
-67.122 10.547 M
-64.106 5.906 L
-59.2 5.906 L
-63.887 10.547 L
-67.122 10.547 L
cp
-54.875 26.516 M
-46.266 16.672 L
-46.156 16.547 L
-46.156 16.547 L
-54.234 16.547 L
-54.234 16.547 L
-54.234 14.781 L
-54.234 13 L
-54.234 13 L
-40.547 13 L
-40.547 14.828 L
-40.547 16.672 L
-49.047 26.328 L
-49.047 26.328 L
-40.156 26.328 L
-40.156 26.328 L
-40.156 28.156 L
-40.156 30 L
-40.156 30 L
-54.875 30 L
-54.875 28.266 L
-54.875 26.516 L
cp
-49.422 11 M
-46.406 6.359 L
-41.5 6.359 L
-46.188 11 L
-49.422 11 L
cp
-37.313 30 M
-37.313 13 L
-37.313 13 L
-35.188 13 L
-33.047 13 L
-33.047 13 L
-33.047 15.516 L
-33.047 15.516 L
-33.047 15.516 L
-32.781 15.063 -32.469 14.656 QT
-30.813 12.547 -27.656 12.547 QT
-24.969 12.547 -23.445 14.141 QT
-21.922 15.734 -21.922 18.563 QT
-21.922 30 L
-21.922 30 L
-24.156 30 L
-26.406 30 L
-26.406 30 L
-26.406 19.375 L
-26.406 17.797 -27.086 17.039 QT
-27.766 16.281 -29.172 16.281 QT
-30.938 16.281 -31.883 17.344 QT
-32.828 18.406 -32.828 20.406 QT
-32.828 20.406 L
-32.828 30 L
-32.828 30 L
-35.063 30 L
-37.313 30 L
-37.313 30 L
cp
-17.441 30 M
-17.441 13 L
-17.441 13 L
-15.207 13 L
-12.957 13 L
-12.957 13 L
-12.957 30 L
-12.957 30 L
-15.191 30 L
-17.441 30 L
-17.441 30 L
cp
-17.488 6.859 M
-12.926 6.859 L
-12.926 11.016 L
-17.488 11.016 L
-17.488 6.859 L
cp
-1.919 30.438 M
-5.794 30.438 -7.895 28.047 QT
-9.997 25.656 -9.997 21.234 QT
-9.997 17.156 -7.856 14.852 QT
-5.715 12.547 -1.919 12.547 QT
1.972 12.547 4.074 14.898 QT
6.175 17.25 6.175 21.594 QT
6.206 22.094 6.097 22.609 QT
6.097 22.609 L
-5.481 22.609 L
-5.481 22.609 L
-5.325 24.625 -4.59 25.625 QT
-3.653 26.875 -1.465 26.875 QT
-0.45 26.875 0.417 26.297 QT
1.285 25.719 1.456 24.906 QT
1.456 24.906 L
6.019 24.906 L
6.019 24.906 L
5.441 27.5 3.339 28.969 QT
1.238 30.438 -1.919 30.438 QT
cp
1.503 19.75 M
1.503 19.75 L
1.347 18.219 0.691 17.359 QT
-0.169 16.219 -1.981 16.219 QT
-3.715 16.219 -4.622 17.547 QT
-5.184 18.391 -5.434 19.75 QT
-5.434 19.75 L
1.503 19.75 L
cp
9.283 30 M
9.283 13 L
9.283 13 L
11.408 13 L
13.549 13 L
13.549 13 L
13.549 15.516 L
13.549 15.516 L
13.549 15.516 L
13.814 15.063 14.127 14.656 QT
15.783 12.547 18.939 12.547 QT
21.627 12.547 23.15 14.141 QT
24.674 15.734 24.674 18.563 QT
24.674 30 L
24.674 30 L
22.439 30 L
20.189 30 L
20.189 30 L
20.189 19.375 L
20.189 17.797 19.51 17.039 QT
18.83 16.281 17.424 16.281 QT
15.658 16.281 14.713 17.344 QT
13.767 18.406 13.767 20.406 QT
13.767 20.406 L
13.767 30 L
13.767 30 L
11.533 30 L
9.283 30 L
9.283 30 L
cp
29.154 30 M
29.154 13 L
29.154 13 L
31.389 13 L
33.639 13 L
33.639 13 L
33.639 30 L
33.639 30 L
31.404 30 L
29.154 30 L
29.154 30 L
cp
29.108 6.859 M
33.67 6.859 L
33.67 11.016 L
29.108 11.016 L
29.108 6.859 L
cp
44.677 30.438 M
40.802 30.438 38.7 28.047 QT
36.599 25.656 36.599 21.234 QT
36.599 17.156 38.74 14.852 QT
40.88 12.547 44.677 12.547 QT
48.568 12.547 50.669 14.898 QT
52.771 17.25 52.771 21.594 QT
52.802 22.094 52.693 22.609 QT
52.693 22.609 L
41.115 22.609 L
41.115 22.609 L
41.271 24.625 42.005 25.625 QT
42.943 26.875 45.13 26.875 QT
46.146 26.875 47.013 26.297 QT
47.88 25.719 48.052 24.906 QT
48.052 24.906 L
52.615 24.906 L
52.615 24.906 L
52.036 27.5 49.935 28.969 QT
47.833 30.438 44.677 30.438 QT
cp
48.099 19.75 M
48.099 19.75 L
47.943 18.219 47.286 17.359 QT
46.427 16.219 44.615 16.219 QT
42.88 16.219 41.974 17.547 QT
41.411 18.391 41.161 19.75 QT
41.161 19.75 L
48.099 19.75 L
cp
64.776 36.328 M
64.776 6.875 L
64.776 6.875 L
72.651 6.875 L
72.651 9.953 L
68.776 9.953 L
68.776 9.953 L
68.776 33.25 L
68.776 33.25 L
72.651 33.25 L
72.651 36.328 L
64.776 36.328 L
64.776 36.328 L
cp
75.484 13 M
75.484 13 L
77.609 13 L
79.75 13 L
79.75 13 L
79.75 15.516 L
79.75 15.516 L
80.047 15.094 L
81.859 12.547 84.828 12.547 QT
88.063 12.547 90.023 14.938 QT
91.984 17.328 91.984 21.234 QT
91.984 25.375 90.023 27.906 QT
88.063 30.438 84.828 30.438 QT
81.875 30.438 80.063 28.063 QT
79.969 27.938 L
79.969 27.938 L
79.969 36.656 L
79.969 36.656 L
77.734 36.656 L
75.484 36.656 L
75.484 36.656 L
75.484 13 L
cp
83.547 26.75 M
85.344 26.75 86.359 25.398 QT
87.375 24.047 87.375 21.641 QT
87.375 19.188 86.367 17.805 QT
85.359 16.422 83.563 16.422 QT
81.766 16.422 80.758 17.844 QT
79.75 19.266 79.75 21.797 QT
79.75 21.797 L
79.75 21.797 L
79.75 21.797 L
79.75 24.125 80.758 25.438 QT
81.766 26.75 83.547 26.75 QT
cp
104.903 18.094 M
104.903 18.094 L
104.903 17.109 104.09 16.516 QT
103.278 15.922 101.934 15.922 QT
100.637 15.922 99.911 16.367 QT
99.184 16.813 99.184 17.609 QT
99.184 18.172 100.012 18.578 QT
100.825 18.969 102.903 19.438 QT
107.028 20.359 108.418 21.453 QT
109.809 22.547 109.809 24.891 QT
109.809 27.391 107.786 28.914 QT
105.762 30.438 102.45 30.438 QT
98.528 30.438 96.411 28.938 QT
94.293 27.438 94.153 24.563 QT
94.153 24.563 L
98.715 24.563 L
98.715 24.563 L
98.762 25.734 99.754 26.398 QT
100.746 27.063 102.45 27.063 QT
103.793 27.063 104.551 26.602 QT
105.309 26.141 105.309 25.313 QT
105.309 24.734 104.575 24.328 QT
103.84 23.938 101.996 23.531 QT
97.684 22.563 96.231 21.484 QT
94.778 20.422 94.778 18.188 QT
94.778 15.656 96.661 14.102 QT
98.543 12.547 101.621 12.547 QT
105.09 12.547 107.215 14.07 QT
109.34 15.594 109.34 18.094 QT
109.34 18.094 L
104.903 18.094 L
cp
119.776 36.328 M
119.776 36.328 L
111.901 36.328 L
111.901 33.25 L
115.776 33.25 L
115.776 33.25 L
115.776 9.953 L
115.776 9.953 L
111.901 9.953 L
111.901 6.875 L
119.776 6.875 L
119.776 6.875 L
119.776 36.328 L
cp
f
GR
GS
[0.75 0 0 0.75 0 0] CT
0.149 GC
2 setlinecap
1 LJ
0.667 LW
N
140 748 M
140 63 L
S
GR
GS
[0.75 0 0 0.75 0 0] CT
0.149 GC
2 setlinecap
1 LJ
0.667 LW
N
972 748 M
972 63 L
S
GR
GS
[0.75 0 0 0.75 0 0] CT
0.149 GC
2 setlinecap
1 LJ
0.667 LW
N
140 748 M
148.32 748 L
S
GR
GS
[0.75 0 0 0.75 0 0] CT
0.149 GC
2 setlinecap
1 LJ
0.667 LW
N
140 679.5 M
148.32 679.5 L
S
GR
GS
[0.75 0 0 0.75 0 0] CT
0.149 GC
2 setlinecap
1 LJ
0.667 LW
N
140 611 M
148.32 611 L
S
GR
GS
[0.75 0 0 0.75 0 0] CT
0.149 GC
2 setlinecap
1 LJ
0.667 LW
N
140 542.5 M
148.32 542.5 L
S
GR
GS
[0.75 0 0 0.75 0 0] CT
0.149 GC
2 setlinecap
1 LJ
0.667 LW
N
140 474 M
148.32 474 L
S
GR
GS
[0.75 0 0 0.75 0 0] CT
0.149 GC
2 setlinecap
1 LJ
0.667 LW
N
140 405.5 M
148.32 405.5 L
S
GR
GS
[0.75 0 0 0.75 0 0] CT
0.149 GC
2 setlinecap
1 LJ
0.667 LW
N
140 337 M
148.32 337 L
S
GR
GS
[0.75 0 0 0.75 0 0] CT
0.149 GC
2 setlinecap
1 LJ
0.667 LW
N
140 268.5 M
148.32 268.5 L
S
GR
GS
[0.75 0 0 0.75 0 0] CT
0.149 GC
2 setlinecap
1 LJ
0.667 LW
N
140 200 M
148.32 200 L
S
GR
GS
[0.75 0 0 0.75 0 0] CT
0.149 GC
2 setlinecap
1 LJ
0.667 LW
N
140 131.5 M
148.32 131.5 L
S
GR
GS
[0.75 0 0 0.75 0 0] CT
0.149 GC
2 setlinecap
1 LJ
0.667 LW
N
140 63 M
148.32 63 L
S
GR
GS
[0.75 0 0 0.75 0 0] CT
0.149 GC
2 setlinecap
1 LJ
0.667 LW
N
972 748 M
963.68 748 L
S
GR
GS
[0.75 0 0 0.75 0 0] CT
0.149 GC
2 setlinecap
1 LJ
0.667 LW
N
972 679.5 M
963.68 679.5 L
S
GR
GS
[0.75 0 0 0.75 0 0] CT
0.149 GC
2 setlinecap
1 LJ
0.667 LW
N
972 611 M
963.68 611 L
S
GR
GS
[0.75 0 0 0.75 0 0] CT
0.149 GC
2 setlinecap
1 LJ
0.667 LW
N
972 542.5 M
963.68 542.5 L
S
GR
GS
[0.75 0 0 0.75 0 0] CT
0.149 GC
2 setlinecap
1 LJ
0.667 LW
N
972 474 M
963.68 474 L
S
GR
GS
[0.75 0 0 0.75 0 0] CT
0.149 GC
2 setlinecap
1 LJ
0.667 LW
N
972 405.5 M
963.68 405.5 L
S
GR
GS
[0.75 0 0 0.75 0 0] CT
0.149 GC
2 setlinecap
1 LJ
0.667 LW
N
972 337 M
963.68 337 L
S
GR
GS
[0.75 0 0 0.75 0 0] CT
0.149 GC
2 setlinecap
1 LJ
0.667 LW
N
972 268.5 M
963.68 268.5 L
S
GR
GS
[0.75 0 0 0.75 0 0] CT
0.149 GC
2 setlinecap
1 LJ
0.667 LW
N
972 200 M
963.68 200 L
S
GR
GS
[0.75 0 0 0.75 0 0] CT
0.149 GC
2 setlinecap
1 LJ
0.667 LW
N
972 131.5 M
963.68 131.5 L
S
GR
GS
[0.75 0 0 0.75 0 0] CT
0.149 GC
2 setlinecap
1 LJ
0.667 LW
N
972 63 M
963.68 63 L
S
GR
GS
[0.75 0 0 0.75 98.59999 561] CT
0.149 GC
/any-Bold 29.333 F
GS
[1 0 0 1 0 0] CT
-17 10 moveto 
1 -1 scale
(0) t 
GR
GR
GS
[0.75 0 0 0.75 98.59999 509.625] CT
0.149 GC
/any-Bold 29.333 F
GS
[1 0 0 1 0 0] CT
-17 10 moveto 
1 -1 scale
(1) t 
GR
GR
GS
[0.75 0 0 0.75 98.59999 458.25] CT
0.149 GC
/any-Bold 29.333 F
GS
[1 0 0 1 0 0] CT
-17 10 moveto 
1 -1 scale
(2) t 
GR
GR
GS
[0.75 0 0 0.75 98.59999 406.875] CT
0.149 GC
/any-Bold 29.333 F
GS
[1 0 0 1 0 0] CT
-17 10 moveto 
1 -1 scale
(3) t 
GR
GR
GS
[0.75 0 0 0.75 98.59999 355.5] CT
0.149 GC
/any-Bold 29.333 F
GS
[1 0 0 1 0 0] CT
-17 10 moveto 
1 -1 scale
(4) t 
GR
GR
GS
[0.75 0 0 0.75 98.59999 304.125] CT
0.149 GC
/any-Bold 29.333 F
GS
[1 0 0 1 0 0] CT
-17 10 moveto 
1 -1 scale
(5) t 
GR
GR
GS
[0.75 0 0 0.75 98.59999 252.75] CT
0.149 GC
/any-Bold 29.333 F
GS
[1 0 0 1 0 0] CT
-17 10 moveto 
1 -1 scale
(6) t 
GR
GR
GS
[0.75 0 0 0.75 98.59999 201.375] CT
0.149 GC
/any-Bold 29.333 F
GS
[1 0 0 1 0 0] CT
-17 10 moveto 
1 -1 scale
(7) t 
GR
GR
GS
[0.75 0 0 0.75 98.59999 150] CT
0.149 GC
/any-Bold 29.333 F
GS
[1 0 0 1 0 0] CT
-17 10 moveto 
1 -1 scale
(8) t 
GR
GR
GS
[0.75 0 0 0.75 98.59999 98.625] CT
0.149 GC
/any-Bold 29.333 F
GS
[1 0 0 1 0 0] CT
-17 10 moveto 
1 -1 scale
(9) t 
GR
GR
GS
[0.75 0 0 0.75 98.59999 47.25] CT
0.149 GC
/any-Bold 29.333 F
GS
[1 0 0 1 0 0] CT
-33 10 moveto 
1 -1 scale
(10) t 
GR
GR
GS
[0 -0.75 0.75 0 70.85 304.12475] CT
0.149 GC
N
-104.563 -7 M
-104.563 -7 L
-104.563 -29.969 L
-104.563 -29.969 L
-102.172 -29.969 L
-99.766 -29.969 L
-99.766 -29.969 L
-99.766 -11.078 L
-99.766 -11.078 L
-88.344 -11.078 L
-88.344 -11.078 L
-88.344 -9.047 L
-88.344 -7 L
-88.344 -7 L
-104.563 -7 L
cp
-85.05 -7 M
-85.05 -24 L
-85.05 -24 L
-82.816 -24 L
-80.566 -24 L
-80.566 -24 L
-80.566 -7 L
-80.566 -7 L
-82.8 -7 L
-85.05 -7 L
-85.05 -7 L
cp
-85.097 -30.141 M
-80.535 -30.141 L
-80.535 -25.984 L
-85.097 -25.984 L
-85.097 -30.141 L
cp
-61.575 -13.297 M
-61.575 -13.297 L
-61.918 -10.125 -63.934 -8.344 QT
-65.95 -6.563 -69.184 -6.563 QT
-73.043 -6.563 -75.145 -8.859 QT
-77.247 -11.156 -77.247 -15.406 QT
-77.247 -19.563 -75.067 -22.008 QT
-72.887 -24.453 -69.184 -24.453 QT
-65.903 -24.453 -63.809 -22.641 QT
-61.715 -20.828 -61.575 -17.875 QT
-61.575 -17.875 L
-66.137 -17.875 L
-66.137 -17.875 L
-66.2 -19.141 -67.036 -19.922 QT
-67.872 -20.703 -69.184 -20.703 QT
-70.872 -20.703 -71.754 -19.352 QT
-72.637 -18 -72.637 -15.406 QT
-72.637 -12.875 -71.754 -11.555 QT
-70.872 -10.234 -69.184 -10.234 QT
-67.965 -10.234 -67.122 -11.078 QT
-66.278 -11.922 -66.137 -13.297 QT
-66.137 -13.297 L
-61.575 -13.297 L
cp
-59.764 -10.484 M
-51.154 -20.328 L
-51.045 -20.453 L
-51.045 -20.453 L
-59.123 -20.453 L
-59.123 -20.453 L
-59.123 -22.219 L
-59.123 -24 L
-59.123 -24 L
-45.436 -24 L
-45.436 -22.172 L
-45.436 -20.328 L
-53.936 -10.672 L
-53.936 -10.672 L
-45.045 -10.672 L
-45.045 -10.672 L
-45.045 -8.844 L
-45.045 -7 L
-45.045 -7 L
-59.764 -7 L
-59.764 -8.734 L
-59.764 -10.484 L
cp
-42.326 -29.969 M
-42.326 -29.969 L
-40.092 -29.969 L
-37.842 -29.969 L
-37.842 -29.969 L
-37.842 -21.781 L
-37.842 -21.781 L
-37.748 -21.906 L
-35.936 -24.453 -32.967 -24.453 QT
-29.733 -24.453 -27.764 -22.063 QT
-25.795 -19.672 -25.795 -15.766 QT
-25.795 -11.625 -27.764 -9.094 QT
-29.733 -6.563 -32.967 -6.563 QT
-35.92 -6.563 -37.748 -8.938 QT
-37.936 -9.188 L
-37.936 -9.188 L
-37.936 -7 L
-37.936 -7 L
-42.326 -7 L
-42.326 -7 L
-42.326 -29.969 L
cp
-34.248 -10.25 M
-32.436 -10.25 -31.42 -11.602 QT
-30.404 -12.953 -30.404 -15.359 QT
-30.404 -17.813 -31.42 -19.195 QT
-32.436 -20.578 -34.233 -20.578 QT
-36.029 -20.578 -37.045 -19.156 QT
-38.061 -17.734 -38.061 -15.203 QT
-38.061 -15.203 L
-38.061 -15.203 L
-38.061 -15.203 L
-38.061 -12.875 -37.045 -11.563 QT
-36.045 -10.25 -34.248 -10.25 QT
cp
-18.424 -6.563 M
-20.783 -6.563 -22.22 -7.914 QT
-23.658 -9.266 -23.658 -11.469 QT
-23.658 -13.797 -22.361 -15.195 QT
-21.064 -16.594 -18.58 -16.953 QT
-15.627 -17.359 L
-14.47 -17.516 -13.705 -17.891 QT
-13.377 -18.047 -13.197 -18.453 QT
-13.017 -18.859 -13.064 -19.281 QT
-13.158 -20 -13.799 -20.406 QT
-14.564 -20.891 -16.002 -20.891 QT
-17.283 -20.891 -18.002 -20.266 QT
-18.72 -19.641 -18.767 -18.5 QT
-18.767 -18.5 L
-23.064 -18.5 L
-23.064 -18.5 L
-22.924 -21.484 -21.033 -22.969 QT
-19.142 -24.453 -15.486 -24.453 QT
-12.314 -24.453 -10.478 -23.117 QT
-8.642 -21.781 -8.642 -19.469 QT
-8.642 -9.969 L
-8.642 -8.828 -8.455 -8.367 QT
-8.267 -7.906 -7.705 -7.641 QT
-7.705 -7.625 L
-7.705 -7.016 L
-10.127 -7.016 L
-12.549 -7.016 L
-12.549 -7.016 L
-12.845 -8.047 -12.939 -9.031 QT
-12.955 -9.063 L
-15.064 -6.563 -18.424 -6.563 QT
cp
-13.033 -13.281 M
-13.033 -15.234 L
-13.033 -15.234 L
-13.814 -14.797 -15.095 -14.531 QT
-16.752 -14.219 L
-17.924 -14 -18.533 -13.414 QT
-19.142 -12.828 -19.142 -11.938 QT
-19.142 -10.922 -18.595 -10.344 QT
-18.049 -9.766 -17.064 -9.766 QT
-14.908 -9.766 -13.627 -11.281 QT
-13.377 -11.578 -13.205 -12.156 QT
-13.033 -12.734 -13.033 -13.281 QT
cp
2.957 -10.484 M
11.566 -20.328 L
11.676 -20.453 L
11.676 -20.453 L
3.597 -20.453 L
3.597 -20.453 L
3.597 -22.219 L
3.597 -24 L
3.597 -24 L
17.285 -24 L
17.285 -22.172 L
17.285 -20.328 L
8.785 -10.672 L
8.785 -10.672 L
17.676 -10.672 L
17.676 -10.672 L
17.676 -8.844 L
17.676 -7 L
17.676 -7 L
2.957 -7 L
2.957 -8.734 L
2.957 -10.484 L
cp
20.644 -7 M
20.644 -29.969 L
20.644 -29.969 L
22.879 -29.969 L
25.129 -29.969 L
25.129 -29.969 L
25.129 -7 L
25.129 -7 L
22.894 -7 L
20.644 -7 L
20.644 -7 L
cp
29.651 -7 M
29.651 -24 L
29.651 -24 L
31.886 -24 L
34.136 -24 L
34.136 -24 L
34.136 -7 L
34.136 -7 L
31.901 -7 L
29.651 -7 L
29.651 -7 L
cp
29.604 -30.141 M
34.167 -30.141 L
34.167 -25.984 L
29.604 -25.984 L
29.604 -30.141 L
cp
53.127 -13.297 M
53.127 -13.297 L
52.783 -10.125 50.768 -8.344 QT
48.752 -6.563 45.518 -6.563 QT
41.658 -6.563 39.557 -8.859 QT
37.455 -11.156 37.455 -15.406 QT
37.455 -19.563 39.635 -22.008 QT
41.814 -24.453 45.518 -24.453 QT
48.799 -24.453 50.893 -22.641 QT
52.986 -20.828 53.127 -17.875 QT
53.127 -17.875 L
48.564 -17.875 L
48.564 -17.875 L
48.502 -19.141 47.666 -19.922 QT
46.83 -20.703 45.518 -20.703 QT
43.83 -20.703 42.947 -19.352 QT
42.064 -18 42.064 -15.406 QT
42.064 -12.875 42.947 -11.555 QT
43.83 -10.234 45.518 -10.234 QT
46.736 -10.234 47.58 -11.078 QT
48.424 -11.922 48.564 -13.297 QT
48.564 -13.297 L
53.127 -13.297 L
cp
54.938 -10.484 M
63.547 -20.328 L
63.657 -20.453 L
63.657 -20.453 L
55.578 -20.453 L
55.578 -20.453 L
55.578 -22.219 L
55.578 -24 L
55.578 -24 L
69.266 -24 L
69.266 -22.172 L
69.266 -20.328 L
60.766 -10.672 L
60.766 -10.672 L
69.657 -10.672 L
69.657 -10.672 L
69.657 -8.844 L
69.657 -7 L
69.657 -7 L
54.938 -7 L
54.938 -8.734 L
54.938 -10.484 L
cp
79.235 -6.563 M
75.36 -6.563 73.258 -8.953 QT
71.157 -11.344 71.157 -15.766 QT
71.157 -19.844 73.297 -22.148 QT
75.438 -24.453 79.235 -24.453 QT
83.125 -24.453 85.227 -22.102 QT
87.328 -19.75 87.328 -15.406 QT
87.36 -14.906 87.25 -14.391 QT
87.25 -14.391 L
75.672 -14.391 L
75.672 -14.391 L
75.828 -12.375 76.563 -11.375 QT
77.5 -10.125 79.688 -10.125 QT
80.703 -10.125 81.571 -10.703 QT
82.438 -11.281 82.61 -12.094 QT
82.61 -12.094 L
87.172 -12.094 L
87.172 -12.094 L
86.594 -9.5 84.493 -8.031 QT
82.391 -6.563 79.235 -6.563 QT
cp
82.657 -17.25 M
82.657 -17.25 L
82.5 -18.781 81.844 -19.641 QT
80.985 -20.781 79.172 -20.781 QT
77.438 -20.781 76.532 -19.453 QT
75.969 -18.609 75.719 -17.25 QT
75.719 -17.25 L
82.657 -17.25 L
cp
90.436 -7 M
90.436 -24 L
90.436 -24 L
92.561 -24 L
94.702 -24 L
94.702 -24 L
94.702 -21.484 L
94.702 -21.484 L
94.702 -21.484 L
94.968 -21.938 95.28 -22.344 QT
96.936 -24.453 100.093 -24.453 QT
102.78 -24.453 104.303 -22.859 QT
105.827 -21.266 105.827 -18.438 QT
105.827 -7 L
105.827 -7 L
103.593 -7 L
101.343 -7 L
101.343 -7 L
101.343 -17.625 L
101.343 -19.203 100.663 -19.961 QT
99.983 -20.719 98.577 -20.719 QT
96.811 -20.719 95.866 -19.656 QT
94.921 -18.594 94.921 -16.594 QT
94.921 -16.594 L
94.921 -7 L
94.921 -7 L
92.686 -7 L
90.436 -7 L
90.436 -7 L
cp
96.452 -26.453 M
99.468 -31.094 L
104.374 -31.094 L
99.686 -26.453 L
96.452 -26.453 L
cp
f
GR
GS
[0.75 0 0 0.75 105 42] CT
0.149 GC
N
5.266 -0.828 M
5.266 -1.063 5.406 -1.25 QT
11.438 -7.25 L
5.406 -13.281 L
5.266 -13.422 5.266 -13.672 QT
5.266 -13.875 5.438 -14.063 QT
5.609 -14.25 5.844 -14.25 QT
7.047 -14.25 7.281 -14.063 QT
12.766 -8.563 L
18.266 -14.063 L
18.5 -14.25 18.688 -14.25 QT
19.922 -14.25 20.094 -14.078 QT
20.266 -13.906 20.266 -13.672 QT
20.266 -13.422 20.125 -13.281 QT
14.094 -7.25 L
20.125 -1.25 L
20.266 -1.063 20.266 -0.828 QT
20.266 -0.594 20.094 -0.422 QT
19.922 -0.25 18.688 -0.25 QT
18.469 -0.25 18.266 -0.469 QT
12.766 -5.938 L
7.281 -0.469 L
7.063 -0.25 5.844 -0.25 QT
5.609 -0.25 5.438 -0.438 QT
5.266 -0.625 5.266 -0.828 QT
cp
f
GR
GS
[0.75 0 0 0.75 123.75 42] CT
0.149 GC
/any-Bold 29.333 F
GS
[1 0 0 1 0 0] CT
0 0 moveto 
1 -1 scale
(10) t 
GR
GR
GS
[0.75 0 0 0.75 148.5 31.5] CT
0.149 GC
/any-Bold 23.467 F
GS
[1 0 0 1 0 0] CT
0 0 moveto 
1 -1 scale
(4) t 
GR
GR
GS
[0.75 0 0 0.75 417.00041 42.7125] CT
N
-151.734 -7 M
-151.734 -29.969 L
-151.734 -29.969 L
-149.344 -29.969 L
-146.938 -29.969 L
-146.938 -29.969 L
-146.938 -21.359 L
-146.938 -21.359 L
-137.953 -21.359 L
-137.953 -21.359 L
-137.953 -29.969 L
-137.953 -29.969 L
-135.563 -29.969 L
-133.156 -29.969 L
-133.156 -29.969 L
-133.156 -7 L
-133.156 -7 L
-135.547 -7 L
-137.953 -7 L
-137.953 -7 L
-137.953 -17.406 L
-137.953 -17.406 L
-146.938 -17.406 L
-146.938 -17.406 L
-146.938 -7 L
-146.938 -7 L
-149.328 -7 L
-151.734 -7 L
-151.734 -7 L
cp
-128.46 -7 M
-128.46 -24 L
-128.46 -24 L
-126.226 -24 L
-123.976 -24 L
-123.976 -24 L
-123.976 -7 L
-123.976 -7 L
-126.21 -7 L
-128.46 -7 L
-128.46 -7 L
cp
-128.507 -30.141 M
-123.944 -30.141 L
-123.944 -25.984 L
-128.507 -25.984 L
-128.507 -30.141 L
cp
-110.047 -18.906 M
-110.047 -18.906 L
-110.047 -19.891 -110.859 -20.484 QT
-111.672 -21.078 -113.016 -21.078 QT
-114.313 -21.078 -115.039 -20.633 QT
-115.766 -20.188 -115.766 -19.391 QT
-115.766 -18.828 -114.938 -18.422 QT
-114.125 -18.031 -112.047 -17.563 QT
-107.922 -16.641 -106.531 -15.547 QT
-105.141 -14.453 -105.141 -12.109 QT
-105.141 -9.609 -107.164 -8.086 QT
-109.188 -6.563 -112.5 -6.563 QT
-116.422 -6.563 -118.539 -8.063 QT
-120.656 -9.563 -120.797 -12.438 QT
-120.797 -12.438 L
-116.234 -12.438 L
-116.234 -12.438 L
-116.188 -11.266 -115.195 -10.602 QT
-114.203 -9.938 -112.5 -9.938 QT
-111.156 -9.938 -110.398 -10.398 QT
-109.641 -10.859 -109.641 -11.688 QT
-109.641 -12.266 -110.375 -12.672 QT
-111.109 -13.063 -112.953 -13.469 QT
-117.266 -14.438 -118.719 -15.516 QT
-120.172 -16.578 -120.172 -18.813 QT
-120.172 -21.344 -118.289 -22.898 QT
-116.406 -24.453 -113.328 -24.453 QT
-109.859 -24.453 -107.734 -22.93 QT
-105.609 -21.406 -105.609 -18.906 QT
-105.609 -18.906 L
-110.047 -18.906 L
cp
-93.923 -6.906 M
-95.048 -6.813 -96.689 -6.813 QT
-99.064 -6.813 -100.103 -7.664 QT
-101.142 -8.516 -101.142 -10.453 QT
-101.142 -20.859 L
-101.142 -20.859 L
-103.502 -20.859 L
-103.502 -24 L
-101.142 -24 L
-101.142 -24 L
-101.142 -28.578 L
-96.658 -28.578 L
-96.658 -24 L
-96.658 -24 L
-93.923 -24 L
-93.923 -20.859 L
-96.658 -20.859 L
-96.658 -20.859 L
-96.658 -11.203 L
-96.658 -10.609 -96.306 -10.422 QT
-95.955 -10.234 -94.845 -10.234 QT
-93.923 -10.234 L
-93.923 -6.906 L
cp
-83.293 -6.563 M
-87.278 -6.563 -89.629 -8.953 QT
-91.981 -11.344 -91.981 -15.406 QT
-91.981 -19.563 -89.629 -22.008 QT
-87.278 -24.453 -83.293 -24.453 QT
-79.278 -24.453 -76.934 -22.008 QT
-74.59 -19.563 -74.59 -15.406 QT
-74.59 -11.344 -76.934 -8.953 QT
-79.278 -6.563 -83.293 -6.563 QT
-83.293 -6.563 L
cp
-83.293 -10.313 M
-81.293 -10.313 -80.246 -11.625 QT
-79.2 -12.938 -79.2 -15.453 QT
-79.2 -18.031 -80.246 -19.367 QT
-81.293 -20.703 -83.293 -20.703 QT
-85.293 -20.703 -86.332 -19.367 QT
-87.371 -18.031 -87.371 -15.453 QT
-87.371 -12.938 -86.332 -11.625 QT
-85.293 -10.313 -83.293 -10.313 QT
-83.293 -10.313 L
cp
-63.625 -3.469 M
-61.734 -3.469 -60.906 -4.383 QT
-60.078 -5.297 -60.078 -7.406 QT
-60.078 -9.5 L
-60.078 -9.5 L
-60.438 -8.953 L
-61.922 -6.906 -64.703 -6.906 QT
-68.016 -6.906 -70.055 -9.289 QT
-72.094 -11.672 -72.094 -15.578 QT
-72.094 -19.578 -70.109 -22.016 QT
-68.125 -24.453 -64.891 -24.453 QT
-62.031 -24.453 -60.453 -22.375 QT
-60.156 -21.984 -59.906 -21.516 QT
-59.906 -21.516 L
-59.906 -24 L
-59.906 -24 L
-55.688 -24 L
-55.688 -7.906 L
-55.688 -3.875 -57.68 -1.961 QT
-59.672 -0.047 -63.891 -0.047 QT
-67.359 -0.047 -69.406 -1.398 QT
-71.453 -2.75 -71.594 -5.141 QT
-71.594 -5.141 L
-66.719 -5.141 L
-66.719 -5.141 L
-66.656 -4.266 -65.914 -3.867 QT
-65.172 -3.469 -63.625 -3.469 QT
cp
-63.766 -20.578 M
-65.516 -20.578 -66.5 -19.242 QT
-67.484 -17.906 -67.484 -15.531 QT
-67.484 -13.203 -66.5 -11.898 QT
-65.516 -10.594 -63.781 -10.594 QT
-62.016 -10.594 -61.023 -11.922 QT
-60.031 -13.25 -60.031 -15.594 QT
-60.031 -17.938 -61.023 -19.258 QT
-62.016 -20.578 -63.766 -20.578 QT
cp
-51.629 -7 M
-51.629 -24 L
-51.629 -24 L
-49.504 -24 L
-47.363 -24 L
-47.363 -24 L
-47.363 -20.953 L
-47.363 -20.953 L
-47.363 -20.953 L
-47.129 -21.453 -46.832 -21.922 QT
-45.254 -24.453 -42.754 -24.453 QT
-41.738 -24.438 L
-41.738 -19.859 L
-42.332 -19.922 -43.082 -19.922 QT
-45.129 -19.922 -46.136 -18.906 QT
-47.144 -17.891 -47.144 -15.828 QT
-47.144 -15.828 L
-47.144 -7 L
-47.144 -7 L
-49.379 -7 L
-51.629 -7 L
-51.629 -7 L
cp
-34.969 -6.563 M
-37.328 -6.563 -38.766 -7.914 QT
-40.203 -9.266 -40.203 -11.469 QT
-40.203 -13.797 -38.906 -15.195 QT
-37.609 -16.594 -35.125 -16.953 QT
-32.172 -17.359 L
-31.016 -17.516 -30.25 -17.891 QT
-29.922 -18.047 -29.742 -18.453 QT
-29.563 -18.859 -29.609 -19.281 QT
-29.703 -20 -30.344 -20.406 QT
-31.109 -20.891 -32.547 -20.891 QT
-33.828 -20.891 -34.547 -20.266 QT
-35.266 -19.641 -35.313 -18.5 QT
-35.313 -18.5 L
-39.609 -18.5 L
-39.609 -18.5 L
-39.469 -21.484 -37.578 -22.969 QT
-35.688 -24.453 -32.031 -24.453 QT
-28.859 -24.453 -27.023 -23.117 QT
-25.188 -21.781 -25.188 -19.469 QT
-25.188 -9.969 L
-25.188 -8.828 -25 -8.367 QT
-24.813 -7.906 -24.25 -7.641 QT
-24.25 -7.625 L
-24.25 -7.016 L
-26.672 -7.016 L
-29.094 -7.016 L
-29.094 -7.016 L
-29.391 -8.047 -29.484 -9.031 QT
-29.5 -9.063 L
-31.609 -6.563 -34.969 -6.563 QT
cp
-29.578 -13.281 M
-29.578 -15.234 L
-29.578 -15.234 L
-30.359 -14.797 -31.641 -14.531 QT
-33.297 -14.219 L
-34.469 -14 -35.078 -13.414 QT
-35.688 -12.828 -35.688 -11.938 QT
-35.688 -10.922 -35.141 -10.344 QT
-34.594 -9.766 -33.609 -9.766 QT
-31.453 -9.766 -30.172 -11.281 QT
-29.922 -11.578 -29.75 -12.156 QT
-29.578 -12.734 -29.578 -13.281 QT
cp
-21.142 -7 M
-21.142 -24 L
-21.142 -24 L
-19.017 -24 L
-16.877 -24 L
-16.877 -24 L
-16.877 -21.266 L
-16.877 -21.266 L
-16.877 -21.266 L
-16.58 -21.984 -16.127 -22.547 QT
-14.642 -24.453 -11.814 -24.453 QT
-9.564 -24.453 -8.127 -22.938 QT
-7.564 -22.359 -7.236 -21.656 QT
-7.236 -21.656 L
-6.689 -22.547 L
-5.298 -24.453 -2.642 -24.453 QT
0.123 -24.453 1.686 -22.813 QT
3.248 -21.172 3.248 -18.266 QT
3.248 -7 L
3.248 -7 L
1.014 -7 L
-1.236 -7 L
-1.236 -7 L
-1.236 -16.984 L
-1.236 -18.891 -1.861 -19.805 QT
-2.486 -20.719 -3.798 -20.719 QT
-5.205 -20.719 -5.947 -19.852 QT
-6.689 -18.984 -6.689 -17.359 QT
-6.689 -17.359 L
-6.689 -7 L
-6.689 -7 L
-8.923 -7 L
-11.173 -7 L
-11.173 -7 L
-11.173 -17.719 L
-11.173 -19.25 -11.83 -19.984 QT
-12.486 -20.719 -13.845 -20.719 QT
-15.205 -20.719 -15.931 -19.852 QT
-16.658 -18.984 -16.658 -17.359 QT
-16.658 -17.359 L
-16.658 -7 L
-16.658 -7 L
-18.892 -7 L
-21.142 -7 L
-21.142 -7 L
cp
24.228 -6.563 M
20.243 -6.563 17.892 -8.953 QT
15.54 -11.344 15.54 -15.406 QT
15.54 -19.563 17.892 -22.008 QT
20.243 -24.453 24.228 -24.453 QT
28.243 -24.453 30.587 -22.008 QT
32.931 -19.563 32.931 -15.406 QT
32.931 -11.344 30.587 -8.953 QT
28.243 -6.563 24.228 -6.563 QT
24.228 -6.563 L
cp
24.228 -10.313 M
26.228 -10.313 27.275 -11.625 QT
28.321 -12.938 28.321 -15.453 QT
28.321 -18.031 27.275 -19.367 QT
26.228 -20.703 24.228 -20.703 QT
22.228 -20.703 21.189 -19.367 QT
20.15 -18.031 20.15 -15.453 QT
20.15 -12.938 21.189 -11.625 QT
22.228 -10.313 24.228 -10.313 QT
24.228 -10.313 L
cp
36.13 -24 M
36.13 -24 L
38.255 -24 L
40.396 -24 L
40.396 -24 L
40.396 -21.484 L
40.396 -21.484 L
40.693 -21.906 L
42.505 -24.453 45.474 -24.453 QT
48.708 -24.453 50.669 -22.063 QT
52.63 -19.672 52.63 -15.766 QT
52.63 -11.625 50.669 -9.094 QT
48.708 -6.563 45.474 -6.563 QT
42.521 -6.563 40.708 -8.938 QT
40.615 -9.063 L
40.615 -9.063 L
40.615 -0.344 L
40.615 -0.344 L
38.38 -0.344 L
36.13 -0.344 L
36.13 -0.344 L
36.13 -24 L
cp
44.193 -10.25 M
45.99 -10.25 47.005 -11.602 QT
48.021 -12.953 48.021 -15.359 QT
48.021 -17.813 47.013 -19.195 QT
46.005 -20.578 44.208 -20.578 QT
42.412 -20.578 41.404 -19.156 QT
40.396 -17.734 40.396 -15.203 QT
40.396 -15.203 L
40.396 -15.203 L
40.396 -15.203 L
40.396 -12.875 41.404 -11.563 QT
42.412 -10.25 44.193 -10.25 QT
cp
63.627 -6.563 M
59.642 -6.563 57.291 -8.953 QT
54.939 -11.344 54.939 -15.406 QT
54.939 -19.563 57.291 -22.008 QT
59.642 -24.453 63.627 -24.453 QT
67.642 -24.453 69.986 -22.008 QT
72.33 -19.563 72.33 -15.406 QT
72.33 -11.344 69.986 -8.953 QT
67.642 -6.563 63.627 -6.563 QT
63.627 -6.563 L
cp
63.627 -10.313 M
65.627 -10.313 66.674 -11.625 QT
67.721 -12.938 67.721 -15.453 QT
67.721 -18.031 66.674 -19.367 QT
65.627 -20.703 63.627 -20.703 QT
61.627 -20.703 60.588 -19.367 QT
59.549 -18.031 59.549 -15.453 QT
59.549 -12.938 60.588 -11.625 QT
61.627 -10.313 63.627 -10.313 QT
63.627 -10.313 L
cp
61.939 -26.453 M
64.955 -31.094 L
69.861 -31.094 L
65.174 -26.453 L
61.939 -26.453 L
cp
74.186 -10.484 M
82.795 -20.328 L
82.905 -20.453 L
82.905 -20.453 L
74.826 -20.453 L
74.826 -20.453 L
74.826 -22.219 L
74.826 -24 L
74.826 -24 L
88.514 -24 L
88.514 -22.172 L
88.514 -20.328 L
80.014 -10.672 L
80.014 -10.672 L
88.905 -10.672 L
88.905 -10.672 L
88.905 -8.844 L
88.905 -7 L
88.905 -7 L
74.186 -7 L
74.186 -8.734 L
74.186 -10.484 L
cp
79.639 -26 M
82.655 -30.641 L
87.561 -30.641 L
82.873 -26 L
79.639 -26 L
cp
91.748 -7 M
91.748 -24 L
91.748 -24 L
93.873 -24 L
96.014 -24 L
96.014 -24 L
96.014 -21.484 L
96.014 -21.484 L
96.014 -21.484 L
96.28 -21.938 96.592 -22.344 QT
98.248 -24.453 101.405 -24.453 QT
104.092 -24.453 105.615 -22.859 QT
107.139 -21.266 107.139 -18.438 QT
107.139 -7 L
107.139 -7 L
104.905 -7 L
102.655 -7 L
102.655 -7 L
102.655 -17.625 L
102.655 -19.203 101.975 -19.961 QT
101.295 -20.719 99.889 -20.719 QT
98.123 -20.719 97.178 -19.656 QT
96.233 -18.594 96.233 -16.594 QT
96.233 -16.594 L
96.233 -7 L
96.233 -7 L
93.998 -7 L
91.748 -7 L
91.748 -7 L
cp
111.62 -7 M
111.62 -24 L
111.62 -24 L
113.854 -24 L
116.104 -24 L
116.104 -24 L
116.104 -7 L
116.104 -7 L
113.87 -7 L
111.62 -7 L
111.62 -7 L
cp
111.573 -30.141 M
116.135 -30.141 L
116.135 -25.984 L
111.573 -25.984 L
111.573 -30.141 L
cp
127.142 -6.563 M
123.267 -6.563 121.166 -8.953 QT
119.064 -11.344 119.064 -15.766 QT
119.064 -19.844 121.205 -22.148 QT
123.345 -24.453 127.142 -24.453 QT
131.033 -24.453 133.135 -22.102 QT
135.236 -19.75 135.236 -15.406 QT
135.267 -14.906 135.158 -14.391 QT
135.158 -14.391 L
123.58 -14.391 L
123.58 -14.391 L
123.736 -12.375 124.47 -11.375 QT
125.408 -10.125 127.595 -10.125 QT
128.611 -10.125 129.478 -10.703 QT
130.345 -11.281 130.517 -12.094 QT
130.517 -12.094 L
135.08 -12.094 L
135.08 -12.094 L
134.502 -9.5 132.4 -8.031 QT
130.299 -6.563 127.142 -6.563 QT
cp
130.564 -17.25 M
130.564 -17.25 L
130.408 -18.781 129.752 -19.641 QT
128.892 -20.781 127.08 -20.781 QT
125.345 -20.781 124.439 -19.453 QT
123.877 -18.609 123.627 -17.25 QT
123.627 -17.25 L
130.564 -17.25 L
cp
138.344 -7 M
138.344 -24 L
138.344 -24 L
140.469 -24 L
142.609 -24 L
142.609 -24 L
142.609 -21.484 L
142.609 -21.484 L
142.609 -21.484 L
142.875 -21.938 143.188 -22.344 QT
144.844 -24.453 148 -24.453 QT
150.688 -24.453 152.211 -22.859 QT
153.734 -21.266 153.734 -18.438 QT
153.734 -7 L
153.734 -7 L
151.5 -7 L
149.25 -7 L
149.25 -7 L
149.25 -17.625 L
149.25 -19.203 148.57 -19.961 QT
147.891 -20.719 146.484 -20.719 QT
144.719 -20.719 143.774 -19.656 QT
142.828 -18.594 142.828 -16.594 QT
142.828 -16.594 L
142.828 -7 L
142.828 -7 L
140.594 -7 L
138.344 -7 L
138.344 -7 L
cp
144.359 -26.453 M
147.375 -31.094 L
152.281 -31.094 L
147.594 -26.453 L
144.359 -26.453 L
cp
f
GR
GS
[0.75 0 0 0.75 0 0] CT
0 0.447 0.741 RC
1 LJ
0.667 LW
N
140 747.801 M
141.902 747.836 L
143.803 747.794 L
145.705 747.788 L
147.607 747.774 L
149.509 747.74 L
151.41 747.747 L
153.312 747.774 L
155.214 747.849 L
157.115 747.836 L
159.017 747.815 L
160.919 747.829 L
162.821 747.781 L
164.722 747.788 L
166.624 747.87 L
168.526 747.842 L
170.427 747.829 L
172.329 747.829 L
174.231 747.815 L
176.133 747.801 L
178.034 747.76 L
179.936 747.801 L
181.838 747.76 L
183.739 747.829 L
185.641 747.774 L
187.543 747.808 L
189.445 747.74 L
191.346 747.822 L
193.248 747.836 L
195.15 747.842 L
197.051 747.788 L
198.953 747.794 L
200.855 747.767 L
202.757 747.822 L
204.658 747.856 L
206.56 747.863 L
208.462 747.87 L
210.363 747.788 L
212.265 747.829 L
214.167 747.842 L
216.069 747.836 L
217.97 747.794 L
219.872 747.829 L
221.774 747.815 L
223.675 747.842 L
225.577 747.808 L
227.479 747.863 L
229.381 747.808 L
231.282 747.822 L
233.184 747.863 L
235.086 747.781 L
236.987 747.767 L
238.889 747.788 L
240.791 747.808 L
242.693 747.61 L
244.594 747.37 L
246.496 746.452 L
248.398 745.897 L
250.299 742.116 L
252.201 733.814 L
254.103 725.936 L
256.005 722.751 L
257.906 716.271 L
259.808 708.647 L
261.71 703.564 L
263.611 694.132 L
265.513 684.5 L
267.415 681.103 L
269.317 683.507 L
271.218 696.07 L
273.12 707.866 L
275.022 717.949 L
276.923 724.128 L
278.825 729.656 L
280.727 733.32 L
282.629 735.951 L
284.53 738.307 L
286.432 740.157 L
288.334 738.431 L
290.235 736.876 L
292.137 733.663 L
294.039 729.443 L
295.941 724.395 L
297.842 717.99 L
299.744 708.065 L
301.646 704.16 L
303.547 703.283 L
305.449 706.379 L
307.351 709.825 L
309.253 713.49 L
311.154 712.798 L
313.056 713.25 L
314.958 714.894 L
316.859 713.113 L
318.761 712.106 L
320.663 706.955 L
322.565 702.05 L
324.466 693.221 L
326.368 675.774 L
328.27 656.635 L
330.171 631.399 L
332.073 624.775 L
333.975 627.18 L
335.877 643.729 L
337.778 656.374 L
339.68 667.163 L
341.582 676.568 L
343.483 685.014 L
345.385 688.658 L
347.287 691.604 L
349.189 699.249 L
351.09 698.892 L
352.992 696.878 L
354.894 703.235 L
356.795 705.42 L
358.697 708.688 L
360.599 703.475 L
362.501 705.927 L
364.402 703.297 L
366.304 698.173 L
368.206 692.138 L
370.107 691.001 L
372.009 690.72 L
373.911 689.2 L
375.813 689.672 L
377.714 684.946 L
379.616 680.247 L
381.518 686.131 L
383.419 691.227 L
385.321 701.393 L
387.223 706.304 L
389.125 713.339 L
391.026 723.456 L
392.928 731.313 L
394.83 734.334 L
396.731 735.382 L
398.633 734.91 L
400.535 734.225 L
402.437 733.56 L
404.338 734.314 L
406.24 731.957 L
408.142 729.395 L
410.043 727.95 L
411.945 725.82 L
413.847 719.196 L
415.749 714.277 L
417.65 712.106 L
419.552 706.948 L
421.454 702.523 L
423.355 703.016 L
425.257 703.475 L
427.159 709.708 L
429.061 712.647 L
430.962 713.318 L
432.864 720.525 L
434.766 726.306 L
436.667 729.868 L
438.569 734.807 L
440.471 737.506 L
442.373 739.985 L
444.274 741.253 L
446.176 742.109 L
448.078 742.356 L
449.979 741.931 L
451.881 742.082 L
453.783 742.075 L
455.685 742.664 L
457.586 743.842 L
459.488 745.637 L
461.39 746.568 L
463.291 747.157 L
465.193 747.521 L
467.095 747.616 L
468.997 747.644 L
470.898 747.575 L
472.8 747.411 L
474.702 747.562 L
476.603 747.575 L
478.505 747.705 L
480.407 747.692 L
482.309 747.575 L
484.21 747.514 L
486.112 747.568 L
488.014 747.637 L
489.915 747.726 L
491.817 747.705 L
493.719 747.623 L
495.621 747.657 L
497.522 747.582 L
499.424 747.596 L
501.326 747.575 L
503.227 747.562 L
505.129 747.575 L
507.031 747.623 L
508.933 747.582 L
510.834 747.637 L
512.736 747.678 L
514.638 747.63 L
516.539 747.664 L
518.441 747.644 L
520.343 747.623 L
522.245 747.623 L
524.146 747.705 L
526.048 747.637 L
527.95 747.767 L
529.851 747.733 L
531.753 747.774 L
533.655 747.603 L
535.557 747.575 L
537.458 747.548 L
539.36 747.596 L
541.262 747.582 L
543.163 747.404 L
545.065 747.438 L
546.967 747.452 L
548.869 747.431 L
550.77 747.575 L
552.672 747.534 L
554.574 747.479 L
556.475 747.534 L
558.377 747.527 L
560.279 747.534 L
562.181 747.575 L
564.082 747.452 L
565.984 747.486 L
567.886 747.534 L
569.787 747.466 L
571.689 747.438 L
573.591 747.479 L
575.493 747.438 L
577.394 747.459 L
579.296 747.493 L
581.198 747.507 L
583.099 747.596 L
585.001 747.5 L
586.903 747.452 L
588.805 747.377 L
590.706 747.452 L
592.608 747.397 L
594.51 747.411 L
596.411 747.438 L
598.313 747.514 L
600.215 747.418 L
602.117 747.425 L
604.018 747.452 L
605.92 747.425 L
607.822 747.438 L
609.723 747.37 L
611.625 747.404 L
613.527 747.514 L
615.429 747.534 L
617.33 747.486 L
619.232 747.411 L
621.134 747.527 L
623.035 747.596 L
624.937 747.582 L
626.839 747.671 L
628.741 747.726 L
630.642 747.705 L
632.544 747.808 L
634.446 747.808 L
636.347 747.856 L
638.249 747.788 L
640.151 747.822 L
642.053 747.863 L
643.954 747.822 L
645.856 747.849 L
647.758 747.877 L
649.659 747.897 L
651.561 747.849 L
653.463 747.856 L
655.365 747.815 L
657.266 747.781 L
659.168 747.637 L
661.07 747.753 L
662.971 747.651 L
664.873 747.541 L
666.775 747.473 L
668.677 747.247 L
670.578 747.363 L
672.48 747.185 L
674.382 747.233 L
676.283 747.294 L
678.185 747.329 L
680.087 747.144 L
681.989 746.931 L
683.89 746.993 L
685.792 746.972 L
687.694 746.911 L
689.595 746.801 L
691.497 746.719 L
693.399 746.5 L
695.301 746.541 L
697.202 746.431 L
699.104 746.322 L
701.006 746.363 L
702.907 746.267 L
704.809 746.048 L
706.711 746.137 L
708.613 746.013 L
710.514 745.644 L
712.416 745.561 L
714.318 745.274 L
716.219 745.027 L
718.121 744.431 L
720.023 744.15 L
721.925 744.006 L
723.826 743.116 L
725.728 742.184 L
727.63 741.451 L
729.531 740.869 L
731.433 739.198 L
733.335 737.677 L
735.237 735.608 L
737.138 730.416 L
739.04 720.723 L
740.942 689.104 L
742.843 614.925 L
744.745 502.366 L
746.647 391.389 L
748.549 310.901 L
750.45 257.307 L
752.352 229.325 L
754.254 207.994 L
756.155 192.02 L
758.057 172.792 L
759.959 156.639 L
761.861 143.501 L
763.762 127.109 L
765.664 110.573 L
767.566 104.943 L
769.467 106.785 L
771.369 144.118 L
773.271 235.99 L
775.173 385.176 L
777.074 536.965 L
778.976 637.852 L
780.878 692.001 L
782.779 715.915 L
784.681 726.155 L
786.583 732.444 L
788.485 735.923 L
790.386 737.848 L
792.288 740.033 L
794.19 741.198 L
796.091 742.15 L
797.993 743.089 L
799.895 743.534 L
801.797 743.808 L
803.698 744.664 L
805.6 744.87 L
807.502 745.219 L
809.403 745.486 L
811.305 745.822 L
813.207 745.698 L
815.109 745.938 L
817.01 746.404 L
818.912 746.253 L
820.814 746.253 L
822.715 746.609 L
824.617 746.609 L
826.519 746.5 L
828.421 746.582 L
830.322 746.726 L
832.224 746.767 L
834.126 746.959 L
836.027 747.082 L
837.929 747.377 L
839.831 747.336 L
841.733 747.397 L
843.634 747.548 L
845.536 747.623 L
847.438 747.63 L
849.339 747.712 L
851.241 747.726 L
853.143 747.753 L
855.045 747.692 L
856.946 747.692 L
858.848 747.719 L
860.75 747.733 L
862.651 747.801 L
864.553 747.808 L
866.455 747.877 L
868.357 747.877 L
870.258 747.829 L
872.16 747.842 L
874.062 747.801 L
875.963 747.897 L
877.865 747.877 L
879.767 747.836 L
881.669 747.863 L
883.57 747.863 L
885.472 747.884 L
887.374 747.849 L
889.275 747.897 L
891.177 747.918 L
893.079 747.863 L
894.981 747.89 L
896.882 747.836 L
898.784 747.89 L
900.686 747.904 L
S
GR
%%Trailer
%%Pages: 1
%%EOF
