%!PS-Adobe-3.0 EPSF-3.0
%%Creator: (MATLAB, The Mathworks, Inc. Version 9.0.0.341360 \(R2016a\). Operating System: Linux)
%%Title: /home/misimik/Dokumenty/Magisterka/Magisterka/Photon/Spektrometr/ShiftedPumpSpectra.eps
%%CreationDate: 2017-09-20T18:21:56
%%Pages: (atend)
%%BoundingBox: 0 0 719 566
%%LanguageLevel: 3
%%EndComments
%%BeginProlog
%%BeginResource: procset (Apache XML Graphics Std ProcSet) 1.2 0
%%Version: 1.2 0
%%Copyright: (Copyright 2001-2003,2010 The Apache Software Foundation. License terms: http://www.apache.org/licenses/LICENSE-2.0)
/bd{bind def}bind def
/ld{load def}bd
/GR/grestore ld
/M/moveto ld
/LJ/setlinejoin ld
/C/curveto ld
/f/fill ld
/LW/setlinewidth ld
/GC/setgray ld
/t/show ld
/N/newpath ld
/CT/concat ld
/cp/closepath ld
/S/stroke ld
/L/lineto ld
/CC/setcmykcolor ld
/A/ashow ld
/GS/gsave ld
/RC/setrgbcolor ld
/RM/rmoveto ld
/ML/setmiterlimit ld
/re {4 2 roll M
1 index 0 rlineto
0 exch rlineto
neg 0 rlineto
cp } bd
/_ctm matrix def
/_tm matrix def
/BT { _ctm currentmatrix pop matrix _tm copy pop 0 0 moveto } bd
/ET { _ctm setmatrix } bd
/iTm { _ctm setmatrix _tm concat } bd
/Tm { _tm astore pop iTm 0 0 moveto } bd
/ux 0.0 def
/uy 0.0 def
/F {
  /Tp exch def
  /Tf exch def
  Tf findfont Tp scalefont setfont
  /cf Tf def  /cs Tp def
} bd
/ULS {currentpoint /uy exch def /ux exch def} bd
/ULE {
  /Tcx currentpoint pop def
  gsave
  newpath
  cf findfont cs scalefont dup
  /FontMatrix get 0 get /Ts exch def /FontInfo get dup
  /UnderlinePosition get Ts mul /To exch def
  /UnderlineThickness get Ts mul /Tt exch def
  ux uy To add moveto  Tcx uy To add lineto
  Tt setlinewidth stroke
  grestore
} bd
/OLE {
  /Tcx currentpoint pop def
  gsave
  newpath
  cf findfont cs scalefont dup
  /FontMatrix get 0 get /Ts exch def /FontInfo get dup
  /UnderlinePosition get Ts mul /To exch def
  /UnderlineThickness get Ts mul /Tt exch def
  ux uy To add cs add moveto Tcx uy To add cs add lineto
  Tt setlinewidth stroke
  grestore
} bd
/SOE {
  /Tcx currentpoint pop def
  gsave
  newpath
  cf findfont cs scalefont dup
  /FontMatrix get 0 get /Ts exch def /FontInfo get dup
  /UnderlinePosition get Ts mul /To exch def
  /UnderlineThickness get Ts mul /Tt exch def
  ux uy To add cs 10 mul 26 idiv add moveto Tcx uy To add cs 10 mul 26 idiv add lineto
  Tt setlinewidth stroke
  grestore
} bd
/QT {
/Y22 exch store
/X22 exch store
/Y21 exch store
/X21 exch store
currentpoint
/Y21 load 2 mul add 3 div exch
/X21 load 2 mul add 3 div exch
/X21 load 2 mul /X22 load add 3 div
/Y21 load 2 mul /Y22 load add 3 div
/X22 load /Y22 load curveto
} bd
/SSPD {
dup length /d exch dict def
{
/v exch def
/k exch def
currentpagedevice k known {
/cpdv currentpagedevice k get def
v cpdv ne {
/upd false def
/nullv v type /nulltype eq def
/nullcpdv cpdv type /nulltype eq def
nullv nullcpdv or
{
/upd true def
} {
/sametype v type cpdv type eq def
sametype {
v type /arraytype eq {
/vlen v length def
/cpdvlen cpdv length def
vlen cpdvlen eq {
0 1 vlen 1 sub {
/i exch def
/obj v i get def
/cpdobj cpdv i get def
obj cpdobj ne {
/upd true def
exit
} if
} for
} {
/upd true def
} ifelse
} {
v type /dicttype eq {
v {
/dv exch def
/dk exch def
/cpddv cpdv dk get def
dv cpddv ne {
/upd true def
exit
} if
} forall
} {
/upd true def
} ifelse
} ifelse
} if
} ifelse
upd true eq {
d k v put
} if
} if
} if
} forall
d length 0 gt {
d setpagedevice
} if
} bd
%%EndResource
%%BeginResource: procset (Apache XML Graphics EPS ProcSet) 1.0 0
%%Version: 1.0 0
%%Copyright: (Copyright 2002-2003 The Apache Software Foundation. License terms: http://www.apache.org/licenses/LICENSE-2.0)
/BeginEPSF { %def
/b4_Inc_state save def         % Save state for cleanup
/dict_count countdictstack def % Count objects on dict stack
/op_count count 1 sub def      % Count objects on operand stack
userdict begin                 % Push userdict on dict stack
/showpage { } def              % Redefine showpage, { } = null proc
0 setgray 0 setlinecap         % Prepare graphics state
1 setlinewidth 0 setlinejoin
10 setmiterlimit [ ] 0 setdash newpath
/languagelevel where           % If level not equal to 1 then
{pop languagelevel             % set strokeadjust and
1 ne                           % overprint to their defaults.
{false setstrokeadjust false setoverprint
} if
} if
} bd
/EndEPSF { %def
count op_count sub {pop} repeat            % Clean up stacks
countdictstack dict_count sub {end} repeat
b4_Inc_state restore
} bd
%%EndResource
%FOPBeginFontDict
%%IncludeResource: font Courier-Bold
%%IncludeResource: font Helvetica
%%IncludeResource: font Courier-BoldOblique
%%IncludeResource: font Courier-Oblique
%%IncludeResource: font Times-Roman
%%IncludeResource: font Helvetica-BoldOblique
%%IncludeResource: font Helvetica-Bold
%%IncludeResource: font Helvetica-Oblique
%%IncludeResource: font Times-BoldItalic
%%IncludeResource: font Courier
%%IncludeResource: font Times-Italic
%%IncludeResource: font Times-Bold
%%IncludeResource: font Symbol
%%IncludeResource: font ZapfDingbats
%FOPEndFontDict
%%BeginResource: encoding WinAnsiEncoding
/WinAnsiEncoding [
/.notdef /.notdef /.notdef /.notdef /.notdef
/.notdef /.notdef /.notdef /.notdef /.notdef
/.notdef /.notdef /.notdef /.notdef /.notdef
/.notdef /.notdef /.notdef /.notdef /.notdef
/.notdef /.notdef /.notdef /.notdef /.notdef
/.notdef /.notdef /.notdef /.notdef /.notdef
/.notdef /.notdef /space /exclam /quotedbl
/numbersign /dollar /percent /ampersand /quotesingle
/parenleft /parenright /asterisk /plus /comma
/hyphen /period /slash /zero /one
/two /three /four /five /six
/seven /eight /nine /colon /semicolon
/less /equal /greater /question /at
/A /B /C /D /E
/F /G /H /I /J
/K /L /M /N /O
/P /Q /R /S /T
/U /V /W /X /Y
/Z /bracketleft /backslash /bracketright /asciicircum
/underscore /quoteleft /a /b /c
/d /e /f /g /h
/i /j /k /l /m
/n /o /p /q /r
/s /t /u /v /w
/x /y /z /braceleft /bar
/braceright /asciitilde /bullet /Euro /bullet
/quotesinglbase /florin /quotedblbase /ellipsis /dagger
/daggerdbl /circumflex /perthousand /Scaron /guilsinglleft
/OE /bullet /Zcaron /bullet /bullet
/quoteleft /quoteright /quotedblleft /quotedblright /bullet
/endash /emdash /asciitilde /trademark /scaron
/guilsinglright /oe /bullet /zcaron /Ydieresis
/space /exclamdown /cent /sterling /currency
/yen /brokenbar /section /dieresis /copyright
/ordfeminine /guillemotleft /logicalnot /sfthyphen /registered
/macron /degree /plusminus /twosuperior /threesuperior
/acute /mu /paragraph /middot /cedilla
/onesuperior /ordmasculine /guillemotright /onequarter /onehalf
/threequarters /questiondown /Agrave /Aacute /Acircumflex
/Atilde /Adieresis /Aring /AE /Ccedilla
/Egrave /Eacute /Ecircumflex /Edieresis /Igrave
/Iacute /Icircumflex /Idieresis /Eth /Ntilde
/Ograve /Oacute /Ocircumflex /Otilde /Odieresis
/multiply /Oslash /Ugrave /Uacute /Ucircumflex
/Udieresis /Yacute /Thorn /germandbls /agrave
/aacute /acircumflex /atilde /adieresis /aring
/ae /ccedilla /egrave /eacute /ecircumflex
/edieresis /igrave /iacute /icircumflex /idieresis
/eth /ntilde /ograve /oacute /ocircumflex
/otilde /odieresis /divide /oslash /ugrave
/uacute /ucircumflex /udieresis /yacute /thorn
/ydieresis
] def
%%EndResource
%FOPBeginFontReencode
/Courier-Bold findfont
dup length dict begin
  {1 index /FID ne {def} {pop pop} ifelse} forall
  /Encoding WinAnsiEncoding def
  currentdict
end
/Courier-Bold exch definefont pop
/Helvetica findfont
dup length dict begin
  {1 index /FID ne {def} {pop pop} ifelse} forall
  /Encoding WinAnsiEncoding def
  currentdict
end
/Helvetica exch definefont pop
/Courier-BoldOblique findfont
dup length dict begin
  {1 index /FID ne {def} {pop pop} ifelse} forall
  /Encoding WinAnsiEncoding def
  currentdict
end
/Courier-BoldOblique exch definefont pop
/Courier-Oblique findfont
dup length dict begin
  {1 index /FID ne {def} {pop pop} ifelse} forall
  /Encoding WinAnsiEncoding def
  currentdict
end
/Courier-Oblique exch definefont pop
/Times-Roman findfont
dup length dict begin
  {1 index /FID ne {def} {pop pop} ifelse} forall
  /Encoding WinAnsiEncoding def
  currentdict
end
/Times-Roman exch definefont pop
/Helvetica-BoldOblique findfont
dup length dict begin
  {1 index /FID ne {def} {pop pop} ifelse} forall
  /Encoding WinAnsiEncoding def
  currentdict
end
/Helvetica-BoldOblique exch definefont pop
/Helvetica-Bold findfont
dup length dict begin
  {1 index /FID ne {def} {pop pop} ifelse} forall
  /Encoding WinAnsiEncoding def
  currentdict
end
/Helvetica-Bold exch definefont pop
/Helvetica-Oblique findfont
dup length dict begin
  {1 index /FID ne {def} {pop pop} ifelse} forall
  /Encoding WinAnsiEncoding def
  currentdict
end
/Helvetica-Oblique exch definefont pop
/Times-BoldItalic findfont
dup length dict begin
  {1 index /FID ne {def} {pop pop} ifelse} forall
  /Encoding WinAnsiEncoding def
  currentdict
end
/Times-BoldItalic exch definefont pop
/Courier findfont
dup length dict begin
  {1 index /FID ne {def} {pop pop} ifelse} forall
  /Encoding WinAnsiEncoding def
  currentdict
end
/Courier exch definefont pop
/Times-Italic findfont
dup length dict begin
  {1 index /FID ne {def} {pop pop} ifelse} forall
  /Encoding WinAnsiEncoding def
  currentdict
end
/Times-Italic exch definefont pop
/Times-Bold findfont
dup length dict begin
  {1 index /FID ne {def} {pop pop} ifelse} forall
  /Encoding WinAnsiEncoding def
  currentdict
end
/Times-Bold exch definefont pop
%FOPEndFontReencode
%%EndProlog
%%Page: 1 1
%%PageBoundingBox: 0 0 719 566
%%BeginPageSetup
[1 0 0 -1 0 566] CT
%%EndPageSetup
GS
[0.75 0 0 0.75 0 0.5] CT
1 GC
N
0 0 958 754 re
f
GR
GS
[0.75 0 0 0.75 0 0.5] CT
1 GC
N
0 0 958 754 re
f
GR
GS
[0.75 0 0 0.75 0 0.5] CT
1 GC
N
125 671 M
867 671 L
867 57 L
125 57 L
cp
f
GR
GS
[0.75 0 0 0.75 0 0.5] CT
0.149 GC
2 setlinecap
1 LJ
0.667 LW
N
125 671 M
867 671 L
S
GR
GS
[0.75 0 0 0.75 0 0.5] CT
0.149 GC
2 setlinecap
1 LJ
0.667 LW
N
125 671 M
125 663.58 L
S
GR
GS
[0.75 0 0 0.75 0 0.5] CT
0.149 GC
2 setlinecap
1 LJ
0.667 LW
N
273.4 671 M
273.4 663.58 L
S
GR
GS
[0.75 0 0 0.75 0 0.5] CT
0.149 GC
2 setlinecap
1 LJ
0.667 LW
N
421.8 671 M
421.8 663.58 L
S
GR
GS
[0.75 0 0 0.75 0 0.5] CT
0.149 GC
2 setlinecap
1 LJ
0.667 LW
N
570.2 671 M
570.2 663.58 L
S
GR
GS
[0.75 0 0 0.75 0 0.5] CT
0.149 GC
2 setlinecap
1 LJ
0.667 LW
N
718.6 671 M
718.6 663.58 L
S
GR
GS
[0.75 0 0 0.75 0 0.5] CT
0.149 GC
2 setlinecap
1 LJ
0.667 LW
N
867 671 M
867 663.58 L
S
GR
GS
[0.75 0 0 0.75 93.75 509.35001] CT
0.149 GC
/Helvetica 24 F
GS
[1 0 0 1 0 0] CT
-23 23 moveto 
1 -1 scale
(777) t 
GR
GR
GS
[0.75 0 0 0.75 205.05 509.35001] CT
0.149 GC
/Helvetica 24 F
GS
[1 0 0 1 0 0] CT
-23 23 moveto 
1 -1 scale
(778) t 
GR
GR
GS
[0.75 0 0 0.75 316.34999 509.35001] CT
0.149 GC
/Helvetica 24 F
GS
[1 0 0 1 0 0] CT
-23 23 moveto 
1 -1 scale
(779) t 
GR
GR
GS
[0.75 0 0 0.75 427.65001 509.35001] CT
0.149 GC
/Helvetica 24 F
GS
[1 0 0 1 0 0] CT
-23 23 moveto 
1 -1 scale
(780) t 
GR
GR
GS
[0.75 0 0 0.75 538.94998 509.35001] CT
0.149 GC
/Helvetica 24 F
GS
[1 0 0 1 0 0] CT
-23 23 moveto 
1 -1 scale
(781) t 
GR
GR
GS
[0.75 0 0 0.75 650.25 509.35001] CT
0.149 GC
/Helvetica 24 F
GS
[1 0 0 1 0 0] CT
-23 23 moveto 
1 -1 scale
(782) t 
GR
GR
GS
[0.75 0 0 0.75 372 532.09999] CT
0.149 GC
/Helvetica 29.333 F
GS
[1 0 0 1 0 0] CT
-126.5 27 moveto 
1 -1 scale
(Wavelength [nm]) t 
GR
GR
GS
[0.75 0 0 0.75 0 0.5] CT
0.149 GC
2 setlinecap
1 LJ
0.667 LW
N
125 671 M
125 57 L
S
GR
GS
[0.75 0 0 0.75 0 0.5] CT
0.149 GC
2 setlinecap
1 LJ
0.667 LW
N
125 671 M
132.418 671 L
S
GR
GS
[0.75 0 0 0.75 0 0.5] CT
0.149 GC
2 setlinecap
1 LJ
0.667 LW
N
125 609.6 M
132.418 609.6 L
S
GR
GS
[0.75 0 0 0.75 0 0.5] CT
0.149 GC
2 setlinecap
1 LJ
0.667 LW
N
125 548.2 M
132.418 548.2 L
S
GR
GS
[0.75 0 0 0.75 0 0.5] CT
0.149 GC
2 setlinecap
1 LJ
0.667 LW
N
125 486.8 M
132.418 486.8 L
S
GR
GS
[0.75 0 0 0.75 0 0.5] CT
0.149 GC
2 setlinecap
1 LJ
0.667 LW
N
125 425.4 M
132.418 425.4 L
S
GR
GS
[0.75 0 0 0.75 0 0.5] CT
0.149 GC
2 setlinecap
1 LJ
0.667 LW
N
125 364 M
132.418 364 L
S
GR
GS
[0.75 0 0 0.75 0 0.5] CT
0.149 GC
2 setlinecap
1 LJ
0.667 LW
N
125 302.6 M
132.418 302.6 L
S
GR
GS
[0.75 0 0 0.75 0 0.5] CT
0.149 GC
2 setlinecap
1 LJ
0.667 LW
N
125 241.2 M
132.418 241.2 L
S
GR
GS
[0.75 0 0 0.75 0 0.5] CT
0.149 GC
2 setlinecap
1 LJ
0.667 LW
N
125 179.8 M
132.418 179.8 L
S
GR
GS
[0.75 0 0 0.75 0 0.5] CT
0.149 GC
2 setlinecap
1 LJ
0.667 LW
N
125 118.4 M
132.418 118.4 L
S
GR
GS
[0.75 0 0 0.75 0 0.5] CT
0.149 GC
2 setlinecap
1 LJ
0.667 LW
N
125 57 M
132.418 57 L
S
GR
GS
[0.75 0 0 0.75 88.15239 503.75] CT
0.149 GC
/Helvetica 24 F
GS
[1 0 0 1 0 0] CT
-16 8.5 moveto 
1 -1 scale
(0) t 
GR
GR
GS
[0.75 0 0 0.75 88.15239 457.69998] CT
0.149 GC
/Helvetica 24 F
GS
[1 0 0 1 0 0] CT
-39 8.5 moveto 
1 -1 scale
(0.1) t 
GR
GR
GS
[0.75 0 0 0.75 88.15239 411.65001] CT
0.149 GC
/Helvetica 24 F
GS
[1 0 0 1 0 0] CT
-39 8.5 moveto 
1 -1 scale
(0.2) t 
GR
GR
GS
[0.75 0 0 0.75 88.15239 365.59999] CT
0.149 GC
/Helvetica 24 F
GS
[1 0 0 1 0 0] CT
-39 8.5 moveto 
1 -1 scale
(0.3) t 
GR
GR
GS
[0.75 0 0 0.75 88.15239 319.55] CT
0.149 GC
/Helvetica 24 F
GS
[1 0 0 1 0 0] CT
-39 8.5 moveto 
1 -1 scale
(0.4) t 
GR
GR
GS
[0.75 0 0 0.75 88.15239 273.5] CT
0.149 GC
/Helvetica 24 F
GS
[1 0 0 1 0 0] CT
-39 8.5 moveto 
1 -1 scale
(0.5) t 
GR
GR
GS
[0.75 0 0 0.75 88.15239 227.44998] CT
0.149 GC
/Helvetica 24 F
GS
[1 0 0 1 0 0] CT
-39 8.5 moveto 
1 -1 scale
(0.6) t 
GR
GR
GS
[0.75 0 0 0.75 88.15239 181.40001] CT
0.149 GC
/Helvetica 24 F
GS
[1 0 0 1 0 0] CT
-39 8.5 moveto 
1 -1 scale
(0.7) t 
GR
GR
GS
[0.75 0 0 0.75 88.15239 135.34999] CT
0.149 GC
/Helvetica 24 F
GS
[1 0 0 1 0 0] CT
-39 8.5 moveto 
1 -1 scale
(0.8) t 
GR
GR
GS
[0.75 0 0 0.75 88.15239 89.30001] CT
0.149 GC
/Helvetica 24 F
GS
[1 0 0 1 0 0] CT
-39 8.5 moveto 
1 -1 scale
(0.9) t 
GR
GR
GS
[0.75 0 0 0.75 88.15239 43.25] CT
0.149 GC
/Helvetica 24 F
GS
[1 0 0 1 0 0] CT
-16 8.5 moveto 
1 -1 scale
(1) t 
GR
GR
GS
[0 -0.75 0.75 0 55.89822 273.49977] CT
0.149 GC
/Helvetica 29.333 F
GS
[1 0 0 1 0 0] CT
-131.5 -7 moveto 
1 -1 scale
(Normalized Power) t 
GR
GR
GS
[0.75 0 0 0.75 372 38.75002] CT
/Helvetica-Bold 32 F
GS
[1 0 0 1 0 0] CT
-181 -8 moveto 
1 -1 scale
(Pump Spectral Shift) t 
GR
GR
GS
[0.75 0 0 0.75 0 0.5] CT
0 0 1 RC
1 LJ
0.667 LW
N
125 671 M
125.598 670.69 L
126.187 671 L
126.784 670.286 L
127.373 671 L
127.971 671 L
128.56 671 L
129.157 671 L
129.746 670.064 L
130.344 671 L
130.933 671 L
131.531 669.992 L
132.119 671 L
132.717 670.278 L
133.315 670.414 L
133.904 671 L
134.501 671 L
135.09 670.443 L
135.688 670.894 L
136.277 670.191 L
136.875 670.747 L
137.463 670.559 L
138.061 670.446 L
138.65 670.697 L
139.248 671 L
139.836 670.924 L
140.434 670.967 L
141.023 670.493 L
141.621 671 L
142.219 670.934 L
142.807 671 L
143.405 671 L
143.994 671 L
144.592 670.946 L
145.18 670.345 L
145.778 671 L
146.367 671 L
146.965 670.355 L
147.553 670.13 L
148.151 670.392 L
148.74 670.093 L
149.338 670.402 L
149.936 670.217 L
150.524 671 L
151.122 670.645 L
151.711 670.4 L
152.309 671 L
152.897 671 L
153.495 671 L
154.084 670.844 L
154.682 670.957 L
155.271 670.558 L
155.868 671 L
156.457 670.452 L
157.055 671 L
157.644 670.77 L
158.241 671 L
158.839 670.388 L
159.428 669.91 L
160.026 671 L
160.615 671 L
161.212 671 L
161.801 671 L
162.399 671 L
162.988 671 L
163.585 670.581 L
164.174 671 L
164.772 671 L
165.361 671 L
165.959 670.721 L
166.556 670.793 L
167.145 671 L
167.743 670.799 L
168.332 670.831 L
168.929 671 L
169.518 671 L
170.116 670.931 L
170.705 670.294 L
171.303 670.889 L
171.891 670.598 L
172.489 671 L
173.078 671 L
173.676 670.799 L
174.264 671 L
174.862 671 L
175.46 670.576 L
176.049 670.649 L
176.647 671 L
177.235 670.635 L
177.833 670.471 L
178.422 670.788 L
179.02 669.472 L
179.608 670.505 L
180.206 670.287 L
180.795 670.811 L
181.393 671 L
181.981 671 L
182.579 671 L
183.177 671 L
183.766 671 L
184.364 671 L
184.952 670.951 L
185.55 670.344 L
186.139 670.738 L
186.737 670.456 L
187.325 670.768 L
187.923 671 L
188.512 670.762 L
189.11 670.397 L
189.699 670.53 L
190.296 670.749 L
190.885 670.786 L
191.483 670.812 L
192.081 671 L
192.669 671 L
193.267 670.975 L
193.856 670.757 L
194.454 671 L
195.043 671 L
195.64 670.853 L
196.229 671 L
196.827 670.468 L
197.416 670.42 L
198.013 670.218 L
198.602 671 L
199.2 671 L
199.798 670.172 L
200.387 670.519 L
200.984 670.795 L
201.573 670.673 L
202.171 671 L
202.76 671 L
203.357 671 L
203.946 671 L
204.544 670.204 L
205.133 669.877 L
205.731 670.214 L
206.319 670.877 L
206.917 670.41 L
207.515 671 L
208.104 670.626 L
208.701 671 L
209.29 670.785 L
209.888 670.061 L
210.477 671 L
211.075 670.687 L
211.663 670.659 L
212.261 671 L
212.85 670.014 L
213.448 670.043 L
214.036 670.597 L
214.634 669.325 L
215.223 670.734 L
215.821 670.278 L
216.419 670.353 L
217.007 670.954 L
217.605 670.693 L
218.194 670.22 L
218.792 670.042 L
219.38 669.736 L
219.978 670.251 L
220.567 669.819 L
221.165 670.006 L
221.753 669.725 L
222.351 669.295 L
222.94 669.523 L
223.538 668.707 L
224.136 669.114 L
224.724 669.972 L
225.322 669.54 L
225.911 669.671 L
226.509 670.18 L
227.097 668.574 L
227.695 668.616 L
228.284 668.687 L
228.882 667.944 L
229.471 669.141 L
230.068 668.242 L
230.657 668.6 L
231.255 668.409 L
231.844 667.502 L
232.441 667.424 L
233.039 667.813 L
233.628 668.103 L
234.226 666.883 L
234.815 666.928 L
235.412 665.904 L
236.001 666.395 L
236.599 666.572 L
237.188 664.996 L
237.785 665.459 L
238.374 666.05 L
238.972 665.585 L
239.561 664.253 L
240.159 664.513 L
240.756 664.419 L
241.345 662.48 L
241.943 663.877 L
242.532 662.316 L
243.129 662.229 L
243.718 662.405 L
244.316 660.658 L
244.905 661.18 L
245.503 660.894 L
246.091 660.36 L
246.689 659.665 L
247.278 660.032 L
247.876 658.074 L
248.464 658.065 L
249.062 656.49 L
249.66 656.716 L
250.249 655.248 L
250.847 655.149 L
251.435 652.782 L
252.033 653.024 L
252.622 652.89 L
253.22 651.145 L
253.808 650.842 L
254.406 650.813 L
254.995 648.731 L
255.593 648.28 L
256.181 648.044 L
256.779 646.826 L
257.377 647.004 L
257.966 645.484 L
258.564 643.784 L
259.152 642.426 L
259.75 642.941 L
260.339 641.417 L
260.937 640.147 L
261.525 639.253 L
262.123 636.965 L
262.712 637.755 L
263.31 635.596 L
263.899 635.132 L
264.496 633.979 L
265.085 632.649 L
265.683 630.808 L
266.281 629.907 L
266.869 628.11 L
267.467 626.262 L
268.056 625.207 L
268.654 624.247 L
269.243 622.391 L
269.84 620.389 L
270.429 617.957 L
271.027 615.869 L
271.616 613.775 L
272.213 613.03 L
272.802 609.972 L
273.4 607.626 L
273.998 606.817 L
274.587 603.875 L
275.184 601.488 L
275.773 597.99 L
276.371 595.427 L
276.96 593.243 L
277.557 590.518 L
278.146 588.255 L
278.744 586.02 L
279.333 584.14 L
279.931 582.485 L
280.519 579.99 L
281.117 577.086 L
281.715 575.002 L
282.304 574.237 L
282.901 572.917 L
283.49 572.646 L
284.088 571.557 L
284.677 570.428 L
285.275 567.851 L
285.863 564.492 L
286.461 563.543 L
287.05 560.346 L
287.648 558.046 L
288.236 555.54 L
288.834 552.786 L
289.423 551.298 L
290.021 549.182 L
290.619 547.103 L
291.207 545.248 L
291.805 544.842 L
292.394 544.114 L
292.992 543.249 L
293.58 541.457 L
294.178 540.57 L
294.767 538.274 L
295.365 535.135 L
295.953 533.058 L
296.551 530.105 L
297.14 528.372 L
297.738 525.403 L
298.336 522.199 L
298.924 519.784 L
299.522 516.097 L
300.111 513.189 L
300.709 509.238 L
301.297 506.595 L
301.895 504.171 L
302.484 502.707 L
303.082 499.528 L
303.671 497.222 L
304.268 493.298 L
304.857 491.223 L
305.455 486.927 L
306.044 483.408 L
306.641 481.103 L
307.239 479.179 L
307.828 475.563 L
308.426 472.907 L
309.015 468.28 L
309.612 463.848 L
310.201 459.449 L
310.799 454.803 L
311.388 453.286 L
311.985 448.743 L
312.574 444.807 L
313.172 439.989 L
313.761 434.097 L
314.359 426.959 L
314.956 419.362 L
315.545 412.225 L
316.143 409.023 L
316.732 404.964 L
317.329 401.875 L
317.918 400.546 L
318.516 398.063 L
319.105 396.866 L
319.703 396.947 L
320.291 396.289 L
320.889 393.864 L
321.478 391.017 L
322.076 387.284 L
322.664 380.238 L
323.262 373.892 L
323.86 367.011 L
324.449 361.058 L
325.047 354.44 L
325.635 349.791 L
326.233 350.107 L
326.822 349.182 L
327.42 348.623 L
328.008 348.258 L
328.606 346.616 L
329.195 347.838 L
329.793 348.204 L
330.381 348.956 L
330.979 350.431 L
331.577 350.456 L
332.166 351.729 L
332.764 351.097 L
333.352 350.052 L
333.95 349.238 L
334.539 345.878 L
335.137 343.317 L
335.725 341.343 L
336.323 338.45 L
336.912 335.374 L
337.51 332.516 L
338.099 329.22 L
338.696 326.981 L
339.285 325.792 L
339.883 323.217 L
340.481 322.175 L
341.069 319.788 L
341.667 319.752 L
342.256 317.013 L
342.854 316.982 L
343.443 315.724 L
344.04 315.67 L
344.629 316.914 L
345.227 317.369 L
345.816 317.674 L
346.413 314.28 L
347.002 312.202 L
347.6 305.994 L
348.198 299.717 L
348.787 292.57 L
349.384 285.187 L
349.973 277.368 L
350.571 271.545 L
351.16 267.473 L
351.757 263.261 L
352.346 259.977 L
352.944 253.827 L
353.533 248.594 L
354.131 244.37 L
354.719 236.77 L
355.317 230.436 L
355.915 226.331 L
356.504 221.408 L
357.101 215.127 L
357.69 208.844 L
358.288 200.288 L
358.877 193.043 L
359.475 181.373 L
360.063 171.232 L
360.661 164.117 L
361.25 156.723 L
361.848 147.581 L
362.436 140.688 L
363.034 133.365 L
363.623 125.635 L
364.221 117.887 L
364.819 108.587 L
365.407 100.836 L
366.005 94.363 L
366.594 89.127 L
367.192 85.134 L
367.78 83.352 L
368.378 80.193 L
368.967 78.361 L
369.565 74.533 L
370.153 71.412 L
370.751 67.269 L
371.34 63.256 L
371.938 60.149 L
372.536 57.418 L
373.124 57 L
373.722 57.263 L
374.311 62.742 L
374.909 69.557 L
375.497 74.043 L
376.095 81.046 L
376.684 86.662 L
377.282 91.056 L
377.871 95.11 L
378.468 100.863 L
379.057 105.79 L
379.655 112.784 L
380.244 120.438 L
380.841 127.358 L
381.439 136.275 L
382.028 147.919 L
382.626 158.747 L
383.215 170.168 L
383.812 183.546 L
384.401 199.735 L
384.999 215.901 L
385.588 226.276 L
386.185 238.212 L
386.774 250.379 L
387.372 262.745 L
387.961 274.869 L
388.559 286.938 L
389.156 302.425 L
389.745 314.404 L
390.343 324.331 L
390.932 334.199 L
391.529 344.984 L
392.118 356.099 L
392.716 364.167 L
393.305 373.65 L
393.903 382.17 L
394.491 393.741 L
395.089 402.942 L
395.678 411.968 L
396.276 419.626 L
396.864 429.553 L
397.462 439.316 L
398.06 447.891 L
398.649 458.016 L
399.247 469.496 L
399.835 479.872 L
400.433 485.986 L
401.022 495.062 L
401.62 500.93 L
402.208 507.757 L
402.806 514.976 L
403.395 519.878 L
403.993 528.385 L
404.581 536.381 L
405.179 542.459 L
405.777 548.523 L
406.366 553.847 L
406.964 559.309 L
407.552 564.322 L
408.15 569.711 L
408.739 575.215 L
409.337 580.743 L
409.925 586.943 L
410.523 590.591 L
411.112 594.337 L
411.71 598.042 L
412.299 602.501 L
412.896 606.608 L
413.485 610.925 L
414.083 614.79 L
414.681 618.268 L
415.269 619.978 L
415.867 623.676 L
416.456 625.906 L
417.054 629.537 L
417.643 631.304 L
418.24 633.295 L
418.829 635.555 L
419.427 637.385 L
420.016 639.749 L
420.613 641.82 L
421.202 643.395 L
421.8 644.598 L
422.398 646.389 L
422.987 647.577 L
423.584 650.103 L
424.173 650.857 L
424.771 653.249 L
425.36 653.429 L
425.957 654.928 L
426.546 655.489 L
427.144 655.992 L
427.733 657.539 L
428.331 658.27 L
428.919 659.411 L
429.517 661.205 L
430.115 661.032 L
430.704 662.674 L
431.301 661.695 L
431.89 662.461 L
432.488 663.743 L
433.077 663.478 L
433.675 663.959 L
434.263 664.693 L
434.861 665.041 L
435.45 666.148 L
436.048 666.61 L
436.636 666.851 L
437.234 667.258 L
437.823 666.768 L
438.421 668.947 L
439.019 666.952 L
439.607 668.456 L
440.205 667.963 L
440.794 667.308 L
441.392 668.355 L
441.98 668.153 L
442.578 669.478 L
443.167 669.175 L
443.765 668.908 L
444.353 668.869 L
444.951 669.261 L
445.54 669.361 L
446.138 669.67 L
446.736 670.144 L
447.324 669.702 L
447.922 670.389 L
448.511 669.533 L
449.109 669.517 L
449.697 670.427 L
450.295 670.155 L
450.884 670.614 L
451.482 669.555 L
452.071 669.199 L
452.668 670.616 L
453.257 670.654 L
453.855 669.699 L
454.444 670.614 L
455.041 670.878 L
455.639 670.076 L
456.228 670.813 L
456.826 670.893 L
457.415 670.524 L
458.012 670.133 L
458.601 670.531 L
459.199 671 L
459.788 671 L
460.385 671 L
460.974 670.705 L
461.572 671 L
462.161 670.777 L
462.759 670.86 L
463.356 671 L
463.945 670.646 L
464.543 670.469 L
465.132 671 L
465.729 671 L
466.318 670.535 L
466.916 671 L
467.505 670.7 L
468.103 670.464 L
468.691 671 L
469.289 670.98 L
469.878 670.338 L
470.476 671 L
471.064 671 L
471.662 670.573 L
472.26 671 L
472.849 671 L
473.447 671 L
474.035 670.227 L
474.633 670.522 L
475.222 670.641 L
475.82 671 L
476.408 671 L
477.006 671 L
477.595 670.278 L
478.193 671 L
478.781 670.484 L
479.379 670.996 L
479.977 669.816 L
480.566 670.417 L
481.164 670.618 L
481.752 670.642 L
482.35 670.298 L
482.939 670.61 L
483.537 670.446 L
484.125 671 L
484.723 671 L
485.312 671 L
485.91 670.593 L
486.499 671 L
487.096 671 L
487.685 671 L
488.283 671 L
488.881 669.91 L
489.469 670.588 L
490.067 671 L
490.656 671 L
491.254 670.837 L
491.843 670.046 L
492.44 670.992 L
493.029 670.56 L
493.627 670.281 L
494.216 670.574 L
494.813 671 L
495.402 670.074 L
496 671 L
496.598 670.932 L
497.187 670.507 L
497.784 670.629 L
498.373 670.711 L
498.971 669.925 L
499.56 670.327 L
500.157 670.91 L
500.746 671 L
501.344 670.74 L
501.933 670.832 L
502.531 670.917 L
503.119 670.343 L
503.717 671 L
504.315 671 L
504.904 671 L
505.501 670.539 L
506.09 670.753 L
506.688 671 L
507.277 671 L
507.875 670.886 L
508.463 670.995 L
509.061 671 L
509.65 670.491 L
510.248 671 L
510.836 671 L
511.434 671 L
512.023 670.52 L
512.621 671 L
513.219 670.887 L
513.807 670.036 L
514.405 671 L
514.994 670.742 L
515.592 670.604 L
516.18 671 L
516.778 671 L
517.367 671 L
517.965 670.175 L
518.553 670.585 L
519.151 671 L
519.74 670.438 L
520.338 671 L
520.936 670.835 L
521.524 671 L
522.122 670.454 L
522.711 671 L
523.309 670.891 L
523.897 670.808 L
524.495 671 L
525.084 671 L
525.682 670.958 L
526.271 671 L
526.868 671 L
527.457 670.561 L
528.055 671 L
528.644 671 L
529.241 671 L
529.839 670.442 L
530.428 670.489 L
531.026 670.318 L
531.615 670.576 L
532.212 670.848 L
532.801 670.771 L
533.399 671 L
533.988 671 L
534.585 671 L
535.174 670.33 L
535.772 669.899 L
536.361 670.867 L
536.959 670.23 L
537.556 671 L
538.145 671 L
538.743 670.126 L
539.332 671 L
539.929 671 L
540.518 671 L
541.116 671 L
541.705 671 L
542.303 671 L
542.891 670.86 L
543.489 670.953 L
544.078 671 L
544.676 671 L
545.264 671 L
545.862 671 L
546.46 671 L
547.049 670.96 L
547.647 671 L
548.235 670.342 L
548.833 671 L
549.422 670.664 L
550.02 670.729 L
550.608 670.815 L
551.206 671 L
551.795 670.172 L
552.393 671 L
552.981 670.707 L
553.579 671 L
554.177 670.664 L
554.766 670.517 L
555.364 669.82 L
555.952 671 L
556.55 671 L
557.139 670.389 L
557.737 671 L
558.325 670.647 L
558.923 670.758 L
559.512 671 L
560.11 671 L
560.699 671 L
561.296 670.975 L
561.885 671 L
562.483 670.903 L
563.081 671 L
563.669 670.826 L
564.267 670.88 L
564.856 670.805 L
565.454 670.546 L
566.043 670.435 L
566.64 670.659 L
567.229 671 L
567.827 671 L
568.416 671 L
569.013 671 L
569.602 671 L
570.2 671 L
570.798 671 L
571.387 670.822 L
571.984 670.931 L
572.573 671 L
573.171 670.634 L
573.76 671 L
574.357 671 L
574.946 670.616 L
575.544 670.313 L
576.133 671 L
576.731 671 L
577.319 671 L
577.917 670.677 L
578.515 670.704 L
579.104 671 L
579.701 671 L
580.29 671 L
580.888 670.488 L
581.477 671 L
582.075 671 L
582.663 670.885 L
583.261 670.798 L
583.85 671 L
584.448 671 L
585.036 671 L
585.634 670.306 L
586.223 670.555 L
586.821 671 L
587.419 670.277 L
588.007 670.834 L
588.605 671 L
589.194 671 L
589.792 670.508 L
590.38 671 L
590.978 670.782 L
591.567 670.954 L
592.165 670.799 L
592.753 670.822 L
593.351 671 L
593.94 671 L
594.538 671 L
595.136 669.834 L
595.724 671 L
596.322 671 L
596.911 671 L
597.509 670.825 L
598.097 671 L
598.695 671 L
599.284 670.631 L
599.882 671 L
600.471 671 L
601.068 670.737 L
601.657 671 L
602.255 670.887 L
602.844 671 L
603.441 671 L
604.039 670.584 L
604.628 671 L
605.226 670.755 L
605.815 671 L
606.412 671 L
607.001 671 L
607.599 671 L
608.188 671 L
608.785 671 L
609.374 670.291 L
609.972 670.652 L
610.561 670.763 L
611.159 671 L
611.756 670.921 L
612.345 670.914 L
612.943 671 L
613.532 670.647 L
614.129 670.844 L
614.718 671 L
615.316 671 L
615.905 671 L
616.503 670.896 L
617.091 671 L
617.689 670.891 L
618.278 671 L
618.876 670.987 L
619.464 671 L
620.062 670.469 L
620.66 670.681 L
621.249 670.97 L
621.847 670.407 L
622.435 670.613 L
623.033 670.238 L
623.622 671 L
624.22 671 L
624.808 671 L
625.406 671 L
625.995 670.467 L
626.593 670.663 L
627.181 670.924 L
627.779 670.561 L
628.377 671 L
628.966 671 L
629.564 670.703 L
630.152 671 L
630.75 671 L
631.339 671 L
631.937 671 L
632.525 671 L
633.123 670.31 L
633.712 671 L
634.31 670.888 L
634.899 670.723 L
635.496 670.959 L
636.085 670.579 L
636.683 670.679 L
637.281 670.964 L
637.869 670.475 L
638.467 671 L
639.056 670.908 L
639.654 670.953 L
640.243 670.987 L
640.84 670.919 L
641.429 670.903 L
642.027 670.473 L
642.616 671 L
643.213 671 L
643.802 671 L
644.4 670.339 L
644.998 670.742 L
645.587 670.825 L
646.184 670.932 L
646.773 671 L
647.371 670.42 L
647.96 671 L
648.557 670.741 L
649.146 670.53 L
649.744 671 L
650.333 671 L
650.931 671 L
651.519 671 L
652.117 671 L
652.715 671 L
653.304 670.702 L
653.901 670.941 L
654.49 671 L
655.088 670.657 L
655.677 671 L
656.275 671 L
656.863 671 L
657.461 670.613 L
658.05 671 L
658.648 670.873 L
659.236 670.673 L
659.834 671 L
660.423 670.414 L
661.021 670.959 L
661.619 670.595 L
662.207 670.959 L
662.805 671 L
663.394 670.936 L
663.992 671 L
664.58 671 L
665.178 671 L
665.767 670.593 L
666.365 670.892 L
666.953 671 L
667.551 671 L
668.14 670.956 L
668.738 671 L
669.336 670.393 L
669.924 671 L
670.522 670.208 L
671.111 670.946 L
671.709 671 L
672.297 671 L
672.895 671 L
673.484 671 L
674.082 671 L
674.671 670.953 L
675.268 670.976 L
675.857 671 L
676.455 671 L
677.044 670.607 L
677.641 671 L
678.239 671 L
678.828 670.924 L
679.426 670.621 L
680.015 671 L
680.612 670.904 L
681.201 670.171 L
681.799 671 L
682.388 670.735 L
682.985 670.623 L
683.574 671 L
684.172 671 L
684.761 671 L
685.359 670.815 L
685.956 671 L
686.545 671 L
687.143 670.692 L
687.732 671 L
688.329 671 L
688.918 670.6 L
689.516 671 L
690.105 670.721 L
690.703 671 L
691.291 671 L
691.889 670.796 L
692.478 671 L
693.076 670.87 L
693.664 670.693 L
694.262 670.329 L
694.86 670.893 L
695.449 670.18 L
696.047 670.487 L
696.635 671 L
697.233 670.964 L
697.822 671 L
698.42 670.641 L
699.008 670.725 L
699.606 670.45 L
700.195 671 L
700.793 670.796 L
701.381 670.411 L
701.979 670.705 L
702.577 670.499 L
703.166 670.475 L
703.764 671 L
704.352 670.734 L
704.95 670.077 L
705.539 670.089 L
706.137 671 L
706.725 670.894 L
707.323 670.843 L
707.912 670.517 L
708.51 671 L
709.099 671 L
709.696 671 L
710.285 670.641 L
710.883 670.593 L
711.481 670.255 L
712.069 670.614 L
712.667 670.761 L
713.256 670.965 L
713.854 670.361 L
714.443 671 L
715.04 670.786 L
715.629 670.445 L
716.227 671 L
716.816 670.679 L
717.413 671 L
718.002 671 L
718.6 671 L
719.198 670.817 L
719.787 670.676 L
720.384 670.975 L
720.973 671 L
721.571 670.658 L
722.16 671 L
722.757 670.722 L
723.346 671 L
723.944 670.971 L
724.533 670.877 L
725.131 671 L
725.719 671 L
726.317 670.922 L
726.915 671 L
727.504 671 L
728.101 671 L
728.69 671 L
729.288 670.327 L
729.877 670.857 L
730.475 670.636 L
731.063 671 L
731.661 670.971 L
732.25 671 L
732.848 671 L
733.436 670.815 L
734.034 671 L
734.623 671 L
735.221 670.963 L
735.819 671 L
736.407 671 L
737.005 670.92 L
737.594 670.775 L
738.192 671 L
738.78 671 L
739.378 671 L
739.967 671 L
740.565 670.994 L
741.153 670.693 L
741.751 670.881 L
742.34 670.773 L
742.938 670.713 L
743.536 670.649 L
744.124 670.209 L
744.722 671 L
745.311 670.894 L
745.909 670.086 L
746.497 671 L
747.095 670.909 L
747.684 670.699 L
748.282 670.722 L
748.871 670.646 L
749.468 671 L
750.057 670.714 L
750.655 671 L
751.244 671 L
751.841 671 L
752.439 670.671 L
753.028 671 L
753.626 670.81 L
754.215 670.545 L
754.812 670.808 L
755.401 670.575 L
755.999 670.932 L
756.588 670.188 L
757.185 670.536 L
757.774 670.564 L
758.372 670.85 L
758.961 671 L
759.559 671 L
760.156 670.37 L
760.745 671 L
761.343 671 L
761.932 671 L
762.529 670.947 L
763.118 670.7 L
763.716 671 L
764.305 671 L
764.903 671 L
765.491 671 L
766.089 670.348 L
766.678 670.442 L
767.276 671 L
767.864 671 L
768.462 670.742 L
769.06 670.544 L
769.649 670.824 L
770.247 670.467 L
770.835 671 L
771.433 671 L
772.022 670.903 L
772.62 671 L
773.208 670.744 L
773.806 671 L
774.395 671 L
774.993 671 L
775.581 671 L
776.179 671 L
776.777 670.99 L
777.366 670.954 L
777.964 670.808 L
778.552 670.899 L
779.15 671 L
779.739 670.556 L
780.337 670.541 L
780.925 670.451 L
781.523 670.552 L
782.112 670.866 L
782.71 671 L
783.299 671 L
783.896 671 L
784.485 671 L
785.083 670.851 L
785.681 671 L
786.269 671 L
786.867 671 L
787.456 670.866 L
788.054 670.88 L
788.643 671 L
789.24 670.513 L
789.829 671 L
790.427 670.686 L
791.016 671 L
791.613 670.426 L
792.202 671 L
792.8 670.996 L
793.398 670.767 L
793.987 670.713 L
794.584 670.466 L
795.173 671 L
795.771 671 L
796.36 670.772 L
796.957 670.918 L
797.546 670.895 L
798.144 671 L
798.733 671 L
799.331 670.579 L
799.919 670.482 L
800.517 670.982 L
801.115 670.649 L
801.704 671 L
802.301 670.781 L
802.89 670.248 L
803.488 671 L
804.077 670.595 L
804.675 670.946 L
805.263 671 L
805.861 670.885 L
806.45 671 L
807.048 671 L
807.636 671 L
808.234 670.495 L
808.823 670.491 L
809.421 670.974 L
810.019 670.93 L
810.607 671 L
811.205 671 L
811.794 670.969 L
812.392 671 L
812.98 670.421 L
813.578 671 L
814.167 670.637 L
814.765 671 L
815.353 671 L
815.951 671 L
816.54 671 L
817.138 671 L
817.736 671 L
818.324 670.502 L
818.922 671 L
819.511 670.906 L
820.109 670.809 L
820.697 671 L
821.295 671 L
821.884 670.835 L
822.482 670.734 L
823.071 671 L
823.668 670.971 L
824.257 671 L
824.855 670.451 L
825.444 670.606 L
826.041 671 L
826.639 670.841 L
827.228 671 L
827.826 671 L
828.415 670.932 L
829.012 670.716 L
829.601 670.665 L
830.199 670.673 L
830.788 671 L
831.385 670.103 L
831.974 670.464 L
832.572 670.5 L
833.161 671 L
833.759 670.953 L
834.356 670.59 L
834.945 671 L
835.543 670.615 L
836.132 671 L
836.729 671 L
837.318 671 L
837.916 670.681 L
838.505 670.966 L
839.103 670.914 L
839.691 671 L
840.289 670.762 L
840.878 670.733 L
841.476 670.382 L
842.064 670.481 L
842.662 671 L
843.26 671 L
843.849 671 L
844.447 670.466 L
845.035 670.574 L
845.633 670.935 L
846.222 671 L
846.82 670.991 L
847.408 670.811 L
848.006 670.982 L
848.595 670.824 L
849.193 671 L
849.781 671 L
850.379 670.651 L
850.977 670.06 L
851.566 670.705 L
852.164 671 L
852.752 670.775 L
853.35 670.874 L
853.939 671 L
854.537 670.973 L
855.125 670.512 L
855.723 671 L
856.312 671 L
856.91 670.891 L
857.499 670.941 L
858.096 670.195 L
858.685 671 L
859.283 670.756 L
859.881 671 L
860.469 670.941 L
861.067 670.547 L
861.656 670.999 L
862.254 671 L
862.843 671 L
863.44 670.628 L
864.029 671 L
864.627 671 L
865.216 671 L
865.813 670.55 L
866.402 670.905 L
867 671 L
S
GR
GS
[0.75 0 0 0.75 0 0.5] CT
1 0 0 RC
1 LJ
0.667 LW
N
125 670.898 M
125.598 670.966 L
126.187 670.787 L
126.784 671 L
127.373 671 L
127.971 671 L
128.56 670.945 L
129.157 670.977 L
129.746 670.84 L
130.344 671 L
130.933 671 L
131.531 670.972 L
132.119 671 L
132.717 671 L
133.315 671 L
133.904 671 L
134.501 671 L
135.09 670.922 L
135.688 670.951 L
136.277 670.865 L
136.875 670.985 L
137.463 670.845 L
138.061 670.98 L
138.65 670.99 L
139.248 670.893 L
139.836 670.887 L
140.434 671 L
141.023 671 L
141.621 671 L
142.219 670.863 L
142.807 670.948 L
143.405 670.943 L
143.994 671 L
144.592 671 L
145.18 670.931 L
145.778 671 L
146.367 670.925 L
146.965 671 L
147.553 670.993 L
148.151 670.9 L
148.74 670.977 L
149.338 670.941 L
149.936 670.991 L
150.524 671 L
151.122 670.993 L
151.711 670.772 L
152.309 670.911 L
152.897 670.869 L
153.495 671 L
154.084 671 L
154.682 670.97 L
155.271 670.54 L
155.868 670.965 L
156.457 670.976 L
157.055 671 L
157.644 671 L
158.241 670.829 L
158.839 670.974 L
159.428 671 L
160.026 671 L
160.615 671 L
161.212 671 L
161.801 670.983 L
162.399 671 L
162.988 670.973 L
163.585 670.956 L
164.174 671 L
164.772 670.978 L
165.361 670.983 L
165.959 670.869 L
166.556 671 L
167.145 671 L
167.743 671 L
168.332 670.89 L
168.929 670.884 L
169.518 670.961 L
170.116 670.859 L
170.705 671 L
171.303 670.773 L
171.891 670.885 L
172.489 670.876 L
173.078 670.954 L
173.676 671 L
174.264 671 L
174.862 671 L
175.46 671 L
176.049 670.976 L
176.647 671 L
177.235 671 L
177.833 670.949 L
178.422 670.868 L
179.02 671 L
179.608 670.958 L
180.206 671 L
180.795 670.991 L
181.393 670.893 L
181.981 670.978 L
182.579 671 L
183.177 671 L
183.766 670.925 L
184.364 670.934 L
184.952 671 L
185.55 670.962 L
186.139 671 L
186.737 670.976 L
187.325 671 L
187.923 671 L
188.512 670.985 L
189.11 671 L
189.699 671 L
190.296 671 L
190.885 670.93 L
191.483 671 L
192.081 671 L
192.669 670.945 L
193.267 670.95 L
193.856 671 L
194.454 670.942 L
195.043 670.915 L
195.64 671 L
196.229 670.988 L
196.827 670.954 L
197.416 670.838 L
198.013 670.862 L
198.602 671 L
199.2 671 L
199.798 670.965 L
200.387 670.895 L
200.984 670.931 L
201.573 671 L
202.171 671 L
202.76 671 L
203.357 670.985 L
203.946 671 L
204.544 670.939 L
205.133 671 L
205.731 671 L
206.319 670.962 L
206.917 671 L
207.515 671 L
208.104 670.996 L
208.701 671 L
209.29 670.975 L
209.888 671 L
210.477 670.818 L
211.075 670.989 L
211.663 671 L
212.261 670.87 L
212.85 670.988 L
213.448 671 L
214.036 670.964 L
214.634 671 L
215.223 670.723 L
215.821 670.981 L
216.419 671 L
217.007 670.897 L
217.605 670.947 L
218.194 671 L
218.792 671 L
219.38 670.943 L
219.978 671 L
220.567 670.868 L
221.165 670.916 L
221.753 670.942 L
222.351 670.956 L
222.94 670.823 L
223.538 671 L
224.136 670.935 L
224.724 670.997 L
225.322 670.863 L
225.911 670.984 L
226.509 671 L
227.097 671 L
227.695 671 L
228.284 670.863 L
228.882 671 L
229.471 671 L
230.068 670.833 L
230.657 671 L
231.255 670.908 L
231.844 670.876 L
232.441 670.917 L
233.039 670.996 L
233.628 670.971 L
234.226 670.887 L
234.815 671 L
235.412 670.999 L
236.001 671 L
236.599 671 L
237.188 670.93 L
237.785 671 L
238.374 670.931 L
238.972 670.921 L
239.561 671 L
240.159 671 L
240.756 671 L
241.345 670.981 L
241.943 670.978 L
242.532 670.982 L
243.129 670.929 L
243.718 670.911 L
244.316 671 L
244.905 671 L
245.503 670.959 L
246.091 671 L
246.689 670.964 L
247.278 670.982 L
247.876 670.932 L
248.464 671 L
249.062 670.988 L
249.66 671 L
250.249 670.996 L
250.847 670.995 L
251.435 670.947 L
252.033 670.859 L
252.622 670.72 L
253.22 671 L
253.808 670.957 L
254.406 670.906 L
254.995 670.978 L
255.593 671 L
256.181 671 L
256.779 671 L
257.377 671 L
257.966 671 L
258.564 670.962 L
259.152 670.92 L
259.75 670.93 L
260.339 671 L
260.937 671 L
261.525 670.903 L
262.123 670.98 L
262.712 671 L
263.31 671 L
263.899 671 L
264.496 671 L
265.085 671 L
265.683 671 L
266.281 671 L
266.869 670.929 L
267.467 670.901 L
268.056 670.888 L
268.654 670.956 L
269.243 671 L
269.84 671 L
270.429 670.732 L
271.027 670.953 L
271.616 671 L
272.213 671 L
272.802 670.928 L
273.4 671 L
273.998 670.894 L
274.587 670.813 L
275.184 670.986 L
275.773 671 L
276.371 671 L
276.96 670.852 L
277.557 670.838 L
278.146 670.975 L
278.744 670.915 L
279.333 671 L
279.931 671 L
280.519 671 L
281.117 671 L
281.715 671 L
282.304 670.928 L
282.901 670.998 L
283.49 671 L
284.088 670.939 L
284.677 670.984 L
285.275 670.875 L
285.863 670.894 L
286.461 670.957 L
287.05 671 L
287.648 670.853 L
288.236 671 L
288.834 670.989 L
289.423 671 L
290.021 670.927 L
290.619 671 L
291.207 670.996 L
291.805 670.986 L
292.394 671 L
292.992 671 L
293.58 670.918 L
294.178 671 L
294.767 671 L
295.365 671 L
295.953 671 L
296.551 670.872 L
297.14 670.947 L
297.738 671 L
298.336 670.972 L
298.924 671 L
299.522 671 L
300.111 671 L
300.709 670.938 L
301.297 670.834 L
301.895 670.911 L
302.484 670.987 L
303.082 671 L
303.671 671 L
304.268 670.919 L
304.857 670.974 L
305.455 670.966 L
306.044 670.956 L
306.641 670.891 L
307.239 671 L
307.828 670.838 L
308.426 671 L
309.015 671 L
309.612 670.975 L
310.201 670.958 L
310.799 671 L
311.388 671 L
311.985 670.988 L
312.574 671 L
313.172 671 L
313.761 670.981 L
314.359 671 L
314.956 670.964 L
315.545 670.964 L
316.143 671 L
316.732 671 L
317.329 670.838 L
317.918 670.933 L
318.516 671 L
319.105 671 L
319.703 670.987 L
320.291 670.963 L
320.889 670.932 L
321.478 671 L
322.076 670.921 L
322.664 670.961 L
323.262 670.941 L
323.86 670.961 L
324.449 671 L
325.047 671 L
325.635 670.756 L
326.233 671 L
326.822 670.849 L
327.42 670.887 L
328.008 671 L
328.606 671 L
329.195 670.974 L
329.793 670.941 L
330.381 671 L
330.979 670.685 L
331.577 670.952 L
332.166 671 L
332.764 671 L
333.352 671 L
333.95 670.972 L
334.539 670.83 L
335.137 671 L
335.725 671 L
336.323 671 L
336.912 670.99 L
337.51 671 L
338.099 671 L
338.696 671 L
339.285 671 L
339.883 671 L
340.481 671 L
341.069 670.979 L
341.667 671 L
342.256 670.995 L
342.854 670.995 L
343.443 671 L
344.04 670.915 L
344.629 670.849 L
345.227 670.93 L
345.816 670.912 L
346.413 670.982 L
347.002 670.896 L
347.6 671 L
348.198 670.937 L
348.787 671 L
349.384 670.95 L
349.973 670.806 L
350.571 670.856 L
351.16 670.928 L
351.757 670.912 L
352.346 670.907 L
352.944 670.935 L
353.533 670.85 L
354.131 671 L
354.719 671 L
355.317 670.973 L
355.915 670.99 L
356.504 670.978 L
357.101 670.936 L
357.69 670.924 L
358.288 671 L
358.877 671 L
359.475 670.863 L
360.063 671 L
360.661 670.958 L
361.25 671 L
361.848 670.993 L
362.436 670.972 L
363.034 670.968 L
363.623 670.857 L
364.221 670.946 L
364.819 670.838 L
365.407 670.831 L
366.005 670.878 L
366.594 670.873 L
367.192 670.943 L
367.78 670.961 L
368.378 670.749 L
368.967 670.828 L
369.565 670.734 L
370.153 670.893 L
370.751 670.862 L
371.34 670.835 L
371.938 670.716 L
372.536 670.786 L
373.124 670.847 L
373.722 670.704 L
374.311 670.626 L
374.909 670.592 L
375.497 670.665 L
376.095 670.621 L
376.684 670.503 L
377.282 670.59 L
377.871 670.709 L
378.468 670.566 L
379.057 670.556 L
379.655 670.587 L
380.244 670.55 L
380.841 670.456 L
381.439 670.276 L
382.028 670.298 L
382.626 670.3 L
383.215 670.264 L
383.812 670.114 L
384.401 670.216 L
384.999 670.053 L
385.588 670.198 L
386.185 670.071 L
386.774 670.235 L
387.372 670.052 L
387.961 669.999 L
388.559 669.78 L
389.156 669.8 L
389.745 669.737 L
390.343 669.654 L
390.932 669.742 L
391.529 669.76 L
392.118 669.5 L
392.716 669.25 L
393.305 669.389 L
393.903 669.28 L
394.491 669.23 L
395.089 668.889 L
395.678 668.756 L
396.276 668.739 L
396.864 668.801 L
397.462 668.606 L
398.06 668.413 L
398.649 668.396 L
399.247 668.336 L
399.835 668.157 L
400.433 668.132 L
401.022 667.829 L
401.62 667.761 L
402.208 667.566 L
402.806 667.406 L
403.395 667.316 L
403.993 666.826 L
404.581 666.702 L
405.179 666.635 L
405.777 666.422 L
406.366 666.409 L
406.964 665.906 L
407.552 665.65 L
408.15 665.435 L
408.739 665.186 L
409.337 664.836 L
409.925 664.747 L
410.523 664.342 L
411.112 664.079 L
411.71 663.624 L
412.299 663.185 L
412.896 662.86 L
413.485 662.475 L
414.083 662.007 L
414.681 661.484 L
415.269 661.026 L
415.867 660.4 L
416.456 659.472 L
417.054 658.662 L
417.643 657.775 L
418.24 657.107 L
418.829 656.216 L
419.427 655.407 L
420.016 654.899 L
420.613 654.205 L
421.202 653.358 L
421.8 652.377 L
422.398 651.755 L
422.987 650.963 L
423.584 649.899 L
424.173 648.944 L
424.771 647.78 L
425.36 646.313 L
425.957 645.102 L
426.546 643.669 L
427.144 641.674 L
427.733 639.921 L
428.331 638.658 L
428.919 637.155 L
429.517 635.256 L
430.115 633.7 L
430.704 631.912 L
431.301 630.22 L
431.89 627.703 L
432.488 625.259 L
433.077 623.572 L
433.675 621.696 L
434.263 619.98 L
434.861 618.314 L
435.45 616.825 L
436.048 615.638 L
436.636 613.845 L
437.234 612.175 L
437.823 610.917 L
438.421 609.217 L
439.019 607.259 L
439.607 605.148 L
440.205 602.627 L
440.794 599.672 L
441.392 596.6 L
441.98 592.143 L
442.578 588.303 L
443.167 585.973 L
443.765 583.34 L
444.353 581.101 L
444.951 579.02 L
445.54 576.782 L
446.138 574.097 L
446.736 569.639 L
447.324 564.823 L
447.922 560.963 L
448.511 556.133 L
449.109 551.314 L
449.697 546.145 L
450.295 541.361 L
450.884 536.543 L
451.482 530.758 L
452.071 526.372 L
452.668 523.259 L
453.257 519.433 L
453.855 515.258 L
454.444 510.709 L
455.041 505.516 L
455.639 499.433 L
456.228 492.959 L
456.826 484.406 L
457.415 478.167 L
458.012 474.072 L
458.601 469.588 L
459.199 465.452 L
459.788 460.97 L
460.385 456.77 L
460.974 451.611 L
461.572 443.022 L
462.161 434.525 L
462.759 428.389 L
463.356 420.948 L
463.945 414.319 L
464.543 408.203 L
465.132 403.257 L
465.729 398.836 L
466.318 394.523 L
466.916 390.938 L
467.505 387.356 L
468.103 381.674 L
468.691 374.045 L
469.289 364.453 L
469.878 353.816 L
470.476 342.53 L
471.064 332.117 L
471.662 320.367 L
472.26 313.13 L
472.849 310.019 L
473.447 307.476 L
474.035 306.263 L
474.633 305.171 L
475.222 303.836 L
475.82 301.501 L
476.408 296.79 L
477.006 291.332 L
477.595 286.595 L
478.193 280.252 L
478.781 273.537 L
479.379 266.984 L
479.977 260.101 L
480.566 253.442 L
481.164 243.611 L
481.752 233.759 L
482.35 226.035 L
482.939 215.381 L
483.537 204.209 L
484.125 193.623 L
484.723 183.844 L
485.312 175.03 L
485.91 167.736 L
486.499 160.943 L
487.096 156.211 L
487.685 152.831 L
488.283 150.107 L
488.881 147.122 L
489.469 144.467 L
490.067 142.547 L
490.656 140.364 L
491.254 136.897 L
491.843 133.89 L
492.44 131.098 L
493.029 127.175 L
493.627 122.341 L
494.216 117.09 L
494.813 111.737 L
495.402 105.772 L
496 97.83 L
496.598 90.146 L
497.187 85.248 L
497.784 80.007 L
498.373 75.997 L
498.971 72.483 L
499.56 70.513 L
500.157 69.771 L
500.746 69.459 L
501.344 68.776 L
501.933 67.809 L
502.531 66.596 L
503.119 64.875 L
503.717 62.732 L
504.315 60.829 L
504.904 58.98 L
505.501 57.871 L
506.09 57 L
506.688 57.223 L
507.277 57.909 L
507.875 59.37 L
508.463 61.039 L
509.061 62.912 L
509.65 65.265 L
510.248 67.264 L
510.836 69.706 L
511.434 72.527 L
512.023 75.084 L
512.621 78.84 L
513.219 83.25 L
513.807 87.688 L
514.405 92.567 L
514.994 97.342 L
515.592 102.518 L
516.18 108.491 L
516.778 114.605 L
517.367 119.071 L
517.965 125.022 L
518.553 132.242 L
519.151 139.361 L
519.74 147.345 L
520.338 154.887 L
520.936 165 L
521.524 173.387 L
522.122 178.829 L
522.711 185.766 L
523.309 192 L
523.897 198.553 L
524.495 204.464 L
525.084 211.031 L
525.682 220.275 L
526.271 228.327 L
526.868 234.147 L
527.457 241.522 L
528.055 248.482 L
528.644 255.019 L
529.241 260.777 L
529.839 266.97 L
530.428 272.653 L
531.026 280.837 L
531.615 288.108 L
532.212 294.265 L
532.801 301.873 L
533.399 309.505 L
533.988 317.526 L
534.585 325.961 L
535.174 334.981 L
535.772 347.587 L
536.361 358.285 L
536.959 365.591 L
537.556 373.381 L
538.145 381.094 L
538.743 388.088 L
539.332 394.966 L
539.929 401.641 L
540.518 410.236 L
541.116 417.928 L
541.705 423.532 L
542.303 430.456 L
542.891 437.91 L
543.489 445.27 L
544.078 452.419 L
544.676 458.917 L
545.264 465.401 L
545.862 473.632 L
546.46 480.626 L
547.049 485.028 L
547.647 490.39 L
548.235 495.294 L
548.833 499.859 L
549.422 504.62 L
550.02 509.261 L
550.608 515.325 L
551.206 520.348 L
551.795 523.796 L
552.393 527.814 L
552.981 531.741 L
553.579 535.466 L
554.177 539.17 L
554.766 543.192 L
555.364 548.495 L
555.952 553.547 L
556.55 557.011 L
557.139 561.54 L
557.737 565.794 L
558.325 569.861 L
558.923 573.465 L
559.512 576.992 L
560.11 580.458 L
560.699 584.408 L
561.296 587.751 L
561.885 590.259 L
562.483 592.917 L
563.081 595.743 L
563.669 598.278 L
564.267 601.005 L
564.856 603.502 L
565.454 606.888 L
566.043 609.927 L
566.64 612.356 L
567.229 615.089 L
567.827 617.922 L
568.416 620.773 L
569.013 623.298 L
569.602 625.681 L
570.2 628.528 L
570.798 630.569 L
571.387 631.961 L
571.984 633.425 L
572.573 634.919 L
573.171 636.392 L
573.76 637.659 L
574.357 638.876 L
574.946 640.343 L
575.544 641.552 L
576.133 642.333 L
576.731 643.187 L
577.319 644.16 L
577.917 645.093 L
578.515 645.898 L
579.104 646.94 L
579.701 648.449 L
580.29 649.756 L
580.888 650.633 L
581.477 651.719 L
582.075 652.623 L
582.663 653.719 L
583.261 654.559 L
583.85 655.582 L
584.448 656.431 L
585.036 657.457 L
585.634 658.258 L
586.223 658.824 L
586.821 659.655 L
587.419 660.055 L
588.007 660.703 L
588.605 661.25 L
589.194 661.72 L
589.792 662.368 L
590.38 662.881 L
590.978 663.251 L
591.567 663.714 L
592.165 664.185 L
592.753 664.579 L
593.351 664.873 L
593.94 665.217 L
594.538 665.61 L
595.136 665.971 L
595.724 666.279 L
596.322 666.501 L
596.911 666.764 L
597.509 666.992 L
598.097 667.183 L
598.695 667.364 L
599.284 667.527 L
599.882 667.838 L
600.471 667.998 L
601.068 668.178 L
601.657 668.297 L
602.255 668.355 L
602.844 668.516 L
603.441 668.733 L
604.039 668.931 L
604.628 669.019 L
605.226 669.354 L
605.815 669.159 L
606.412 669.391 L
607.001 669.422 L
607.599 669.611 L
608.188 669.788 L
608.785 669.749 L
609.374 669.735 L
609.972 669.924 L
610.561 669.908 L
611.159 669.999 L
611.756 670.044 L
612.345 670.125 L
612.943 670.255 L
613.532 670.258 L
614.129 670.386 L
614.718 670.37 L
615.316 670.439 L
615.905 670.488 L
616.503 670.4 L
617.091 670.371 L
617.689 670.544 L
618.278 670.454 L
618.876 670.537 L
619.464 670.7 L
620.062 670.62 L
620.66 670.633 L
621.249 670.637 L
621.847 670.636 L
622.435 670.7 L
623.033 670.825 L
623.622 670.922 L
624.22 670.757 L
624.808 670.867 L
625.406 670.85 L
625.995 670.743 L
626.593 670.715 L
627.181 670.734 L
627.779 670.809 L
628.377 670.919 L
628.966 670.85 L
629.564 670.839 L
630.152 670.829 L
630.75 670.861 L
631.339 670.811 L
631.937 670.883 L
632.525 670.967 L
633.123 670.997 L
633.712 671 L
634.31 670.983 L
634.899 670.897 L
635.496 670.91 L
636.085 670.931 L
636.683 670.932 L
637.281 670.916 L
637.869 670.896 L
638.467 670.867 L
639.056 670.922 L
639.654 670.851 L
640.243 671 L
640.84 670.96 L
641.429 670.923 L
642.027 670.984 L
642.616 671 L
643.213 670.963 L
643.802 670.956 L
644.4 670.999 L
644.998 670.884 L
645.587 670.923 L
646.184 670.945 L
646.773 670.874 L
647.371 671 L
647.96 670.995 L
648.557 670.95 L
649.146 671 L
649.744 670.988 L
650.333 671 L
650.931 671 L
651.519 671 L
652.117 671 L
652.715 670.971 L
653.304 671 L
653.901 671 L
654.49 671 L
655.088 670.909 L
655.677 670.938 L
656.275 670.92 L
656.863 670.953 L
657.461 670.959 L
658.05 670.953 L
658.648 670.957 L
659.236 670.966 L
659.834 671 L
660.423 670.911 L
661.021 670.929 L
661.619 670.974 L
662.207 670.943 L
662.805 671 L
663.394 671 L
663.992 671 L
664.58 670.964 L
665.178 670.912 L
665.767 670.934 L
666.365 670.784 L
666.953 670.963 L
667.551 670.959 L
668.14 670.927 L
668.738 671 L
669.336 670.931 L
669.924 671 L
670.522 670.794 L
671.111 670.841 L
671.709 670.909 L
672.297 670.86 L
672.895 671 L
673.484 670.978 L
674.082 671 L
674.671 670.996 L
675.268 670.99 L
675.857 670.981 L
676.455 671 L
677.044 671 L
677.641 671 L
678.239 670.995 L
678.828 670.929 L
679.426 670.915 L
680.015 670.85 L
680.612 671 L
681.201 671 L
681.799 670.983 L
682.388 670.904 L
682.985 671 L
683.574 670.839 L
684.172 670.984 L
684.761 671 L
685.359 670.994 L
685.956 670.913 L
686.545 671 L
687.143 670.941 L
687.732 671 L
688.329 670.957 L
688.918 671 L
689.516 671 L
690.105 671 L
690.703 671 L
691.291 670.963 L
691.889 670.947 L
692.478 670.931 L
693.076 670.913 L
693.664 671 L
694.262 671 L
694.86 671 L
695.449 670.936 L
696.047 671 L
696.635 670.901 L
697.233 670.993 L
697.822 670.886 L
698.42 670.982 L
699.008 671 L
699.606 671 L
700.195 670.931 L
700.793 671 L
701.381 670.985 L
701.979 670.921 L
702.577 671 L
703.166 670.904 L
703.764 671 L
704.352 670.956 L
704.95 670.934 L
705.539 671 L
706.137 670.97 L
706.725 670.911 L
707.323 670.977 L
707.912 670.927 L
708.51 670.929 L
709.099 670.974 L
709.696 671 L
710.285 670.98 L
710.883 670.995 L
711.481 671 L
712.069 670.987 L
712.667 670.969 L
713.256 671 L
713.854 671 L
714.443 671 L
715.04 671 L
715.629 671 L
716.227 671 L
716.816 671 L
717.413 670.931 L
718.002 671 L
718.6 670.916 L
719.198 670.957 L
719.787 670.855 L
720.384 670.909 L
720.973 671 L
721.571 670.948 L
722.16 670.997 L
722.757 670.979 L
723.346 670.978 L
723.944 670.994 L
724.533 670.817 L
725.131 670.914 L
725.719 671 L
726.317 670.906 L
726.915 670.9 L
727.504 671 L
728.101 670.942 L
728.69 671 L
729.288 670.988 L
729.877 671 L
730.475 670.988 L
731.063 670.882 L
731.661 670.918 L
732.25 670.905 L
732.848 670.932 L
733.436 671 L
734.034 670.962 L
734.623 671 L
735.221 671 L
735.819 670.927 L
736.407 671 L
737.005 670.95 L
737.594 670.988 L
738.192 671 L
738.78 670.943 L
739.378 670.965 L
739.967 671 L
740.565 670.879 L
741.153 670.921 L
741.751 670.877 L
742.34 671 L
742.938 670.95 L
743.536 670.824 L
744.124 670.946 L
744.722 671 L
745.311 670.975 L
745.909 671 L
746.497 671 L
747.095 670.986 L
747.684 670.974 L
748.282 671 L
748.871 671 L
749.468 671 L
750.057 670.965 L
750.655 671 L
751.244 671 L
751.841 671 L
752.439 671 L
753.028 671 L
753.626 671 L
754.215 671 L
754.812 670.945 L
755.401 670.955 L
755.999 671 L
756.588 671 L
757.185 671 L
757.774 670.892 L
758.372 671 L
758.961 671 L
759.559 671 L
760.156 671 L
760.745 670.931 L
761.343 670.914 L
761.932 670.93 L
762.529 670.963 L
763.118 671 L
763.716 671 L
764.305 670.973 L
764.903 671 L
765.491 671 L
766.089 671 L
766.678 670.89 L
767.276 671 L
767.864 670.91 L
768.462 670.914 L
769.06 671 L
769.649 671 L
770.247 671 L
770.835 671 L
771.433 670.99 L
772.022 670.993 L
772.62 671 L
773.208 670.915 L
773.806 670.953 L
774.395 671 L
774.993 670.943 L
775.581 671 L
776.179 670.995 L
776.777 671 L
777.366 671 L
777.964 671 L
778.552 671 L
779.15 671 L
779.739 671 L
780.337 671 L
780.925 671 L
781.523 670.881 L
782.112 670.875 L
782.71 670.939 L
783.299 670.986 L
783.896 671 L
784.485 670.976 L
785.083 671 L
785.681 670.975 L
786.269 671 L
786.867 671 L
787.456 670.909 L
788.054 671 L
788.643 670.996 L
789.24 670.889 L
789.829 670.969 L
790.427 671 L
791.016 671 L
791.613 670.993 L
792.202 670.958 L
792.8 671 L
793.398 671 L
793.987 670.942 L
794.584 671 L
795.173 671 L
795.771 671 L
796.36 671 L
796.957 671 L
797.546 670.986 L
798.144 670.891 L
798.733 670.882 L
799.331 670.981 L
799.919 671 L
800.517 670.937 L
801.115 671 L
801.704 670.882 L
802.301 670.867 L
802.89 671 L
803.488 670.862 L
804.077 670.998 L
804.675 671 L
805.263 671 L
805.861 671 L
806.45 670.996 L
807.048 671 L
807.636 670.866 L
808.234 670.923 L
808.823 671 L
809.421 670.998 L
810.019 671 L
810.607 671 L
811.205 671 L
811.794 671 L
812.392 671 L
812.98 670.984 L
813.578 670.978 L
814.167 670.937 L
814.765 670.969 L
815.353 670.977 L
815.951 670.974 L
816.54 670.984 L
817.138 671 L
817.736 670.973 L
818.324 670.863 L
818.922 670.978 L
819.511 670.936 L
820.109 671 L
820.697 670.951 L
821.295 670.958 L
821.884 671 L
822.482 671 L
823.071 670.879 L
823.668 671 L
824.257 670.986 L
824.855 671 L
825.444 670.946 L
826.041 670.848 L
826.639 670.994 L
827.228 670.916 L
827.826 670.862 L
828.415 671 L
829.012 670.999 L
829.601 670.959 L
830.199 670.935 L
830.788 670.977 L
831.385 670.951 L
831.974 671 L
832.572 671 L
833.161 670.9 L
833.759 670.936 L
834.356 671 L
834.945 670.94 L
835.543 671 L
836.132 671 L
836.729 670.921 L
837.318 670.963 L
837.916 670.927 L
838.505 670.885 L
839.103 670.991 L
839.691 671 L
840.289 671 L
840.878 670.963 L
841.476 671 L
842.064 671 L
842.662 671 L
843.26 670.976 L
843.849 670.893 L
844.447 670.909 L
845.035 670.975 L
845.633 671 L
846.222 670.956 L
846.82 670.988 L
847.408 671 L
848.006 671 L
848.595 671 L
849.193 670.96 L
849.781 671 L
850.379 670.961 L
850.977 670.994 L
851.566 670.992 L
852.164 670.989 L
852.752 670.959 L
853.35 670.922 L
853.939 670.985 L
854.537 671 L
855.125 670.942 L
855.723 671 L
856.312 671 L
856.91 671 L
857.499 671 L
858.096 671 L
858.685 670.969 L
859.283 670.966 L
859.881 671 L
860.469 670.966 L
861.067 671 L
861.656 670.833 L
862.254 670.958 L
862.843 671 L
863.44 671 L
864.029 671 L
864.627 671 L
865.216 670.925 L
865.813 670.978 L
866.402 671 L
867 671 L
S
GR
%%Trailer
%%Pages: 1
%%EOF
