%!PS-Adobe-3.0 EPSF-3.0
%%Creator: (MATLAB, The Mathworks, Inc. Version 9.0.0.341360 \(R2016a\). Operating System: Linux)
%%Title: /home/misimik/Dokumenty/Magisterka/Magisterka/Photon/Spektrometr/Spectralnterference.eps
%%CreationDate: 2017-09-20T15:06:07
%%Pages: (atend)
%%BoundingBox: 0 0 906 566
%%LanguageLevel: 3
%%EndComments
%%BeginProlog
%%BeginResource: procset (Apache XML Graphics Std ProcSet) 1.2 0
%%Version: 1.2 0
%%Copyright: (Copyright 2001-2003,2010 The Apache Software Foundation. License terms: http://www.apache.org/licenses/LICENSE-2.0)
/bd{bind def}bind def
/ld{load def}bd
/GR/grestore ld
/M/moveto ld
/LJ/setlinejoin ld
/C/curveto ld
/f/fill ld
/LW/setlinewidth ld
/GC/setgray ld
/t/show ld
/N/newpath ld
/CT/concat ld
/cp/closepath ld
/S/stroke ld
/L/lineto ld
/CC/setcmykcolor ld
/A/ashow ld
/GS/gsave ld
/RC/setrgbcolor ld
/RM/rmoveto ld
/ML/setmiterlimit ld
/re {4 2 roll M
1 index 0 rlineto
0 exch rlineto
neg 0 rlineto
cp } bd
/_ctm matrix def
/_tm matrix def
/BT { _ctm currentmatrix pop matrix _tm copy pop 0 0 moveto } bd
/ET { _ctm setmatrix } bd
/iTm { _ctm setmatrix _tm concat } bd
/Tm { _tm astore pop iTm 0 0 moveto } bd
/ux 0.0 def
/uy 0.0 def
/F {
  /Tp exch def
  /Tf exch def
  Tf findfont Tp scalefont setfont
  /cf Tf def  /cs Tp def
} bd
/ULS {currentpoint /uy exch def /ux exch def} bd
/ULE {
  /Tcx currentpoint pop def
  gsave
  newpath
  cf findfont cs scalefont dup
  /FontMatrix get 0 get /Ts exch def /FontInfo get dup
  /UnderlinePosition get Ts mul /To exch def
  /UnderlineThickness get Ts mul /Tt exch def
  ux uy To add moveto  Tcx uy To add lineto
  Tt setlinewidth stroke
  grestore
} bd
/OLE {
  /Tcx currentpoint pop def
  gsave
  newpath
  cf findfont cs scalefont dup
  /FontMatrix get 0 get /Ts exch def /FontInfo get dup
  /UnderlinePosition get Ts mul /To exch def
  /UnderlineThickness get Ts mul /Tt exch def
  ux uy To add cs add moveto Tcx uy To add cs add lineto
  Tt setlinewidth stroke
  grestore
} bd
/SOE {
  /Tcx currentpoint pop def
  gsave
  newpath
  cf findfont cs scalefont dup
  /FontMatrix get 0 get /Ts exch def /FontInfo get dup
  /UnderlinePosition get Ts mul /To exch def
  /UnderlineThickness get Ts mul /Tt exch def
  ux uy To add cs 10 mul 26 idiv add moveto Tcx uy To add cs 10 mul 26 idiv add lineto
  Tt setlinewidth stroke
  grestore
} bd
/QT {
/Y22 exch store
/X22 exch store
/Y21 exch store
/X21 exch store
currentpoint
/Y21 load 2 mul add 3 div exch
/X21 load 2 mul add 3 div exch
/X21 load 2 mul /X22 load add 3 div
/Y21 load 2 mul /Y22 load add 3 div
/X22 load /Y22 load curveto
} bd
/SSPD {
dup length /d exch dict def
{
/v exch def
/k exch def
currentpagedevice k known {
/cpdv currentpagedevice k get def
v cpdv ne {
/upd false def
/nullv v type /nulltype eq def
/nullcpdv cpdv type /nulltype eq def
nullv nullcpdv or
{
/upd true def
} {
/sametype v type cpdv type eq def
sametype {
v type /arraytype eq {
/vlen v length def
/cpdvlen cpdv length def
vlen cpdvlen eq {
0 1 vlen 1 sub {
/i exch def
/obj v i get def
/cpdobj cpdv i get def
obj cpdobj ne {
/upd true def
exit
} if
} for
} {
/upd true def
} ifelse
} {
v type /dicttype eq {
v {
/dv exch def
/dk exch def
/cpddv cpdv dk get def
dv cpddv ne {
/upd true def
exit
} if
} forall
} {
/upd true def
} ifelse
} ifelse
} if
} ifelse
upd true eq {
d k v put
} if
} if
} if
} forall
d length 0 gt {
d setpagedevice
} if
} bd
%%EndResource
%%BeginResource: procset (Apache XML Graphics EPS ProcSet) 1.0 0
%%Version: 1.0 0
%%Copyright: (Copyright 2002-2003 The Apache Software Foundation. License terms: http://www.apache.org/licenses/LICENSE-2.0)
/BeginEPSF { %def
/b4_Inc_state save def         % Save state for cleanup
/dict_count countdictstack def % Count objects on dict stack
/op_count count 1 sub def      % Count objects on operand stack
userdict begin                 % Push userdict on dict stack
/showpage { } def              % Redefine showpage, { } = null proc
0 setgray 0 setlinecap         % Prepare graphics state
1 setlinewidth 0 setlinejoin
10 setmiterlimit [ ] 0 setdash newpath
/languagelevel where           % If level not equal to 1 then
{pop languagelevel             % set strokeadjust and
1 ne                           % overprint to their defaults.
{false setstrokeadjust false setoverprint
} if
} if
} bd
/EndEPSF { %def
count op_count sub {pop} repeat            % Clean up stacks
countdictstack dict_count sub {end} repeat
b4_Inc_state restore
} bd
%%EndResource
%FOPBeginFontDict
%%IncludeResource: font Courier-Bold
%%IncludeResource: font Helvetica
%%IncludeResource: font Courier-BoldOblique
%%IncludeResource: font Courier-Oblique
%%IncludeResource: font Times-Roman
%%IncludeResource: font Helvetica-BoldOblique
%%IncludeResource: font Helvetica-Bold
%%IncludeResource: font Helvetica-Oblique
%%IncludeResource: font Times-BoldItalic
%%IncludeResource: font Courier
%%IncludeResource: font Times-Italic
%%IncludeResource: font Times-Bold
%%IncludeResource: font Symbol
%%IncludeResource: font ZapfDingbats
%FOPEndFontDict
%%BeginResource: encoding WinAnsiEncoding
/WinAnsiEncoding [
/.notdef /.notdef /.notdef /.notdef /.notdef
/.notdef /.notdef /.notdef /.notdef /.notdef
/.notdef /.notdef /.notdef /.notdef /.notdef
/.notdef /.notdef /.notdef /.notdef /.notdef
/.notdef /.notdef /.notdef /.notdef /.notdef
/.notdef /.notdef /.notdef /.notdef /.notdef
/.notdef /.notdef /space /exclam /quotedbl
/numbersign /dollar /percent /ampersand /quotesingle
/parenleft /parenright /asterisk /plus /comma
/hyphen /period /slash /zero /one
/two /three /four /five /six
/seven /eight /nine /colon /semicolon
/less /equal /greater /question /at
/A /B /C /D /E
/F /G /H /I /J
/K /L /M /N /O
/P /Q /R /S /T
/U /V /W /X /Y
/Z /bracketleft /backslash /bracketright /asciicircum
/underscore /quoteleft /a /b /c
/d /e /f /g /h
/i /j /k /l /m
/n /o /p /q /r
/s /t /u /v /w
/x /y /z /braceleft /bar
/braceright /asciitilde /bullet /Euro /bullet
/quotesinglbase /florin /quotedblbase /ellipsis /dagger
/daggerdbl /circumflex /perthousand /Scaron /guilsinglleft
/OE /bullet /Zcaron /bullet /bullet
/quoteleft /quoteright /quotedblleft /quotedblright /bullet
/endash /emdash /asciitilde /trademark /scaron
/guilsinglright /oe /bullet /zcaron /Ydieresis
/space /exclamdown /cent /sterling /currency
/yen /brokenbar /section /dieresis /copyright
/ordfeminine /guillemotleft /logicalnot /sfthyphen /registered
/macron /degree /plusminus /twosuperior /threesuperior
/acute /mu /paragraph /middot /cedilla
/onesuperior /ordmasculine /guillemotright /onequarter /onehalf
/threequarters /questiondown /Agrave /Aacute /Acircumflex
/Atilde /Adieresis /Aring /AE /Ccedilla
/Egrave /Eacute /Ecircumflex /Edieresis /Igrave
/Iacute /Icircumflex /Idieresis /Eth /Ntilde
/Ograve /Oacute /Ocircumflex /Otilde /Odieresis
/multiply /Oslash /Ugrave /Uacute /Ucircumflex
/Udieresis /Yacute /Thorn /germandbls /agrave
/aacute /acircumflex /atilde /adieresis /aring
/ae /ccedilla /egrave /eacute /ecircumflex
/edieresis /igrave /iacute /icircumflex /idieresis
/eth /ntilde /ograve /oacute /ocircumflex
/otilde /odieresis /divide /oslash /ugrave
/uacute /ucircumflex /udieresis /yacute /thorn
/ydieresis
] def
%%EndResource
%FOPBeginFontReencode
/Courier-Bold findfont
dup length dict begin
  {1 index /FID ne {def} {pop pop} ifelse} forall
  /Encoding WinAnsiEncoding def
  currentdict
end
/Courier-Bold exch definefont pop
/Helvetica findfont
dup length dict begin
  {1 index /FID ne {def} {pop pop} ifelse} forall
  /Encoding WinAnsiEncoding def
  currentdict
end
/Helvetica exch definefont pop
/Courier-BoldOblique findfont
dup length dict begin
  {1 index /FID ne {def} {pop pop} ifelse} forall
  /Encoding WinAnsiEncoding def
  currentdict
end
/Courier-BoldOblique exch definefont pop
/Courier-Oblique findfont
dup length dict begin
  {1 index /FID ne {def} {pop pop} ifelse} forall
  /Encoding WinAnsiEncoding def
  currentdict
end
/Courier-Oblique exch definefont pop
/Times-Roman findfont
dup length dict begin
  {1 index /FID ne {def} {pop pop} ifelse} forall
  /Encoding WinAnsiEncoding def
  currentdict
end
/Times-Roman exch definefont pop
/Helvetica-BoldOblique findfont
dup length dict begin
  {1 index /FID ne {def} {pop pop} ifelse} forall
  /Encoding WinAnsiEncoding def
  currentdict
end
/Helvetica-BoldOblique exch definefont pop
/Helvetica-Bold findfont
dup length dict begin
  {1 index /FID ne {def} {pop pop} ifelse} forall
  /Encoding WinAnsiEncoding def
  currentdict
end
/Helvetica-Bold exch definefont pop
/Helvetica-Oblique findfont
dup length dict begin
  {1 index /FID ne {def} {pop pop} ifelse} forall
  /Encoding WinAnsiEncoding def
  currentdict
end
/Helvetica-Oblique exch definefont pop
/Times-BoldItalic findfont
dup length dict begin
  {1 index /FID ne {def} {pop pop} ifelse} forall
  /Encoding WinAnsiEncoding def
  currentdict
end
/Times-BoldItalic exch definefont pop
/Courier findfont
dup length dict begin
  {1 index /FID ne {def} {pop pop} ifelse} forall
  /Encoding WinAnsiEncoding def
  currentdict
end
/Courier exch definefont pop
/Times-Italic findfont
dup length dict begin
  {1 index /FID ne {def} {pop pop} ifelse} forall
  /Encoding WinAnsiEncoding def
  currentdict
end
/Times-Italic exch definefont pop
/Times-Bold findfont
dup length dict begin
  {1 index /FID ne {def} {pop pop} ifelse} forall
  /Encoding WinAnsiEncoding def
  currentdict
end
/Times-Bold exch definefont pop
%FOPEndFontReencode
%%EndProlog
%%Page: 1 1
%%PageBoundingBox: 0 0 906 566
%%BeginPageSetup
[1 0 0 -1 0 566] CT
%%EndPageSetup
GS
[0.75 0 0 0.75 0 0.5] CT
1 GC
N
0 0 1208 754 re
f
GR
GS
[0.75 0 0 0.75 0 0.5] CT
1 GC
N
0 0 1208 754 re
f
GR
GS
[0.75 0 0 0.75 0 0.5] CT
1 GC
N
157 671 M
1093 671 L
1093 57 L
157 57 L
cp
f
GR
GS
[0.75 0 0 0.75 0 0.5] CT
0.149 GC
2 setlinecap
1 LJ
0.667 LW
N
157 671 M
1093 671 L
S
GR
GS
[0.75 0 0 0.75 0 0.5] CT
0.149 GC
2 setlinecap
1 LJ
0.667 LW
N
157 57 M
1093 57 L
S
GR
GS
[0.75 0 0 0.75 0 0.5] CT
0.149 GC
2 setlinecap
1 LJ
0.667 LW
N
157 671 M
157 661.64 L
S
GR
GS
[0.75 0 0 0.75 0 0.5] CT
0.149 GC
2 setlinecap
1 LJ
0.667 LW
N
391 671 M
391 661.64 L
S
GR
GS
[0.75 0 0 0.75 0 0.5] CT
0.149 GC
2 setlinecap
1 LJ
0.667 LW
N
625 671 M
625 661.64 L
S
GR
GS
[0.75 0 0 0.75 0 0.5] CT
0.149 GC
2 setlinecap
1 LJ
0.667 LW
N
859 671 M
859 661.64 L
S
GR
GS
[0.75 0 0 0.75 0 0.5] CT
0.149 GC
2 setlinecap
1 LJ
0.667 LW
N
1093 671 M
1093 661.64 L
S
GR
GS
[0.75 0 0 0.75 0 0.5] CT
0.149 GC
2 setlinecap
1 LJ
0.667 LW
N
157 57 M
157 66.36 L
S
GR
GS
[0.75 0 0 0.75 0 0.5] CT
0.149 GC
2 setlinecap
1 LJ
0.667 LW
N
391 57 M
391 66.36 L
S
GR
GS
[0.75 0 0 0.75 0 0.5] CT
0.149 GC
2 setlinecap
1 LJ
0.667 LW
N
625 57 M
625 66.36 L
S
GR
GS
[0.75 0 0 0.75 0 0.5] CT
0.149 GC
2 setlinecap
1 LJ
0.667 LW
N
859 57 M
859 66.36 L
S
GR
GS
[0.75 0 0 0.75 0 0.5] CT
0.149 GC
2 setlinecap
1 LJ
0.667 LW
N
1093 57 M
1093 66.36 L
S
GR
GS
[0.75 0 0 0.75 117.75 509.35001] CT
0.149 GC
/Helvetica 24 F
GS
[1 0 0 1 0 0] CT
-42 23 moveto 
1 -1 scale
(1557.5) t 
GR
GR
GS
[0.75 0 0 0.75 293.25 509.35001] CT
0.149 GC
/Helvetica 24 F
GS
[1 0 0 1 0 0] CT
-31 23 moveto 
1 -1 scale
(1558) t 
GR
GR
GS
[0.75 0 0 0.75 468.75 509.35001] CT
0.149 GC
/Helvetica 24 F
GS
[1 0 0 1 0 0] CT
-42 23 moveto 
1 -1 scale
(1558.5) t 
GR
GR
GS
[0.75 0 0 0.75 644.25 509.35001] CT
0.149 GC
/Helvetica 24 F
GS
[1 0 0 1 0 0] CT
-31 23 moveto 
1 -1 scale
(1559) t 
GR
GR
GS
[0.75 0 0 0.75 819.75 509.35001] CT
0.149 GC
/Helvetica 24 F
GS
[1 0 0 1 0 0] CT
-42 23 moveto 
1 -1 scale
(1559.5) t 
GR
GR
GS
[0.75 0 0 0.75 468.75 532.09999] CT
0.149 GC
/Helvetica 29.333 F
GS
[1 0 0 1 0 0] CT
-126.5 27 moveto 
1 -1 scale
(Wavelength [nm]) t 
GR
GR
GS
[0.75 0 0 0.75 0 0.5] CT
0.149 GC
2 setlinecap
1 LJ
0.667 LW
N
157 671 M
157 57 L
S
GR
GS
[0.75 0 0 0.75 0 0.5] CT
0.149 GC
2 setlinecap
1 LJ
0.667 LW
N
1093 671 M
1093 57 L
S
GR
GS
[0.75 0 0 0.75 0 0.5] CT
0.149 GC
2 setlinecap
1 LJ
0.667 LW
N
157 671 M
166.369 671 L
S
GR
GS
[0.75 0 0 0.75 0 0.5] CT
0.149 GC
2 setlinecap
1 LJ
0.667 LW
N
157 548.2 M
166.369 548.2 L
S
GR
GS
[0.75 0 0 0.75 0 0.5] CT
0.149 GC
2 setlinecap
1 LJ
0.667 LW
N
157 425.4 M
166.369 425.4 L
S
GR
GS
[0.75 0 0 0.75 0 0.5] CT
0.149 GC
2 setlinecap
1 LJ
0.667 LW
N
157 302.6 M
166.369 302.6 L
S
GR
GS
[0.75 0 0 0.75 0 0.5] CT
0.149 GC
2 setlinecap
1 LJ
0.667 LW
N
157 179.8 M
166.369 179.8 L
S
GR
GS
[0.75 0 0 0.75 0 0.5] CT
0.149 GC
2 setlinecap
1 LJ
0.667 LW
N
157 57 M
166.369 57 L
S
GR
GS
[0.75 0 0 0.75 0 0.5] CT
0.149 GC
2 setlinecap
1 LJ
0.667 LW
N
1093 671 M
1083.631 671 L
S
GR
GS
[0.75 0 0 0.75 0 0.5] CT
0.149 GC
2 setlinecap
1 LJ
0.667 LW
N
1093 548.2 M
1083.631 548.2 L
S
GR
GS
[0.75 0 0 0.75 0 0.5] CT
0.149 GC
2 setlinecap
1 LJ
0.667 LW
N
1093 425.4 M
1083.631 425.4 L
S
GR
GS
[0.75 0 0 0.75 0 0.5] CT
0.149 GC
2 setlinecap
1 LJ
0.667 LW
N
1093 302.6 M
1083.631 302.6 L
S
GR
GS
[0.75 0 0 0.75 0 0.5] CT
0.149 GC
2 setlinecap
1 LJ
0.667 LW
N
1093 179.8 M
1083.631 179.8 L
S
GR
GS
[0.75 0 0 0.75 0 0.5] CT
0.149 GC
2 setlinecap
1 LJ
0.667 LW
N
1093 57 M
1083.631 57 L
S
GR
GS
[0.75 0 0 0.75 112.13708 503.75] CT
0.149 GC
/Helvetica 24 F
GS
[1 0 0 1 0 0] CT
-62 8.5 moveto 
1 -1 scale
(1000) t 
GR
GR
GS
[0.75 0 0 0.75 112.13708 411.65001] CT
0.149 GC
/Helvetica 24 F
GS
[1 0 0 1 0 0] CT
-62 8.5 moveto 
1 -1 scale
(1500) t 
GR
GR
GS
[0.75 0 0 0.75 112.13708 319.55] CT
0.149 GC
/Helvetica 24 F
GS
[1 0 0 1 0 0] CT
-62 8.5 moveto 
1 -1 scale
(2000) t 
GR
GR
GS
[0.75 0 0 0.75 112.13708 227.45] CT
0.149 GC
/Helvetica 24 F
GS
[1 0 0 1 0 0] CT
-62 8.5 moveto 
1 -1 scale
(2500) t 
GR
GR
GS
[0.75 0 0 0.75 112.13708 135.35] CT
0.149 GC
/Helvetica 24 F
GS
[1 0 0 1 0 0] CT
-62 8.5 moveto 
1 -1 scale
(3000) t 
GR
GR
GS
[0.75 0 0 0.75 112.13708 43.25] CT
0.149 GC
/Helvetica 24 F
GS
[1 0 0 1 0 0] CT
-62 8.5 moveto 
1 -1 scale
(3500) t 
GR
GR
GS
[0 -0.75 0.75 0 62.64917 273.49977] CT
0.149 GC
/Helvetica 29.333 F
GS
[1 0 0 1 0 0] CT
-51 -7 moveto 
1 -1 scale
(Counts) t 
GR
GR
GS
[0.75 0 0 0.75 468.75 38.75001] CT
/Helvetica-Bold 32 F
GS
[1 0 0 1 0 0] CT
-192.5 -8 moveto 
1 -1 scale
(Spectral interference) t 
GR
GR
GS
[0.75 0 0 0.75 0 0.5] CT
0 0.447 0.741 RC
1 LJ
0.667 LW
N
1093.743 515.863 M
1093.114 515.29 L
1091.172 496.624 L
1089.287 499.571 L
1087.401 502.273 L
1085.516 503.01 L
1083.631 512.097 L
1081.688 516.272 L
1079.803 519.219 L
1077.918 505.711 L
1076.033 513.816 L
1074.147 521.43 L
1072.205 515.535 L
1070.32 527.324 L
1068.435 523.64 L
1066.549 508.167 L
1064.607 504.974 L
1062.722 511.36 L
1060.836 500.799 L
1058.951 466.906 L
1057.066 461.012 L
1055.124 479.186 L
1053.238 464.45 L
1051.353 465.924 L
1049.468 498.098 L
1047.525 498.098 L
1045.64 487.537 L
1043.755 501.536 L
1041.87 481.151 L
1039.984 500.308 L
1038.042 507.185 L
1036.157 461.258 L
1034.271 487.046 L
1032.386 479.432 L
1030.501 472.801 L
1028.559 460.03 L
1026.673 467.889 L
1024.788 488.274 L
1022.903 469.854 L
1020.96 453.398 L
1019.075 450.697 L
1017.19 469.608 L
1015.305 486.063 L
1013.419 458.802 L
1011.477 488.274 L
1009.592 472.064 L
1007.707 509.15 L
1005.821 502.027 L
1003.936 474.029 L
1001.994 486.063 L
1000.108 471.327 L
998.223 466.661 L
996.338 475.502 L
994.396 460.03 L
992.51 468.38 L
990.625 473.538 L
988.74 496.87 L
986.854 468.38 L
984.912 485.081 L
983.027 482.379 L
981.142 484.344 L
979.256 485.818 L
977.371 500.799 L
975.429 476.976 L
973.543 485.326 L
971.658 500.308 L
969.773 479.923 L
967.831 473.783 L
965.945 457.082 L
964.06 480.66 L
962.175 446.276 L
960.29 427.61 L
958.347 456.1 L
956.462 439.89 L
954.577 460.275 L
952.691 447.995 L
950.806 453.398 L
948.864 461.749 L
946.979 470.59 L
945.093 468.626 L
943.208 466.661 L
941.266 470.099 L
939.38 453.644 L
937.495 436.206 L
935.61 435.715 L
933.725 427.119 L
931.782 393.963 L
929.897 400.84 L
928.012 396.91 L
926.126 381.438 L
924.184 389.542 L
922.299 358.842 L
920.414 376.771 L
918.528 372.596 L
916.643 383.648 L
914.701 405.998 L
912.815 411.892 L
910.93 386.35 L
909.045 386.35 L
907.16 375.298 L
905.217 370.877 L
903.332 347.054 L
901.447 352.702 L
899.562 333.546 L
897.619 357.614 L
895.734 324.95 L
893.849 360.07 L
891.963 324.704 L
890.078 346.562 L
888.136 345.334 L
886.25 352.702 L
884.365 330.598 L
882.48 359.825 L
880.595 358.351 L
878.652 370.14 L
876.767 348.527 L
874.882 345.089 L
872.997 358.106 L
871.054 344.598 L
869.169 353.685 L
867.284 347.299 L
865.398 346.808 L
863.513 352.702 L
861.571 339.44 L
859.686 340.914 L
857.8 342.142 L
855.915 358.106 L
854.03 350.738 L
852.087 338.458 L
850.202 372.596 L
848.317 365.965 L
846.432 325.441 L
844.489 372.842 L
842.604 359.334 L
840.719 364.737 L
838.833 355.65 L
836.948 355.158 L
835.006 337.475 L
833.121 325.195 L
831.235 338.949 L
829.35 349.51 L
827.465 339.931 L
825.522 356.878 L
823.637 342.878 L
821.752 352.457 L
819.867 354.913 L
817.924 354.913 L
816.039 367.193 L
814.154 351.72 L
812.269 361.298 L
810.383 361.544 L
808.441 315.371 L
806.556 337.23 L
804.67 347.054 L
802.785 349.755 L
800.9 342.387 L
798.958 353.685 L
797.072 333.054 L
795.187 353.439 L
793.302 351.72 L
791.359 348.527 L
789.474 353.194 L
787.589 350.246 L
785.704 347.79 L
783.818 367.193 L
781.876 372.35 L
779.991 371.368 L
778.105 388.806 L
776.22 358.351 L
774.278 352.948 L
772.393 338.949 L
770.507 354.913 L
768.622 343.37 L
766.737 372.596 L
764.794 365.228 L
762.909 384.139 L
761.024 373.333 L
759.139 402.068 L
757.253 400.349 L
755.311 420.734 L
753.426 418.278 L
751.541 437.434 L
749.655 434.978 L
747.713 452.907 L
745.828 436.943 L
743.942 423.926 L
742.057 443.574 L
740.172 437.189 L
738.229 429.821 L
736.344 471.573 L
734.459 475.748 L
732.574 439.154 L
730.688 468.134 L
728.746 475.257 L
726.861 482.625 L
724.976 511.851 L
723.09 519.465 L
721.148 534.692 L
719.263 552.866 L
717.377 536.902 L
715.492 537.394 L
713.607 535.429 L
711.665 524.868 L
709.779 534.692 L
707.894 533.955 L
706.009 538.13 L
704.124 539.113 L
702.181 554.094 L
700.296 559.498 L
698.411 574.725 L
696.525 569.567 L
694.583 549.919 L
692.698 593.145 L
690.813 603.951 L
688.927 577.181 L
687.042 587.742 L
685.1 569.322 L
683.214 590.934 L
681.329 567.848 L
679.444 571.286 L
677.559 546.972 L
675.616 572.023 L
673.731 565.392 L
671.846 543.534 L
669.96 557.042 L
668.018 577.672 L
666.133 568.585 L
664.248 560.726 L
662.362 575.216 L
660.477 585.04 L
658.535 589.215 L
656.649 566.129 L
654.764 581.356 L
652.879 588.233 L
650.937 579.146 L
649.051 571.532 L
647.166 568.339 L
645.281 577.672 L
643.396 572.76 L
641.453 552.375 L
639.568 573.742 L
637.683 537.394 L
635.797 573.497 L
633.912 561.462 L
631.97 581.847 L
630.084 567.848 L
628.199 565.146 L
626.314 563.918 L
624.372 559.498 L
622.486 561.954 L
620.601 571.532 L
618.716 544.025 L
616.831 582.338 L
614.888 568.339 L
613.003 563.427 L
611.118 530.517 L
609.232 518.482 L
607.347 531.99 L
605.405 533.218 L
603.52 525.114 L
601.634 521.43 L
599.749 536.657 L
597.807 546.235 L
595.921 539.358 L
594.036 525.359 L
592.151 534.692 L
590.266 531.745 L
588.323 536.657 L
586.438 518.237 L
584.553 511.851 L
582.667 499.571 L
580.782 479.186 L
578.84 491.466 L
576.955 474.766 L
575.069 484.59 L
573.184 481.151 L
571.242 485.326 L
569.356 480.169 L
567.471 460.521 L
565.586 456.346 L
563.701 471.327 L
561.758 471.327 L
559.873 445.539 L
557.988 455.118 L
556.103 465.678 L
554.217 436.452 L
552.275 434.733 L
550.39 407.717 L
548.504 386.35 L
546.619 408.208 L
544.677 389.542 L
542.792 363.509 L
540.906 377.017 L
539.021 371.614 L
537.136 348.773 L
535.193 360.07 L
533.308 357.369 L
531.423 356.141 L
529.538 344.352 L
527.652 350.246 L
525.71 357.614 L
523.825 333.3 L
521.939 304.074 L
520.054 298.67 L
518.112 316.108 L
516.227 281.724 L
514.341 298.179 L
512.456 283.934 L
510.571 274.602 L
508.628 258.392 L
506.743 279.514 L
504.858 227.201 L
502.973 278.531 L
501.03 302.354 L
499.145 293.758 L
497.26 288.11 L
495.375 282.706 L
493.489 289.092 L
491.547 260.602 L
489.662 276.321 L
487.776 270.426 L
485.891 252.989 L
484.006 249.796 L
482.063 216.149 L
480.178 218.359 L
478.293 235.06 L
476.408 219.096 L
474.465 241.2 L
472.58 239.726 L
470.695 254.462 L
468.81 245.866 L
466.924 194.536 L
464.982 241.2 L
463.097 251.761 L
461.211 229.902 L
459.326 255.445 L
457.441 238.253 L
455.499 232.85 L
453.613 224.254 L
451.728 238.744 L
449.843 219.342 L
447.9 224.008 L
446.015 228.183 L
444.13 197.483 L
442.245 220.324 L
440.359 210.5 L
438.417 232.85 L
436.532 203.132 L
434.646 231.13 L
432.761 237.025 L
430.876 229.657 L
428.934 205.097 L
427.048 248.077 L
425.163 254.217 L
423.278 243.41 L
421.335 218.85 L
419.45 218.85 L
417.565 196.501 L
415.68 198.711 L
413.794 208.29 L
411.852 178.818 L
409.967 184.466 L
408.082 205.342 L
406.196 184.221 L
404.311 223.026 L
402.369 226.955 L
400.483 237.516 L
398.598 230.394 L
396.713 223.762 L
394.771 231.13 L
392.885 222.043 L
391 173.169 L
389.115 213.938 L
387.229 196.746 L
385.287 195.518 L
383.402 208.044 L
381.517 207.307 L
379.631 207.798 L
377.689 229.166 L
375.804 251.761 L
373.918 250.287 L
372.033 265.514 L
370.148 275.83 L
368.206 247.094 L
366.32 261.83 L
364.435 251.27 L
362.55 276.075 L
360.665 287.373 L
358.722 278.04 L
356.837 245.13 L
354.952 274.602 L
353.066 235.551 L
351.124 253.48 L
349.239 289.829 L
347.354 624.582 L
346.497 284.18 L
344.611 303.828 L
342.726 328.634 L
340.841 317.09 L
338.956 329.862 L
337.07 291.548 L
335.128 344.352 L
333.243 300.881 L
331.357 322.248 L
329.472 344.598 L
327.587 315.126 L
325.702 328.388 L
323.759 327.897 L
321.874 312.424 L
319.989 335.265 L
318.104 329.862 L
316.218 330.107 L
314.333 354.176 L
312.391 347.299 L
310.505 332.563 L
308.62 339.686 L
306.735 333.791 L
304.85 342.878 L
302.964 368.421 L
301.022 363.018 L
299.137 366.21 L
297.251 377.508 L
295.366 349.018 L
293.481 340.668 L
291.596 334.282 L
289.653 318.81 L
287.768 328.879 L
285.883 315.126 L
283.998 313.652 L
282.112 326.178 L
280.227 337.721 L
278.285 300.39 L
276.399 323.722 L
274.514 340.177 L
272.629 348.036 L
270.744 323.476 L
268.858 309.477 L
266.916 305.302 L
265.031 311.196 L
263.146 310.95 L
261.26 340.914 L
259.375 300.144 L
257.49 315.371 L
255.547 300.39 L
253.662 309.477 L
251.777 286.145 L
249.892 330.107 L
248.006 334.282 L
246.121 310.705 L
244.179 343.615 L
242.293 347.054 L
240.408 327.406 L
238.523 336.247 L
236.638 314.389 L
234.752 342.142 L
232.867 325.686 L
230.925 341.159 L
229.04 319.546 L
227.154 331.09 L
225.269 335.51 L
223.384 343.861 L
221.499 343.615 L
219.556 342.633 L
217.671 325.686 L
215.786 372.596 L
213.9 349.264 L
212.015 377.508 L
210.13 371.368 L
208.188 342.142 L
206.302 359.825 L
204.417 364.737 L
202.532 393.718 L
200.646 390.279 L
198.761 391.507 L
196.819 364 L
194.934 387.823 L
193.048 401.822 L
191.163 380.21 L
189.278 381.438 L
187.393 399.121 L
185.45 381.192 L
183.565 428.593 L
181.68 384.63 L
179.794 406.243 L
177.909 402.805 L
176.024 408.454 L
174.082 421.962 L
172.196 426.382 L
170.311 401.577 L
168.426 420.734 L
166.541 433.014 L
164.655 417.295 L
162.713 431.54 L
160.828 421.716 L
158.942 422.944 L
157.057 381.929 L
156.257 394.536 L
S
GR
%%Trailer
%%Pages: 1
%%EOF
