%!PS-Adobe-3.0 EPSF-3.0
%%Creator: (MATLAB, The Mathworks, Inc. Version 9.0.0.341360 \(R2016a\). Operating System: Linux)
%%Title: /home/misimik/Dokumenty/Magisterka/Magisterka/Photon/Spektrometr/TransmisjaCFBG.eps
%%CreationDate: 2017-09-25T18:44:37
%%Pages: (atend)
%%BoundingBox: 0 0 906 566
%%LanguageLevel: 3
%%EndComments
%%BeginProlog
%%BeginResource: procset (Apache XML Graphics Std ProcSet) 1.2 0
%%Version: 1.2 0
%%Copyright: (Copyright 2001-2003,2010 The Apache Software Foundation. License terms: http://www.apache.org/licenses/LICENSE-2.0)
/bd{bind def}bind def
/ld{load def}bd
/GR/grestore ld
/M/moveto ld
/LJ/setlinejoin ld
/C/curveto ld
/f/fill ld
/LW/setlinewidth ld
/GC/setgray ld
/t/show ld
/N/newpath ld
/CT/concat ld
/cp/closepath ld
/S/stroke ld
/L/lineto ld
/CC/setcmykcolor ld
/A/ashow ld
/GS/gsave ld
/RC/setrgbcolor ld
/RM/rmoveto ld
/ML/setmiterlimit ld
/re {4 2 roll M
1 index 0 rlineto
0 exch rlineto
neg 0 rlineto
cp } bd
/_ctm matrix def
/_tm matrix def
/BT { _ctm currentmatrix pop matrix _tm copy pop 0 0 moveto } bd
/ET { _ctm setmatrix } bd
/iTm { _ctm setmatrix _tm concat } bd
/Tm { _tm astore pop iTm 0 0 moveto } bd
/ux 0.0 def
/uy 0.0 def
/F {
  /Tp exch def
  /Tf exch def
  Tf findfont Tp scalefont setfont
  /cf Tf def  /cs Tp def
} bd
/ULS {currentpoint /uy exch def /ux exch def} bd
/ULE {
  /Tcx currentpoint pop def
  gsave
  newpath
  cf findfont cs scalefont dup
  /FontMatrix get 0 get /Ts exch def /FontInfo get dup
  /UnderlinePosition get Ts mul /To exch def
  /UnderlineThickness get Ts mul /Tt exch def
  ux uy To add moveto  Tcx uy To add lineto
  Tt setlinewidth stroke
  grestore
} bd
/OLE {
  /Tcx currentpoint pop def
  gsave
  newpath
  cf findfont cs scalefont dup
  /FontMatrix get 0 get /Ts exch def /FontInfo get dup
  /UnderlinePosition get Ts mul /To exch def
  /UnderlineThickness get Ts mul /Tt exch def
  ux uy To add cs add moveto Tcx uy To add cs add lineto
  Tt setlinewidth stroke
  grestore
} bd
/SOE {
  /Tcx currentpoint pop def
  gsave
  newpath
  cf findfont cs scalefont dup
  /FontMatrix get 0 get /Ts exch def /FontInfo get dup
  /UnderlinePosition get Ts mul /To exch def
  /UnderlineThickness get Ts mul /Tt exch def
  ux uy To add cs 10 mul 26 idiv add moveto Tcx uy To add cs 10 mul 26 idiv add lineto
  Tt setlinewidth stroke
  grestore
} bd
/QT {
/Y22 exch store
/X22 exch store
/Y21 exch store
/X21 exch store
currentpoint
/Y21 load 2 mul add 3 div exch
/X21 load 2 mul add 3 div exch
/X21 load 2 mul /X22 load add 3 div
/Y21 load 2 mul /Y22 load add 3 div
/X22 load /Y22 load curveto
} bd
/SSPD {
dup length /d exch dict def
{
/v exch def
/k exch def
currentpagedevice k known {
/cpdv currentpagedevice k get def
v cpdv ne {
/upd false def
/nullv v type /nulltype eq def
/nullcpdv cpdv type /nulltype eq def
nullv nullcpdv or
{
/upd true def
} {
/sametype v type cpdv type eq def
sametype {
v type /arraytype eq {
/vlen v length def
/cpdvlen cpdv length def
vlen cpdvlen eq {
0 1 vlen 1 sub {
/i exch def
/obj v i get def
/cpdobj cpdv i get def
obj cpdobj ne {
/upd true def
exit
} if
} for
} {
/upd true def
} ifelse
} {
v type /dicttype eq {
v {
/dv exch def
/dk exch def
/cpddv cpdv dk get def
dv cpddv ne {
/upd true def
exit
} if
} forall
} {
/upd true def
} ifelse
} ifelse
} if
} ifelse
upd true eq {
d k v put
} if
} if
} if
} forall
d length 0 gt {
d setpagedevice
} if
} bd
%%EndResource
%%BeginResource: procset (Apache XML Graphics EPS ProcSet) 1.0 0
%%Version: 1.0 0
%%Copyright: (Copyright 2002-2003 The Apache Software Foundation. License terms: http://www.apache.org/licenses/LICENSE-2.0)
/BeginEPSF { %def
/b4_Inc_state save def         % Save state for cleanup
/dict_count countdictstack def % Count objects on dict stack
/op_count count 1 sub def      % Count objects on operand stack
userdict begin                 % Push userdict on dict stack
/showpage { } def              % Redefine showpage, { } = null proc
0 setgray 0 setlinecap         % Prepare graphics state
1 setlinewidth 0 setlinejoin
10 setmiterlimit [ ] 0 setdash newpath
/languagelevel where           % If level not equal to 1 then
{pop languagelevel             % set strokeadjust and
1 ne                           % overprint to their defaults.
{false setstrokeadjust false setoverprint
} if
} if
} bd
/EndEPSF { %def
count op_count sub {pop} repeat            % Clean up stacks
countdictstack dict_count sub {end} repeat
b4_Inc_state restore
} bd
%%EndResource
%FOPBeginFontDict
%%IncludeResource: font Courier-Bold
%%IncludeResource: font Helvetica
%%IncludeResource: font Courier-BoldOblique
%%IncludeResource: font Courier-Oblique
%%IncludeResource: font Times-Roman
%%IncludeResource: font Helvetica-BoldOblique
%%IncludeResource: font Helvetica-Bold
%%IncludeResource: font Helvetica-Oblique
%%IncludeResource: font Times-BoldItalic
%%IncludeResource: font Courier
%%IncludeResource: font Times-Italic
%%IncludeResource: font Times-Bold
%%IncludeResource: font Symbol
%%IncludeResource: font ZapfDingbats
%FOPEndFontDict
%%BeginResource: encoding WinAnsiEncoding
/WinAnsiEncoding [
/.notdef /.notdef /.notdef /.notdef /.notdef
/.notdef /.notdef /.notdef /.notdef /.notdef
/.notdef /.notdef /.notdef /.notdef /.notdef
/.notdef /.notdef /.notdef /.notdef /.notdef
/.notdef /.notdef /.notdef /.notdef /.notdef
/.notdef /.notdef /.notdef /.notdef /.notdef
/.notdef /.notdef /space /exclam /quotedbl
/numbersign /dollar /percent /ampersand /quotesingle
/parenleft /parenright /asterisk /plus /comma
/hyphen /period /slash /zero /one
/two /three /four /five /six
/seven /eight /nine /colon /semicolon
/less /equal /greater /question /at
/A /B /C /D /E
/F /G /H /I /J
/K /L /M /N /O
/P /Q /R /S /T
/U /V /W /X /Y
/Z /bracketleft /backslash /bracketright /asciicircum
/underscore /quoteleft /a /b /c
/d /e /f /g /h
/i /j /k /l /m
/n /o /p /q /r
/s /t /u /v /w
/x /y /z /braceleft /bar
/braceright /asciitilde /bullet /Euro /bullet
/quotesinglbase /florin /quotedblbase /ellipsis /dagger
/daggerdbl /circumflex /perthousand /Scaron /guilsinglleft
/OE /bullet /Zcaron /bullet /bullet
/quoteleft /quoteright /quotedblleft /quotedblright /bullet
/endash /emdash /asciitilde /trademark /scaron
/guilsinglright /oe /bullet /zcaron /Ydieresis
/space /exclamdown /cent /sterling /currency
/yen /brokenbar /section /dieresis /copyright
/ordfeminine /guillemotleft /logicalnot /sfthyphen /registered
/macron /degree /plusminus /twosuperior /threesuperior
/acute /mu /paragraph /middot /cedilla
/onesuperior /ordmasculine /guillemotright /onequarter /onehalf
/threequarters /questiondown /Agrave /Aacute /Acircumflex
/Atilde /Adieresis /Aring /AE /Ccedilla
/Egrave /Eacute /Ecircumflex /Edieresis /Igrave
/Iacute /Icircumflex /Idieresis /Eth /Ntilde
/Ograve /Oacute /Ocircumflex /Otilde /Odieresis
/multiply /Oslash /Ugrave /Uacute /Ucircumflex
/Udieresis /Yacute /Thorn /germandbls /agrave
/aacute /acircumflex /atilde /adieresis /aring
/ae /ccedilla /egrave /eacute /ecircumflex
/edieresis /igrave /iacute /icircumflex /idieresis
/eth /ntilde /ograve /oacute /ocircumflex
/otilde /odieresis /divide /oslash /ugrave
/uacute /ucircumflex /udieresis /yacute /thorn
/ydieresis
] def
%%EndResource
%FOPBeginFontReencode
/Courier-Bold findfont
dup length dict begin
  {1 index /FID ne {def} {pop pop} ifelse} forall
  /Encoding WinAnsiEncoding def
  currentdict
end
/Courier-Bold exch definefont pop
/Helvetica findfont
dup length dict begin
  {1 index /FID ne {def} {pop pop} ifelse} forall
  /Encoding WinAnsiEncoding def
  currentdict
end
/Helvetica exch definefont pop
/Courier-BoldOblique findfont
dup length dict begin
  {1 index /FID ne {def} {pop pop} ifelse} forall
  /Encoding WinAnsiEncoding def
  currentdict
end
/Courier-BoldOblique exch definefont pop
/Courier-Oblique findfont
dup length dict begin
  {1 index /FID ne {def} {pop pop} ifelse} forall
  /Encoding WinAnsiEncoding def
  currentdict
end
/Courier-Oblique exch definefont pop
/Times-Roman findfont
dup length dict begin
  {1 index /FID ne {def} {pop pop} ifelse} forall
  /Encoding WinAnsiEncoding def
  currentdict
end
/Times-Roman exch definefont pop
/Helvetica-BoldOblique findfont
dup length dict begin
  {1 index /FID ne {def} {pop pop} ifelse} forall
  /Encoding WinAnsiEncoding def
  currentdict
end
/Helvetica-BoldOblique exch definefont pop
/Helvetica-Bold findfont
dup length dict begin
  {1 index /FID ne {def} {pop pop} ifelse} forall
  /Encoding WinAnsiEncoding def
  currentdict
end
/Helvetica-Bold exch definefont pop
/Helvetica-Oblique findfont
dup length dict begin
  {1 index /FID ne {def} {pop pop} ifelse} forall
  /Encoding WinAnsiEncoding def
  currentdict
end
/Helvetica-Oblique exch definefont pop
/Times-BoldItalic findfont
dup length dict begin
  {1 index /FID ne {def} {pop pop} ifelse} forall
  /Encoding WinAnsiEncoding def
  currentdict
end
/Times-BoldItalic exch definefont pop
/Courier findfont
dup length dict begin
  {1 index /FID ne {def} {pop pop} ifelse} forall
  /Encoding WinAnsiEncoding def
  currentdict
end
/Courier exch definefont pop
/Times-Italic findfont
dup length dict begin
  {1 index /FID ne {def} {pop pop} ifelse} forall
  /Encoding WinAnsiEncoding def
  currentdict
end
/Times-Italic exch definefont pop
/Times-Bold findfont
dup length dict begin
  {1 index /FID ne {def} {pop pop} ifelse} forall
  /Encoding WinAnsiEncoding def
  currentdict
end
/Times-Bold exch definefont pop
%FOPEndFontReencode
%%EndProlog
%%Page: 1 1
%%PageBoundingBox: 0 0 906 566
%%BeginPageSetup
[1 0 0 -1 0 566] CT
%%EndPageSetup
GS
[0.75 0 0 0.75 0 0.5] CT
1 GC
N
0 0 1208 754 re
f
GR
GS
[0.75 0 0 0.75 0 0.5] CT
1 GC
N
0 0 1208 754 re
f
GR
GS
[0.75 0 0 0.75 0 0.5] CT
1 GC
N
157 671 M
1093 671 L
1093 57 L
157 57 L
cp
f
GR
GS
[0.75 0 0 0.75 0 0.5] CT
0.149 GC
2 setlinecap
1 LJ
0.667 LW
N
157 671 M
1093 671 L
S
GR
GS
[0.75 0 0 0.75 0 0.5] CT
0.149 GC
2 setlinecap
1 LJ
0.667 LW
N
157 671 M
157 661.64 L
S
GR
GS
[0.75 0 0 0.75 0 0.5] CT
0.149 GC
2 setlinecap
1 LJ
0.667 LW
N
261 671 M
261 661.64 L
S
GR
GS
[0.75 0 0 0.75 0 0.5] CT
0.149 GC
2 setlinecap
1 LJ
0.667 LW
N
365 671 M
365 661.64 L
S
GR
GS
[0.75 0 0 0.75 0 0.5] CT
0.149 GC
2 setlinecap
1 LJ
0.667 LW
N
469 671 M
469 661.64 L
S
GR
GS
[0.75 0 0 0.75 0 0.5] CT
0.149 GC
2 setlinecap
1 LJ
0.667 LW
N
573 671 M
573 661.64 L
S
GR
GS
[0.75 0 0 0.75 0 0.5] CT
0.149 GC
2 setlinecap
1 LJ
0.667 LW
N
677 671 M
677 661.64 L
S
GR
GS
[0.75 0 0 0.75 0 0.5] CT
0.149 GC
2 setlinecap
1 LJ
0.667 LW
N
781 671 M
781 661.64 L
S
GR
GS
[0.75 0 0 0.75 0 0.5] CT
0.149 GC
2 setlinecap
1 LJ
0.667 LW
N
885 671 M
885 661.64 L
S
GR
GS
[0.75 0 0 0.75 0 0.5] CT
0.149 GC
2 setlinecap
1 LJ
0.667 LW
N
989 671 M
989 661.64 L
S
GR
GS
[0.75 0 0 0.75 0 0.5] CT
0.149 GC
2 setlinecap
1 LJ
0.667 LW
N
1093 671 M
1093 661.64 L
S
GR
GS
[0.75 0 0 0.75 117.75 509.34987] CT
0.149 GC
/Helvetica 24 F
GS
[1 0 0 1 0 0] CT
-31 23 moveto 
1 -1 scale
(1554) t 
GR
GR
GS
[0.75 0 0 0.75 195.75 509.34987] CT
0.149 GC
/Helvetica 24 F
GS
[1 0 0 1 0 0] CT
-31 23 moveto 
1 -1 scale
(1555) t 
GR
GR
GS
[0.75 0 0 0.75 273.75 509.34987] CT
0.149 GC
/Helvetica 24 F
GS
[1 0 0 1 0 0] CT
-31 23 moveto 
1 -1 scale
(1556) t 
GR
GR
GS
[0.75 0 0 0.75 351.75 509.34987] CT
0.149 GC
/Helvetica 24 F
GS
[1 0 0 1 0 0] CT
-31 23 moveto 
1 -1 scale
(1557) t 
GR
GR
GS
[0.75 0 0 0.75 429.75 509.34987] CT
0.149 GC
/Helvetica 24 F
GS
[1 0 0 1 0 0] CT
-31 23 moveto 
1 -1 scale
(1558) t 
GR
GR
GS
[0.75 0 0 0.75 507.75 509.34987] CT
0.149 GC
/Helvetica 24 F
GS
[1 0 0 1 0 0] CT
-31 23 moveto 
1 -1 scale
(1559) t 
GR
GR
GS
[0.75 0 0 0.75 585.75 509.34987] CT
0.149 GC
/Helvetica 24 F
GS
[1 0 0 1 0 0] CT
-31 23 moveto 
1 -1 scale
(1560) t 
GR
GR
GS
[0.75 0 0 0.75 663.75 509.34987] CT
0.149 GC
/Helvetica 24 F
GS
[1 0 0 1 0 0] CT
-31 23 moveto 
1 -1 scale
(1561) t 
GR
GR
GS
[0.75 0 0 0.75 741.75 509.34987] CT
0.149 GC
/Helvetica 24 F
GS
[1 0 0 1 0 0] CT
-31 23 moveto 
1 -1 scale
(1562) t 
GR
GR
GS
[0.75 0 0 0.75 819.75 509.34987] CT
0.149 GC
/Helvetica 24 F
GS
[1 0 0 1 0 0] CT
-31 23 moveto 
1 -1 scale
(1563) t 
GR
GR
GS
[0.75 0 0 0.75 468.75 532.0999] CT
0.149 GC
N
-130.703 9.266 M
-130.703 27.406 L
-126.891 27.406 L
-122.063 27.406 -119.82 25.219 QT
-117.578 23.031 -117.578 18.313 QT
-117.578 13.625 -119.82 11.445 QT
-122.063 9.266 -126.891 9.266 QT
-130.703 9.266 L
cp
-133.859 6.672 M
-127.375 6.672 L
-120.594 6.672 -117.422 9.492 QT
-114.25 12.313 -114.25 18.313 QT
-114.25 24.344 -117.438 27.172 QT
-120.625 30 -127.375 30 QT
-133.859 30 L
-133.859 6.672 L
cp
-109.25 5.688 M
-106.375 5.688 L
-106.375 15.094 L
-104.422 13.688 L
-103.234 15.344 L
-106.375 17.547 L
-106.375 30 L
-109.25 30 L
-109.25 19.594 L
-111.172 20.969 L
-112.328 19.313 L
-109.25 17.109 L
-109.25 5.688 L
cp
-100.547 23.094 M
-100.547 12.5 L
-97.672 12.5 L
-97.672 22.984 L
-97.672 25.469 -96.703 26.711 QT
-95.734 27.953 -93.797 27.953 QT
-91.469 27.953 -90.117 26.469 QT
-88.766 24.984 -88.766 22.422 QT
-88.766 12.5 L
-85.891 12.5 L
-85.891 30 L
-88.766 30 L
-88.766 27.313 L
-89.813 28.906 -91.195 29.68 QT
-92.578 30.453 -94.406 30.453 QT
-97.422 30.453 -98.984 28.578 QT
-100.547 26.703 -100.547 23.094 QT
cp
-68.453 21.047 M
-68.453 17.922 -69.742 16.203 QT
-71.031 14.484 -73.359 14.484 QT
-75.672 14.484 -76.961 16.203 QT
-78.25 17.922 -78.25 21.047 QT
-78.25 24.156 -76.961 25.875 QT
-75.672 27.594 -73.359 27.594 QT
-71.031 27.594 -69.742 25.875 QT
-68.453 24.156 -68.453 21.047 QT
cp
-65.578 27.828 M
-65.578 32.297 -67.563 34.477 QT
-69.547 36.656 -73.641 36.656 QT
-75.156 36.656 -76.5 36.43 QT
-77.844 36.203 -79.109 35.734 QT
-79.109 32.938 L
-77.844 33.625 -76.609 33.953 QT
-75.375 34.281 -74.094 34.281 QT
-71.266 34.281 -69.859 32.805 QT
-68.453 31.328 -68.453 28.344 QT
-68.453 26.922 L
-69.344 28.469 -70.734 29.234 QT
-72.125 30 -74.063 30 QT
-77.281 30 -79.25 27.547 QT
-81.219 25.094 -81.219 21.047 QT
-81.219 16.984 -79.25 14.531 QT
-77.281 12.078 -74.063 12.078 QT
-72.125 12.078 -70.734 12.844 QT
-69.344 13.609 -68.453 15.156 QT
-68.453 12.5 L
-65.578 12.5 L
-65.578 27.828 L
cp
-52.875 14.516 M
-55.188 14.516 -56.531 16.32 QT
-57.875 18.125 -57.875 21.266 QT
-57.875 24.406 -56.539 26.211 QT
-55.203 28.016 -52.875 28.016 QT
-50.578 28.016 -49.234 26.203 QT
-47.891 24.391 -47.891 21.266 QT
-47.891 18.156 -49.234 16.336 QT
-50.578 14.516 -52.875 14.516 QT
cp
-52.875 12.078 M
-49.125 12.078 -46.984 14.516 QT
-44.844 16.953 -44.844 21.266 QT
-44.844 25.563 -46.984 28.008 QT
-49.125 30.453 -52.875 30.453 QT
-56.641 30.453 -58.773 28.008 QT
-60.906 25.563 -60.906 21.266 QT
-60.906 16.953 -58.773 14.516 QT
-56.641 12.078 -52.875 12.078 QT
cp
-31.922 4.406 M
-28.813 4.406 L
-33.906 10.281 L
-36.297 10.281 L
-31.922 4.406 L
cp
-28.922 13.016 M
-28.922 15.734 L
-30.141 15.109 -31.453 14.797 QT
-32.766 14.484 -34.172 14.484 QT
-36.313 14.484 -37.383 15.141 QT
-38.453 15.797 -38.453 17.109 QT
-38.453 18.109 -37.688 18.68 QT
-36.922 19.25 -34.609 19.766 QT
-33.625 19.984 L
-30.563 20.641 -29.273 21.836 QT
-27.984 23.031 -27.984 25.172 QT
-27.984 27.609 -29.914 29.031 QT
-31.844 30.453 -35.219 30.453 QT
-36.625 30.453 -38.148 30.18 QT
-39.672 29.906 -41.359 29.359 QT
-41.359 26.391 L
-39.766 27.219 -38.219 27.633 QT
-36.672 28.047 -35.156 28.047 QT
-33.125 28.047 -32.031 27.352 QT
-30.938 26.656 -30.938 25.391 QT
-30.938 24.219 -31.727 23.594 QT
-32.516 22.969 -35.188 22.391 QT
-36.188 22.156 L
-38.859 21.594 -40.047 20.43 QT
-41.234 19.266 -41.234 17.234 QT
-41.234 14.766 -39.484 13.422 QT
-37.734 12.078 -34.516 12.078 QT
-32.922 12.078 -31.516 12.313 QT
-30.109 12.547 -28.922 13.016 QT
cp
-10.813 13.172 M
-10.813 15.859 L
-12.031 15.188 -13.258 14.852 QT
-14.484 14.516 -15.734 14.516 QT
-18.531 14.516 -20.078 16.289 QT
-21.625 18.063 -21.625 21.266 QT
-21.625 24.469 -20.078 26.242 QT
-18.531 28.016 -15.734 28.016 QT
-14.484 28.016 -13.258 27.68 QT
-12.031 27.344 -10.813 26.672 QT
-10.813 29.328 L
-12.016 29.891 -13.305 30.172 QT
-14.594 30.453 -16.047 30.453 QT
-20 30.453 -22.328 27.969 QT
-24.656 25.484 -24.656 21.266 QT
-24.656 16.984 -22.305 14.531 QT
-19.953 12.078 -15.859 12.078 QT
-14.531 12.078 -13.266 12.352 QT
-12 12.625 -10.813 13.172 QT
cp
-14.25 4.406 M
-11.141 4.406 L
-16.234 10.281 L
-18.625 10.281 L
-14.25 4.406 L
cp
13.219 5.688 M
13.219 8.078 L
10.469 8.078 L
8.922 8.078 8.32 8.703 QT
7.719 9.328 7.719 10.953 QT
7.719 12.5 L
12.453 12.5 L
12.453 14.734 L
7.719 14.734 L
7.719 30 L
4.828 30 L
4.828 14.734 L
2.078 14.734 L
2.078 12.5 L
4.828 12.5 L
4.828 11.281 L
4.828 8.359 6.188 7.023 QT
7.547 5.688 10.5 5.688 QT
13.219 5.688 L
cp
23.578 21.203 M
20.094 21.203 18.75 22 QT
17.406 22.797 17.406 24.719 QT
17.406 26.25 18.414 27.148 QT
19.422 28.047 21.156 28.047 QT
23.547 28.047 24.992 26.352 QT
26.438 24.656 26.438 21.844 QT
26.438 21.203 L
23.578 21.203 L
cp
29.313 20.016 M
29.313 30 L
26.438 30 L
26.438 27.344 L
25.453 28.938 23.984 29.695 QT
22.516 30.453 20.391 30.453 QT
17.703 30.453 16.117 28.945 QT
14.531 27.438 14.531 24.906 QT
14.531 21.953 16.508 20.453 QT
18.484 18.953 22.406 18.953 QT
26.438 18.953 L
26.438 18.672 L
26.438 16.688 25.133 15.602 QT
23.828 14.516 21.469 14.516 QT
19.969 14.516 18.547 14.875 QT
17.125 15.234 15.813 15.953 QT
15.813 13.297 L
17.391 12.688 18.875 12.383 QT
20.359 12.078 21.766 12.078 QT
25.563 12.078 27.438 14.047 QT
29.313 16.016 29.313 20.016 QT
cp
35.234 5.688 M
38.109 5.688 L
38.109 30 L
35.234 30 L
35.234 5.688 L
cp
44.125 12.5 M
47 12.5 L
47 30 L
44.125 30 L
44.125 12.5 L
cp
44.125 5.688 M
47 5.688 L
47 9.328 L
44.125 9.328 L
44.125 5.688 L
cp
62.922 5.688 M
69.547 5.688 L
69.547 7.922 L
65.797 7.922 L
65.797 31.984 L
69.547 31.984 L
69.547 34.219 L
62.922 34.219 L
62.922 5.688 L
cp
90.219 19.438 M
90.219 30 L
87.344 30 L
87.344 19.531 L
87.344 17.047 86.375 15.813 QT
85.406 14.578 83.469 14.578 QT
81.141 14.578 79.797 16.063 QT
78.453 17.547 78.453 20.109 QT
78.453 30 L
75.563 30 L
75.563 12.5 L
78.453 12.5 L
78.453 15.219 L
79.484 13.641 80.883 12.859 QT
82.281 12.078 84.109 12.078 QT
87.125 12.078 88.672 13.945 QT
90.219 15.813 90.219 19.438 QT
cp
109.578 15.859 M
110.656 13.922 112.156 13 QT
113.656 12.078 115.688 12.078 QT
118.422 12.078 119.906 13.992 QT
121.391 15.906 121.391 19.438 QT
121.391 30 L
118.5 30 L
118.5 19.531 L
118.5 17.016 117.609 15.797 QT
116.719 14.578 114.891 14.578 QT
112.656 14.578 111.359 16.063 QT
110.063 17.547 110.063 20.109 QT
110.063 30 L
107.172 30 L
107.172 19.531 L
107.172 17 106.281 15.789 QT
105.391 14.578 103.531 14.578 QT
101.328 14.578 100.031 16.07 QT
98.734 17.563 98.734 20.109 QT
98.734 30 L
95.844 30 L
95.844 12.5 L
98.734 12.5 L
98.734 15.219 L
99.719 13.609 101.094 12.844 QT
102.469 12.078 104.359 12.078 QT
106.266 12.078 107.602 13.047 QT
108.938 14.016 109.578 15.859 QT
cp
133.844 5.688 M
133.844 34.219 L
127.219 34.219 L
127.219 31.984 L
130.953 31.984 L
130.953 7.922 L
127.219 7.922 L
127.219 5.688 L
133.844 5.688 L
cp
f
GR
GS
[0.75 0 0 0.75 0 0.5] CT
0.149 GC
2 setlinecap
1 LJ
0.667 LW
N
157 671 M
157 57 L
S
GR
GS
[0.75 0 0 0.75 0 0.5] CT
0.149 GC
2 setlinecap
1 LJ
0.667 LW
N
157 671 M
166.356 671 L
S
GR
GS
[0.75 0 0 0.75 0 0.5] CT
0.149 GC
2 setlinecap
1 LJ
0.667 LW
N
157 602.778 M
166.356 602.778 L
S
GR
GS
[0.75 0 0 0.75 0 0.5] CT
0.149 GC
2 setlinecap
1 LJ
0.667 LW
N
157 534.556 M
166.356 534.556 L
S
GR
GS
[0.75 0 0 0.75 0 0.5] CT
0.149 GC
2 setlinecap
1 LJ
0.667 LW
N
157 466.333 M
166.356 466.333 L
S
GR
GS
[0.75 0 0 0.75 0 0.5] CT
0.149 GC
2 setlinecap
1 LJ
0.667 LW
N
157 398.111 M
166.356 398.111 L
S
GR
GS
[0.75 0 0 0.75 0 0.5] CT
0.149 GC
2 setlinecap
1 LJ
0.667 LW
N
157 329.889 M
166.356 329.889 L
S
GR
GS
[0.75 0 0 0.75 0 0.5] CT
0.149 GC
2 setlinecap
1 LJ
0.667 LW
N
157 261.667 M
166.356 261.667 L
S
GR
GS
[0.75 0 0 0.75 0 0.5] CT
0.149 GC
2 setlinecap
1 LJ
0.667 LW
N
157 193.444 M
166.356 193.444 L
S
GR
GS
[0.75 0 0 0.75 0 0.5] CT
0.149 GC
2 setlinecap
1 LJ
0.667 LW
N
157 125.222 M
166.356 125.222 L
S
GR
GS
[0.75 0 0 0.75 0 0.5] CT
0.149 GC
2 setlinecap
1 LJ
0.667 LW
N
157 57 M
166.356 57 L
S
GR
GS
[0.75 0 0 0.75 112.15137 503.75] CT
0.149 GC
/Helvetica 24 F
GS
[1 0 0 1 0 0] CT
-31 8.5 moveto 
1 -1 scale
(78) t 
GR
GR
GS
[0.75 0 0 0.75 112.15137 452.58333] CT
0.149 GC
/Helvetica 24 F
GS
[1 0 0 1 0 0] CT
-31 8.5 moveto 
1 -1 scale
(79) t 
GR
GR
GS
[0.75 0 0 0.75 112.15137 401.41666] CT
0.149 GC
/Helvetica 24 F
GS
[1 0 0 1 0 0] CT
-31 8.5 moveto 
1 -1 scale
(80) t 
GR
GR
GS
[0.75 0 0 0.75 112.15137 350.25001] CT
0.149 GC
/Helvetica 24 F
GS
[1 0 0 1 0 0] CT
-31 8.5 moveto 
1 -1 scale
(81) t 
GR
GR
GS
[0.75 0 0 0.75 112.15137 299.08334] CT
0.149 GC
/Helvetica 24 F
GS
[1 0 0 1 0 0] CT
-31 8.5 moveto 
1 -1 scale
(82) t 
GR
GR
GS
[0.75 0 0 0.75 112.15137 247.91666] CT
0.149 GC
/Helvetica 24 F
GS
[1 0 0 1 0 0] CT
-31 8.5 moveto 
1 -1 scale
(83) t 
GR
GR
GS
[0.75 0 0 0.75 112.15137 196.74999] CT
0.149 GC
/Helvetica 24 F
GS
[1 0 0 1 0 0] CT
-31 8.5 moveto 
1 -1 scale
(84) t 
GR
GR
GS
[0.75 0 0 0.75 112.15137 145.58333] CT
0.149 GC
/Helvetica 24 F
GS
[1 0 0 1 0 0] CT
-31 8.5 moveto 
1 -1 scale
(85) t 
GR
GR
GS
[0.75 0 0 0.75 112.15137 94.41667] CT
0.149 GC
/Helvetica 24 F
GS
[1 0 0 1 0 0] CT
-31 8.5 moveto 
1 -1 scale
(86) t 
GR
GR
GS
[0.75 0 0 0.75 112.15137 43.25] CT
0.149 GC
/Helvetica 24 F
GS
[1 0 0 1 0 0] CT
-31 8.5 moveto 
1 -1 scale
(87) t 
GR
GR
GS
[0 -0.75 0.75 0 85.90063 273.49961] CT
0.149 GC
/Helvetica 29.333 F
GS
[1 0 0 1 0 0] CT
-109 -7 moveto 
1 -1 scale
(Transmisja [%]) t 
GR
GR
GS
[0.75 0 0 0.75 468.75 38.74981] CT
N
-523.844 -31.328 M
-502.344 -31.328 L
-502.344 -26.781 L
-510.078 -26.781 L
-510.078 -8 L
-516.094 -8 L
-516.094 -26.781 L
-523.844 -26.781 L
-523.844 -31.328 L
cp
-486.484 -20.734 M
-487.219 -21.078 -487.945 -21.242 QT
-488.672 -21.406 -489.406 -21.406 QT
-491.563 -21.406 -492.727 -20.023 QT
-493.891 -18.641 -493.891 -16.063 QT
-493.891 -8 L
-499.484 -8 L
-499.484 -25.5 L
-493.891 -25.5 L
-493.891 -22.625 L
-492.813 -24.344 -491.414 -25.133 QT
-490.016 -25.922 -488.063 -25.922 QT
-487.781 -25.922 -487.453 -25.898 QT
-487.125 -25.875 -486.5 -25.797 QT
-486.484 -20.734 L
cp
-475.859 -15.875 M
-477.609 -15.875 -478.492 -15.281 QT
-479.375 -14.688 -479.375 -13.531 QT
-479.375 -12.469 -478.664 -11.867 QT
-477.953 -11.266 -476.688 -11.266 QT
-475.109 -11.266 -474.031 -12.398 QT
-472.953 -13.531 -472.953 -15.234 QT
-472.953 -15.875 L
-475.859 -15.875 L
cp
-467.313 -17.984 M
-467.313 -8 L
-472.953 -8 L
-472.953 -10.594 L
-474.078 -9 -475.484 -8.273 QT
-476.891 -7.547 -478.906 -7.547 QT
-481.625 -7.547 -483.32 -9.133 QT
-485.016 -10.719 -485.016 -13.25 QT
-485.016 -16.328 -482.898 -17.766 QT
-480.781 -19.203 -476.25 -19.203 QT
-472.953 -19.203 L
-472.953 -19.641 L
-472.953 -20.969 -474 -21.586 QT
-475.047 -22.203 -477.266 -22.203 QT
-479.063 -22.203 -480.609 -21.844 QT
-482.156 -21.484 -483.484 -20.766 QT
-483.484 -25.031 L
-481.688 -25.469 -479.875 -25.695 QT
-478.063 -25.922 -476.25 -25.922 QT
-471.516 -25.922 -469.414 -24.055 QT
-467.313 -22.188 -467.313 -17.984 QT
cp
-444.516 -18.656 M
-444.516 -8 L
-450.141 -8 L
-450.141 -9.734 L
-450.141 -16.156 L
-450.141 -18.422 -450.242 -19.281 QT
-450.344 -20.141 -450.594 -20.547 QT
-450.922 -21.094 -451.484 -21.398 QT
-452.047 -21.703 -452.766 -21.703 QT
-454.516 -21.703 -455.516 -20.352 QT
-456.516 -19 -456.516 -16.609 QT
-456.516 -8 L
-462.109 -8 L
-462.109 -25.5 L
-456.516 -25.5 L
-456.516 -22.938 L
-455.25 -24.469 -453.828 -25.195 QT
-452.406 -25.922 -450.688 -25.922 QT
-447.656 -25.922 -446.086 -24.063 QT
-444.516 -22.203 -444.516 -18.656 QT
cp
-425.656 -24.953 M
-425.656 -20.703 L
-427.453 -21.453 -429.125 -21.828 QT
-430.797 -22.203 -432.281 -22.203 QT
-433.875 -22.203 -434.648 -21.805 QT
-435.422 -21.406 -435.422 -20.578 QT
-435.422 -19.906 -434.836 -19.547 QT
-434.25 -19.188 -432.734 -19.016 QT
-431.75 -18.875 L
-427.453 -18.328 -425.969 -17.078 QT
-424.484 -15.828 -424.484 -13.156 QT
-424.484 -10.359 -426.547 -8.953 QT
-428.609 -7.547 -432.703 -7.547 QT
-434.438 -7.547 -436.289 -7.82 QT
-438.141 -8.094 -440.094 -8.641 QT
-440.094 -12.891 L
-438.422 -12.078 -436.664 -11.672 QT
-434.906 -11.266 -433.094 -11.266 QT
-431.453 -11.266 -430.625 -11.719 QT
-429.797 -12.172 -429.797 -13.063 QT
-429.797 -13.813 -430.367 -14.18 QT
-430.938 -14.547 -432.641 -14.75 QT
-433.625 -14.875 L
-437.359 -15.344 -438.859 -16.609 QT
-440.359 -17.875 -440.359 -20.453 QT
-440.359 -23.234 -438.453 -24.578 QT
-436.547 -25.922 -432.609 -25.922 QT
-431.063 -25.922 -429.359 -25.688 QT
-427.656 -25.453 -425.656 -24.953 QT
cp
-404.063 -22.594 M
-403 -24.219 -401.539 -25.07 QT
-400.078 -25.922 -398.328 -25.922 QT
-395.313 -25.922 -393.734 -24.063 QT
-392.156 -22.203 -392.156 -18.656 QT
-392.156 -8 L
-397.781 -8 L
-397.781 -17.125 L
-397.766 -17.328 -397.758 -17.547 QT
-397.75 -17.766 -397.75 -18.172 QT
-397.75 -20.031 -398.297 -20.867 QT
-398.844 -21.703 -400.063 -21.703 QT
-401.656 -21.703 -402.523 -20.391 QT
-403.391 -19.078 -403.422 -16.594 QT
-403.422 -8 L
-409.047 -8 L
-409.047 -17.125 L
-409.047 -20.031 -409.547 -20.867 QT
-410.047 -21.703 -411.328 -21.703 QT
-412.938 -21.703 -413.813 -20.383 QT
-414.688 -19.063 -414.688 -16.609 QT
-414.688 -8 L
-420.313 -8 L
-420.313 -25.5 L
-414.688 -25.5 L
-414.688 -22.938 L
-413.656 -24.422 -412.32 -25.172 QT
-410.984 -25.922 -409.375 -25.922 QT
-407.563 -25.922 -406.172 -25.047 QT
-404.781 -24.172 -404.063 -22.594 QT
cp
-386.938 -25.5 M
-381.344 -25.5 L
-381.344 -8 L
-386.938 -8 L
-386.938 -25.5 L
cp
-386.938 -32.313 M
-381.344 -32.313 L
-381.344 -27.75 L
-386.938 -27.75 L
-386.938 -32.313 L
cp
-362.297 -24.953 M
-362.297 -20.703 L
-364.094 -21.453 -365.766 -21.828 QT
-367.438 -22.203 -368.922 -22.203 QT
-370.516 -22.203 -371.289 -21.805 QT
-372.063 -21.406 -372.063 -20.578 QT
-372.063 -19.906 -371.477 -19.547 QT
-370.891 -19.188 -369.375 -19.016 QT
-368.391 -18.875 L
-364.094 -18.328 -362.609 -17.078 QT
-361.125 -15.828 -361.125 -13.156 QT
-361.125 -10.359 -363.188 -8.953 QT
-365.25 -7.547 -369.344 -7.547 QT
-371.078 -7.547 -372.93 -7.82 QT
-374.781 -8.094 -376.734 -8.641 QT
-376.734 -12.891 L
-375.063 -12.078 -373.305 -11.672 QT
-371.547 -11.266 -369.734 -11.266 QT
-368.094 -11.266 -367.266 -11.719 QT
-366.438 -12.172 -366.438 -13.063 QT
-366.438 -13.813 -367.008 -14.18 QT
-367.578 -14.547 -369.281 -14.75 QT
-370.266 -14.875 L
-374 -15.344 -375.5 -16.609 QT
-377 -17.875 -377 -20.453 QT
-377 -23.234 -375.094 -24.578 QT
-373.188 -25.922 -369.25 -25.922 QT
-367.703 -25.922 -366 -25.688 QT
-364.297 -25.453 -362.297 -24.953 QT
cp
-356.922 -25.5 M
-351.328 -25.5 L
-351.328 -8.313 L
-351.328 -4.797 -353.016 -2.945 QT
-354.703 -1.094 -357.906 -1.094 QT
-360.672 -1.094 L
-360.672 -4.766 L
-359.703 -4.766 L
-358.109 -4.766 -357.516 -5.484 QT
-356.922 -6.203 -356.922 -8.313 QT
-356.922 -25.5 L
cp
-356.922 -32.313 M
-351.328 -32.313 L
-351.328 -27.75 L
-356.922 -27.75 L
-356.922 -32.313 L
cp
-338.109 -15.875 M
-339.859 -15.875 -340.742 -15.281 QT
-341.625 -14.688 -341.625 -13.531 QT
-341.625 -12.469 -340.914 -11.867 QT
-340.203 -11.266 -338.938 -11.266 QT
-337.359 -11.266 -336.281 -12.398 QT
-335.203 -13.531 -335.203 -15.234 QT
-335.203 -15.875 L
-338.109 -15.875 L
cp
-329.563 -17.984 M
-329.563 -8 L
-335.203 -8 L
-335.203 -10.594 L
-336.328 -9 -337.734 -8.273 QT
-339.141 -7.547 -341.156 -7.547 QT
-343.875 -7.547 -345.57 -9.133 QT
-347.266 -10.719 -347.266 -13.25 QT
-347.266 -16.328 -345.148 -17.766 QT
-343.031 -19.203 -338.5 -19.203 QT
-335.203 -19.203 L
-335.203 -19.641 L
-335.203 -20.969 -336.25 -21.586 QT
-337.297 -22.203 -339.516 -22.203 QT
-341.313 -22.203 -342.859 -21.844 QT
-344.406 -21.484 -345.734 -20.766 QT
-345.734 -25.031 L
-343.938 -25.469 -342.125 -25.695 QT
-340.313 -25.922 -338.5 -25.922 QT
-333.766 -25.922 -331.664 -24.055 QT
-329.563 -22.188 -329.563 -17.984 QT
cp
-294.469 -9.281 M
-296.125 -8.422 -297.922 -7.984 QT
-299.719 -7.547 -301.672 -7.547 QT
-307.5 -7.547 -310.906 -10.805 QT
-314.313 -14.063 -314.313 -19.641 QT
-314.313 -25.234 -310.906 -28.492 QT
-307.5 -31.75 -301.672 -31.75 QT
-299.719 -31.75 -297.922 -31.313 QT
-296.125 -30.875 -294.469 -30.016 QT
-294.469 -25.188 L
-296.141 -26.328 -297.766 -26.859 QT
-299.391 -27.391 -301.188 -27.391 QT
-304.406 -27.391 -306.25 -25.328 QT
-308.094 -23.266 -308.094 -19.641 QT
-308.094 -16.031 -306.25 -13.969 QT
-304.406 -11.906 -301.188 -11.906 QT
-299.391 -11.906 -297.766 -12.438 QT
-296.141 -12.969 -294.469 -14.109 QT
-294.469 -9.281 L
cp
-289.484 -31.328 M
-273.25 -31.328 L
-273.25 -26.781 L
-283.469 -26.781 L
-283.469 -22.438 L
-273.859 -22.438 L
-273.859 -17.891 L
-283.469 -17.891 L
-283.469 -8 L
-289.484 -8 L
-289.484 -31.328 L
cp
-258.281 -22.297 M
-256.859 -22.297 -256.125 -22.922 QT
-255.391 -23.547 -255.391 -24.766 QT
-255.391 -25.969 -256.125 -26.602 QT
-256.859 -27.234 -258.281 -27.234 QT
-261.609 -27.234 L
-261.609 -22.297 L
-258.281 -22.297 L
cp
-258.078 -12.094 M
-256.266 -12.094 -255.352 -12.859 QT
-254.438 -13.625 -254.438 -15.172 QT
-254.438 -16.688 -255.344 -17.445 QT
-256.25 -18.203 -258.078 -18.203 QT
-261.609 -18.203 L
-261.609 -12.094 L
-258.078 -12.094 L
cp
-252.484 -20.484 M
-250.547 -19.922 -249.484 -18.406 QT
-248.422 -16.891 -248.422 -14.688 QT
-248.422 -11.313 -250.703 -9.656 QT
-252.984 -8 -257.641 -8 QT
-267.625 -8 L
-267.625 -31.328 L
-258.594 -31.328 L
-253.734 -31.328 -251.555 -29.859 QT
-249.375 -28.391 -249.375 -25.156 QT
-249.375 -23.453 -250.172 -22.258 QT
-250.969 -21.063 -252.484 -20.484 QT
cp
-222.266 -9.734 M
-224.516 -8.641 -226.938 -8.094 QT
-229.359 -7.547 -231.938 -7.547 QT
-237.766 -7.547 -241.172 -10.805 QT
-244.578 -14.063 -244.578 -19.641 QT
-244.578 -25.281 -241.109 -28.516 QT
-237.641 -31.75 -231.609 -31.75 QT
-229.281 -31.75 -227.148 -31.313 QT
-225.016 -30.875 -223.125 -30.016 QT
-223.125 -25.188 L
-225.078 -26.297 -227.008 -26.844 QT
-228.938 -27.391 -230.875 -27.391 QT
-234.469 -27.391 -236.414 -25.383 QT
-238.359 -23.375 -238.359 -19.641 QT
-238.359 -15.938 -236.484 -13.922 QT
-234.609 -11.906 -231.156 -11.906 QT
-230.219 -11.906 -229.414 -12.023 QT
-228.609 -12.141 -227.969 -12.391 QT
-227.969 -16.922 L
-231.641 -16.922 L
-231.641 -20.953 L
-222.266 -20.953 L
-222.266 -9.734 L
cp
-194.172 -22.938 M
-194.172 -32.313 L
-188.547 -32.313 L
-188.547 -8 L
-194.172 -8 L
-194.172 -10.531 L
-195.328 -8.984 -196.719 -8.266 QT
-198.109 -7.547 -199.938 -7.547 QT
-203.172 -7.547 -205.25 -10.117 QT
-207.328 -12.688 -207.328 -16.734 QT
-207.328 -20.781 -205.25 -23.352 QT
-203.172 -25.922 -199.938 -25.922 QT
-198.125 -25.922 -196.727 -25.195 QT
-195.328 -24.469 -194.172 -22.938 QT
cp
-197.859 -11.609 M
-196.063 -11.609 -195.117 -12.922 QT
-194.172 -14.234 -194.172 -16.734 QT
-194.172 -19.234 -195.117 -20.547 QT
-196.063 -21.859 -197.859 -21.859 QT
-199.641 -21.859 -200.586 -20.547 QT
-201.531 -19.234 -201.531 -16.734 QT
-201.531 -14.234 -200.586 -12.922 QT
-199.641 -11.609 -197.859 -11.609 QT
cp
-183.172 -32.313 M
-177.578 -32.313 L
-177.578 -8 L
-183.172 -8 L
-183.172 -32.313 L
cp
-164.359 -15.875 M
-166.109 -15.875 -166.992 -15.281 QT
-167.875 -14.688 -167.875 -13.531 QT
-167.875 -12.469 -167.164 -11.867 QT
-166.453 -11.266 -165.188 -11.266 QT
-163.609 -11.266 -162.531 -12.398 QT
-161.453 -13.531 -161.453 -15.234 QT
-161.453 -15.875 L
-164.359 -15.875 L
cp
-155.813 -17.984 M
-155.813 -8 L
-161.453 -8 L
-161.453 -10.594 L
-162.578 -9 -163.984 -8.273 QT
-165.391 -7.547 -167.406 -7.547 QT
-170.125 -7.547 -171.82 -9.133 QT
-173.516 -10.719 -173.516 -13.25 QT
-173.516 -16.328 -171.398 -17.766 QT
-169.281 -19.203 -164.75 -19.203 QT
-161.453 -19.203 L
-161.453 -19.641 L
-161.453 -20.969 -162.5 -21.586 QT
-163.547 -22.203 -165.766 -22.203 QT
-167.563 -22.203 -169.109 -21.844 QT
-170.656 -21.484 -171.984 -20.766 QT
-171.984 -25.031 L
-170.188 -25.469 -168.375 -25.695 QT
-166.563 -25.922 -164.75 -25.922 QT
-160.016 -25.922 -157.914 -24.055 QT
-155.813 -22.188 -155.813 -17.984 QT
cp
-133.875 -10.531 M
-133.875 -1.344 L
-139.469 -1.344 L
-139.469 -25.5 L
-133.875 -25.5 L
-133.875 -22.938 L
-132.719 -24.469 -131.313 -25.195 QT
-129.906 -25.922 -128.078 -25.922 QT
-124.844 -25.922 -122.766 -23.352 QT
-120.688 -20.781 -120.688 -16.734 QT
-120.688 -12.688 -122.766 -10.117 QT
-124.844 -7.547 -128.078 -7.547 QT
-129.906 -7.547 -131.313 -8.273 QT
-132.719 -9 -133.875 -10.531 QT
cp
-130.156 -21.859 M
-131.953 -21.859 -132.914 -20.539 QT
-133.875 -19.219 -133.875 -16.734 QT
-133.875 -14.25 -132.914 -12.93 QT
-131.953 -11.609 -130.156 -11.609 QT
-128.359 -11.609 -127.414 -12.922 QT
-126.469 -14.234 -126.469 -16.734 QT
-126.469 -19.234 -127.414 -20.547 QT
-128.359 -21.859 -130.156 -21.859 QT
cp
-108.234 -21.922 M
-110.094 -21.922 -111.07 -20.586 QT
-112.047 -19.25 -112.047 -16.734 QT
-112.047 -14.219 -111.07 -12.883 QT
-110.094 -11.547 -108.234 -11.547 QT
-106.406 -11.547 -105.438 -12.883 QT
-104.469 -14.219 -104.469 -16.734 QT
-104.469 -19.25 -105.438 -20.586 QT
-106.406 -21.922 -108.234 -21.922 QT
cp
-108.234 -25.922 M
-103.719 -25.922 -101.18 -23.484 QT
-98.641 -21.047 -98.641 -16.734 QT
-98.641 -12.422 -101.18 -9.984 QT
-103.719 -7.547 -108.234 -7.547 QT
-112.766 -7.547 -115.32 -9.984 QT
-117.875 -12.422 -117.875 -16.734 QT
-117.875 -21.047 -115.32 -23.484 QT
-112.766 -25.922 -108.234 -25.922 QT
cp
-94.578 -32.313 M
-88.984 -32.313 L
-88.984 -8 L
-94.578 -8 L
-94.578 -32.313 L
cp
-75.766 -15.875 M
-77.516 -15.875 -78.398 -15.281 QT
-79.281 -14.688 -79.281 -13.531 QT
-79.281 -12.469 -78.57 -11.867 QT
-77.859 -11.266 -76.594 -11.266 QT
-75.016 -11.266 -73.938 -12.398 QT
-72.859 -13.531 -72.859 -15.234 QT
-72.859 -15.875 L
-75.766 -15.875 L
cp
-67.219 -17.984 M
-67.219 -8 L
-72.859 -8 L
-72.859 -10.594 L
-73.984 -9 -75.391 -8.273 QT
-76.797 -7.547 -78.813 -7.547 QT
-81.531 -7.547 -83.227 -9.133 QT
-84.922 -10.719 -84.922 -13.25 QT
-84.922 -16.328 -82.805 -17.766 QT
-80.688 -19.203 -76.156 -19.203 QT
-72.859 -19.203 L
-72.859 -19.641 L
-72.859 -20.969 -73.906 -21.586 QT
-74.953 -22.203 -77.172 -22.203 QT
-78.969 -22.203 -80.516 -21.844 QT
-82.063 -21.484 -83.391 -20.766 QT
-83.391 -25.031 L
-81.594 -25.469 -79.781 -25.695 QT
-77.969 -25.922 -76.156 -25.922 QT
-71.422 -25.922 -69.32 -24.055 QT
-67.219 -22.188 -67.219 -17.984 QT
cp
-49.016 -20.734 M
-49.75 -21.078 -50.477 -21.242 QT
-51.203 -21.406 -51.938 -21.406 QT
-54.094 -21.406 -55.258 -20.023 QT
-56.422 -18.641 -56.422 -16.063 QT
-56.422 -8 L
-62.016 -8 L
-62.016 -25.5 L
-56.422 -25.5 L
-56.422 -22.625 L
-55.344 -24.344 -53.945 -25.133 QT
-52.547 -25.922 -50.594 -25.922 QT
-50.313 -25.922 -49.984 -25.898 QT
-49.656 -25.875 -49.031 -25.797 QT
-49.016 -20.734 L
cp
-48.531 -25.5 M
-42.938 -25.5 L
-38.234 -13.625 L
-34.234 -25.5 L
-28.641 -25.5 L
-36 -6.344 L
-37.109 -3.422 -38.586 -2.258 QT
-40.063 -1.094 -42.484 -1.094 QT
-45.719 -1.094 L
-45.719 -4.766 L
-43.969 -4.766 L
-42.547 -4.766 -41.898 -5.219 QT
-41.25 -5.672 -40.891 -6.844 QT
-40.734 -7.328 L
-48.531 -25.5 L
cp
-26.234 -25.5 M
-10.969 -25.5 L
-10.969 -21.594 L
-20.188 -12 L
-10.969 -12 L
-10.969 -8 L
-26.625 -8 L
-26.625 -11.906 L
-17.406 -21.5 L
-26.234 -21.5 L
-26.234 -25.5 L
cp
1.094 -15.875 M
-0.656 -15.875 -1.539 -15.281 QT
-2.422 -14.688 -2.422 -13.531 QT
-2.422 -12.469 -1.711 -11.867 QT
-1 -11.266 0.266 -11.266 QT
1.844 -11.266 2.922 -12.398 QT
4 -13.531 4 -15.234 QT
4 -15.875 L
1.094 -15.875 L
cp
9.641 -17.984 M
9.641 -8 L
4 -8 L
4 -10.594 L
2.875 -9 1.469 -8.273 QT
0.063 -7.547 -1.953 -7.547 QT
-4.672 -7.547 -6.367 -9.133 QT
-8.063 -10.719 -8.063 -13.25 QT
-8.063 -16.328 -5.945 -17.766 QT
-3.828 -19.203 0.703 -19.203 QT
4 -19.203 L
4 -19.641 L
4 -20.969 2.953 -21.586 QT
1.906 -22.203 -0.313 -22.203 QT
-2.109 -22.203 -3.656 -21.844 QT
-5.203 -21.484 -6.531 -20.766 QT
-6.531 -25.031 L
-4.734 -25.469 -2.922 -25.695 QT
-1.109 -25.922 0.703 -25.922 QT
5.438 -25.922 7.539 -24.055 QT
9.641 -22.188 9.641 -17.984 QT
cp
28.984 -24.953 M
28.984 -20.391 L
27.844 -21.172 26.695 -21.547 QT
25.547 -21.922 24.313 -21.922 QT
21.969 -21.922 20.664 -20.555 QT
19.359 -19.188 19.359 -16.734 QT
19.359 -14.281 20.664 -12.914 QT
21.969 -11.547 24.313 -11.547 QT
25.625 -11.547 26.805 -11.938 QT
27.984 -12.328 28.984 -13.094 QT
28.984 -8.516 L
27.672 -8.031 26.32 -7.789 QT
24.969 -7.547 23.609 -7.547 QT
18.875 -7.547 16.203 -9.977 QT
13.531 -12.406 13.531 -16.734 QT
13.531 -21.063 16.203 -23.492 QT
18.875 -25.922 23.609 -25.922 QT
24.984 -25.922 26.32 -25.68 QT
27.656 -25.438 28.984 -24.953 QT
cp
33.813 -25.5 M
39.406 -25.5 L
39.406 -8.313 L
39.406 -4.797 37.719 -2.945 QT
36.031 -1.094 32.828 -1.094 QT
30.063 -1.094 L
30.063 -4.766 L
31.031 -4.766 L
32.625 -4.766 33.219 -5.484 QT
33.813 -6.203 33.813 -8.313 QT
33.813 -25.5 L
cp
33.813 -32.313 M
39.406 -32.313 L
39.406 -27.75 L
33.813 -27.75 L
33.813 -32.313 L
cp
44.781 -25.5 M
50.375 -25.5 L
50.375 -8 L
44.781 -8 L
44.781 -25.5 L
cp
44.781 -32.313 M
50.375 -32.313 L
50.375 -27.75 L
44.781 -27.75 L
44.781 -32.313 L
cp
65.328 -25.5 M
70.766 -25.5 L
73.703 -13.438 L
76.656 -25.5 L
81.328 -25.5 L
84.266 -13.563 L
87.219 -25.5 L
92.656 -25.5 L
88.047 -8 L
81.938 -8 L
78.984 -20.031 L
76.047 -8 L
69.938 -8 L
65.328 -25.5 L
cp
119.109 -32.313 M
119.109 -28.641 L
116.016 -28.641 L
114.828 -28.641 114.359 -28.211 QT
113.891 -27.781 113.891 -26.719 QT
113.891 -25.5 L
118.672 -25.5 L
118.672 -21.5 L
113.891 -21.5 L
113.891 -8 L
108.297 -8 L
108.297 -21.5 L
105.516 -21.5 L
105.516 -25.5 L
108.297 -25.5 L
108.297 -26.719 L
108.297 -29.578 109.891 -30.945 QT
111.484 -32.313 114.828 -32.313 QT
119.109 -32.313 L
cp
121.328 -14.813 M
121.328 -25.5 L
126.953 -25.5 L
126.953 -23.75 L
126.953 -22.328 126.938 -20.18 QT
126.922 -18.031 126.922 -17.313 QT
126.922 -15.203 127.031 -14.273 QT
127.141 -13.344 127.406 -12.922 QT
127.75 -12.375 128.305 -12.078 QT
128.859 -11.781 129.578 -11.781 QT
131.328 -11.781 132.328 -13.125 QT
133.328 -14.469 133.328 -16.859 QT
133.328 -25.5 L
138.922 -25.5 L
138.922 -8 L
133.328 -8 L
133.328 -10.531 L
132.063 -9 130.648 -8.273 QT
129.234 -7.547 127.531 -7.547 QT
124.5 -7.547 122.914 -9.406 QT
121.328 -11.266 121.328 -14.813 QT
cp
161.891 -18.656 M
161.891 -8 L
156.266 -8 L
156.266 -9.734 L
156.266 -16.156 L
156.266 -18.422 156.164 -19.281 QT
156.063 -20.141 155.813 -20.547 QT
155.484 -21.094 154.922 -21.398 QT
154.359 -21.703 153.641 -21.703 QT
151.891 -21.703 150.891 -20.352 QT
149.891 -19 149.891 -16.609 QT
149.891 -8 L
144.297 -8 L
144.297 -25.5 L
149.891 -25.5 L
149.891 -22.938 L
151.156 -24.469 152.578 -25.195 QT
154 -25.922 155.719 -25.922 QT
158.75 -25.922 160.32 -24.063 QT
161.891 -22.203 161.891 -18.656 QT
cp
167.078 -32.313 M
172.672 -32.313 L
172.672 -19.078 L
179.109 -25.5 L
185.609 -25.5 L
177.063 -17.469 L
186.281 -8 L
179.5 -8 L
172.672 -15.297 L
172.672 -8 L
167.078 -8 L
167.078 -32.313 L
cp
202.5 -24.953 M
202.5 -20.391 L
201.359 -21.172 200.211 -21.547 QT
199.063 -21.922 197.828 -21.922 QT
195.484 -21.922 194.18 -20.555 QT
192.875 -19.188 192.875 -16.734 QT
192.875 -14.281 194.18 -12.914 QT
195.484 -11.547 197.828 -11.547 QT
199.141 -11.547 200.32 -11.938 QT
201.5 -12.328 202.5 -13.094 QT
202.5 -8.516 L
201.188 -8.031 199.836 -7.789 QT
198.484 -7.547 197.125 -7.547 QT
192.391 -7.547 189.719 -9.977 QT
187.047 -12.406 187.047 -16.734 QT
187.047 -21.063 189.719 -23.492 QT
192.391 -25.922 197.125 -25.922 QT
198.5 -25.922 199.836 -25.68 QT
201.172 -25.438 202.5 -24.953 QT
cp
207.328 -25.5 M
212.922 -25.5 L
212.922 -8.313 L
212.922 -4.797 211.234 -2.945 QT
209.547 -1.094 206.344 -1.094 QT
203.578 -1.094 L
203.578 -4.766 L
204.547 -4.766 L
206.141 -4.766 206.734 -5.484 QT
207.328 -6.203 207.328 -8.313 QT
207.328 -25.5 L
cp
207.328 -32.313 M
212.922 -32.313 L
212.922 -27.75 L
207.328 -27.75 L
207.328 -32.313 L
cp
218.297 -25.5 M
223.891 -25.5 L
223.891 -8 L
218.297 -8 L
218.297 -25.5 L
cp
218.297 -32.313 M
223.891 -32.313 L
223.891 -27.75 L
218.297 -27.75 L
218.297 -32.313 L
cp
240.406 -32.313 M
246 -32.313 L
246 -19.078 L
252.438 -25.5 L
258.938 -25.5 L
250.391 -17.469 L
259.609 -8 L
252.828 -8 L
246 -15.297 L
246 -8 L
240.406 -8 L
240.406 -32.313 L
cp
272.078 -8 M
274.281 -8 L
273.5 -6.953 273.203 -6.383 QT
272.906 -5.813 272.906 -5.406 QT
272.906 -4.797 273.367 -4.414 QT
273.828 -4.031 274.594 -4.031 QT
275.203 -4.031 275.805 -4.148 QT
276.406 -4.266 277.031 -4.516 QT
277.031 -2.078 L
276.172 -1.906 275.438 -1.82 QT
274.703 -1.734 274.063 -1.734 QT
272.266 -1.734 271.305 -2.453 QT
270.344 -3.172 270.344 -4.516 QT
270.344 -5.344 270.766 -6.195 QT
271.188 -7.047 272.078 -8 QT
cp
269.531 -15.875 M
267.781 -15.875 266.898 -15.281 QT
266.016 -14.688 266.016 -13.531 QT
266.016 -12.469 266.727 -11.867 QT
267.438 -11.266 268.703 -11.266 QT
270.281 -11.266 271.359 -12.398 QT
272.438 -13.531 272.438 -15.234 QT
272.438 -15.875 L
269.531 -15.875 L
cp
278.078 -17.984 M
278.078 -8 L
272.438 -8 L
272.438 -10.594 L
271.313 -9 269.906 -8.273 QT
268.5 -7.547 266.484 -7.547 QT
263.766 -7.547 262.07 -9.133 QT
260.375 -10.719 260.375 -13.25 QT
260.375 -16.328 262.492 -17.766 QT
264.609 -19.203 269.141 -19.203 QT
272.438 -19.203 L
272.438 -19.641 L
272.438 -20.969 271.391 -21.586 QT
270.344 -22.203 268.125 -22.203 QT
266.328 -22.203 264.781 -21.844 QT
263.234 -21.484 261.906 -20.766 QT
261.906 -25.031 L
263.703 -25.469 265.516 -25.695 QT
267.328 -25.922 269.141 -25.922 QT
273.875 -25.922 275.977 -24.055 QT
278.078 -22.188 278.078 -17.984 QT
cp
289.391 -30.469 M
289.391 -25.5 L
295.156 -25.5 L
295.156 -21.5 L
289.391 -21.5 L
289.391 -14.078 L
289.391 -12.859 289.875 -12.43 QT
290.359 -12 291.797 -12 QT
294.672 -12 L
294.672 -8 L
289.875 -8 L
286.563 -8 285.18 -9.383 QT
283.797 -10.766 283.797 -14.078 QT
283.797 -21.5 L
281.016 -21.5 L
281.016 -25.5 L
283.797 -25.5 L
283.797 -30.469 L
289.391 -30.469 L
cp
306.422 -15.875 M
304.672 -15.875 303.789 -15.281 QT
302.906 -14.688 302.906 -13.531 QT
302.906 -12.469 303.617 -11.867 QT
304.328 -11.266 305.594 -11.266 QT
307.172 -11.266 308.25 -12.398 QT
309.328 -13.531 309.328 -15.234 QT
309.328 -15.875 L
306.422 -15.875 L
cp
314.969 -17.984 M
314.969 -8 L
309.328 -8 L
309.328 -10.594 L
308.203 -9 306.797 -8.273 QT
305.391 -7.547 303.375 -7.547 QT
300.656 -7.547 298.961 -9.133 QT
297.266 -10.719 297.266 -13.25 QT
297.266 -16.328 299.383 -17.766 QT
301.5 -19.203 306.031 -19.203 QT
309.328 -19.203 L
309.328 -19.641 L
309.328 -20.969 308.281 -21.586 QT
307.234 -22.203 305.016 -22.203 QT
303.219 -22.203 301.672 -21.844 QT
300.125 -21.484 298.797 -20.766 QT
298.797 -25.031 L
300.594 -25.469 302.406 -25.695 QT
304.219 -25.922 306.031 -25.922 QT
310.766 -25.922 312.867 -24.055 QT
314.969 -22.188 314.969 -17.984 QT
cp
336.906 -10.531 M
336.906 -1.344 L
331.313 -1.344 L
331.313 -25.5 L
336.906 -25.5 L
336.906 -22.938 L
338.063 -24.469 339.469 -25.195 QT
340.875 -25.922 342.703 -25.922 QT
345.938 -25.922 348.016 -23.352 QT
350.094 -20.781 350.094 -16.734 QT
350.094 -12.688 348.016 -10.117 QT
345.938 -7.547 342.703 -7.547 QT
340.875 -7.547 339.469 -8.273 QT
338.063 -9 336.906 -10.531 QT
cp
340.625 -21.859 M
338.828 -21.859 337.867 -20.539 QT
336.906 -19.219 336.906 -16.734 QT
336.906 -14.25 337.867 -12.93 QT
338.828 -11.609 340.625 -11.609 QT
342.422 -11.609 343.367 -12.922 QT
344.313 -14.234 344.313 -16.734 QT
344.313 -19.234 343.367 -20.547 QT
342.422 -21.859 340.625 -21.859 QT
cp
362.547 -21.922 M
360.688 -21.922 359.711 -20.586 QT
358.734 -19.25 358.734 -16.734 QT
358.734 -14.219 359.711 -12.883 QT
360.688 -11.547 362.547 -11.547 QT
364.375 -11.547 365.344 -12.883 QT
366.313 -14.219 366.313 -16.734 QT
366.313 -19.25 365.344 -20.586 QT
364.375 -21.922 362.547 -21.922 QT
cp
362.547 -25.922 M
367.063 -25.922 369.602 -23.484 QT
372.141 -21.047 372.141 -16.734 QT
372.141 -12.422 369.602 -9.984 QT
367.063 -7.547 362.547 -7.547 QT
358.016 -7.547 355.461 -9.984 QT
352.906 -12.422 352.906 -16.734 QT
352.906 -21.047 355.461 -23.484 QT
358.016 -25.922 362.547 -25.922 QT
cp
376.203 -32.313 M
381.797 -32.313 L
381.797 -8 L
376.203 -8 L
376.203 -32.313 L
cp
395.016 -15.875 M
393.266 -15.875 392.383 -15.281 QT
391.5 -14.688 391.5 -13.531 QT
391.5 -12.469 392.211 -11.867 QT
392.922 -11.266 394.188 -11.266 QT
395.766 -11.266 396.844 -12.398 QT
397.922 -13.531 397.922 -15.234 QT
397.922 -15.875 L
395.016 -15.875 L
cp
403.563 -17.984 M
403.563 -8 L
397.922 -8 L
397.922 -10.594 L
396.797 -9 395.391 -8.273 QT
393.984 -7.547 391.969 -7.547 QT
389.25 -7.547 387.555 -9.133 QT
385.859 -10.719 385.859 -13.25 QT
385.859 -16.328 387.977 -17.766 QT
390.094 -19.203 394.625 -19.203 QT
397.922 -19.203 L
397.922 -19.641 L
397.922 -20.969 396.875 -21.586 QT
395.828 -22.203 393.609 -22.203 QT
391.813 -22.203 390.266 -21.844 QT
388.719 -21.484 387.391 -20.766 QT
387.391 -25.031 L
389.188 -25.469 391 -25.695 QT
392.813 -25.922 394.625 -25.922 QT
399.359 -25.922 401.461 -24.055 QT
403.563 -22.188 403.563 -17.984 QT
cp
421.766 -20.734 M
421.031 -21.078 420.305 -21.242 QT
419.578 -21.406 418.844 -21.406 QT
416.688 -21.406 415.523 -20.023 QT
414.359 -18.641 414.359 -16.063 QT
414.359 -8 L
408.766 -8 L
408.766 -25.5 L
414.359 -25.5 L
414.359 -22.625 L
415.438 -24.344 416.836 -25.133 QT
418.234 -25.922 420.188 -25.922 QT
420.469 -25.922 420.797 -25.898 QT
421.125 -25.875 421.75 -25.797 QT
421.766 -20.734 L
cp
422.25 -25.5 M
427.844 -25.5 L
432.547 -13.625 L
436.547 -25.5 L
442.141 -25.5 L
434.781 -6.344 L
433.672 -3.422 432.195 -2.258 QT
430.719 -1.094 428.297 -1.094 QT
425.063 -1.094 L
425.063 -4.766 L
426.813 -4.766 L
428.234 -4.766 428.883 -5.219 QT
429.531 -5.672 429.891 -6.844 QT
430.047 -7.328 L
422.25 -25.5 L
cp
444.547 -25.5 M
459.813 -25.5 L
459.813 -21.594 L
450.594 -12 L
459.813 -12 L
459.813 -8 L
444.156 -8 L
444.156 -11.906 L
453.375 -21.5 L
444.547 -21.5 L
444.547 -25.5 L
cp
471.875 -15.875 M
470.125 -15.875 469.242 -15.281 QT
468.359 -14.688 468.359 -13.531 QT
468.359 -12.469 469.07 -11.867 QT
469.781 -11.266 471.047 -11.266 QT
472.625 -11.266 473.703 -12.398 QT
474.781 -13.531 474.781 -15.234 QT
474.781 -15.875 L
471.875 -15.875 L
cp
480.422 -17.984 M
480.422 -8 L
474.781 -8 L
474.781 -10.594 L
473.656 -9 472.25 -8.273 QT
470.844 -7.547 468.828 -7.547 QT
466.109 -7.547 464.414 -9.133 QT
462.719 -10.719 462.719 -13.25 QT
462.719 -16.328 464.836 -17.766 QT
466.953 -19.203 471.484 -19.203 QT
474.781 -19.203 L
474.781 -19.641 L
474.781 -20.969 473.734 -21.586 QT
472.688 -22.203 470.469 -22.203 QT
468.672 -22.203 467.125 -21.844 QT
465.578 -21.484 464.25 -20.766 QT
464.25 -25.031 L
466.047 -25.469 467.859 -25.695 QT
469.672 -25.922 471.484 -25.922 QT
476.219 -25.922 478.32 -24.055 QT
480.422 -22.188 480.422 -17.984 QT
cp
499.766 -24.953 M
499.766 -20.391 L
498.625 -21.172 497.477 -21.547 QT
496.328 -21.922 495.094 -21.922 QT
492.75 -21.922 491.445 -20.555 QT
490.141 -19.188 490.141 -16.734 QT
490.141 -14.281 491.445 -12.914 QT
492.75 -11.547 495.094 -11.547 QT
496.406 -11.547 497.586 -11.938 QT
498.766 -12.328 499.766 -13.094 QT
499.766 -8.516 L
498.453 -8.031 497.102 -7.789 QT
495.75 -7.547 494.391 -7.547 QT
489.656 -7.547 486.984 -9.977 QT
484.313 -12.406 484.313 -16.734 QT
484.313 -21.063 486.984 -23.492 QT
489.656 -25.922 494.391 -25.922 QT
495.766 -25.922 497.102 -25.68 QT
498.438 -25.438 499.766 -24.953 QT
cp
504.594 -25.5 M
510.188 -25.5 L
510.188 -8.313 L
510.188 -4.797 508.5 -2.945 QT
506.813 -1.094 503.609 -1.094 QT
500.844 -1.094 L
500.844 -4.766 L
501.813 -4.766 L
503.406 -4.766 504 -5.484 QT
504.594 -6.203 504.594 -8.313 QT
504.594 -25.5 L
cp
504.594 -32.313 M
510.188 -32.313 L
510.188 -27.75 L
504.594 -27.75 L
504.594 -32.313 L
cp
515.563 -25.5 M
521.156 -25.5 L
521.156 -8 L
515.563 -8 L
515.563 -25.5 L
cp
515.563 -32.313 M
521.156 -32.313 L
521.156 -27.75 L
515.563 -27.75 L
515.563 -32.313 L
cp
f
GR
GS
[0.75 0 0 0.75 0 0.5] CT
0 0.447 0.741 RC
1 LJ
0.667 LW
N
183.57 671.061 M
184.041 499.467 L
186.123 235.398 L
188.205 175.639 L
190.274 176.225 L
192.356 179.493 L
194.438 199.582 L
196.521 186.145 L
198.603 157.112 L
200.685 122.578 L
202.754 101.093 L
204.836 100.205 L
206.918 110.775 L
209 148.567 L
211.082 177.809 L
213.164 200.201 L
215.246 204.019 L
217.315 187.821 L
219.397 186.263 L
221.479 182.199 L
223.562 180.446 L
225.644 170.099 L
227.726 154.843 L
229.795 150.123 L
231.877 155.701 L
233.959 170.776 L
236.041 190.185 L
238.123 217.474 L
240.205 222.539 L
242.274 219.764 L
244.356 204.407 L
246.438 176.528 L
248.521 167.196 L
250.603 153.147 L
252.685 147.314 L
254.754 138.132 L
256.836 130.343 L
258.918 127.262 L
261 131.757 L
263.082 139.024 L
265.164 164.802 L
267.246 178.65 L
269.315 188.901 L
271.397 183.536 L
273.479 161.063 L
275.562 154.83 L
277.644 149.7 L
279.726 169.742 L
281.795 191.78 L
283.877 213.794 L
285.959 221.397 L
288.041 222.892 L
290.123 240.594 L
292.205 254.83 L
294.274 269.484 L
296.356 259.654 L
298.438 248.038 L
300.521 233.888 L
302.603 212.196 L
304.685 204.835 L
306.754 207.867 L
308.836 235.548 L
310.918 251.247 L
313 253.173 L
315.082 241.734 L
317.164 229.88 L
319.246 217.401 L
321.315 196.527 L
323.397 186.87 L
325.479 185.609 L
327.562 194.119 L
329.644 194.892 L
331.726 178.546 L
333.795 175.355 L
335.877 198.512 L
337.959 224.165 L
340.041 249.226 L
342.123 258.947 L
344.205 261.191 L
346.274 256.084 L
348.356 239.822 L
350.438 238.772 L
352.521 223.182 L
354.603 214.893 L
356.685 176.667 L
358.754 152.098 L
360.836 159.575 L
362.918 159.513 L
365 179.539 L
367.082 182.878 L
369.164 194.731 L
371.246 211.1 L
373.315 216.638 L
375.397 224.601 L
377.479 216.462 L
379.562 229.15 L
381.644 256.394 L
383.726 295.768 L
385.795 324.207 L
387.877 327.667 L
389.959 321.129 L
392.041 311.275 L
394.123 310.678 L
396.205 297.932 L
398.274 284.763 L
400.356 294.213 L
402.438 293.101 L
404.521 287.536 L
406.603 269.317 L
408.685 267.055 L
410.754 267.369 L
412.836 250.063 L
414.918 232.094 L
417 213.006 L
419.082 212.126 L
421.164 223.017 L
423.246 235.837 L
425.315 247.255 L
427.397 243.953 L
429.479 238.095 L
431.562 230.731 L
433.644 225.353 L
435.726 239.305 L
437.795 250.749 L
439.877 266.839 L
441.959 273.363 L
444.041 263.673 L
446.123 264.03 L
448.205 252.291 L
450.274 260.479 L
452.356 262.1 L
454.438 268.467 L
456.521 261.994 L
458.603 245.354 L
460.685 221.878 L
462.754 199.162 L
464.836 203.906 L
466.918 220.775 L
469 252.109 L
471.082 277.066 L
473.164 273.956 L
475.246 257.622 L
477.315 235.024 L
479.397 249.803 L
481.479 293.315 L
483.562 323.241 L
485.644 336.488 L
487.726 313.044 L
489.795 288.286 L
491.877 249.768 L
493.959 236.428 L
496.041 217.824 L
498.123 199.381 L
500.205 182.808 L
502.274 166.736 L
504.356 178.69 L
506.438 188.787 L
508.521 214.894 L
510.603 237.715 L
512.685 252.029 L
514.754 256.008 L
516.836 241.409 L
518.918 228.805 L
521 218.467 L
523.082 216.606 L
525.164 223.172 L
527.246 215.551 L
529.315 221.285 L
531.397 228.595 L
533.479 242.782 L
535.562 270.284 L
537.644 289.32 L
539.726 319.039 L
541.795 342.683 L
543.877 354.859 L
545.959 353.807 L
548.041 317.934 L
550.123 291.952 L
552.205 289.949 L
554.274 323.325 L
556.356 349.562 L
558.438 345.162 L
560.521 353.733 L
562.603 345.096 L
564.685 349.361 L
566.754 339.112 L
568.836 333.883 L
570.918 326.617 L
573 297.36 L
575.082 282.502 L
577.164 265.579 L
579.246 275.067 L
581.315 286.279 L
583.397 296.435 L
585.479 325.554 L
587.562 344.906 L
589.644 381.78 L
591.726 404.737 L
593.795 414.039 L
595.877 400.307 L
597.959 360.607 L
600.041 341.496 L
602.123 317.967 L
604.205 317.327 L
606.274 328.21 L
608.356 349.622 L
610.438 377.619 L
612.521 393.391 L
614.603 385.737 L
616.685 371.949 L
618.754 368.839 L
620.836 381.967 L
622.918 396.875 L
625 386.599 L
627.082 326.38 L
629.164 262.645 L
631.246 217.096 L
633.315 207.305 L
635.397 233.281 L
637.479 250.688 L
639.562 272.034 L
641.644 281.033 L
643.726 281.103 L
645.795 299.614 L
647.877 325.988 L
649.959 359.321 L
652.041 371.442 L
654.123 350.863 L
656.205 310.497 L
658.274 266.868 L
660.356 253.965 L
662.438 247.222 L
664.521 253.682 L
666.603 253.495 L
668.685 243.371 L
670.754 246.228 L
672.836 242.386 L
674.918 266.71 L
677 280.816 L
679.082 307.999 L
681.164 308.04 L
683.246 297.894 L
685.315 292.16 L
687.397 277.139 L
689.479 290.573 L
691.562 317.702 L
693.644 362.145 L
695.726 403.974 L
697.795 427.79 L
699.877 447.105 L
701.959 416.627 L
704.041 379.475 L
706.123 329.746 L
708.205 315.31 L
710.274 320.12 L
712.356 314.958 L
714.438 306.408 L
716.521 290.454 L
718.603 298.509 L
720.685 314.797 L
722.754 326.264 L
724.836 329.019 L
726.918 310.571 L
729 296.206 L
731.082 281.917 L
733.164 285.665 L
735.246 308.408 L
737.315 321.224 L
739.397 334.695 L
741.479 312.28 L
743.562 295.105 L
745.644 292.742 L
747.726 291.763 L
749.795 317.763 L
751.877 340.178 L
753.959 365.287 L
756.041 380.934 L
758.123 379.369 L
760.205 371.89 L
762.274 348.298 L
764.356 333.427 L
766.438 321.615 L
768.521 318.015 L
770.603 329.813 L
772.685 327.998 L
774.754 351.387 L
776.836 361.321 L
778.918 398.494 L
781 403.308 L
783.082 365.52 L
785.164 324.403 L
787.246 265.488 L
789.315 266.313 L
791.397 279.769 L
793.479 293.491 L
795.562 294.969 L
797.644 279.676 L
799.726 269.822 L
801.795 244.156 L
803.877 240.039 L
805.959 244.672 L
808.041 272.922 L
810.123 313.498 L
812.205 326.304 L
814.274 328.149 L
816.356 302.092 L
818.438 284.023 L
820.521 259.193 L
822.603 235.738 L
824.685 223.015 L
826.754 201.635 L
828.836 191.878 L
830.918 202.248 L
833 234.283 L
835.082 269.823 L
837.164 283.708 L
839.246 289.628 L
841.315 271.335 L
843.397 252.58 L
845.479 252.261 L
847.562 266.928 L
849.644 296.744 L
851.726 321.965 L
853.795 350.605 L
855.877 354.919 L
857.959 339.242 L
860.041 316.691 L
862.123 305.865 L
864.205 320.656 L
866.274 318.459 L
868.356 301.289 L
870.438 256.77 L
872.521 224.558 L
874.603 215.916 L
876.685 197.278 L
878.754 195.954 L
880.836 172.81 L
882.918 161.259 L
885 170.715 L
887.082 187.06 L
889.164 229.321 L
891.246 257.251 L
893.315 279.238 L
895.397 275.379 L
897.479 254.718 L
899.562 232.338 L
901.644 207.599 L
903.726 209.986 L
905.795 207.547 L
907.877 221.28 L
909.959 226.125 L
912.041 222.44 L
914.123 232.47 L
916.205 240.224 L
918.274 278.464 L
920.356 307.179 L
922.438 324.452 L
924.521 325.805 L
926.603 307.307 L
928.685 306.206 L
930.754 298.701 L
932.836 291.817 L
934.918 261.145 L
937 233.38 L
939.082 235.167 L
941.164 243.537 L
943.246 278.405 L
945.315 284.305 L
947.397 298.981 L
949.479 303.822 L
951.562 289.22 L
953.644 279.369 L
955.726 252.822 L
957.795 243.979 L
959.877 246.463 L
961.959 254.156 L
964.041 259.123 L
966.123 242.663 L
968.205 250.06 L
970.274 245.164 L
972.356 261.235 L
974.438 269.949 L
976.521 263.154 L
978.603 253.467 L
980.685 215.146 L
982.754 191.703 L
984.836 179.819 L
986.918 166.287 L
989 187.024 L
991.082 193.381 L
993.164 234.984 L
995.246 261.326 L
997.315 264.008 L
999.397 264.186 L
1001.479 262.75 L
1003.562 291.672 L
1005.644 306.296 L
1007.726 308.575 L
1009.795 292.001 L
1011.877 280.993 L
1013.959 298.223 L
1016.041 294.522 L
1018.123 295.985 L
1020.205 282.221 L
1022.274 276.553 L
1024.356 271.584 L
1026.438 257.609 L
1028.521 258.816 L
1030.603 246.944 L
1032.685 253.272 L
1034.754 236.135 L
1036.836 227.82 L
1038.918 222.147 L
1041 220.826 L
1043.082 241.975 L
1045.164 253.222 L
1047.246 272.483 L
1049.315 272.309 L
1051.397 263.951 L
1053.479 266.631 L
1055.562 265.402 L
1057.644 285.386 L
1059.726 296.325 L
1061.795 312.194 L
1063.877 303.138 L
1065.959 277.826 L
1068.041 263.139 L
1070.123 250.292 L
1072.205 265.191 L
1074.274 271.528 L
1076.356 285.879 L
1078.438 309.159 L
1080.521 330.044 L
1082.603 501.954 L
1083.286 671.061 L
S
GR
GS
[0.75 0 0 0.75 0 0.5] CT
0.851 0.325 0.098 RC
1 LJ
0.667 LW
N
183.843 671.061 M
184.041 601.822 L
186.123 351.913 L
188.205 286.502 L
190.274 288.649 L
192.356 296.712 L
194.438 322.457 L
196.521 311.772 L
198.603 287.822 L
200.685 255.926 L
202.754 234.751 L
204.836 230.883 L
206.918 235.442 L
209 268.558 L
211.082 297.48 L
213.164 317.191 L
215.246 323.896 L
217.315 309.002 L
219.397 308.845 L
221.479 309.432 L
223.562 311.669 L
225.644 309.339 L
227.726 295.708 L
229.795 287.734 L
231.877 288.577 L
233.959 299.531 L
236.041 314.828 L
238.123 343.558 L
240.205 350.009 L
242.274 352.237 L
244.356 338.794 L
246.438 315.336 L
248.521 309.489 L
250.603 296.701 L
252.685 291.461 L
254.754 282.505 L
256.836 270.974 L
258.918 265.963 L
261 267.088 L
263.082 275.955 L
265.164 300.806 L
267.246 317.668 L
269.315 331.09 L
271.397 325.931 L
273.479 307.642 L
275.562 303.625 L
277.644 300.334 L
279.726 317.639 L
281.795 338.167 L
283.877 358.663 L
285.959 362.058 L
288.041 365.9 L
290.123 383.73 L
292.205 400.49 L
294.274 415.192 L
296.356 402.581 L
298.438 392.587 L
300.521 385.677 L
302.603 360.849 L
304.685 354.885 L
306.754 348.619 L
308.836 373.322 L
310.918 387.116 L
313 394.58 L
315.082 385.42 L
317.164 375.146 L
319.246 363.564 L
321.315 346.072 L
323.397 340.74 L
325.479 343.874 L
327.562 353.997 L
329.644 354.872 L
331.726 339.033 L
333.795 334.384 L
335.877 352.872 L
337.959 370.874 L
340.041 389.022 L
342.123 397.139 L
344.205 399.494 L
346.274 399.312 L
348.356 384.541 L
350.438 388.947 L
352.521 376.83 L
354.603 371.968 L
356.685 342.401 L
358.754 314.572 L
360.836 319.879 L
362.918 314.543 L
365 336.879 L
367.082 345.102 L
369.164 363.707 L
371.246 379.828 L
373.315 373.231 L
375.397 381.349 L
377.479 371.295 L
379.562 385.251 L
381.644 414.894 L
383.726 455.056 L
385.795 484.871 L
387.877 486.674 L
389.959 477.167 L
392.041 462.81 L
394.123 461.34 L
396.205 451.469 L
398.274 441.25 L
400.356 457.215 L
402.438 454.974 L
404.521 454.03 L
406.603 440.59 L
408.685 436.757 L
410.754 439.025 L
412.836 420.613 L
414.918 402.869 L
417 386.611 L
419.082 386.665 L
421.164 396.963 L
423.246 408.735 L
425.315 418.723 L
427.397 413.019 L
429.479 408.399 L
431.562 402.045 L
433.644 398.23 L
435.726 414.668 L
437.795 422.432 L
439.877 437.261 L
441.959 448.803 L
444.041 442.939 L
446.123 444.985 L
448.205 433.737 L
450.274 438.249 L
452.356 432.336 L
454.438 439.62 L
456.521 435.494 L
458.603 419.939 L
460.685 395.215 L
462.754 377.616 L
464.836 381.876 L
466.918 397.671 L
469 430.52 L
471.082 454.834 L
473.164 454.855 L
475.246 440.33 L
477.315 415.688 L
479.397 430.173 L
481.479 472.928 L
483.562 500.132 L
485.644 513.748 L
487.726 489.54 L
489.795 460.743 L
491.877 424.951 L
493.959 412.222 L
496.041 395.552 L
498.123 384.494 L
500.205 369.672 L
502.274 351.742 L
504.356 361.556 L
506.438 371.437 L
508.521 392.837 L
510.603 413.116 L
512.685 425.792 L
514.754 428.176 L
516.836 408.265 L
518.918 394.937 L
521 386.215 L
523.082 383.33 L
525.164 394.472 L
527.246 385.945 L
529.315 391.214 L
531.397 394.917 L
533.479 407.265 L
535.562 429.332 L
537.644 445.016 L
539.726 478.844 L
541.795 511.041 L
543.877 529.218 L
545.959 532.481 L
548.041 497.033 L
550.123 468.607 L
552.205 462.217 L
554.274 491.11 L
556.356 517.254 L
558.438 508.071 L
560.521 518.861 L
562.603 512.158 L
564.685 517.12 L
566.754 503.713 L
568.836 496.412 L
570.918 493.72 L
573 466.142 L
575.082 450.764 L
577.164 431.366 L
579.246 444.6 L
581.315 453.831 L
583.397 466.038 L
585.479 495.318 L
587.562 513.021 L
589.644 553.873 L
591.726 569.59 L
593.795 578.786 L
595.877 563.155 L
597.959 526.972 L
600.041 513.805 L
602.123 497.07 L
604.205 492.919 L
606.274 502.06 L
608.356 519.241 L
610.438 549.281 L
612.521 563.431 L
614.603 553.718 L
616.685 539.822 L
618.754 528.496 L
620.836 544.499 L
622.918 560.512 L
625 550.368 L
627.082 492.261 L
629.164 426.221 L
631.246 381.807 L
633.315 375.504 L
635.397 404.759 L
637.479 417.718 L
639.562 439.122 L
641.644 445.811 L
643.726 452.965 L
645.795 471.241 L
647.877 495.093 L
649.959 526.274 L
652.041 536.125 L
654.123 516.506 L
656.205 479.529 L
658.274 431.53 L
660.356 420.872 L
662.438 413.472 L
664.521 422.622 L
666.603 423.367 L
668.685 417.213 L
670.754 419.37 L
672.836 413.642 L
674.918 436.781 L
677 449.86 L
679.082 474.134 L
681.164 474.721 L
683.246 461.663 L
685.315 454.297 L
687.397 442.712 L
689.479 450.811 L
691.562 480.817 L
693.644 525.9 L
695.726 569.077 L
697.795 592.825 L
699.877 612.635 L
701.959 579.559 L
704.041 543.739 L
706.123 493.898 L
708.205 479.305 L
710.274 481.979 L
712.356 476.02 L
714.438 462.104 L
716.521 443.737 L
718.603 455.783 L
720.685 469.77 L
722.754 483.234 L
724.836 483.325 L
726.918 461.456 L
729 447.612 L
731.082 439.531 L
733.164 442.723 L
735.246 465.113 L
737.315 469.921 L
739.397 478.694 L
741.479 452.866 L
743.562 437.947 L
745.644 436.994 L
747.726 439.761 L
749.795 463.435 L
751.877 485.643 L
753.959 506.458 L
756.041 522.422 L
758.123 518.437 L
760.205 510.085 L
762.274 487.983 L
764.356 471.483 L
766.438 453.68 L
768.521 453.206 L
770.603 467.246 L
772.685 464.196 L
774.754 481.684 L
776.836 494.392 L
778.918 526.648 L
781 533.785 L
783.082 490.963 L
785.164 442.974 L
787.246 385.656 L
789.315 387.579 L
791.397 401.045 L
793.479 417.881 L
795.562 416.037 L
797.644 403.548 L
799.726 387.122 L
801.795 358.711 L
803.877 352.192 L
805.959 353.126 L
808.041 383.472 L
810.123 419.993 L
812.205 429.591 L
814.274 428.402 L
816.356 402.256 L
818.438 380.643 L
820.521 358.322 L
822.603 337.305 L
824.685 320.736 L
826.754 303.025 L
828.836 292.259 L
830.918 298.399 L
833 328.62 L
835.082 362.375 L
837.164 375.952 L
839.246 380.895 L
841.315 360.422 L
843.397 339.267 L
845.479 340.788 L
847.562 348.606 L
849.644 378.067 L
851.726 398.454 L
853.795 421.598 L
855.877 426.188 L
857.959 410.494 L
860.041 384.672 L
862.123 374.344 L
864.205 391.205 L
866.274 385.355 L
868.356 367.312 L
870.438 328.535 L
872.521 290.217 L
874.603 278.896 L
876.685 255.769 L
878.754 252.627 L
880.836 231.337 L
882.918 222.682 L
885 229.638 L
887.082 245.327 L
889.164 287.862 L
891.246 318.079 L
893.315 340.194 L
895.397 335.16 L
897.479 309.423 L
899.562 284.981 L
901.644 260.986 L
903.726 262.559 L
905.795 257.44 L
907.877 267.544 L
909.959 271.126 L
912.041 263.431 L
914.123 272.003 L
916.205 279.97 L
918.274 319.558 L
920.356 348.263 L
922.438 369.77 L
924.521 374.704 L
926.603 358.558 L
928.685 356.631 L
930.754 345.098 L
932.836 332.442 L
934.918 298.303 L
937 271.452 L
939.082 270.966 L
941.164 284.535 L
943.246 318.062 L
945.315 327.26 L
947.397 341.222 L
949.479 345.118 L
951.562 330.833 L
953.644 321.391 L
955.726 291.488 L
957.795 281.557 L
959.877 283.327 L
961.959 289.384 L
964.041 295.67 L
966.123 279.253 L
968.205 292.387 L
970.274 286.848 L
972.356 306.616 L
974.438 311.535 L
976.521 301.417 L
978.603 288.695 L
980.685 250.672 L
982.754 227.93 L
984.836 218.698 L
986.918 205.841 L
989 224.12 L
991.082 234.151 L
993.164 274.758 L
995.246 300.339 L
997.315 306.562 L
999.397 302.485 L
1001.479 298.921 L
1003.562 330.876 L
1005.644 341.956 L
1007.726 344.109 L
1009.795 328.653 L
1011.877 316.663 L
1013.959 334.273 L
1016.041 335.526 L
1018.123 338.245 L
1020.205 318.445 L
1022.274 314.21 L
1024.356 311.698 L
1026.438 299.676 L
1028.521 302.063 L
1030.603 290.395 L
1032.685 296.2 L
1034.754 285.614 L
1036.836 278.368 L
1038.918 269.779 L
1041 266.268 L
1043.082 287.817 L
1045.164 295.117 L
1047.246 317.539 L
1049.315 316.587 L
1051.397 306.368 L
1053.479 309.725 L
1055.562 308.619 L
1057.644 333.47 L
1059.726 348.038 L
1061.795 361.729 L
1063.877 351.96 L
1065.959 320.662 L
1068.041 308.675 L
1070.123 294.22 L
1072.205 309.273 L
1074.274 316.156 L
1076.356 332.464 L
1078.438 354.974 L
1080.521 378.76 L
1082.603 555.117 L
1083.069 671.061 L
S
GR
GS
[0.75 0 0 0.75 0 0.5] CT
0.929 0.694 0.125 RC
1 LJ
0.667 LW
N
184.017 671.061 M
184.041 662.486 L
186.123 396.326 L
188.205 333.764 L
190.274 335.951 L
192.356 344.19 L
194.438 367.201 L
196.521 354.836 L
198.603 327.309 L
200.685 292.696 L
202.754 269.744 L
204.836 269.944 L
206.918 279.766 L
209 313.376 L
211.082 339.161 L
213.164 357.753 L
215.246 366.17 L
217.315 354.092 L
219.397 355.203 L
221.479 351.547 L
223.562 351.572 L
225.644 344.579 L
227.726 330.82 L
229.795 325.158 L
231.877 331.458 L
233.959 344.651 L
236.041 363.507 L
238.123 384.902 L
240.205 386.57 L
242.274 383.943 L
244.356 368.646 L
246.438 347.456 L
248.521 340.674 L
250.603 331.88 L
252.685 328.149 L
254.754 321.33 L
256.836 311.866 L
258.918 305.309 L
261 309.277 L
263.082 315.393 L
265.164 337.361 L
267.246 353.196 L
269.315 368.688 L
271.397 363.773 L
273.479 343.723 L
275.562 335.566 L
277.644 331.487 L
279.726 351.476 L
281.795 374.886 L
283.877 392.756 L
285.959 398.522 L
288.041 399.65 L
290.123 416.801 L
292.205 434.273 L
294.274 453.988 L
296.356 445.69 L
298.438 437.291 L
300.521 429.605 L
302.603 408.66 L
304.685 399.321 L
306.754 390.423 L
308.836 413.277 L
310.918 428.972 L
313 431.822 L
315.082 423.208 L
317.164 414.755 L
319.246 410.207 L
321.315 396.277 L
323.397 389.395 L
325.479 391.481 L
327.562 396.642 L
329.644 398.615 L
331.726 380.037 L
333.795 375.699 L
335.877 395.254 L
337.959 414.441 L
340.041 436.321 L
342.123 445.831 L
344.205 449.287 L
346.274 453.028 L
348.356 436.189 L
350.438 435.089 L
352.521 423.756 L
354.603 414.853 L
356.685 385.491 L
358.754 361.963 L
360.836 364.324 L
362.918 364.208 L
365 381.604 L
367.082 389.914 L
369.164 404.486 L
371.246 421.695 L
373.315 419.379 L
375.397 428.298 L
377.479 420.876 L
379.562 435.693 L
381.644 464.603 L
383.726 501.965 L
385.795 526.077 L
387.877 525.995 L
389.959 518.603 L
392.041 508.219 L
394.123 510.912 L
396.205 501.283 L
398.274 491.843 L
400.356 501.261 L
402.438 497.899 L
404.521 489.016 L
406.603 477.441 L
408.685 477.834 L
410.754 478.543 L
412.836 462.71 L
414.918 439.826 L
417 423.216 L
419.082 419.846 L
421.164 430.198 L
423.246 443.23 L
425.315 452.13 L
427.397 447.227 L
429.479 442.796 L
431.562 436.47 L
433.644 433.811 L
435.726 448.957 L
437.795 454.869 L
439.877 470.77 L
441.959 477.21 L
444.041 467.717 L
446.123 464.77 L
448.205 453.993 L
450.274 458.219 L
452.356 454.97 L
454.438 460.255 L
456.521 450.969 L
458.603 435.44 L
460.685 410.875 L
462.754 394.298 L
464.836 400.624 L
466.918 416.816 L
469 447.816 L
471.082 469.196 L
473.164 463.129 L
475.246 444.852 L
477.315 421.176 L
479.397 437.116 L
481.479 477.694 L
483.562 502.128 L
485.644 512.85 L
487.726 486.868 L
489.795 464.481 L
491.877 428.578 L
493.959 415.382 L
496.041 398.354 L
498.123 383.964 L
500.205 369.276 L
502.274 352.253 L
504.356 353.006 L
506.438 360.65 L
508.521 379.863 L
510.603 402.628 L
512.685 415.573 L
514.754 420.007 L
516.836 400.084 L
518.918 386.823 L
521 379.36 L
523.082 377.29 L
525.164 388.993 L
527.246 380.053 L
529.315 384.427 L
531.397 388.876 L
533.479 396.162 L
535.562 420.172 L
537.644 437.636 L
539.726 464.628 L
541.795 492.793 L
543.877 506.102 L
545.959 507.317 L
548.041 470.001 L
550.123 444.093 L
552.205 437.993 L
554.274 466.061 L
556.356 494.485 L
558.438 491.203 L
560.521 501.476 L
562.603 492.27 L
564.685 494.671 L
566.754 483.058 L
568.836 476.91 L
570.918 470.353 L
573 440.641 L
575.082 426.249 L
577.164 409.915 L
579.246 420.377 L
581.315 428.953 L
583.397 439.893 L
585.479 466.619 L
587.562 482.112 L
589.644 516.741 L
591.726 535.272 L
593.795 548.736 L
595.877 535.404 L
597.959 498.24 L
600.041 482.505 L
602.123 461.283 L
604.205 459.531 L
606.274 467.787 L
608.356 485.067 L
610.438 513.821 L
612.521 523.45 L
614.603 515.358 L
616.685 504.596 L
618.754 498.863 L
620.836 514.943 L
622.918 530.365 L
625 523.038 L
627.082 467.337 L
629.164 404.562 L
631.246 360.767 L
633.315 347.509 L
635.397 369.915 L
637.479 384.507 L
639.562 403.982 L
641.644 409.743 L
643.726 415.244 L
645.795 434.089 L
647.877 460.75 L
649.959 497.422 L
652.041 504.814 L
654.123 487.508 L
656.205 445.97 L
658.274 401.605 L
660.356 391.09 L
662.438 378.765 L
664.521 386.926 L
666.603 384.366 L
668.685 377.149 L
670.754 380.077 L
672.836 377.883 L
674.918 401.788 L
677 416.043 L
679.082 440.042 L
681.164 439.494 L
683.246 428.51 L
685.315 420.746 L
687.397 407.761 L
689.479 417.849 L
691.562 444.61 L
693.644 488.197 L
695.726 528.647 L
697.795 553.541 L
699.877 571.202 L
701.959 539.48 L
704.041 501.86 L
706.123 453.43 L
708.205 439.849 L
710.274 441.146 L
712.356 435.23 L
714.438 423.094 L
716.521 404.005 L
718.603 411.946 L
720.685 427.833 L
722.754 438.59 L
724.836 438.408 L
726.918 421.964 L
729 404.909 L
731.082 391.252 L
733.164 394.633 L
735.246 417.975 L
737.315 428.608 L
739.397 436.654 L
741.479 410.743 L
743.562 393.007 L
745.644 387.585 L
747.726 384.899 L
749.795 408.182 L
751.877 433.721 L
753.959 454.335 L
756.041 469.113 L
758.123 466.616 L
760.205 460.334 L
762.274 435.138 L
764.356 420.676 L
766.438 403.142 L
768.521 401.127 L
770.603 406.987 L
772.685 404.077 L
774.754 423.049 L
776.836 431.324 L
778.918 463.24 L
781 468.374 L
783.082 428.57 L
785.164 389.995 L
787.246 330.818 L
789.315 331.967 L
791.397 341.282 L
793.479 354.31 L
795.562 352.202 L
797.644 336.724 L
799.726 327.017 L
801.795 299.753 L
803.877 293.004 L
805.959 296.965 L
808.041 323.667 L
810.123 360.996 L
812.205 371.92 L
814.274 373.152 L
816.356 346.727 L
818.438 324.374 L
820.521 303.177 L
822.603 278.833 L
824.685 262.876 L
826.754 240.712 L
828.836 232.571 L
830.918 239.991 L
833 267.691 L
835.082 301.397 L
837.164 312.403 L
839.246 318.735 L
841.315 302.189 L
843.397 286.218 L
845.479 283.012 L
847.562 290.694 L
849.644 322.62 L
851.726 341.876 L
853.795 365.983 L
855.877 371.61 L
857.959 353.951 L
860.041 330.622 L
862.123 321.668 L
864.205 341.828 L
866.274 337.446 L
868.356 320.733 L
870.438 278.648 L
872.521 240.752 L
874.603 232.736 L
876.685 208.245 L
878.754 206.991 L
880.836 182.75 L
882.918 168.431 L
885 175.954 L
887.082 192.536 L
889.164 236.416 L
891.246 262.229 L
893.315 284.749 L
895.397 281.401 L
897.479 261.108 L
899.562 240.69 L
901.644 212.953 L
903.726 215.382 L
905.795 209.679 L
907.877 221.449 L
909.959 228.792 L
912.041 221.588 L
914.123 232.842 L
916.205 241.198 L
918.274 282.048 L
920.356 306.789 L
922.438 324.07 L
924.521 325.729 L
926.603 307.247 L
928.685 310.854 L
930.754 302.619 L
932.836 289.58 L
934.918 257.914 L
937 229.895 L
939.082 230.311 L
941.164 241.42 L
943.246 274.494 L
945.315 280.689 L
947.397 296.988 L
949.479 303.373 L
951.562 288.741 L
953.644 279.448 L
955.726 250.815 L
957.795 245.545 L
959.877 246.838 L
961.959 254.916 L
964.041 256.97 L
966.123 240.361 L
968.205 248.907 L
970.274 242.915 L
972.356 263.271 L
974.438 271.065 L
976.521 265.616 L
978.603 254.974 L
980.685 216.038 L
982.754 189.424 L
984.836 178.163 L
986.918 163.005 L
989 182.865 L
991.082 192.986 L
993.164 235.316 L
995.246 259.767 L
997.315 267.13 L
999.397 267.229 L
1001.479 267.101 L
1003.562 295.249 L
1005.644 306.512 L
1007.726 307.183 L
1009.795 293.287 L
1011.877 280.661 L
1013.959 296.445 L
1016.041 295.889 L
1018.123 298.729 L
1020.205 284.542 L
1022.274 281.235 L
1024.356 277.745 L
1026.438 263.51 L
1028.521 263.472 L
1030.603 248.116 L
1032.685 254.833 L
1034.754 244.334 L
1036.836 237.291 L
1038.918 230.448 L
1041 229.619 L
1043.082 251.308 L
1045.164 258.36 L
1047.246 280.84 L
1049.315 278.853 L
1051.397 271.275 L
1053.479 274.965 L
1055.562 272.209 L
1057.644 296.517 L
1059.726 309.008 L
1061.795 326.012 L
1063.877 319.425 L
1065.959 292.513 L
1068.041 278.749 L
1070.123 264.344 L
1072.205 280.026 L
1074.274 285.427 L
1076.356 304.369 L
1078.438 327.759 L
1080.521 350.355 L
1082.603 531.932 L
1083.145 671.061 L
S
GR
GS
[0.75 0 0 0.75 0 0.5] CT
0.494 0.184 0.557 RC
1 LJ
0.667 LW
N
183.742 671.061 M
184.041 561.578 L
186.123 293.076 L
188.205 229.956 L
190.274 230.042 L
192.356 236.079 L
194.438 259.413 L
196.521 247.062 L
198.603 222.431 L
200.685 184.691 L
202.754 162.813 L
204.836 160.177 L
206.918 167.152 L
209 200.422 L
211.082 223.335 L
213.164 244.805 L
215.246 253.826 L
217.315 239.344 L
219.397 238.898 L
221.479 236.85 L
223.562 234.933 L
225.644 230.735 L
227.726 213.711 L
229.795 202.391 L
231.877 203.234 L
233.959 218.451 L
236.041 234.34 L
238.123 261.176 L
240.205 265.888 L
242.274 267.386 L
244.356 252.142 L
246.438 227.812 L
248.521 220.709 L
250.603 204.919 L
252.685 198.911 L
254.754 189.354 L
256.836 177.98 L
258.918 173.3 L
261 177.512 L
263.082 184.509 L
265.164 207.641 L
267.246 223.73 L
269.315 235.947 L
271.397 231.793 L
273.479 213.504 L
275.562 211.661 L
277.644 207.543 L
279.726 223.196 L
281.795 244.006 L
283.877 262.368 L
285.959 269.956 L
288.041 272.208 L
290.123 291.512 L
292.205 304.791 L
294.274 318.827 L
296.356 306.374 L
298.438 297.89 L
300.521 289.578 L
302.603 266.473 L
304.685 258.796 L
306.754 257.279 L
308.836 286.287 L
310.918 304.403 L
313 305.972 L
315.082 292.568 L
317.164 280.045 L
319.246 267.772 L
321.315 252.384 L
323.397 244.723 L
325.479 245.906 L
327.562 252.007 L
329.644 252.555 L
331.726 236.771 L
333.795 235.257 L
335.877 255.871 L
337.959 278.524 L
340.041 303.079 L
342.123 311.97 L
344.205 311.699 L
346.274 308.917 L
348.356 294.305 L
350.438 300.361 L
352.521 283.482 L
354.603 276.22 L
356.685 237.649 L
358.754 209.163 L
360.836 215.585 L
362.918 217.686 L
365 237.41 L
367.082 243.035 L
369.164 254.187 L
371.246 269.491 L
373.315 271.104 L
375.397 281.223 L
377.479 272.191 L
379.562 282.777 L
381.644 307.39 L
383.726 346.001 L
385.795 375.975 L
387.877 380.856 L
389.959 375.058 L
392.041 363.616 L
394.123 363.307 L
396.205 350.296 L
398.274 338.834 L
400.356 351.298 L
402.438 345.699 L
404.521 335.468 L
406.603 315.216 L
408.685 310.529 L
410.754 311.002 L
412.836 290.893 L
414.918 273.613 L
417 257.271 L
419.082 255.937 L
421.164 267.789 L
423.246 281.332 L
425.315 292.441 L
427.397 286.512 L
429.479 277.371 L
431.562 268.909 L
433.644 260.048 L
435.726 272.102 L
437.795 280.251 L
439.877 296.795 L
441.959 307.232 L
444.041 297.074 L
446.123 298.165 L
448.205 288.365 L
450.274 296.526 L
452.356 293.332 L
454.438 302.686 L
456.521 295.176 L
458.603 274.164 L
460.685 246.613 L
462.754 225.194 L
464.836 227.095 L
466.918 240.142 L
469 270.883 L
471.082 298.157 L
473.164 298.059 L
475.246 280.383 L
477.315 251.337 L
479.397 268.633 L
481.479 309.22 L
483.562 337.793 L
485.644 348.847 L
487.726 321.283 L
489.795 297.435 L
491.877 261.276 L
493.959 247.267 L
496.041 226.774 L
498.123 206.418 L
500.205 187.332 L
502.274 171.246 L
504.356 180.128 L
506.438 190.11 L
508.521 211.991 L
510.603 232.384 L
512.685 243.327 L
514.754 247.05 L
516.836 231.258 L
518.918 221.146 L
521 211.235 L
523.082 209.904 L
525.164 217.217 L
527.246 208.167 L
529.315 211.635 L
531.397 217.685 L
533.479 226.611 L
535.562 250.079 L
537.644 268.953 L
539.726 302.796 L
541.795 331.102 L
543.877 342.656 L
545.959 342.243 L
548.041 303.938 L
550.123 279.195 L
552.205 276.419 L
554.274 309.032 L
556.356 333.303 L
558.438 326.147 L
560.521 334.53 L
562.603 322.164 L
564.685 325.858 L
566.754 313.572 L
568.836 309.915 L
570.918 306.277 L
573 278.13 L
575.082 263.349 L
577.164 242.599 L
579.246 251.658 L
581.315 260.032 L
583.397 269.089 L
585.479 297.029 L
587.562 316.105 L
589.644 359.231 L
591.726 377.784 L
593.795 388.407 L
595.877 373.731 L
597.959 336.438 L
600.041 316.996 L
602.123 296.546 L
604.205 296.485 L
606.274 305.855 L
608.356 324.016 L
610.438 352.29 L
612.521 364.653 L
614.603 357.228 L
616.685 341.54 L
618.754 337.061 L
620.836 352.498 L
622.918 369.481 L
625 357.712 L
627.082 294.715 L
629.164 227.039 L
631.246 182.099 L
633.315 175.065 L
635.397 202.554 L
637.479 217.42 L
639.562 237.921 L
641.644 245.175 L
643.726 250.645 L
645.795 267.784 L
647.877 294.703 L
649.959 326.049 L
652.041 337.046 L
654.123 317.962 L
656.205 278.324 L
658.274 231.126 L
660.356 215.825 L
662.438 207.765 L
664.521 217.546 L
666.603 218.356 L
668.685 210.203 L
670.754 212.512 L
672.836 207.899 L
674.918 235.355 L
677 249.563 L
679.082 270.597 L
681.164 270.112 L
683.246 256.607 L
685.315 251.919 L
687.397 238.304 L
689.479 250.504 L
691.562 278.454 L
693.644 326.724 L
695.726 370.064 L
697.795 395.126 L
699.877 413.161 L
701.959 379.384 L
704.041 339.454 L
706.123 289.046 L
708.205 275.366 L
710.274 274.608 L
712.356 270.365 L
714.438 260.412 L
716.521 244.572 L
718.603 250.809 L
720.685 265.742 L
722.754 277.899 L
724.836 281.008 L
726.918 260.498 L
729 246.368 L
731.082 233.093 L
733.164 237.717 L
735.246 260.892 L
737.315 270.03 L
739.397 278.563 L
741.479 250.326 L
743.562 237.786 L
745.644 235.932 L
747.726 237.174 L
749.795 261.951 L
751.877 286.565 L
753.959 307.61 L
756.041 324.376 L
758.123 321.604 L
760.205 312.559 L
762.274 287.407 L
764.356 274.172 L
766.438 260.126 L
768.521 261.991 L
770.603 275.891 L
772.685 274.932 L
774.754 291.828 L
776.836 305.517 L
778.918 339.31 L
781 347.062 L
783.082 305.665 L
785.164 260.044 L
787.246 199.462 L
789.315 202.17 L
791.397 214.739 L
793.479 231.82 L
795.562 234.954 L
797.644 223.924 L
799.726 210.898 L
801.795 183.664 L
803.877 178.923 L
805.959 183.788 L
808.041 210.356 L
810.123 249.047 L
812.205 261.376 L
814.274 260.706 L
816.356 235.983 L
818.438 217.583 L
820.521 194.637 L
822.603 174.468 L
824.685 160.03 L
826.754 142.99 L
828.836 132.586 L
830.918 140.929 L
833 173.821 L
835.082 213.217 L
837.164 224.905 L
839.246 227.629 L
841.315 208.745 L
843.397 189.978 L
845.479 192.322 L
847.562 204.476 L
849.644 238.299 L
851.726 257.94 L
853.795 285.656 L
855.877 292.626 L
857.959 276.39 L
860.041 251.796 L
862.123 242.656 L
864.205 260.229 L
866.274 257.389 L
868.356 238.493 L
870.438 197.821 L
872.521 163.492 L
874.603 153.706 L
876.685 133.973 L
878.754 132.482 L
880.836 108.347 L
882.918 100.89 L
885 110.119 L
887.082 131.313 L
889.164 173.561 L
891.246 203.026 L
893.315 227.902 L
895.397 222.47 L
897.479 200.636 L
899.562 176.386 L
901.644 152.162 L
903.726 156.374 L
905.795 151.616 L
907.877 164.559 L
909.959 170.685 L
912.041 164.558 L
914.123 174.333 L
916.205 183.021 L
918.274 222.415 L
920.356 249.901 L
922.438 270.762 L
924.521 273.639 L
926.603 258.605 L
928.685 257.497 L
930.754 250.372 L
932.836 239.173 L
934.918 205.664 L
937 178.036 L
939.082 180.923 L
941.164 190.197 L
943.246 226.037 L
945.315 232.437 L
947.397 247.054 L
949.479 249.499 L
951.562 236.081 L
953.644 228.427 L
955.726 198.152 L
957.795 191.694 L
959.877 193.294 L
961.959 200.514 L
964.041 206.386 L
966.123 189.554 L
968.205 200.551 L
970.274 194.552 L
972.356 213.238 L
974.438 221.482 L
976.521 211.467 L
978.603 199.119 L
980.685 159.214 L
982.754 134.813 L
984.836 126.591 L
986.918 116.201 L
989 130.453 L
991.082 140.388 L
993.164 186.26 L
995.246 211.701 L
997.315 219.222 L
999.397 212.364 L
1001.479 208.565 L
1003.562 236.364 L
1005.644 252.256 L
1007.726 253.647 L
1009.795 236.869 L
1011.877 225.109 L
1013.959 245.028 L
1016.041 244.505 L
1018.123 249.127 L
1020.205 231.199 L
1022.274 223.997 L
1024.356 219.401 L
1026.438 205.962 L
1028.521 206.115 L
1030.603 193.982 L
1032.685 201.513 L
1034.754 188.137 L
1036.836 182.824 L
1038.918 176.453 L
1041 173.458 L
1043.082 194.685 L
1045.164 201.069 L
1047.246 224.155 L
1049.315 221.595 L
1051.397 210.784 L
1053.479 210.749 L
1055.562 211.362 L
1057.644 238.172 L
1059.726 250.406 L
1061.795 267.349 L
1063.877 255.549 L
1065.959 231.766 L
1068.041 218.69 L
1070.123 203.73 L
1072.205 217.401 L
1074.274 223.107 L
1076.356 239.02 L
1078.438 263.828 L
1080.521 285.024 L
1082.603 461.992 L
1083.433 671.061 L
S
GR
GS
[0.75 0 0 0.75 0 0.5] CT
1 GC
N
885 590 M
885 476 L
1037 476 L
1037 590 L
cp
f
GR
GS
[0.75 0 0 0.75 691.5 369.17622] CT
/Helvetica 21.6 F
GS
[1 0 0 1 0 0] CT
0 7.5 moveto 
1 -1 scale
(-45 stopni) t 
GR
GR
GS
[0.75 0 0 0.75 0 0.5] CT
0 0.447 0.741 RC
1 LJ
0.667 LW
N
889 491.568 M
919 491.568 L
S
GR
GS
[0.75 0 0 0.75 691.5 389.89209] CT
/Helvetica 21.6 F
GS
[1 0 0 1 0 0] CT
0 7.5 moveto 
1 -1 scale
(0 stopni) t 
GR
GR
GS
[0.75 0 0 0.75 0 0.5] CT
0.851 0.325 0.098 RC
1 LJ
0.667 LW
N
889 519.189 M
919 519.189 L
S
GR
GS
[0.75 0 0 0.75 691.5 410.60791] CT
/Helvetica 21.6 F
GS
[1 0 0 1 0 0] CT
0 7.5 moveto 
1 -1 scale
(45 stopni) t 
GR
GR
GS
[0.75 0 0 0.75 0 0.5] CT
0.929 0.694 0.125 RC
1 LJ
0.667 LW
N
889 546.811 M
919 546.811 L
S
GR
GS
[0.75 0 0 0.75 691.5 431.32378] CT
/Helvetica 21.6 F
GS
[1 0 0 1 0 0] CT
0 7.5 moveto 
1 -1 scale
(90 stopni) t 
GR
GR
GS
[0.75 0 0 0.75 0 0.5] CT
0.494 0.184 0.557 RC
1 LJ
0.667 LW
N
889 574.432 M
919 574.432 L
S
GR
GS
[0.75 0 0 0.75 0 0.5] CT
0.149 GC
10.0 ML
0.667 LW
N
885 590 M
885 476 L
1037 476 L
1037 590 L
cp
S
GR
%%Trailer
%%Pages: 1
%%EOF
