%!PS-Adobe-3.0 EPSF-3.0
%%Creator: (MATLAB, The Mathworks, Inc. Version 9.0.0.341360 \(R2016a\). Operating System: Linux)
%%Title: /home/misimik/Dokumenty/Magisterka/Magisterka/Photon/Spektrometr/Transmisja4f.eps
%%CreationDate: 2017-09-22T19:50:37
%%Pages: (atend)
%%BoundingBox: 0 0 906 566
%%LanguageLevel: 3
%%EndComments
%%BeginProlog
%%BeginResource: procset (Apache XML Graphics Std ProcSet) 1.2 0
%%Version: 1.2 0
%%Copyright: (Copyright 2001-2003,2010 The Apache Software Foundation. License terms: http://www.apache.org/licenses/LICENSE-2.0)
/bd{bind def}bind def
/ld{load def}bd
/GR/grestore ld
/M/moveto ld
/LJ/setlinejoin ld
/C/curveto ld
/f/fill ld
/LW/setlinewidth ld
/GC/setgray ld
/t/show ld
/N/newpath ld
/CT/concat ld
/cp/closepath ld
/S/stroke ld
/L/lineto ld
/CC/setcmykcolor ld
/A/ashow ld
/GS/gsave ld
/RC/setrgbcolor ld
/RM/rmoveto ld
/ML/setmiterlimit ld
/re {4 2 roll M
1 index 0 rlineto
0 exch rlineto
neg 0 rlineto
cp } bd
/_ctm matrix def
/_tm matrix def
/BT { _ctm currentmatrix pop matrix _tm copy pop 0 0 moveto } bd
/ET { _ctm setmatrix } bd
/iTm { _ctm setmatrix _tm concat } bd
/Tm { _tm astore pop iTm 0 0 moveto } bd
/ux 0.0 def
/uy 0.0 def
/F {
  /Tp exch def
  /Tf exch def
  Tf findfont Tp scalefont setfont
  /cf Tf def  /cs Tp def
} bd
/ULS {currentpoint /uy exch def /ux exch def} bd
/ULE {
  /Tcx currentpoint pop def
  gsave
  newpath
  cf findfont cs scalefont dup
  /FontMatrix get 0 get /Ts exch def /FontInfo get dup
  /UnderlinePosition get Ts mul /To exch def
  /UnderlineThickness get Ts mul /Tt exch def
  ux uy To add moveto  Tcx uy To add lineto
  Tt setlinewidth stroke
  grestore
} bd
/OLE {
  /Tcx currentpoint pop def
  gsave
  newpath
  cf findfont cs scalefont dup
  /FontMatrix get 0 get /Ts exch def /FontInfo get dup
  /UnderlinePosition get Ts mul /To exch def
  /UnderlineThickness get Ts mul /Tt exch def
  ux uy To add cs add moveto Tcx uy To add cs add lineto
  Tt setlinewidth stroke
  grestore
} bd
/SOE {
  /Tcx currentpoint pop def
  gsave
  newpath
  cf findfont cs scalefont dup
  /FontMatrix get 0 get /Ts exch def /FontInfo get dup
  /UnderlinePosition get Ts mul /To exch def
  /UnderlineThickness get Ts mul /Tt exch def
  ux uy To add cs 10 mul 26 idiv add moveto Tcx uy To add cs 10 mul 26 idiv add lineto
  Tt setlinewidth stroke
  grestore
} bd
/QT {
/Y22 exch store
/X22 exch store
/Y21 exch store
/X21 exch store
currentpoint
/Y21 load 2 mul add 3 div exch
/X21 load 2 mul add 3 div exch
/X21 load 2 mul /X22 load add 3 div
/Y21 load 2 mul /Y22 load add 3 div
/X22 load /Y22 load curveto
} bd
/SSPD {
dup length /d exch dict def
{
/v exch def
/k exch def
currentpagedevice k known {
/cpdv currentpagedevice k get def
v cpdv ne {
/upd false def
/nullv v type /nulltype eq def
/nullcpdv cpdv type /nulltype eq def
nullv nullcpdv or
{
/upd true def
} {
/sametype v type cpdv type eq def
sametype {
v type /arraytype eq {
/vlen v length def
/cpdvlen cpdv length def
vlen cpdvlen eq {
0 1 vlen 1 sub {
/i exch def
/obj v i get def
/cpdobj cpdv i get def
obj cpdobj ne {
/upd true def
exit
} if
} for
} {
/upd true def
} ifelse
} {
v type /dicttype eq {
v {
/dv exch def
/dk exch def
/cpddv cpdv dk get def
dv cpddv ne {
/upd true def
exit
} if
} forall
} {
/upd true def
} ifelse
} ifelse
} if
} ifelse
upd true eq {
d k v put
} if
} if
} if
} forall
d length 0 gt {
d setpagedevice
} if
} bd
%%EndResource
%%BeginResource: procset (Apache XML Graphics EPS ProcSet) 1.0 0
%%Version: 1.0 0
%%Copyright: (Copyright 2002-2003 The Apache Software Foundation. License terms: http://www.apache.org/licenses/LICENSE-2.0)
/BeginEPSF { %def
/b4_Inc_state save def         % Save state for cleanup
/dict_count countdictstack def % Count objects on dict stack
/op_count count 1 sub def      % Count objects on operand stack
userdict begin                 % Push userdict on dict stack
/showpage { } def              % Redefine showpage, { } = null proc
0 setgray 0 setlinecap         % Prepare graphics state
1 setlinewidth 0 setlinejoin
10 setmiterlimit [ ] 0 setdash newpath
/languagelevel where           % If level not equal to 1 then
{pop languagelevel             % set strokeadjust and
1 ne                           % overprint to their defaults.
{false setstrokeadjust false setoverprint
} if
} if
} bd
/EndEPSF { %def
count op_count sub {pop} repeat            % Clean up stacks
countdictstack dict_count sub {end} repeat
b4_Inc_state restore
} bd
%%EndResource
%FOPBeginFontDict
%%IncludeResource: font Courier-Bold
%%IncludeResource: font Helvetica
%%IncludeResource: font Courier-BoldOblique
%%IncludeResource: font Courier-Oblique
%%IncludeResource: font Times-Roman
%%IncludeResource: font Helvetica-BoldOblique
%%IncludeResource: font Helvetica-Bold
%%IncludeResource: font Helvetica-Oblique
%%IncludeResource: font Times-BoldItalic
%%IncludeResource: font Courier
%%IncludeResource: font Times-Italic
%%IncludeResource: font Times-Bold
%%IncludeResource: font Symbol
%%IncludeResource: font ZapfDingbats
%FOPEndFontDict
%%BeginResource: encoding WinAnsiEncoding
/WinAnsiEncoding [
/.notdef /.notdef /.notdef /.notdef /.notdef
/.notdef /.notdef /.notdef /.notdef /.notdef
/.notdef /.notdef /.notdef /.notdef /.notdef
/.notdef /.notdef /.notdef /.notdef /.notdef
/.notdef /.notdef /.notdef /.notdef /.notdef
/.notdef /.notdef /.notdef /.notdef /.notdef
/.notdef /.notdef /space /exclam /quotedbl
/numbersign /dollar /percent /ampersand /quotesingle
/parenleft /parenright /asterisk /plus /comma
/hyphen /period /slash /zero /one
/two /three /four /five /six
/seven /eight /nine /colon /semicolon
/less /equal /greater /question /at
/A /B /C /D /E
/F /G /H /I /J
/K /L /M /N /O
/P /Q /R /S /T
/U /V /W /X /Y
/Z /bracketleft /backslash /bracketright /asciicircum
/underscore /quoteleft /a /b /c
/d /e /f /g /h
/i /j /k /l /m
/n /o /p /q /r
/s /t /u /v /w
/x /y /z /braceleft /bar
/braceright /asciitilde /bullet /Euro /bullet
/quotesinglbase /florin /quotedblbase /ellipsis /dagger
/daggerdbl /circumflex /perthousand /Scaron /guilsinglleft
/OE /bullet /Zcaron /bullet /bullet
/quoteleft /quoteright /quotedblleft /quotedblright /bullet
/endash /emdash /asciitilde /trademark /scaron
/guilsinglright /oe /bullet /zcaron /Ydieresis
/space /exclamdown /cent /sterling /currency
/yen /brokenbar /section /dieresis /copyright
/ordfeminine /guillemotleft /logicalnot /sfthyphen /registered
/macron /degree /plusminus /twosuperior /threesuperior
/acute /mu /paragraph /middot /cedilla
/onesuperior /ordmasculine /guillemotright /onequarter /onehalf
/threequarters /questiondown /Agrave /Aacute /Acircumflex
/Atilde /Adieresis /Aring /AE /Ccedilla
/Egrave /Eacute /Ecircumflex /Edieresis /Igrave
/Iacute /Icircumflex /Idieresis /Eth /Ntilde
/Ograve /Oacute /Ocircumflex /Otilde /Odieresis
/multiply /Oslash /Ugrave /Uacute /Ucircumflex
/Udieresis /Yacute /Thorn /germandbls /agrave
/aacute /acircumflex /atilde /adieresis /aring
/ae /ccedilla /egrave /eacute /ecircumflex
/edieresis /igrave /iacute /icircumflex /idieresis
/eth /ntilde /ograve /oacute /ocircumflex
/otilde /odieresis /divide /oslash /ugrave
/uacute /ucircumflex /udieresis /yacute /thorn
/ydieresis
] def
%%EndResource
%FOPBeginFontReencode
/Courier-Bold findfont
dup length dict begin
  {1 index /FID ne {def} {pop pop} ifelse} forall
  /Encoding WinAnsiEncoding def
  currentdict
end
/Courier-Bold exch definefont pop
/Helvetica findfont
dup length dict begin
  {1 index /FID ne {def} {pop pop} ifelse} forall
  /Encoding WinAnsiEncoding def
  currentdict
end
/Helvetica exch definefont pop
/Courier-BoldOblique findfont
dup length dict begin
  {1 index /FID ne {def} {pop pop} ifelse} forall
  /Encoding WinAnsiEncoding def
  currentdict
end
/Courier-BoldOblique exch definefont pop
/Courier-Oblique findfont
dup length dict begin
  {1 index /FID ne {def} {pop pop} ifelse} forall
  /Encoding WinAnsiEncoding def
  currentdict
end
/Courier-Oblique exch definefont pop
/Times-Roman findfont
dup length dict begin
  {1 index /FID ne {def} {pop pop} ifelse} forall
  /Encoding WinAnsiEncoding def
  currentdict
end
/Times-Roman exch definefont pop
/Helvetica-BoldOblique findfont
dup length dict begin
  {1 index /FID ne {def} {pop pop} ifelse} forall
  /Encoding WinAnsiEncoding def
  currentdict
end
/Helvetica-BoldOblique exch definefont pop
/Helvetica-Bold findfont
dup length dict begin
  {1 index /FID ne {def} {pop pop} ifelse} forall
  /Encoding WinAnsiEncoding def
  currentdict
end
/Helvetica-Bold exch definefont pop
/Helvetica-Oblique findfont
dup length dict begin
  {1 index /FID ne {def} {pop pop} ifelse} forall
  /Encoding WinAnsiEncoding def
  currentdict
end
/Helvetica-Oblique exch definefont pop
/Times-BoldItalic findfont
dup length dict begin
  {1 index /FID ne {def} {pop pop} ifelse} forall
  /Encoding WinAnsiEncoding def
  currentdict
end
/Times-BoldItalic exch definefont pop
/Courier findfont
dup length dict begin
  {1 index /FID ne {def} {pop pop} ifelse} forall
  /Encoding WinAnsiEncoding def
  currentdict
end
/Courier exch definefont pop
/Times-Italic findfont
dup length dict begin
  {1 index /FID ne {def} {pop pop} ifelse} forall
  /Encoding WinAnsiEncoding def
  currentdict
end
/Times-Italic exch definefont pop
/Times-Bold findfont
dup length dict begin
  {1 index /FID ne {def} {pop pop} ifelse} forall
  /Encoding WinAnsiEncoding def
  currentdict
end
/Times-Bold exch definefont pop
%FOPEndFontReencode
%%EndProlog
%%Page: 1 1
%%PageBoundingBox: 0 0 906 566
%%BeginPageSetup
[1 0 0 -1 0 566] CT
%%EndPageSetup
GS
[0.75 0 0 0.75 0 0.5] CT
1 GC
N
0 0 1208 754 re
f
GR
GS
[0.75 0 0 0.75 0 0.5] CT
1 GC
N
0 0 1208 754 re
f
GR
GS
[0.75 0 0 0.75 0 0.5] CT
1 GC
N
157 671 M
1093 671 L
1093 57 L
157 57 L
cp
f
GR
GS
[0.75 0 0 0.75 0 0.5] CT
0.149 GC
2 setlinecap
1 LJ
0.667 LW
N
157 671 M
1093 671 L
S
GR
GS
[0.75 0 0 0.75 0 0.5] CT
0.149 GC
2 setlinecap
1 LJ
0.667 LW
N
157 671 M
157 661.64 L
S
GR
GS
[0.75 0 0 0.75 0 0.5] CT
0.149 GC
2 setlinecap
1 LJ
0.667 LW
N
256.574 671 M
256.574 661.64 L
S
GR
GS
[0.75 0 0 0.75 0 0.5] CT
0.149 GC
2 setlinecap
1 LJ
0.667 LW
N
356.149 671 M
356.149 661.64 L
S
GR
GS
[0.75 0 0 0.75 0 0.5] CT
0.149 GC
2 setlinecap
1 LJ
0.667 LW
N
455.723 671 M
455.723 661.64 L
S
GR
GS
[0.75 0 0 0.75 0 0.5] CT
0.149 GC
2 setlinecap
1 LJ
0.667 LW
N
555.298 671 M
555.298 661.64 L
S
GR
GS
[0.75 0 0 0.75 0 0.5] CT
0.149 GC
2 setlinecap
1 LJ
0.667 LW
N
654.872 671 M
654.872 661.64 L
S
GR
GS
[0.75 0 0 0.75 0 0.5] CT
0.149 GC
2 setlinecap
1 LJ
0.667 LW
N
754.447 671 M
754.447 661.64 L
S
GR
GS
[0.75 0 0 0.75 0 0.5] CT
0.149 GC
2 setlinecap
1 LJ
0.667 LW
N
854.021 671 M
854.021 661.64 L
S
GR
GS
[0.75 0 0 0.75 0 0.5] CT
0.149 GC
2 setlinecap
1 LJ
0.667 LW
N
953.596 671 M
953.596 661.64 L
S
GR
GS
[0.75 0 0 0.75 0 0.5] CT
0.149 GC
2 setlinecap
1 LJ
0.667 LW
N
1053.17 671 M
1053.17 661.64 L
S
GR
GS
[0.75 0 0 0.75 117.75 509.35001] CT
0.149 GC
/Helvetica 24 F
GS
[1 0 0 1 0 0] CT
-31 23 moveto 
1 -1 scale
(1530) t 
GR
GR
GS
[0.75 0 0 0.75 192.43085 509.35001] CT
0.149 GC
/Helvetica 24 F
GS
[1 0 0 1 0 0] CT
-31 23 moveto 
1 -1 scale
(1535) t 
GR
GR
GS
[0.75 0 0 0.75 267.11169 509.35001] CT
0.149 GC
/Helvetica 24 F
GS
[1 0 0 1 0 0] CT
-31 23 moveto 
1 -1 scale
(1540) t 
GR
GR
GS
[0.75 0 0 0.75 341.79256 509.35001] CT
0.149 GC
/Helvetica 24 F
GS
[1 0 0 1 0 0] CT
-31 23 moveto 
1 -1 scale
(1545) t 
GR
GR
GS
[0.75 0 0 0.75 416.47339 509.35001] CT
0.149 GC
/Helvetica 24 F
GS
[1 0 0 1 0 0] CT
-31 23 moveto 
1 -1 scale
(1550) t 
GR
GR
GS
[0.75 0 0 0.75 491.15424 509.35001] CT
0.149 GC
/Helvetica 24 F
GS
[1 0 0 1 0 0] CT
-31 23 moveto 
1 -1 scale
(1555) t 
GR
GR
GS
[0.75 0 0 0.75 565.83513 509.35001] CT
0.149 GC
/Helvetica 24 F
GS
[1 0 0 1 0 0] CT
-31 23 moveto 
1 -1 scale
(1560) t 
GR
GR
GS
[0.75 0 0 0.75 640.51598 509.35001] CT
0.149 GC
/Helvetica 24 F
GS
[1 0 0 1 0 0] CT
-31 23 moveto 
1 -1 scale
(1565) t 
GR
GR
GS
[0.75 0 0 0.75 715.19682 509.35001] CT
0.149 GC
/Helvetica 24 F
GS
[1 0 0 1 0 0] CT
-31 23 moveto 
1 -1 scale
(1570) t 
GR
GR
GS
[0.75 0 0 0.75 789.87762 509.35001] CT
0.149 GC
/Helvetica 24 F
GS
[1 0 0 1 0 0] CT
-31 23 moveto 
1 -1 scale
(1575) t 
GR
GR
GS
[0.75 0 0 0.75 468.75 532.09999] CT
0.149 GC
N
-118.297 8.203 M
-118.297 24.656 L
-114.844 24.656 L
-110.469 24.656 -108.438 22.672 QT
-106.406 20.688 -106.406 16.406 QT
-106.406 12.156 -108.438 10.18 QT
-110.469 8.203 -114.844 8.203 QT
-118.297 8.203 L
cp
-121.156 5.859 M
-115.281 5.859 L
-109.125 5.859 -106.25 8.414 QT
-103.375 10.969 -103.375 16.406 QT
-103.375 21.875 -106.266 24.438 QT
-109.156 27 -115.281 27 QT
-121.156 27 L
-121.156 5.859 L
cp
-98.616 4.969 M
-96.007 4.969 L
-96.007 13.484 L
-94.241 12.219 L
-93.163 13.719 L
-96.007 15.719 L
-96.007 27 L
-98.616 27 L
-98.616 17.563 L
-100.351 18.813 L
-101.398 17.313 L
-98.616 15.313 L
-98.616 4.969 L
cp
-90.63 20.734 M
-90.63 11.141 L
-88.036 11.141 L
-88.036 20.641 L
-88.036 22.891 -87.153 24.016 QT
-86.271 25.141 -84.521 25.141 QT
-82.411 25.141 -81.185 23.797 QT
-79.958 22.453 -79.958 20.125 QT
-79.958 11.141 L
-77.349 11.141 L
-77.349 27 L
-79.958 27 L
-79.958 24.563 L
-80.911 26.016 -82.161 26.711 QT
-83.411 27.406 -85.068 27.406 QT
-87.802 27.406 -89.216 25.711 QT
-90.63 24.016 -90.63 20.734 QT
cp
-61.349 18.891 M
-61.349 16.047 -62.521 14.492 QT
-63.693 12.938 -65.802 12.938 QT
-67.896 12.938 -69.06 14.492 QT
-70.224 16.047 -70.224 18.891 QT
-70.224 21.703 -69.06 23.258 QT
-67.896 24.813 -65.802 24.813 QT
-63.693 24.813 -62.521 23.258 QT
-61.349 21.703 -61.349 18.891 QT
cp
-58.74 25.031 M
-58.74 29.078 -60.544 31.055 QT
-62.349 33.031 -66.052 33.031 QT
-67.427 33.031 -68.646 32.828 QT
-69.865 32.625 -71.005 32.203 QT
-71.005 29.656 L
-69.865 30.281 -68.747 30.578 QT
-67.63 30.875 -66.458 30.875 QT
-63.896 30.875 -62.622 29.539 QT
-61.349 28.203 -61.349 25.5 QT
-61.349 24.203 L
-62.161 25.609 -63.419 26.305 QT
-64.677 27 -66.443 27 QT
-69.349 27 -71.138 24.773 QT
-72.927 22.547 -72.927 18.891 QT
-72.927 15.203 -71.138 12.984 QT
-69.349 10.766 -66.443 10.766 QT
-64.677 10.766 -63.419 11.453 QT
-62.161 12.141 -61.349 13.547 QT
-61.349 11.141 L
-58.74 11.141 L
-58.74 25.031 L
cp
-47.039 12.969 M
-49.133 12.969 -50.352 14.602 QT
-51.571 16.234 -51.571 19.078 QT
-51.571 21.938 -50.36 23.57 QT
-49.149 25.203 -47.039 25.203 QT
-44.961 25.203 -43.742 23.563 QT
-42.524 21.922 -42.524 19.078 QT
-42.524 16.266 -43.742 14.617 QT
-44.961 12.969 -47.039 12.969 QT
cp
-47.039 10.766 M
-43.633 10.766 -41.696 12.969 QT
-39.758 15.172 -39.758 19.078 QT
-39.758 22.984 -41.696 25.195 QT
-43.633 27.406 -47.039 27.406 QT
-50.446 27.406 -52.383 25.195 QT
-54.321 22.984 -54.321 19.078 QT
-54.321 15.172 -52.383 12.969 QT
-50.446 10.766 -47.039 10.766 QT
cp
-27.762 3.813 M
-24.949 3.813 L
-29.559 9.125 L
-31.73 9.125 L
-27.762 3.813 L
cp
-25.137 11.609 M
-25.137 14.078 L
-26.246 13.5 -27.434 13.219 QT
-28.621 12.938 -29.902 12.938 QT
-31.84 12.938 -32.809 13.531 QT
-33.777 14.125 -33.777 15.313 QT
-33.777 16.219 -33.082 16.734 QT
-32.387 17.25 -30.293 17.719 QT
-29.402 17.922 L
-26.621 18.516 -25.457 19.602 QT
-24.293 20.688 -24.293 22.625 QT
-24.293 24.828 -26.035 26.117 QT
-27.777 27.406 -30.84 27.406 QT
-32.121 27.406 -33.504 27.164 QT
-34.887 26.922 -36.402 26.422 QT
-36.402 23.734 L
-34.965 24.484 -33.566 24.859 QT
-32.168 25.234 -30.793 25.234 QT
-28.949 25.234 -27.957 24.602 QT
-26.965 23.969 -26.965 22.828 QT
-26.965 21.766 -27.676 21.195 QT
-28.387 20.625 -30.809 20.109 QT
-31.715 19.891 L
-34.137 19.375 -35.215 18.32 QT
-36.293 17.266 -36.293 15.438 QT
-36.293 13.188 -34.707 11.977 QT
-33.121 10.766 -30.199 10.766 QT
-28.762 10.766 -27.488 10.977 QT
-26.215 11.188 -25.137 11.609 QT
cp
-8.568 11.75 M
-8.568 14.188 L
-9.662 13.578 -10.779 13.273 QT
-11.896 12.969 -13.021 12.969 QT
-15.552 12.969 -16.959 14.578 QT
-18.365 16.188 -18.365 19.078 QT
-18.365 21.984 -16.959 23.594 QT
-15.552 25.203 -13.021 25.203 QT
-11.896 25.203 -10.779 24.898 QT
-9.662 24.594 -8.568 23.984 QT
-8.568 26.391 L
-9.646 26.906 -10.818 27.156 QT
-11.99 27.406 -13.302 27.406 QT
-16.896 27.406 -19.006 25.156 QT
-21.115 22.906 -21.115 19.078 QT
-21.115 15.203 -18.982 12.984 QT
-16.849 10.766 -13.131 10.766 QT
-11.927 10.766 -10.787 11.008 QT
-9.646 11.25 -8.568 11.75 QT
cp
-11.49 3.813 M
-8.677 3.813 L
-13.287 9.125 L
-15.459 9.125 L
-11.49 3.813 L
cp
13.491 4.969 M
13.491 7.141 L
10.991 7.141 L
9.6 7.141 9.053 7.703 QT
8.506 8.266 8.506 9.734 QT
8.506 11.141 L
12.788 11.141 L
12.788 13.172 L
8.506 13.172 L
8.506 27 L
5.881 27 L
5.881 13.172 L
3.397 13.172 L
3.397 11.141 L
5.881 11.141 L
5.881 10.031 L
5.881 7.391 7.116 6.18 QT
8.35 4.969 11.022 4.969 QT
13.491 4.969 L
cp
22.982 19.031 M
19.826 19.031 18.607 19.75 QT
17.388 20.469 17.388 22.219 QT
17.388 23.594 18.302 24.414 QT
19.216 25.234 20.795 25.234 QT
22.951 25.234 24.263 23.695 QT
25.576 22.156 25.576 19.609 QT
25.576 19.031 L
22.982 19.031 L
cp
28.185 17.953 M
28.185 27 L
25.576 27 L
25.576 24.594 L
24.685 26.031 23.357 26.719 QT
22.029 27.406 20.091 27.406 QT
17.654 27.406 16.216 26.039 QT
14.779 24.672 14.779 22.391 QT
14.779 19.703 16.576 18.344 QT
18.373 16.984 21.92 16.984 QT
25.576 16.984 L
25.576 16.734 L
25.576 14.938 24.396 13.953 QT
23.216 12.969 21.076 12.969 QT
19.716 12.969 18.427 13.297 QT
17.138 13.625 15.951 14.266 QT
15.951 11.859 L
17.373 11.313 18.724 11.039 QT
20.076 10.766 21.341 10.766 QT
24.779 10.766 26.482 12.547 QT
28.185 14.328 28.185 17.953 QT
cp
33.741 4.969 M
36.351 4.969 L
36.351 27 L
33.741 27 L
33.741 4.969 L
cp
41.885 11.141 M
44.495 11.141 L
44.495 27 L
41.885 27 L
41.885 11.141 L
cp
41.885 4.969 M
44.495 4.969 L
44.495 8.266 L
41.885 8.266 L
41.885 4.969 L
cp
59.113 4.969 M
65.113 4.969 L
65.113 6.984 L
61.706 6.984 L
61.706 28.797 L
65.113 28.797 L
65.113 30.828 L
59.113 30.828 L
59.113 4.969 L
cp
83.97 17.422 M
83.97 27 L
81.361 27 L
81.361 17.516 L
81.361 15.266 80.486 14.148 QT
79.611 13.031 77.845 13.031 QT
75.736 13.031 74.517 14.375 QT
73.298 15.719 73.298 18.031 QT
73.298 27 L
70.689 27 L
70.689 11.141 L
73.298 11.141 L
73.298 13.609 L
74.236 12.172 75.502 11.469 QT
76.767 10.766 78.423 10.766 QT
81.158 10.766 82.564 12.453 QT
83.97 14.141 83.97 17.422 QT
cp
101.704 14.188 M
102.689 12.422 104.048 11.594 QT
105.408 10.766 107.251 10.766 QT
109.72 10.766 111.064 12.5 QT
112.408 14.234 112.408 17.422 QT
112.408 27 L
109.798 27 L
109.798 17.516 L
109.798 15.234 108.986 14.133 QT
108.173 13.031 106.517 13.031 QT
104.501 13.031 103.322 14.375 QT
102.142 15.719 102.142 18.031 QT
102.142 27 L
99.533 27 L
99.533 17.516 L
99.533 15.219 98.72 14.125 QT
97.908 13.031 96.22 13.031 QT
94.236 13.031 93.056 14.383 QT
91.876 15.734 91.876 18.031 QT
91.876 27 L
89.267 27 L
89.267 11.141 L
91.876 11.141 L
91.876 13.609 L
92.767 12.141 94.017 11.453 QT
95.267 10.766 96.97 10.766 QT
98.704 10.766 99.915 11.641 QT
101.126 12.516 101.704 14.188 QT
cp
124.008 4.969 M
124.008 30.828 L
117.993 30.828 L
117.993 28.797 L
121.383 28.797 L
121.383 6.984 L
117.993 6.984 L
117.993 4.969 L
124.008 4.969 L
cp
f
GR
GS
[0.75 0 0 0.75 0 0.5] CT
0.149 GC
2 setlinecap
1 LJ
0.667 LW
N
157 671 M
157 57 L
S
GR
GS
[0.75 0 0 0.75 0 0.5] CT
0.149 GC
2 setlinecap
1 LJ
0.667 LW
N
157 671 M
166.359 671 L
S
GR
GS
[0.75 0 0 0.75 0 0.5] CT
0.149 GC
2 setlinecap
1 LJ
0.667 LW
N
157 594.25 M
166.359 594.25 L
S
GR
GS
[0.75 0 0 0.75 0 0.5] CT
0.149 GC
2 setlinecap
1 LJ
0.667 LW
N
157 517.5 M
166.359 517.5 L
S
GR
GS
[0.75 0 0 0.75 0 0.5] CT
0.149 GC
2 setlinecap
1 LJ
0.667 LW
N
157 440.75 M
166.359 440.75 L
S
GR
GS
[0.75 0 0 0.75 0 0.5] CT
0.149 GC
2 setlinecap
1 LJ
0.667 LW
N
157 364 M
166.359 364 L
S
GR
GS
[0.75 0 0 0.75 0 0.5] CT
0.149 GC
2 setlinecap
1 LJ
0.667 LW
N
157 287.25 M
166.359 287.25 L
S
GR
GS
[0.75 0 0 0.75 0 0.5] CT
0.149 GC
2 setlinecap
1 LJ
0.667 LW
N
157 210.5 M
166.359 210.5 L
S
GR
GS
[0.75 0 0 0.75 0 0.5] CT
0.149 GC
2 setlinecap
1 LJ
0.667 LW
N
157 133.75 M
166.359 133.75 L
S
GR
GS
[0.75 0 0 0.75 0 0.5] CT
0.149 GC
2 setlinecap
1 LJ
0.667 LW
N
157 57 M
166.359 57 L
S
GR
GS
[0.75 0 0 0.75 112.15076 503.75] CT
0.149 GC
/Helvetica 24 F
GS
[1 0 0 1 0 0] CT
-16 8.5 moveto 
1 -1 scale
(0) t 
GR
GR
GS
[0.75 0 0 0.75 112.15076 446.1875] CT
0.149 GC
/Helvetica 24 F
GS
[1 0 0 1 0 0] CT
-31 8.5 moveto 
1 -1 scale
(10) t 
GR
GR
GS
[0.75 0 0 0.75 112.15076 388.625] CT
0.149 GC
/Helvetica 24 F
GS
[1 0 0 1 0 0] CT
-31 8.5 moveto 
1 -1 scale
(20) t 
GR
GR
GS
[0.75 0 0 0.75 112.15076 331.0625] CT
0.149 GC
/Helvetica 24 F
GS
[1 0 0 1 0 0] CT
-31 8.5 moveto 
1 -1 scale
(30) t 
GR
GR
GS
[0.75 0 0 0.75 112.15076 273.5] CT
0.149 GC
/Helvetica 24 F
GS
[1 0 0 1 0 0] CT
-31 8.5 moveto 
1 -1 scale
(40) t 
GR
GR
GS
[0.75 0 0 0.75 112.15076 215.9375] CT
0.149 GC
/Helvetica 24 F
GS
[1 0 0 1 0 0] CT
-31 8.5 moveto 
1 -1 scale
(50) t 
GR
GR
GS
[0.75 0 0 0.75 112.15076 158.375] CT
0.149 GC
/Helvetica 24 F
GS
[1 0 0 1 0 0] CT
-31 8.5 moveto 
1 -1 scale
(60) t 
GR
GR
GS
[0.75 0 0 0.75 112.15076 100.8125] CT
0.149 GC
/Helvetica 24 F
GS
[1 0 0 1 0 0] CT
-31 8.5 moveto 
1 -1 scale
(70) t 
GR
GR
GS
[0.75 0 0 0.75 112.15076 43.25] CT
0.149 GC
/Helvetica 24 F
GS
[1 0 0 1 0 0] CT
-31 8.5 moveto 
1 -1 scale
(80) t 
GR
GR
GS
[0 -0.75 0.75 0 85.89942 273.49977] CT
0.149 GC
/Helvetica 29.333 F
GS
[1 0 0 1 0 0] CT
-109 -7 moveto 
1 -1 scale
(Transmisja [%]) t 
GR
GR
GS
[0.75 0 0 0.75 468.75 38.74999] CT
/Helvetica-Bold 32 F
GS
[1 0 0 1 0 0] CT
-173 -8 moveto 
1 -1 scale
(Transmisja filtru 4f) t 
GR
GR
GS
[0.75 0 0 0.75 0 0.5] CT
0 0 1 RC
1 LJ
0.667 LW
N
156.905 669.368 M
157 669.347 L
160.982 667.706 L
164.966 664.568 L
168.948 658.658 L
172.933 648.44 L
176.915 632.412 L
180.897 607.205 L
184.881 572.085 L
188.863 528.447 L
192.848 475.619 L
196.83 418.848 L
200.812 364.065 L
204.796 316.971 L
208.778 281.659 L
212.763 258.658 L
216.745 242.867 L
220.727 228.455 L
224.711 214.524 L
228.693 202.412 L
232.678 192.124 L
236.66 182.748 L
240.642 174.118 L
244.626 169.035 L
248.608 164.511 L
252.592 158.043 L
256.574 149.455 L
260.556 139.638 L
264.541 133.135 L
268.523 130.467 L
272.507 128.529 L
276.489 127.611 L
280.471 126.619 L
284.456 124.572 L
288.438 126.001 L
292.422 113.174 L
296.404 109.106 L
300.386 108.824 L
304.371 109.475 L
308.353 109.142 L
312.337 106.776 L
316.319 104.95 L
320.301 103.247 L
324.286 102.332 L
328.268 102.577 L
332.252 106.676 L
336.234 114.638 L
340.216 122.243 L
344.201 127.564 L
348.182 129.572 L
352.167 132.256 L
356.149 136.625 L
360.131 142.067 L
364.115 148.461 L
368.097 155.213 L
372.082 163.077 L
376.064 168.794 L
380.046 171.726 L
384.03 174.873 L
388.012 180.051 L
391.997 187.942 L
395.979 195.821 L
399.961 201.541 L
403.945 206.134 L
407.927 209.867 L
411.912 211.243 L
415.894 211.702 L
419.876 211.876 L
423.86 214.08 L
427.842 217.946 L
431.827 219.891 L
435.809 219.225 L
439.791 218.138 L
443.775 216.849 L
447.757 215.702 L
451.741 213.574 L
455.723 212.751 L
459.705 213.636 L
463.69 213.999 L
467.672 211.716 L
471.656 206.578 L
475.638 200.928 L
479.62 197.597 L
483.605 196.29 L
487.587 195.463 L
491.571 196.056 L
495.553 198.014 L
499.535 198.924 L
503.52 198.148 L
507.502 195.56 L
511.486 195.462 L
515.468 198.97 L
519.45 203.297 L
523.435 207.563 L
527.417 209.257 L
531.401 210.119 L
535.383 209.634 L
539.365 208.202 L
543.349 207.229 L
547.331 209.008 L
551.316 213.284 L
555.298 217.28 L
559.28 218.869 L
563.264 219.008 L
567.246 220.301 L
571.231 221.388 L
575.213 223.152 L
579.195 224.534 L
583.179 227.186 L
587.161 231.203 L
591.146 233.273 L
595.128 232.744 L
599.11 231.976 L
603.094 233.042 L
607.076 236.343 L
611.061 240.221 L
615.043 241.797 L
619.025 241.645 L
623.009 239.143 L
626.991 233.389 L
630.975 225.771 L
634.957 218.654 L
638.939 215.292 L
642.924 214.532 L
646.906 213.019 L
650.89 210.166 L
654.872 207.312 L
658.854 203.554 L
662.839 198.527 L
666.821 193.461 L
670.805 191.501 L
674.787 194.529 L
678.769 198.739 L
682.754 198.61 L
686.736 193.447 L
690.72 186.327 L
694.702 180.63 L
698.684 177.263 L
702.669 176.315 L
706.651 178.127 L
710.635 182.934 L
714.617 187.474 L
718.599 189.285 L
722.583 189.863 L
726.565 191.763 L
730.55 196.204 L
734.532 201.288 L
738.514 204.243 L
742.498 207.674 L
746.48 210.312 L
750.465 210.953 L
754.447 209.43 L
758.429 204.951 L
762.413 203.745 L
766.395 205.721 L
770.38 208.431 L
774.362 209.131 L
778.344 208.669 L
782.328 207.82 L
786.31 207.609 L
790.295 206.307 L
794.277 206.095 L
798.259 207.383 L
802.243 211.163 L
806.225 213.976 L
810.209 213.647 L
814.191 211.489 L
818.174 209.766 L
822.158 208.435 L
826.14 206.969 L
830.124 205.286 L
834.106 205.469 L
838.088 206.433 L
842.073 206.126 L
846.055 202.254 L
850.039 197.747 L
854.021 194.492 L
858.003 195.113 L
861.988 197.301 L
865.97 198.042 L
869.954 200.106 L
873.936 201.537 L
877.918 202.599 L
881.903 200.396 L
885.885 198.85 L
889.869 200.139 L
893.851 204.262 L
897.833 207.69 L
901.818 209.7 L
905.799 209.846 L
909.784 210.245 L
913.766 210.009 L
917.748 208.094 L
921.732 207.595 L
925.714 210.304 L
929.699 216.304 L
933.681 220.011 L
937.663 221.504 L
941.647 221.418 L
945.629 221.977 L
949.614 223.046 L
953.596 222.525 L
957.578 223.468 L
961.562 226.32 L
965.544 230.205 L
969.529 230.809 L
973.511 228.08 L
977.493 224.039 L
981.477 222.32 L
985.459 223.448 L
989.444 225.472 L
993.426 229.189 L
997.408 234.76 L
1001.392 242.148 L
1005.374 249.793 L
1009.358 258.303 L
1013.34 271.603 L
1017.322 290.565 L
1021.307 314.347 L
1025.289 340.133 L
1029.273 368.052 L
1033.255 398.652 L
1037.237 431.9 L
1041.222 465.988 L
1045.204 500.236 L
1049.188 532.089 L
1053.17 561.158 L
1057.152 586.834 L
1061.137 608.255 L
1065.119 625.206 L
1069.103 638.311 L
1073.085 648.42 L
1077.067 656.043 L
1081.052 661.632 L
1085.034 665.215 L
1089.018 667.58 L
1093 669.036 L
1093.095 669.056 L
S
GR
%%Trailer
%%Pages: 1
%%EOF
