Wavelengths,Var2,Var3
1534.99975903614,6,12
1535.02987951807,9,7
1535.06,6,9
1535.09012048193,4,7
1535.12024096386,7,7
1535.15036144578,8,0
1535.18048192771,5,5
1535.21060240964,4,5
1535.24072289157,5,15
1535.27084337349,6,7
1535.30096385542,5,7
1535.33108433735,10,8
1535.36120481928,5,15
1535.3913253012,4,5
1535.42144578313,6,5
1535.45156626506,4,3
1535.48168674699,7,11
1535.51180722892,6,9
1535.54192771084,6,8
1535.57204819277,6,5
1535.6021686747,9,10
1535.63228915663,6,6
1535.66240963855,6,3
1535.69253012048,6,6
1535.72265060241,6,13
1535.75277108434,4,4
1535.78289156627,10,3
1535.81301204819,5,4
1535.84313253012,8,10
1535.87325301205,8,9
1535.90337349398,9,6
1535.9334939759,9,5
1535.96361445783,1,12
1535.99373493976,9,5
1536.02385542169,6,7
1536.05397590361,6,5
1536.08409638554,3,13
1536.11421686747,7,3
1536.1443373494,8,6
1536.17445783133,5,8
1536.20457831325,5,11
1536.23469879518,3,9
1536.26481927711,5,1
1536.29493975904,4,6
1536.32506024096,8,13
1536.35518072289,6,4
1536.38530120482,7,4
1536.41542168675,8,5
1536.44554216867,0,21
1536.4756626506,9,5
1536.50578313253,5,6
1536.53590361446,6,5
1536.56602409639,3,7
1536.59614457831,9,4
1536.62626506024,8,8
1536.65638554217,7,6
1536.6865060241,2,12
1536.71662650602,5,6
1536.74674698795,5,6
1536.77686746988,11,4
1536.80698795181,7,8
1536.83710843373,8,2
1536.86722891566,5,5
1536.89734939759,9,2
1536.92746987952,4,12
1536.95759036145,6,8
1536.98771084337,2,8
1537.0178313253,8,4
1537.04795180723,4,14
1537.07807228916,8,5
1537.10819277108,6,9
1537.13831325301,8,4
1537.16843373494,6,6
1537.19855421687,2,7
1537.2286746988,4,5
1537.25879518072,6,7
1537.28891566265,8,14
1537.31903614458,7,2
1537.34915662651,6,3
1537.37927710843,7,5
1537.40939759036,7,9
1537.43951807229,9,3
1537.46963855422,5,9
1537.49975903614,9,3
1537.52987951807,8,8
1537.56,7,5
1537.59012048193,5,5
1537.62024096386,8,7
1537.65036144578,6,15
1537.68048192771,7,6
1537.71060240964,6,5
1537.74072289157,5,6
1537.77084337349,5,12
1537.80096385542,7,5
1537.83108433735,10,4
1537.86120481928,8,5
1537.8913253012,8,11
1537.92144578313,3,6
1537.95156626506,8,6
1537.98168674699,6,6
1538.01180722892,6,9
1538.04192771084,6,7
1538.07204819277,7,8
1538.1021686747,4,5
1538.13228915663,4,11
1538.16240963855,4,3
1538.19253012048,5,5
1538.22265060241,3,4
1538.25277108434,7,7
1538.28289156627,4,2
1538.31301204819,10,6
1538.34313253012,4,3
1538.37325301205,8,13
1538.40337349398,8,7
1538.4334939759,5,7
1538.46361445783,12,4
1538.49373493976,10,10
1538.52385542169,5,7
1538.55397590361,6,4
1538.58409638554,5,5
1538.61421686747,10,17
1538.6443373494,7,7
1538.67445783133,12,4
1538.70457831325,9,6
1538.73469879518,8,12
1538.76481927711,6,6
1538.79493975904,6,6
1538.82506024096,8,6
1538.85518072289,7,6
1538.88530120482,11,4
1538.91542168675,5,11
1538.94554216867,8,2
1538.9756626506,5,9
1539.00578313253,6,6
1539.03590361446,6,6
1539.06602409639,7,5
1539.09614457831,3,12
1539.12626506024,8,6
1539.15638554217,5,4
1539.1865060241,7,5
1539.21662650602,9,7
1539.24674698795,7,6
1539.27686746988,5,7
1539.30698795181,9,7
1539.33710843373,6,13
1539.36722891566,9,6
1539.39734939759,4,5
1539.42746987952,6,5
1539.45759036145,3,10
1539.48771084337,8,9
1539.5178313253,9,8
1539.54795180723,6,9
1539.57807228916,4,7
1539.60819277108,10,6
1539.63831325301,6,3
1539.66843373494,2,3
1539.69855421687,6,6
1539.7286746988,8,4
1539.75879518072,6,6
1539.78891566265,3,8
1539.81903614458,7,9
1539.84915662651,10,7
1539.87927710843,11,4
1539.90939759036,7,5
1539.93951807229,9,7
1539.96963855422,9,7
1539.99975903614,6,5
1540.02987951807,11,3
1540.06,8,7
1540.09012048193,8,5
1540.12024096386,7,12
1540.15036144578,4,3
1540.18048192771,4,17
1540.21060240964,8,6
1540.24072289157,3,4
1540.27084337349,9,4
1540.30096385542,5,4
1540.33108433735,5,3
1540.36120481928,4,4
1540.3913253012,8,5
1540.42144578313,10,12
1540.45156626506,9,5
1540.48168674699,6,3
1540.51180722892,3,8
1540.54192771084,6,10
1540.57204819277,9,1
1540.6021686747,9,8
1540.63228915663,9,4
1540.66240963855,7,6
1540.69253012048,9,5
1540.72265060241,5,3
1540.75277108434,13,4
1540.78289156627,7,4
1540.81301204819,4,5
1540.84313253012,7,9
1540.87325301205,5,5
1540.90337349398,6,13
1540.9334939759,6,4
1540.96361445783,2,2
1540.99373493976,10,9
1541.02385542169,10,8
1541.05397590361,8,1
1541.08409638554,8,6
1541.11421686747,5,5
1541.1443373494,2,14
1541.17445783133,5,4
1541.20457831325,11,2
1541.23469879518,10,5
1541.26481927711,9,7
1541.29493975904,5,4
1541.32506024096,7,5
1541.35518072289,8,11
1541.38530120482,9,9
1541.41542168675,10,11
1541.44554216867,6,5
1541.4756626506,4,7
1541.50578313253,6,17
1541.53590361446,7,7
1541.56602409639,7,2
1541.59614457831,11,5
1541.62626506024,7,12
1541.65638554217,7,4
1541.6865060241,9,3
1541.71662650602,8,8
1541.74674698795,5,17
1541.77686746988,9,8
1541.80698795181,13,5
1541.83710843373,4,7
1541.86722891566,4,9
1541.89734939759,13,7
1541.92746987952,6,3
1541.95759036145,5,4
1541.98771084337,8,10
1542.0178313253,5,5
1542.04795180723,10,9
1542.07807228916,3,8
1542.10819277108,8,7
1542.13831325301,0,4
1542.16843373494,4,2
1542.19855421687,9,6
1542.2286746988,9,8
1542.25879518072,3,3
1542.28891566265,9,4
1542.31903614458,8,5
1542.34915662651,4,10
1542.37927710843,8,2
1542.40939759036,2,10
1542.43951807229,1,7
1542.46963855422,6,9
1542.49975903614,3,4
1542.52987951807,7,6
1542.56,9,6
1542.59012048193,6,19
1542.62024096386,6,4
1542.65036144578,3,4
1542.68048192771,7,5
1542.71060240964,11,4
1542.74072289157,8,2
1542.77084337349,3,4
1542.80096385542,3,6
1542.83108433735,6,13
1542.86120481928,3,4
1542.8913253012,8,7
1542.92144578313,4,5
1542.95156626506,8,10
1542.98168674699,6,7
1543.01180722892,7,6
1543.04192771084,2,1
1543.07204819277,5,12
1543.1021686747,3,5
1543.13228915663,4,4
1543.16240963855,6,5
1543.19253012048,10,7
1543.22265060241,7,9
1543.25277108434,3,6
1543.28289156627,9,6
1543.31301204819,5,4
1543.34313253012,2,4
1543.37325301205,5,4
1543.40337349398,4,5
1543.4334939759,4,6
1543.46361445783,12,5
1543.49373493976,2,2
1543.52385542169,7,4
1543.55397590361,2,8
1543.58409638554,6,4
1543.61421686747,9,7
1543.6443373494,3,3
1543.67445783133,3,11
1543.70457831325,3,5
1543.73469879518,6,6
1543.76481927711,6,5
1543.79493975904,8,9
1543.82506024096,7,4
1543.85518072289,6,9
1543.88530120482,9,8
1543.91542168675,6,16
1543.94554216867,8,5
1543.9756626506,4,3
1544.00578313253,7,1
1544.03590361446,3,8
1544.06602409639,6,2
1544.09614457831,6,3
1544.12626506024,6,5
1544.15638554217,7,20
1544.1865060241,8,6
1544.21662650602,4,4
1544.24674698795,4,3
1544.27686746988,4,9
1544.30698795181,7,7
1544.33710843373,6,5
1544.36722891566,10,6
1544.39734939759,6,5
1544.42746987952,4,4
1544.45759036145,3,4
1544.48771084337,8,7
1544.5178313253,5,10
1544.54795180723,7,4
1544.57807228916,7,3
1544.60819277108,8,3
1544.63831325301,6,8
1544.66843373494,1,9
1544.69855421687,3,5
1544.7286746988,5,5
1544.75879518072,6,8
1544.78891566265,5,3
1544.81903614458,6,2
1544.84915662651,5,4
1544.87927710843,6,10
1544.90939759036,4,6
1544.93951807229,5,6
1544.96963855422,7,1
1544.99975903614,3,7
1545.02987951807,5,3
1545.06,2,6
1545.09012048193,6,3
1545.12024096386,5,12
1545.15036144578,6,7
1545.18048192771,4,7
1545.21060240964,4,7
1545.24072289157,5,8
1545.27084337349,3,5
1545.30096385542,4,3
1545.33108433735,5,6
1545.36120481928,2,7
1545.3913253012,5,5
1545.42144578313,11,11
1545.45156626506,5,1
1545.48168674699,4,10
1545.51180722892,8,2
1545.54192771084,2,2
1545.57204819277,12,10
1545.6021686747,7,9
1545.63228915663,6,7
1545.66240963855,4,3
1545.69253012048,4,3
1545.72265060241,7,11
1545.75277108434,5,3
1545.78289156627,7,5
1545.81301204819,6,3
1545.84313253012,7,10
1545.87325301205,3,6
1545.90337349398,5,5
1545.9334939759,4,4
1545.96361445783,6,7
1545.99373493976,7,6
1546.02385542169,4,13
1546.05397590361,2,5
1546.08409638554,5,11
1546.11421686747,9,6
1546.1443373494,9,8
1546.17445783133,5,4
1546.20457831325,8,6
1546.23469879518,3,6
1546.26481927711,2,6
1546.29493975904,10,6
1546.32506024096,8,9
1546.35518072289,7,8
1546.38530120482,6,6
1546.41542168675,4,11
1546.44554216867,7,6
1546.4756626506,4,9
1546.50578313253,8,5
1546.53590361446,3,4
1546.56602409639,8,9
1546.59614457831,3,6
1546.62626506024,6,5
1546.65638554217,5,4
1546.6865060241,6,4
1546.71662650602,10,8
1546.74674698795,8,6
1546.77686746988,8,7
1546.80698795181,8,7
1546.83710843373,8,5
1546.86722891566,8,7
1546.89734939759,4,4
1546.92746987952,6,5
1546.95759036145,2,5
1546.98771084337,8,5
1547.0178313253,12,9
1547.04795180723,4,7
1547.07807228916,4,8
1547.10819277108,5,3
1547.13831325301,7,5
1547.16843373494,3,12
1547.19855421687,3,4
1547.2286746988,5,7
1547.25879518072,6,11
1547.28891566265,7,13
1547.31903614458,7,3
1547.34915662651,6,7
1547.37927710843,9,6
1547.40939759036,8,14
1547.43951807229,3,4
1547.46963855422,4,4
1547.49975903614,5,4
1547.52987951807,5,15
1547.56,4,14
1547.59012048193,11,5
1547.62024096386,6,5
1547.65036144578,7,12
1547.68048192771,5,10
1547.71060240964,10,6
1547.74072289157,3,7
1547.77084337349,10,14
1547.80096385542,3,3
1547.83108433735,7,8
1547.86120481928,10,10
1547.8913253012,3,15
1547.92144578313,6,6
1547.95156626506,8,7
1547.98168674699,2,8
1548.01180722892,7,13
1548.04192771084,8,9
1548.07204819277,7,9
1548.1021686747,6,7
1548.13228915663,5,15
1548.16240963855,7,8
1548.19253012048,10,4
1548.22265060241,5,8
1548.25277108434,8,8
1548.28289156627,6,6
1548.31301204819,0,12
1548.34313253012,8,8
1548.37325301205,16,8
1548.40337349398,7,6
1548.4334939759,8,8
1548.46361445783,5,11
1548.49373493976,5,9
1548.52385542169,3,5
1548.55397590361,7,13
1548.58409638554,13,6
1548.61421686747,2,11
1548.6443373494,5,3
1548.67445783133,4,7
1548.70457831325,7,4
1548.73469879518,5,8
1548.76481927711,8,7
1548.79493975904,10,11
1548.82506024096,6,3
1548.85518072289,8,8
1548.88530120482,5,8
1548.91542168675,8,6
1548.94554216867,1,4
1548.9756626506,7,11
1549.00578313253,6,3
1549.03590361446,11,2
1549.06602409639,8,8
1549.09614457831,10,10
1549.12626506024,9,7
1549.15638554217,11,5
1549.1865060241,9,3
1549.21662650602,4,12
1549.24674698795,7,3
1549.27686746988,4,7
1549.30698795181,3,2
1549.33710843373,5,10
1549.36722891566,9,5
1549.39734939759,9,5
1549.42746987952,11,3
1549.45759036145,5,7
1549.48771084337,6,7
1549.5178313253,3,4
1549.54795180723,10,4
1549.57807228916,13,5
1549.60819277108,8,6
1549.63831325301,10,7
1549.66843373494,6,4
1549.69855421687,6,6
1549.7286746988,2,3
1549.75879518072,12,6
1549.78891566265,5,1
1549.81903614458,11,14
1549.84915662651,13,2
1549.87927710843,4,3
1549.90939759036,7,6
1549.93951807229,9,11
1549.96963855422,8,3
1549.99975903614,12,6
1550.02987951807,9,4
1550.06,6,10
1550.09012048193,6,1
1550.12024096386,6,4
1550.15036144578,6,5
1550.18048192771,5,12
1550.21060240964,12,6
1550.24072289157,4,3
1550.27084337349,6,4
1550.30096385542,4,9
1550.33108433735,5,10
1550.36120481928,1,5
1550.3913253012,6,9
1550.42144578313,3,9
1550.45156626506,6,8
1550.48168674699,10,5
1550.51180722892,10,5
1550.54192771084,8,11
1550.57204819277,10,3
1550.6021686747,5,2
1550.63228915663,10,6
1550.66240963855,12,9
1550.69253012048,3,7
1550.72265060241,5,6
1550.75277108434,5,7
1550.78289156627,10,8
1550.81301204819,4,6
1550.84313253012,10,6
1550.87325301205,6,2
1550.90337349398,7,8
1550.9334939759,8,6
1550.96361445783,7,3
1550.99373493976,5,10
1551.02385542169,6,15
1551.05397590361,10,2
1551.08409638554,10,8
1551.11421686747,5,3
1551.1443373494,3,12
1551.17445783133,8,5
1551.20457831325,5,4
1551.23469879518,3,4
1551.26481927711,9,8
1551.29493975904,4,7
1551.32506024096,10,8
1551.35518072289,12,2
1551.38530120482,4,9
1551.41542168675,11,1
1551.44554216867,8,6
1551.4756626506,6,6
1551.50578313253,6,18
1551.53590361446,2,3
1551.56602409639,6,11
1551.59614457831,6,1
1551.62626506024,5,8
1551.65638554217,6,3
1551.6865060241,7,3
1551.71662650602,6,5
1551.74674698795,6,11
1551.77686746988,9,4
1551.80698795181,10,8
1551.83710843373,7,7
1551.86722891566,6,9
1551.89734939759,8,11
1551.92746987952,4,5
1551.95759036145,6,8
1551.98771084337,10,14
1552.0178313253,5,8
1552.04795180723,7,10
1552.07807228916,6,6
1552.10819277108,10,10
1552.13831325301,10,10
1552.16843373494,9,4
1552.19855421687,6,4
1552.2286746988,4,11
1552.25879518072,7,8
1552.28891566265,9,8
1552.31903614458,5,4
1552.34915662651,7,11
1552.37927710843,4,6
1552.40939759036,3,6
1552.43951807229,6,9
1552.46963855422,7,15
1552.49975903614,8,7
1552.52987951807,7,5
1552.56,6,10
1552.59012048193,3,13
1552.62024096386,9,7
1552.65036144578,7,9
1552.68048192771,7,4
1552.71060240964,7,17
1552.74072289157,7,3
1552.77084337349,5,10
1552.80096385542,13,8
1552.83108433735,5,12
1552.86120481928,6,5
1552.8913253012,9,7
1552.92144578313,11,7
1552.95156626506,6,7
1552.98168674699,3,9
1553.01180722892,7,3
1553.04192771084,4,3
1553.07204819277,10,11
1553.1021686747,8,5
1553.13228915663,11,2
1553.16240963855,6,11
1553.19253012048,7,12
1553.22265060241,2,9
1553.25277108434,6,15
1553.28289156627,4,4
1553.31301204819,9,13
1553.34313253012,3,6
1553.37325301205,6,9
1553.40337349398,3,4
1553.4334939759,3,18
1553.46361445783,6,3
1553.49373493976,7,7
1553.52385542169,7,6
1553.55397590361,9,15
1553.58409638554,8,6
1553.61421686747,8,3
1553.6443373494,3,6
1553.67445783133,10,14
1553.70457831325,3,6
1553.73469879518,7,7
1553.76481927711,4,3
1553.79493975904,5,14
1553.82506024096,10,6
1553.85518072289,7,4
1553.88530120482,7,7
1553.91542168675,6,21
1553.94554216867,6,5
1553.9756626506,5,6
1554.00578313253,3,3
1554.03590361446,7,18
1554.06602409639,6,7
1554.09614457831,4,8
1554.12626506024,4,10
1554.15638554217,7,18
1554.1865060241,3,6
1554.21662650602,8,6
1554.24674698795,6,6
1554.27686746988,2,9
1554.30698795181,4,12
1554.33710843373,8,10
1554.36722891566,2,6
1554.39734939759,7,5
1554.42746987952,7,8
1554.45759036145,2,11
1554.48771084337,5,8
1554.5178313253,4,15
1554.54795180723,2,6
1554.57807228916,12,5
1554.60819277108,8,5
1554.63831325301,8,15
1554.66843373494,2,2
1554.69855421687,3,2
1554.7286746988,3,8
1554.75879518072,6,10
1554.78891566265,6,6
1554.81903614458,3,4
1554.84915662651,5,5
1554.87927710843,3,14
1554.90939759036,7,5
1554.93951807229,3,4
1554.96963855422,5,6
1554.99975903614,8,6
1555.02987951807,9,7
1555.06,6,8
1555.09012048193,4,7
1555.12024096386,5,10
1555.15036144578,9,3
1555.18048192771,11,4
1555.21060240964,6,3
1555.24072289157,8,10
1555.27084337349,6,7
1555.30096385542,6,1
1555.33108433735,6,4
1555.36120481928,7,5
1555.3913253012,7,7
1555.42144578313,5,3
1555.45156626506,3,2
1555.48168674699,5,10
1555.51180722892,18,10
1555.54192771084,8,2
1555.57204819277,7,6
1555.6021686747,4,9
1555.63228915663,6,3
1555.66240963855,8,4
1555.69253012048,9,5
1555.72265060241,1,11
1555.75277108434,9,10
1555.78289156627,5,7
1555.81301204819,4,4
1555.84313253012,3,6
1555.87325301205,6,8
1555.90337349398,9,5
1555.9334939759,7,5
1555.96361445783,7,11
1555.99373493976,7,2
1556.02385542169,8,4
1556.05397590361,5,6
1556.08409638554,8,10
1556.11421686747,7,6
1556.1443373494,4,2
1556.17445783133,7,1
1556.20457831325,5,14
1556.23469879518,7,2
1556.26481927711,9,8
1556.29493975904,3,9
1556.32506024096,5,11
1556.35518072289,10,2
1556.38530120482,9,3
1556.41542168675,4,6
1556.44554216867,7,13
1556.4756626506,13,1
1556.50578313253,4,8
1556.53590361446,4,4
1556.56602409639,5,10
1556.59614457831,9,7
1556.62626506024,6,10
1556.65638554217,4,7
1556.6865060241,3,10
1556.71662650602,10,4
1556.74674698795,8,6
1556.77686746988,9,6
1556.80698795181,3,12
1556.83710843373,6,7
1556.86722891566,6,3
1556.89734939759,5,5
1556.92746987952,7,14
1556.95759036145,9,4
1556.98771084337,9,9
1557.0178313253,12,7
1557.04795180723,7,9
1557.07807228916,2,3
1557.10819277108,8,6
1557.13831325301,6,4
1557.16843373494,8,11
1557.19855421687,8,6
1557.2286746988,9,4
1557.25879518072,7,3
1557.28891566265,8,7
1557.31903614458,5,5
1557.34915662651,10,4
1557.37927710843,5,2
1557.40939759036,10,15
1557.43951807229,6,5
1557.46963855422,5,5
1557.49975903614,2,3
1557.52987951807,3,13
1557.56,6,8
1557.59012048193,9,4
1557.62024096386,8,5
1557.65036144578,10,17
1557.68048192771,7,7
1557.71060240964,2,12
1557.74072289157,3,4
1557.77084337349,9,5
1557.80096385542,3,5
1557.83108433735,7,7
1557.86120481928,4,5
1557.8913253012,5,15
1557.92144578313,11,3
1557.95156626506,3,7
1557.98168674699,7,6
1558.01180722892,12,10
1558.04192771084,2,6
1558.07204819277,7,3
1558.1021686747,6,5
1558.13228915663,7,8
1558.16240963855,5,3
1558.19253012048,3,5
1558.22265060241,10,4
1558.25277108434,6,13
1558.28289156627,4,6
1558.31301204819,5,6
1558.34313253012,5,7
1558.37325301205,7,4
1558.40337349398,6,5
1558.4334939759,3,9
1558.46361445783,3,4
1558.49373493976,4,11
1558.52385542169,4,8
1558.55397590361,4,2
1558.58409638554,9,2
1558.61421686747,11,15
1558.6443373494,11,7
1558.67445783133,9,3
1558.70457831325,6,7
1558.73469879518,12,9
1558.76481927711,10,8
1558.79493975904,8,3
1558.82506024096,6,6
1558.85518072289,11,13
1558.88530120482,6,6
1558.91542168675,2,5
1558.94554216867,8,8
1558.9756626506,8,18
1559.00578313253,2,6
1559.03590361446,8,7
1559.06602409639,7,9
1559.09614457831,12,10
1559.12626506024,6,5
1559.15638554217,9,4
1559.1865060241,4,5
1559.21662650602,7,10
1559.24674698795,12,7
1559.27686746988,6,9
1559.30698795181,8,9
1559.33710843373,9,15
1559.36722891566,5,10
1559.39734939759,4,7
1559.42746987952,7,3
1559.45759036145,5,15
1559.48771084337,5,9
1559.5178313253,6,4
1559.54795180723,7,3
1559.57807228916,7,10
1559.60819277108,7,4
1559.63831325301,8,4
1559.66843373494,4,3
1559.69855421687,4,8
1559.7286746988,6,5
1559.75879518072,4,7
1559.78891566265,11,8
1559.81903614458,6,17
1559.84915662651,5,5
1559.87927710843,8,2
1559.90939759036,4,7
1559.93951807229,8,14
1559.96963855422,5,2
1559.99975903614,8,8
1560.02987951807,3,6
1560.06,7,13
1560.09012048193,6,9
1560.12024096386,8,5
1560.15036144578,4,1
1560.18048192771,9,14
1560.21060240964,3,4
1560.24072289157,8,7
1560.27084337349,10,5
1560.30096385542,6,10
1560.33108433735,7,3
1560.36120481928,9,7
1560.3913253012,9,8
1560.42144578313,5,7
1560.45156626506,9,7
1560.48168674699,6,9
1560.51180722892,6,4
1560.54192771084,8,12
1560.57204819277,8,5
1560.6021686747,8,4
1560.63228915663,3,9
1560.66240963855,10,16
1560.69253012048,5,7
1560.72265060241,6,6
1560.75277108434,3,4
1560.78289156627,9,15
1560.81301204819,7,7
1560.84313253012,5,5
1560.87325301205,10,5
1560.90337349398,6,16
1560.9334939759,6,6
1560.96361445783,13,5
1560.99373493976,6,4
1561.02385542169,9,13
1561.05397590361,9,3
1561.08409638554,6,8
1561.11421686747,5,12
1561.1443373494,10,10
1561.17445783133,10,7
1561.20457831325,4,8
1561.23469879518,8,6
1561.26481927711,5,9
1561.29493975904,3,7
1561.32506024096,6,3
1561.35518072289,11,5
1561.38530120482,8,10
1561.41542168675,7,6
1561.44554216867,9,9
1561.4756626506,9,3
1561.50578313253,5,9
1561.53590361446,5,4
1561.56602409639,5,9
1561.59614457831,9,5
1561.62626506024,3,12
1561.65638554217,6,5
1561.6865060241,7,5
1561.71662650602,4,9
1561.74674698795,13,10
1561.77686746988,9,1
1561.80698795181,9,3
1561.83710843373,9,5
1561.86722891566,9,9
1561.89734939759,6,5
1561.92746987952,7,4
1561.95759036145,10,2
1561.98771084337,10,8
1562.0178313253,4,6
1562.04795180723,12,0
1562.07807228916,3,4
1562.10819277108,4,6
1562.13831325301,4,7
1562.16843373494,5,5
1562.19855421687,7,9
1562.2286746988,9,11
1562.25879518072,5,4
1562.28891566265,7,5
1562.31903614458,9,5
1562.34915662651,8,4
1562.37927710843,0,7
1562.40939759036,4,7
1562.43951807229,10,1
1562.46963855422,3,14
1562.49975903614,5,3
1562.52987951807,7,2
1562.56,5,5
1562.59012048193,5,9
1562.62024096386,8,3
1562.65036144578,4,5
1562.68048192771,4,3
1562.71060240964,8,6
1562.74072289157,7,5
1562.77084337349,7,6
1562.80096385542,6,2
1562.83108433735,9,9
1562.86120481928,4,3
1562.8913253012,6,2
1562.92144578313,7,3
1562.95156626506,8,12
1562.98168674699,7,3
1563.01180722892,7,5
1563.04192771084,8,9
1563.07204819277,15,9
1563.1021686747,5,5
1563.13228915663,9,4
1563.16240963855,5,5
1563.19253012048,3,10
1563.22265060241,6,4
1563.25277108434,9,4
1563.28289156627,3,5
1563.31301204819,8,10
1563.34313253012,4,4
1563.37325301205,6,3
1563.40337349398,3,7
1563.4334939759,5,17
1563.46361445783,7,4
1563.49373493976,8,6
1563.52385542169,6,10
1563.55397590361,3,7
1563.58409638554,6,3
1563.61421686747,2,8
1563.6443373494,3,4
1563.67445783133,10,11
1563.70457831325,8,7
1563.73469879518,7,4
1563.76481927711,6,4
1563.79493975904,3,5
1563.82506024096,4,3
1563.85518072289,5,4
1563.88530120482,4,8
1563.91542168675,6,11
1563.94554216867,4,1
1563.9756626506,4,6
1564.00578313253,7,5
1564.03590361446,6,10
1564.06602409639,7,4
1564.09614457831,8,6
1564.12626506024,3,7
1564.15638554217,3,11
1564.1865060241,7,9
1564.21662650602,5,4
1564.24674698795,7,9
1564.27686746988,4,15
1564.30698795181,7,8
1564.33710843373,4,11
1564.36722891566,6,5
1564.39734939759,3,12
1564.42746987952,11,7
1564.45759036145,7,7
1564.48771084337,5,4
1564.5178313253,3,8
1564.54795180723,4,5
1564.57807228916,5,5
1564.60819277108,5,5
1564.63831325301,3,6
1564.66843373494,11,2
1564.69855421687,3,2
1564.7286746988,12,7
1564.75879518072,7,9
1564.78891566265,4,3
1564.81903614458,6,6
1564.84915662651,4,6
1564.87927710843,5,15
1564.90939759036,4,8
1564.93951807229,5,6
1564.96963855422,5,1
1564.99975903614,3,8
1565.02987951807,5,4
1565.06,6,5
1565.09012048193,7,5
1565.12024096386,8,7
1565.15036144578,1,3
1565.18048192771,4,1
1565.21060240964,7,5
1565.24072289157,1,10
1565.27084337349,5,4
1565.30096385542,8,5
1565.33108433735,5,4
1565.36120481928,3,8
1565.3913253012,6,8
1565.42144578313,5,5
1565.45156626506,6,1
1565.48168674699,5,7
1565.51180722892,5,5
1565.54192771084,3,6
1565.57204819277,3,5
1565.6021686747,9,13
1565.63228915663,6,6
1565.66240963855,13,7
1565.69253012048,6,3
1565.72265060241,5,13
1565.75277108434,1,6
1565.78289156627,7,5
1565.81301204819,8,4
1565.84313253012,8,7
1565.87325301205,5,7
1565.90337349398,11,4
1565.9334939759,6,2
1565.96361445783,8,11
1565.99373493976,7,4
1566.02385542169,4,6
1566.05397590361,8,7
1566.08409638554,5,11
1566.11421686747,4,6
1566.1443373494,8,6
1566.17445783133,9,7
1566.20457831325,11,11
1566.23469879518,4,4
1566.26481927711,8,4
1566.29493975904,6,7
1566.32506024096,9,10
1566.35518072289,6,2
1566.38530120482,3,7
1566.41542168675,7,6
1566.44554216867,4,9
1566.4756626506,6,3
1566.50578313253,5,4
1566.53590361446,9,10
1566.56602409639,9,15
1566.59614457831,7,5
1566.62626506024,6,5
1566.65638554217,4,6
1566.6865060241,9,8
1566.71662650602,7,6
1566.74674698795,5,4
1566.77686746988,7,5
1566.80698795181,2,12
1566.83710843373,6,4
1566.86722891566,14,10
1566.89734939759,9,3
1566.92746987952,3,10
1566.95759036145,5,9
1566.98771084337,8,6
1567.0178313253,4,7
1567.04795180723,1,7
1567.07807228916,5,6
1567.10819277108,10,8
1567.13831325301,9,4
1567.16843373494,7,5
1567.19855421687,4,3
1567.2286746988,8,5
1567.25879518072,3,5
1567.28891566265,4,8
1567.31903614458,6,9
1567.34915662651,12,4
1567.37927710843,5,2
1567.40939759036,9,10
1567.43951807229,8,6
1567.46963855422,8,6
1567.49975903614,7,8
1567.52987951807,6,18
1567.56,8,4
1567.59012048193,13,6
1567.62024096386,10,2
1567.65036144578,6,8
1567.68048192771,6,8
1567.71060240964,4,5
1567.74072289157,8,8
1567.77084337349,9,8
1567.80096385542,7,4
1567.83108433735,7,8
1567.86120481928,10,3
1567.8913253012,11,10
1567.92144578313,7,6
1567.95156626506,5,9
1567.98168674699,10,5
1568.01180722892,5,9
1568.04192771084,5,6
1568.07204819277,3,7
1568.1021686747,7,5
1568.13228915663,5,7
1568.16240963855,7,4
1568.19253012048,1,8
1568.22265060241,7,6
1568.25277108434,7,9
1568.28289156627,7,7
1568.31301204819,6,4
1568.34313253012,3,5
1568.37325301205,5,8
1568.40337349398,5,1
1568.4334939759,5,3
1568.46361445783,7,6
1568.49373493976,8,19
1568.52385542169,5,3
1568.55397590361,5,7
1568.58409638554,11,3
1568.61421686747,5,6
1568.6443373494,4,6
1568.67445783133,5,7
1568.70457831325,9,8
1568.73469879518,5,7
1568.76481927711,4,4
1568.79493975904,5,6
1568.82506024096,4,3
1568.85518072289,3,10
1568.88530120482,7,8
1568.91542168675,4,5
1568.94554216867,8,2
1568.9756626506,4,14
1569.00578313253,11,7
1569.03590361446,6,6
1569.06602409639,5,8
1569.09614457831,2,14
1569.12626506024,5,4
1569.15638554217,7,11
1569.1865060241,5,4
1569.21662650602,0,20
1569.24674698795,3,6
1569.27686746988,5,9
1569.30698795181,6,6
1569.33710843373,8,8
1569.36722891566,7,7
1569.39734939759,8,7
1569.42746987952,8,2
1569.45759036145,8,6
1569.48771084337,6,4
1569.5178313253,7,3
1569.54795180723,11,4
1569.57807228916,6,12
1569.60819277108,3,4
1569.63831325301,12,8
1569.66843373494,6,8
1569.69855421687,7,12
1569.7286746988,2,4
1569.75879518072,7,6
1569.78891566265,3,10
1569.81903614458,5,13
1569.84915662651,2,8
1569.87927710843,5,6
1569.90939759036,10,3
1569.93951807229,6,12
1569.96963855422,4,8
1569.99975903614,8,5
1570.02987951807,9,5
1570.06,6,16
1570.09012048193,4,8
1570.12024096386,7,8
1570.15036144578,9,5
1570.18048192771,9,7
1570.21060240964,8,2
1570.24072289157,5,4
1570.27084337349,5,2
1570.30096385542,5,18
1570.33108433735,7,5
1570.36120481928,3,6
1570.3913253012,5,2
1570.42144578313,4,11
1570.45156626506,5,3
1570.48168674699,4,3
1570.51180722892,5,1
1570.54192771084,4,9
1570.57204819277,7,5
1570.6021686747,7,2
1570.63228915663,5,5
1570.66240963855,6,12
1570.69253012048,8,8
1570.72265060241,4,7
1570.75277108434,8,3
1570.78289156627,9,11
1570.81301204819,6,10
1570.84313253012,5,14
1570.87325301205,6,7
1570.90337349398,7,27
1570.9334939759,14,14
1570.96361445783,9,18
1570.99373493976,5,33
1571.02385542169,7,67
1571.05397590361,6,31
1571.08409638554,3,42
1571.11421686747,7,41
1571.1443373494,9,104
1571.17445783133,7,49
1571.20457831325,9,67
1571.23469879518,8,56
1571.26481927711,5,148
1571.29493975904,7,74
1571.32506024096,8,76
1571.35518072289,13,65
1571.38530120482,12,161
1571.41542168675,13,63
1571.44554216867,19,86
1571.4756626506,19,91
1571.50578313253,30,169
1571.53590361446,25,73
1571.56602409639,33,75
1571.59614457831,45,72
1571.62626506024,41,135
1571.65638554217,66,50
1571.6865060241,53,60
1571.71662650602,81,25
1571.74674698795,84,71
1571.77686746988,84,26
1571.80698795181,92,24
1571.83710843373,103,25
1571.86722891566,85,29
1571.89734939759,81,22
1571.92746987952,101,15
1571.95759036145,108,9
1571.98771084337,101,11
1572.0178313253,109,4
1572.04795180723,83,7
1572.07807228916,99,8
1572.10819277108,82,17
1572.13831325301,88,8
1572.16843373494,80,7
1572.19855421687,64,9
1572.2286746988,66,8
1572.25879518072,52,5
1572.28891566265,45,3
1572.31903614458,45,6
1572.34915662651,43,11
1572.37927710843,32,1
1572.40939759036,27,5
1572.43951807229,15,2
1572.46963855422,20,11
1572.49975903614,20,1
1572.52987951807,14,4
1572.56,7,9
1572.59012048193,10,12
1572.62024096386,14,9
1572.65036144578,13,6
1572.68048192771,7,13
1572.71060240964,5,16
1572.74072289157,6,11
1572.77084337349,13,14
1572.80096385542,8,13
1572.83108433735,5,39
1572.86120481928,9,27
1572.8913253012,5,27
1572.92144578313,9,28
1572.95156626506,12,89
1572.98168674699,6,61
1573.01180722892,12,39
1573.04192771084,10,43
1573.07204819277,11,106
1573.1021686747,9,72
1573.13228915663,21,50
1573.16240963855,27,53
1573.19253012048,37,84
1573.22265060241,40,37
1573.25277108434,45,35
1573.28289156627,66,27
1573.31301204819,75,46
1573.34313253012,77,17
1573.37325301205,114,20
1573.40337349398,111,24
1573.4334939759,134,26
1573.46361445783,161,9
1573.49373493976,164,7
1573.52385542169,197,9
1573.55397590361,215,10
1573.58409638554,212,4
1573.61421686747,217,6
1573.6443373494,217,8
1573.67445783133,223,6
1573.70457831325,219,7
1573.73469879518,212,6
1573.76481927711,224,6
1573.79493975904,179,16
1573.82506024096,183,4
1573.85518072289,163,6
1573.88530120482,161,8
1573.91542168675,156,17
1573.94554216867,144,4
1573.9756626506,114,10
1574.00578313253,123,3
1574.03590361446,63,19
1574.06602409639,66,9
1574.09614457831,78,5
1574.12626506024,51,15
1574.15638554217,46,22
1574.1865060241,42,20
1574.21662650602,24,32
1574.24674698795,35,27
1574.27686746988,22,82
1574.30698795181,24,55
1574.33710843373,10,71
1574.36722891566,16,81
1574.39734939759,13,192
1574.42746987952,15,144
1574.45759036145,11,207
1574.48771084337,9,177
1574.5178313253,6,425
1574.54795180723,15,261
1574.57807228916,6,309
1574.60819277108,10,292
1574.63831325301,9,627
1574.66843373494,14,335
1574.69855421687,11,420
1574.7286746988,18,372
1574.75879518072,23,807
1574.78891566265,30,461
1574.81903614458,49,428
1574.84915662651,64,395
1574.87927710843,63,935
1574.90939759036,118,410
1574.93951807229,119,444
1574.96963855422,134,443
1574.99975903614,178,839
1575.02987951807,206,407
1575.06,245,384
1575.09012048193,274,366
1575.12024096386,355,668
1575.15036144578,352,251
1575.18048192771,404,233
1575.21060240964,446,213
1575.24072289157,493,346
1575.27084337349,488,128
1575.30096385542,497,120
1575.33108433735,511,113
1575.36120481928,470,139
1575.3913253012,475,64
1575.42144578313,455,43
1575.45156626506,463,32
1575.48168674699,450,43
1575.51180722892,422,17
1575.54192771084,376,19
1575.57204819277,360,17
1575.6021686747,366,23
1575.63228915663,289,14
1575.66240963855,256,10
1575.69253012048,222,8
1575.72265060241,176,15
1575.75277108434,143,5
1575.78289156627,113,4
1575.81301204819,130,7
1575.84313253012,100,9
1575.87325301205,76,7
1575.90337349398,59,4
1575.9334939759,39,4
1575.96361445783,38,12
1575.99373493976,16,8
1576.02385542169,21,8
1576.05397590361,26,11
1576.08409638554,16,23
1576.11421686747,9,11
1576.1443373494,14,14
1576.17445783133,14,21
1576.20457831325,13,71
1576.23469879518,12,67
1576.26481927711,9,59
1576.29493975904,13,77
1576.32506024096,16,232
1576.35518072289,24,172
1576.38530120482,34,214
1576.41542168675,42,233
1576.44554216867,46,643
1576.4756626506,63,419
1576.50578313253,85,467
1576.53590361446,106,573
1576.56602409639,168,1342
1576.59614457831,211,794
1576.62626506024,245,880
1576.65638554217,329,900
1576.6865060241,439,2017
1576.71662650602,486,1133
1576.74674698795,565,1177
1576.77686746988,711,1175
1576.80698795181,784,2481
1576.83710843373,887,1255
1576.86722891566,945,1207
1576.89734939759,1033,1313
1576.92746987952,1186,2611
1576.95759036145,1343,1348
1576.98771084337,1339,1323
1577.0178313253,1485,1345
1577.04795180723,1517,2632
1577.07807228916,1540,1271
1577.10819277108,1681,1175
1577.13831325301,1849,1119
1577.16843373494,1843,2032
1577.19855421687,1844,926
1577.2286746988,1879,813
1577.25879518072,2044,759
1577.28891566265,2049,1219
1577.31903614458,2031,500
1577.34915662651,2060,401
1577.37927710843,2128,364
1577.40939759036,2054,493
1577.43951807229,2207,188
1577.46963855422,2169,139
1577.49975903614,2168,144
1577.52987951807,2233,214
1577.56,2299,65
1577.59012048193,2285,46
1577.62024096386,2338,29
1577.65036144578,2338,71
1577.68048192771,2355,30
1577.71060240964,2473,22
1577.74072289157,2435,11
1577.77084337349,2427,27
1577.80096385542,2431,14
1577.83108433735,2450,11
1577.86120481928,2555,12
1577.8913253012,2568,17
1577.92144578313,2563,10
1577.95156626506,2538,7
1577.98168674699,2596,10
1578.01180722892,2540,20
1578.04192771084,2493,13
1578.07204819277,2612,8
1578.1021686747,2674,14
1578.13228915663,2655,26
1578.16240963855,2670,24
1578.19253012048,2628,35
1578.22265060241,2712,41
1578.25277108434,2728,139
1578.28289156627,2746,83
1578.31301204819,2751,154
1578.34313253012,2787,131
1578.37325301205,2790,411
1578.40337349398,2873,277
1578.4334939759,2831,333
1578.46361445783,2871,406
1578.49373493976,2859,950
1578.52385542169,2836,540
1578.55397590361,2833,645
1578.58409638554,2720,597
1578.61421686747,2553,1351
1578.6443373494,2437,710
1578.67445783133,2477,625
1578.70457831325,2209,591
1578.73469879518,2085,1059
1578.76481927711,2042,495
1578.79493975904,1916,440
1578.82506024096,1733,362
1578.85518072289,1491,546
1578.88530120482,1461,183
1578.91542168675,1313,129
1578.94554216867,1099,155
1578.9756626506,1030,187
1579.00578313253,884,79
1579.03590361446,717,57
1579.06602409639,652,46
1579.09614457831,542,78
1579.12626506024,419,21
1579.15638554217,345,20
1579.1865060241,291,15
1579.21662650602,224,35
1579.24674698795,177,12
1579.27686746988,137,9
1579.30698795181,119,12
1579.33710843373,90,18
1579.36722891566,69,3
1579.39734939759,45,2
1579.42746987952,34,15
1579.45759036145,31,15
1579.48771084337,20,17
1579.5178313253,18,9
1579.54795180723,22,19
1579.57807228916,17,75
1579.60819277108,26,54
1579.63831325301,28,62
1579.66843373494,29,95
1579.69855421687,41,292
1579.7286746988,65,173
1579.75879518072,59,258
1579.78891566265,83,280
1579.81903614458,120,874
1579.84915662651,170,569
1579.87927710843,206,687
1579.90939759036,287,875
1579.93951807229,331,2071
1579.96963855422,470,1314
1579.99975903614,570,1474
1580.02987951807,711,1602
1580.06,863,3687
1580.09012048193,1015,2027
1580.12024096386,1154,2025
1580.15036144578,1295,2143
1580.18048192771,1496,4460
1580.21060240964,1639,2231
1580.24072289157,1899,2344
1580.27084337349,2009,2351
1580.30096385542,2113,4664
1580.33108433735,2290,2363
1580.36120481928,2449,2358
1580.3913253012,2605,2375
1580.42144578313,2712,4879
1580.45156626506,2702,2431
1580.48168674699,2788,2467
1580.51180722892,2924,2376
1580.54192771084,2903,4566
1580.57204819277,2985,2241
1580.6021686747,3108,2213
1580.63228915663,3172,2030
1580.66240963855,3088,3833
1580.69253012048,3126,1690
1580.72265060241,3204,1532
1580.75277108434,3139,1384
1580.78289156627,3037,2293
1580.81301204819,3137,842
1580.84313253012,3082,772
1580.87325301205,3131,695
1580.90337349398,3084,1024
1580.9334939759,3050,395
1580.96361445783,3149,305
1580.99373493976,3289,217
1581.02385542169,3087,342
1581.05397590361,3134,118
1581.08409638554,3079,87
1581.11421686747,3141,84
1581.1443373494,3122,138
1581.17445783133,3152,38
1581.20457831325,3009,37
1581.23469879518,3161,31
1581.26481927711,3151,55
1581.29493975904,3134,21
1581.32506024096,3075,18
1581.35518072289,3186,10
1581.38530120482,3144,22
1581.41542168675,3062,9
1581.44554216867,3172,16
1581.4756626506,3163,15
1581.50578313253,3150,27
1581.53590361446,3103,11
1581.56602409639,3143,17
1581.59614457831,3047,26
1581.62626506024,3117,72
1581.65638554217,3123,60
1581.6865060241,3133,58
1581.71662650602,3115,83
1581.74674698795,3102,271
1581.77686746988,3027,169
1581.80698795181,3087,251
1581.83710843373,3043,282
1581.86722891566,2889,796
1581.89734939759,2911,486
1581.92746987952,2764,666
1581.95759036145,2691,739
1581.98771084337,2572,1886
1582.0178313253,2445,1160
1582.04795180723,2256,1322
1582.07807228916,2063,1511
1582.10819277108,1982,3381
1582.13831325301,1796,1911
1582.16843373494,1725,2016
1582.19855421687,1554,2087
1582.2286746988,1281,4477
1582.25879518072,1175,2170
1582.28891566265,1043,2297
1582.31903614458,910,2246
1582.34915662651,799,4690
1582.37927710843,626,2406
1582.40939759036,500,2354
1582.43951807229,434,2325
1582.46963855422,359,4635
1582.49975903614,296,2288
1582.52987951807,228,2273
1582.56,168,2267
1582.59012048193,137,4272
1582.62024096386,116,2018
1582.65036144578,91,1870
1582.68048192771,82,1744
1582.71060240964,48,3066
1582.74072289157,37,1363
1582.77084337349,35,1209
1582.80096385542,24,1018
1582.83108433735,22,1687
1582.86120481928,16,701
1582.8913253012,11,504
1582.92144578313,18,498
1582.95156626506,19,659
1582.98168674699,16,254
1583.01180722892,26,193
1583.04192771084,45,162
1583.07204819277,53,265
1583.1021686747,67,69
1583.13228915663,99,77
1583.16240963855,140,53
1583.19253012048,166,87
1583.22265060241,220,35
1583.25277108434,298,14
1583.28289156627,359,18
1583.31301204819,463,34
1583.34313253012,607,16
1583.37325301205,707,9
1583.40337349398,863,11
1583.4334939759,1005,23
1583.46361445783,1155,8
1583.49373493976,1345,6
1583.52385542169,1503,11
1583.55397590361,1651,20
1583.58409638554,1754,19
1583.61421686747,1880,30
1583.6443373494,2052,30
1583.67445783133,2164,114
1583.70457831325,2353,84
1583.73469879518,2351,104
1583.76481927711,2429,124
1583.79493975904,2542,372
1583.82506024096,2737,274
1583.85518072289,2788,338
1583.88530120482,2820,364
1583.91542168675,2750,1043
1583.94554216867,2946,647
1583.9756626506,2825,764
1584.00578313253,2882,991
1584.03590361446,2836,2284
1584.06602409639,2950,1313
1584.09614457831,2956,1505
1584.12626506024,2966,1627
1584.15638554217,2972,3563
1584.1865060241,2932,1901
1584.21662650602,2896,2031
1584.24674698795,2768,2084
1584.27686746988,2920,4360
1584.30698795181,2890,2130
1584.33710843373,2908,2156
1584.36722891566,2922,2201
1584.39734939759,2943,4476
1584.42746987952,2880,2229
1584.45759036145,2955,2223
1584.48771084337,2846,2209
1584.5178313253,2907,4390
1584.54795180723,2850,2060
1584.57807228916,2843,2037
1584.60819277108,2952,1964
1584.63831325301,2999,3619
1584.66843373494,2899,1687
1584.69855421687,2942,1477
1584.7286746988,2938,1365
1584.75879518072,2975,2396
1584.78891566265,2850,997
1584.81903614458,2847,854
1584.84915662651,2891,667
1584.87927710843,2878,1105
1584.90939759036,2958,424
1584.93951807229,2913,355
1584.96963855422,2804,319
1584.99975903614,2851,458
1585.02987951807,2816,182
1585.06,2888,115
1585.09012048193,2811,115
1585.12024096386,2890,161
1585.15036144578,2801,62
1585.18048192771,2710,46
1585.21060240964,2708,42
1585.24072289157,2492,58
1585.27084337349,2471,21
1585.30096385542,2354,20
1585.33108433735,2230,20
1585.36120481928,2045,31
1585.3913253012,1910,15
1585.42144578313,1787,6
1585.45156626506,1601,6
1585.48168674699,1458,24
1585.51180722892,1318,9
1585.54192771084,1177,8
1585.57204819277,980,16
1585.6021686747,856,38
1585.63228915663,807,18
1585.66240963855,629,30
1585.69253012048,552,28
1585.72265060241,430,128
1585.75277108434,385,101
1585.78289156627,305,133
1585.81301204819,244,179
1585.84313253012,205,517
1585.87325301205,141,345
1585.90337349398,113,423
1585.9334939759,102,509
1585.96361445783,61,1247
1585.99373493976,63,747
1586.02385542169,42,834
1586.05397590361,46,880
1586.08409638554,26,1981
1586.11421686747,17,998
1586.1443373494,21,961
1586.17445783133,14,929
1586.20457831325,16,1687
1586.23469879518,17,717
1586.26481927711,19,746
1586.29493975904,24,570
1586.32506024096,40,892
1586.35518072289,51,343
1586.38530120482,74,263
1586.41542168675,78,215
1586.44554216867,153,325
1586.4756626506,178,107
1586.50578313253,235,90
1586.53590361446,318,76
1586.56602409639,403,91
1586.59614457831,517,33
1586.62626506024,612,36
1586.65638554217,736,15
1586.6865060241,919,38
1586.71662650602,989,13
1586.74674698795,1140,9
1586.77686746988,1250,22
1586.80698795181,1386,14
1586.83710843373,1425,10
1586.86722891566,1530,8
1586.89734939759,1551,8
1586.92746987952,1614,26
1586.95759036145,1566,16
1586.98771084337,1611,16
1587.0178313253,1548,20
1587.04795180723,1428,71
1587.07807228916,1458,54
1587.10819277108,1352,64
1587.13831325301,1172,96
1587.16843373494,1155,231
1587.19855421687,986,222
1587.2286746988,903,271
1587.25879518072,833,304
1587.28891566265,716,822
1587.31903614458,593,519
1587.34915662651,542,665
1587.37927710843,415,732
1587.40939759036,335,1691
1587.43951807229,291,997
1587.46963855422,231,995
1587.49975903614,174,1044
1587.52987951807,125,1967
1587.56,114,915
1587.59012048193,84,904
1587.62024096386,56,750
1587.65036144578,58,1362
1587.68048192771,44,560
1587.71060240964,26,468
1587.74072289157,20,415
1587.77084337349,29,625
1587.80096385542,25,222
1587.83108433735,19,186
1587.86120481928,22,157
1587.8913253012,24,200
1587.92144578313,22,77
1587.95156626506,34,56
1587.98168674699,39,53
1588.01180722892,47,73
1588.04192771084,80,36
1588.07204819277,101,19
1588.1021686747,175,21
1588.13228915663,168,37
1588.16240963855,234,13
1588.19253012048,306,12
1588.22265060241,419,15
1588.25277108434,581,25
1588.28289156627,631,13
1588.31301204819,793,5
1588.34313253012,889,16
1588.37325301205,1026,31
1588.40337349398,1211,14
1588.4334939759,1217,28
1588.46361445783,1451,29
1588.49373493976,1464,96
1588.52385542169,1526,58
1588.55397590361,1596,70
1588.58409638554,1546,96
1588.61421686747,1595,365
1588.6443373494,1523,209
1588.67445783133,1499,287
1588.70457831325,1311,381
1588.73469879518,1323,972
1588.76481927711,1215,644
1588.79493975904,1193,786
1588.82506024096,1064,947
1588.85518072289,996,2100
1588.88530120482,817,1253
1588.91542168675,766,1337
1588.94554216867,658,1467
1588.9756626506,525,3175
1589.00578313253,469,1577
1589.03590361446,394,1645
1589.06602409639,297,1595
1589.09614457831,241,3163
1589.12626506024,198,1610
1589.15638554217,149,1538
1589.1865060241,102,1599
1589.21662650602,93,2925
1589.24674698795,64,1460
1589.27686746988,60,1366
1589.30698795181,42,1330
1589.33710843373,38,2673
1589.36722891566,35,1210
1589.39734939759,16,1158
1589.42746987952,23,1109
1589.45759036145,19,2081
1589.48771084337,18,947
1589.5178313253,12,854
1589.54795180723,18,772
1589.57807228916,12,1329
1589.60819277108,12,583
1589.63831325301,8,507
1589.66843373494,11,447
1589.69855421687,16,652
1589.7286746988,23,270
1589.75879518072,35,228
1589.78891566265,38,172
1589.81903614458,60,257
1589.84915662651,68,101
1589.87927710843,88,63
1589.90939759036,100,78
1589.93951807229,135,95
1589.96963855422,133,26
1589.99975903614,149,36
1590.02987951807,188,25
1590.06,200,35
1590.09012048193,217,19
1590.12024096386,226,13
1590.15036144578,238,8
1590.18048192771,293,20
1590.21060240964,227,13
1590.24072289157,207,6
1590.27084337349,230,9
1590.30096385542,218,16
1590.33108433735,232,5
1590.36120481928,195,6
1590.3913253012,204,7
1590.42144578313,154,17
1590.45156626506,180,8
1590.48168674699,149,7
1590.51180722892,134,5
1590.54192771084,106,20
1590.57204819277,101,18
1590.6021686747,93,21
1590.63228915663,68,19
1590.66240963855,55,64
1590.69253012048,31,25
1590.72265060241,34,30
1590.75277108434,41,46
1590.78289156627,32,82
1590.81301204819,30,36
1590.84313253012,20,56
1590.87325301205,18,52
1590.90337349398,15,114
1590.9334939759,14,50
1590.96361445783,10,69
1590.99373493976,7,56
1591.02385542169,6,91
1591.05397590361,13,44
1591.08409638554,10,48
1591.11421686747,4,31
1591.1443373494,2,62
1591.17445783133,7,23
1591.20457831325,8,24
1591.23469879518,11,21
1591.26481927711,6,45
1591.29493975904,4,16
1591.32506024096,12,11
1591.35518072289,9,14
1591.38530120482,10,22
1591.41542168675,10,6
1591.44554216867,9,9
1591.4756626506,8,9
1591.50578313253,7,16
1591.53590361446,7,6
1591.56602409639,4,7
1591.59614457831,9,4
1591.62626506024,7,8
1591.65638554217,6,6
1591.6865060241,8,3
1591.71662650602,3,4
1591.74674698795,6,7
1591.77686746988,2,7
1591.80698795181,7,8
1591.83710843373,4,6
1591.86722891566,10,10
1591.89734939759,8,3
1591.92746987952,8,3
1591.95759036145,8,5
1591.98771084337,6,7
1592.0178313253,5,5
1592.04795180723,6,2
1592.07807228916,6,14
1592.10819277108,7,12
1592.13831325301,7,8
1592.16843373494,6,4
1592.19855421687,6,7
1592.2286746988,6,11
1592.25879518072,1,8
1592.28891566265,10,6
1592.31903614458,4,2
1592.34915662651,5,10
1592.37927710843,7,13
1592.40939759036,5,3
1592.43951807229,8,4
1592.46963855422,4,9
1592.49975903614,2,3
1592.52987951807,7,5
1592.56,9,4
1592.59012048193,2,14
1592.62024096386,6,4
1592.65036144578,7,5
1592.68048192771,3,10
1592.71060240964,6,10
1592.74072289157,9,6
1592.77084337349,12,1
1592.80096385542,6,4
1592.83108433735,2,9
1592.86120481928,6,4
1592.8913253012,4,2
1592.92144578313,4,6
1592.95156626506,5,10
1592.98168674699,9,4
1593.01180722892,7,8
1593.04192771084,11,3
1593.07204819277,7,7
1593.1021686747,7,3
1593.13228915663,5,5
1593.16240963855,3,3
1593.19253012048,5,11
1593.22265060241,5,8
1593.25277108434,10,9
1593.28289156627,6,5
1593.31301204819,8,11
1593.34313253012,7,7
1593.37325301205,5,3
1593.40337349398,7,4
1593.4334939759,6,13
1593.46361445783,7,6
1593.49373493976,7,4
1593.52385542169,7,5
1593.55397590361,9,12
1593.58409638554,4,5
1593.61421686747,6,7
1593.6443373494,7,1
1593.67445783133,1,7
1593.70457831325,6,5
1593.73469879518,9,1
1593.76481927711,5,5
1593.79493975904,9,7
1593.82506024096,10,6
1593.85518072289,10,5
1593.88530120482,8,3
1593.91542168675,5,10
1593.94554216867,2,5
1593.9756626506,2,3
1594.00578313253,8,4
1594.03590361446,6,13
1594.06602409639,9,2
1594.09614457831,9,3
1594.12626506024,3,7
1594.15638554217,4,6
1594.1865060241,10,4
1594.21662650602,10,3
1594.24674698795,6,11
1594.27686746988,1,9
1594.30698795181,3,3
1594.33710843373,4,5
1594.36722891566,6,5
1594.39734939759,5,7
1594.42746987952,6,2
1594.45759036145,4,4
1594.48771084337,9,5
1594.5178313253,7,16
1594.54795180723,12,7
1594.57807228916,4,3
1594.60819277108,6,8
1594.63831325301,5,11
1594.66843373494,6,2
1594.69855421687,4,6
1594.7286746988,5,8
1594.75879518072,5,10
1594.78891566265,5,7
1594.81903614458,3,2
1594.84915662651,7,9
1594.87927710843,5,10
1594.90939759036,6,10
1594.93951807229,3,3
1594.96963855422,4,4
1594.99975903614,7,12
1595.02987951807,6,4
1595.06,4,3
1595.09012048193,8,3
1595.12024096386,4,6
1595.15036144578,8,8
1595.18048192771,7,8
1595.21060240964,6,4
1595.24072289157,8,8
1595.27084337349,6,1
1595.30096385542,5,2
1595.33108433735,5,5
1595.36120481928,6,11
1595.3913253012,8,4
1595.42144578313,11,5
1595.45156626506,6,5
1595.48168674699,4,10
1595.51180722892,6,11
1595.54192771084,10,7
1595.57204819277,7,8
1595.6021686747,5,16
1595.63228915663,6,4
1595.66240963855,3,7
1595.69253012048,8,10
1595.72265060241,5,15
1595.75277108434,6,3
1595.78289156627,6,8
1595.81301204819,8,2
1595.84313253012,3,6
1595.87325301205,7,7
1595.90337349398,2,3
1595.9334939759,7,1
1595.96361445783,7,9
1595.99373493976,4,4
1596.02385542169,6,9
1596.05397590361,3,1
1596.08409638554,7,3
1596.11421686747,11,8
1596.1443373494,8,8
1596.17445783133,4,3
1596.20457831325,5,10
1596.23469879518,3,7
1596.26481927711,8,5
1596.29493975904,4,5
1596.32506024096,4,15
1596.35518072289,7,5
1596.38530120482,6,3
1596.41542168675,4,5
1596.44554216867,6,16
1596.4756626506,3,9
1596.50578313253,3,4
1596.53590361446,10,7
1596.56602409639,8,8
1596.59614457831,5,1
1596.62626506024,7,4
1596.65638554217,6,5
1596.6865060241,5,17
1596.71662650602,10,3
1596.74674698795,2,2
1596.77686746988,3,8
1596.80698795181,5,10
1596.83710843373,10,5
1596.86722891566,6,3
1596.89734939759,8,6
1596.92746987952,10,10
1596.95759036145,5,8
1596.98771084337,11,3
1597.0178313253,7,5
1597.04795180723,5,7
1597.07807228916,7,4
1597.10819277108,9,5
1597.13831325301,9,5
1597.16843373494,7,14
1597.19855421687,2,8
1597.2286746988,2,3
1597.25879518072,5,3
1597.28891566265,4,8
1597.31903614458,8,5
1597.34915662651,5,5
1597.37927710843,8,7
1597.40939759036,5,10
1597.43951807229,7,3
1597.46963855422,4,7
1597.49975903614,6,7
1597.52987951807,8,20
1597.56,5,7
1597.59012048193,7,2
1597.62024096386,8,5
1597.65036144578,4,19
1597.68048192771,4,5
1597.71060240964,8,4
1597.74072289157,9,6
1597.77084337349,6,12
1597.80096385542,7,7
1597.83108433735,6,4
1597.86120481928,11,4
1597.8913253012,9,13
1597.92144578313,4,5
1597.95156626506,9,8
1597.98168674699,13,7
1598.01180722892,6,12
1598.04192771084,7,5
1598.07204819277,7,3
1598.1021686747,11,8
1598.13228915663,3,11
1598.16240963855,3,7
1598.19253012048,3,3
1598.22265060241,12,3
1598.25277108434,6,7
1598.28289156627,6,11
1598.31301204819,6,2
1598.34313253012,5,2
1598.37325301205,4,13
1598.40337349398,6,2
1598.4334939759,6,7
1598.46361445783,8,9
1598.49373493976,6,9
1598.52385542169,6,2
1598.55397590361,7,5
1598.58409638554,7,4
1598.61421686747,5,14
1598.6443373494,5,5
1598.67445783133,3,4
1598.70457831325,7,2
1598.73469879518,4,16
1598.76481927711,6,2
1598.79493975904,4,5
1598.82506024096,5,2
1598.85518072289,6,10
1598.88530120482,5,7
1598.91542168675,7,4
1598.94554216867,6,3
1598.9756626506,6,6
1599.00578313253,3,3
1599.03590361446,12,10
1599.06602409639,5,7
1599.09614457831,2,12
1599.12626506024,6,6
1599.15638554217,1,8
1599.1865060241,5,2
1599.21662650602,7,9
1599.24674698795,6,5
1599.27686746988,8,2
1599.30698795181,8,7
1599.33710843373,7,12
1599.36722891566,2,3
1599.39734939759,5,3
1599.42746987952,3,7
1599.45759036145,3,6
1599.48771084337,7,5
1599.5178313253,6,2
1599.54795180723,9,3
1599.57807228916,3,6
1599.60819277108,5,2
1599.63831325301,8,5
1599.66843373494,5,3
1599.69855421687,4,8
1599.7286746988,2,3
1599.75879518072,7,9
1599.78891566265,2,3
1599.81903614458,7,5
1599.84915662651,7,7
1599.87927710843,5,8
1599.90939759036,12,5
1599.93951807229,8,11
1599.96963855422,7,4
1599.99975903614,3,4
1600.02987951807,4,11
1600.06,4,11
1600.09012048193,6,11
1600.12024096386,7,7
1600.15036144578,2,2
1600.18048192771,8,12
1600.21060240964,4,4
1600.24072289157,2,5
1600.27084337349,3,5
1600.30096385542,9,6
1600.33108433735,6,5
1600.36120481928,9,13
1600.3913253012,3,7
1600.42144578313,6,9
1600.45156626506,5,8
1600.48168674699,9,6
1600.51180722892,2,8
1600.54192771084,6,10
1600.57204819277,3,8
1600.6021686747,2,2
1600.63228915663,2,11
1600.66240963855,3,7
1600.69253012048,6,3
1600.72265060241,5,4
1600.75277108434,6,4
1600.78289156627,4,10
1600.81301204819,8,9
1600.84313253012,6,4
1600.87325301205,2,5
1600.90337349398,6,8
1600.9334939759,4,9
1600.96361445783,3,6
1600.99373493976,6,6
1601.02385542169,5,14
1601.05397590361,4,7
1601.08409638554,7,5
1601.11421686747,9,2
1601.1443373494,6,8
1601.17445783133,5,3
1601.20457831325,3,3
1601.23469879518,11,6
1601.26481927711,8,15
1601.29493975904,6,8
1601.32506024096,4,1
1601.35518072289,4,5
1601.38530120482,5,11
1601.41542168675,4,4
1601.44554216867,6,4
1601.4756626506,8,5
1601.50578313253,4,13
1601.53590361446,8,3
1601.56602409639,8,5
1601.59614457831,8,8
1601.62626506024,3,12
1601.65638554217,10,4
1601.6865060241,6,4
1601.71662650602,8,5
1601.74674698795,7,10
1601.77686746988,3,3
1601.80698795181,4,8
1601.83710843373,7,7
1601.86722891566,3,10
1601.89734939759,1,6
1601.92746987952,2,4
1601.95759036145,6,4
1601.98771084337,4,11
1602.0178313253,2,1
1602.04795180723,2,4
1602.07807228916,2,5
1602.10819277108,4,5
1602.13831325301,10,8
1602.16843373494,9,7
1602.19855421687,10,3
1602.2286746988,2,17
1602.25879518072,7,6
1602.28891566265,4,1
1602.31903614458,10,4
1602.34915662651,4,7
1602.37927710843,6,2
1602.40939759036,8,4
1602.43951807229,4,7
1602.46963855422,9,10
1602.49975903614,3,3
1602.52987951807,5,4
1602.56,2,5
1602.59012048193,5,6
1602.62024096386,4,8
1602.65036144578,10,9
1602.68048192771,3,6
1602.71060240964,1,8
1602.74072289157,7,4
1602.77084337349,3,3
1602.80096385542,6,4
1602.83108433735,5,12
1602.86120481928,6,4
1602.8913253012,6,0
1602.92144578313,6,8
1602.95156626506,7,9
1602.98168674699,7,3
1603.01180722892,5,6
1603.04192771084,12,3
1603.07204819277,5,7
1603.1021686747,4,2
1603.13228915663,4,10
1603.16240963855,5,5
1603.19253012048,7,8
1603.22265060241,5,5
1603.25277108434,6,6
1603.28289156627,6,4
1603.31301204819,8,15
1603.34313253012,1,2
1603.37325301205,6,3
1603.40337349398,2,6
1603.4334939759,7,10
1603.46361445783,8,4
1603.49373493976,8,1
1603.52385542169,3,6
1603.55397590361,3,3
1603.58409638554,12,6
1603.61421686747,5,2
1603.6443373494,7,5
1603.67445783133,7,8
1603.70457831325,1,5
1603.73469879518,5,7
1603.76481927711,7,0
1603.79493975904,2,10
1603.82506024096,3,7
1603.85518072289,8,6
1603.88530120482,9,5
1603.91542168675,7,12
1603.94554216867,6,4
1603.9756626506,7,6
1604.00578313253,5,4
1604.03590361446,9,9
1604.06602409639,6,5
1604.09614457831,7,4
1604.12626506024,6,7
1604.15638554217,4,12
1604.1865060241,3,4
1604.21662650602,5,7
1604.24674698795,5,3
1604.27686746988,4,9
1604.30698795181,3,6
1604.33710843373,8,3
1604.36722891566,4,7
1604.39734939759,4,14
1604.42746987952,3,4
1604.45759036145,4,4
1604.48771084337,8,4
1604.5178313253,3,11
1604.54795180723,2,6
1604.57807228916,2,9
1604.60819277108,7,6
1604.63831325301,2,12
1604.66843373494,7,2
1604.69855421687,10,3
1604.7286746988,2,9
1604.75879518072,6,17
1604.78891566265,5,3
1604.81903614458,5,7
1604.84915662651,6,6
1604.87927710843,7,7
1604.90939759036,6,4
1604.93951807229,5,6
1604.96963855422,8,6
1604.99975903614,3,9
1605.02987951807,2,9
1605.06,3,7
1605.09012048193,4,4
1605.12024096386,8,11
1605.15036144578,9,10
1605.18048192771,6,4
1605.21060240964,4,4
1605.24072289157,3,14
1605.27084337349,9,4
1605.30096385542,4,2
1605.33108433735,7,10
1605.36120481928,2,13
1605.3913253012,4,6
1605.42144578313,8,5
1605.45156626506,4,6
1605.48168674699,5,15
1605.51180722892,3,2
1605.54192771084,2,4
1605.57204819277,6,3
1605.6021686747,4,13
1605.63228915663,7,2
1605.66240963855,4,8
1605.69253012048,6,6
1605.72265060241,6,5
1605.75277108434,2,6
1605.78289156627,6,2
1605.81301204819,5,7
1605.84313253012,8,14
1605.87325301205,6,6
1605.90337349398,12,6
1605.9334939759,4,1
1605.96361445783,5,13
1605.99373493976,5,5
1606.02385542169,5,8
1606.05397590361,5,10
1606.08409638554,5,12
1606.11421686747,6,8
1606.1443373494,7,6
1606.17445783133,4,4
1606.20457831325,8,17
1606.23469879518,5,3
1606.26481927711,8,3
1606.29493975904,2,6
1606.32506024096,1,16
1606.35518072289,5,3
1606.38530120482,5,4
1606.41542168675,3,9
1606.44554216867,3,9
1606.4756626506,1,8
1606.50578313253,7,6
1606.53590361446,1,4
1606.56602409639,6,9
1606.59614457831,6,2
1606.62626506024,3,2
1606.65638554217,7,3
1606.6865060241,2,8
1606.71662650602,6,4
1606.74674698795,3,4
1606.77686746988,11,6
1606.80698795181,4,13
1606.83710843373,4,6
1606.86722891566,6,7
1606.89734939759,4,8
1606.92746987952,2,18
1606.95759036145,3,3
1606.98771084337,9,6
1607.0178313253,6,6
1607.04795180723,12,6
1607.07807228916,6,2
1607.10819277108,4,7
1607.13831325301,5,3
1607.16843373494,1,10
1607.19855421687,8,4
1607.2286746988,5,6
1607.25879518072,7,5
1607.28891566265,7,15
1607.31903614458,8,5
1607.34915662651,3,9
1607.37927710843,2,5
1607.40939759036,8,8
1607.43951807229,4,4
1607.46963855422,4,5
1607.49975903614,6,5
1607.52987951807,4,8
1607.56,4,4
1607.59012048193,5,3
1607.62024096386,6,4
1607.65036144578,5,6
1607.68048192771,5,6
1607.71060240964,4,6
1607.74072289157,6,12
1607.77084337349,1,7
1607.80096385542,6,1
1607.83108433735,5,4
1607.86120481928,10,4
1607.8913253012,7,15
1607.92144578313,6,6
1607.95156626506,6,6
1607.98168674699,8,6
1608.01180722892,8,13
1608.04192771084,6,3
1608.07204819277,2,7
1608.1021686747,6,5
1608.13228915663,5,14
1608.16240963855,6,8
1608.19253012048,4,6
1608.22265060241,10,7
1608.25277108434,1,11
1608.28289156627,3,8
1608.31301204819,6,6
1608.34313253012,8,10
1608.37325301205,5,11
1608.40337349398,9,8
1608.4334939759,4,4
1608.46361445783,3,8
1608.49373493976,3,13
1608.52385542169,4,5
1608.55397590361,3,4
1608.58409638554,4,9
1608.61421686747,6,12
1608.6443373494,5,4
1608.67445783133,4,4
1608.70457831325,8,2
1608.73469879518,13,6
1608.76481927711,5,1
1608.79493975904,4,7
1608.82506024096,6,1
1608.85518072289,5,13
1608.88530120482,5,5
1608.91542168675,6,3
1608.94554216867,6,4
1608.9756626506,6,9
1609.00578313253,4,5
1609.03590361446,7,9
1609.06602409639,3,1
1609.09614457831,6,16
1609.12626506024,3,2
1609.15638554217,8,3
1609.1865060241,5,2
1609.21662650602,6,10
1609.24674698795,6,6
1609.27686746988,10,4
1609.30698795181,4,2
1609.33710843373,3,10
1609.36722891566,5,6
1609.39734939759,7,5
1609.42746987952,4,5
1609.45759036145,8,6
1609.48771084337,5,3
1609.5178313253,7,1
1609.54795180723,8,5
1609.57807228916,8,8
1609.60819277108,3,9
1609.63831325301,13,2
1609.66843373494,6,5
1609.69855421687,4,13
1609.7286746988,7,0
1609.75879518072,6,5
1609.78891566265,2,2
1609.81903614458,8,12
1609.84915662651,9,3
1609.87927710843,6,6
1609.90939759036,4,6
1609.93951807229,5,6
1609.96963855422,9,3
1609.99975903614,6,3
1610.02987951807,5,13
1610.06,5,6
1610.09012048193,6,6
1610.12024096386,7,5
1610.15036144578,4,8
1610.18048192771,6,10
1610.21060240964,5,4
1610.24072289157,4,5
1610.27084337349,2,4
1610.30096385542,0,0
